selector,english_word,engmeaning,nepali_word,nepmeaning,image
flow,flow,,बग्‍नु,,
source,source,,स्रोत,,
industries,industries,,उद्योग,कारखाना,
Field,field,,,काम भइरहेको ठाउँ,
chamber,chamber,,कक्ष,,
Husk,husk,,बोक्रा,भुस,
hay,hay,,धान,,
plug,plug,switch,स्वीच,,
Hydropower plant,hydropower plant,,जलविद्युत गृह,बगेको पानीबाट बिजुली उत्पादन हुने ठाउँ,
basic,basic,,मुख्य,,
chemicals,chemical,,रसायन,,
rays,ray,,किरण,,
remote,remote,,टाढा,,
rural,rural,,ग्रामीण,,
pollute,pollute,,,प्रदुषण गर्नु,
maintenance,maintenance,,मर्मत,,
exposed,expose,,,खुला राख्नु,
mechanical energy ,mechanical energy ,,,बाहिरबाट बल लगाउँदा निस्कने उर्जा,
electrical energy,electrical energy,,,बिजुलीबाट पाइने उर्जा,
steam,steam,,बाफ,,
grinding,grind,,पिस्‍नु,,
coil,coil,,,बेरिएर बसेको तार,
glow,glow,,बल्नु,,
travels,travel,,चल्‍नु, बग्‍नु,
stalls,stall,,कक्ष,,
glow,glow,,बल्‍नु,,
transport,transport,,लानु,बोकेर हिँड्‍नु,
converts,convert,,बदल्‍नु,एउटा रूपबाट अर्कोमा लानु,
portable,portable,,,सजिलै एक ठाँउबाट अर्को ठाँउ लैजान सकिने,
remote,remote,,,टाढाको ठाँउ,
rural,rural,,ग्रामीण,विकास नभएको टाढाको ठाँउ,
maintenance,maintenance,,मर्मत,राम्रो अवस्‍थामा राख्‍नको लागि गर्नैपर्ने कार्य,
setting up,setting up,,,तयार हुँदै,
exposed,expose,,खुला राक्नु,,
operate,operate,,सञ्‍चालन,,
generate,generate,,उत्‍पादन,,
water mills,water mill,,पानी घट्ट,,
grinding stone,grinding stone,,जाँतो,,
rotates,rotate,,घुमाउनु,,
coil,coil,,,धेरै लामो बेरिएको तार ,
