<?xml version="1.0" encoding="utf-8"?>
<!-- Generator: Adobe Illustrator 15.0.0, SVG Export Plug-In . SVG Version: 6.00 Build 0)  -->
<!DOCTYPE svg PUBLIC "-//W3C//DTD SVG 1.1//EN" "http://www.w3.org/Graphics/SVG/1.1/DTD/svg11.dtd">
<svg version="1.1" id="Layer_1" xmlns="http://www.w3.org/2000/svg" xmlns:xlink="http://www.w3.org/1999/xlink" x="0px" y="0px"
	 width="1442.095px" height="78.751px" viewBox="0 0 1442.095 78.751" enable-background="new 0 0 1442.095 78.751"
	 xml:space="preserve">
<path id="path02"  display="none" fill="none" stroke="#231F20" stroke-width="3.5745" stroke-miterlimit="10" d="M0.496,1.786
	c0,0,49.436,1.737,87.208,6.084c37.771,4.347,109.874,52.409,206.187,37.858c93.968-14.197,121.009-10.141,166.302-6.084
	C505.485,43.7,603.509,88.317,690.04,62.628c86.531-25.688,92.438-44.133,131.825-41.237c45.969,3.38,70.306,21.633,162.921,30.421
	c92.615,8.789,117.238,4.257,154.809,4.732c53.406,0.676,124.389,30.42,261.622,16.9l37.856-4.732"/>
<path id="path01" fill="none" stroke="#231F20" stroke-width="3.5745" stroke-miterlimit="10" d="M0.496,1.786
	c0,0,66.762,19.267,102.063,33.387c37.956,15.182,92.704,31.197,187.88,6.326c91.946-24.026,124.459-5.912,169.752-1.855
	C505.485,43.7,590.608,19.737,680.75,24.42c97.419,5.061,105.405,29.169,143.599,39.22c48.076,12.652,121.458,0.633,216.347-6.325
	c92.782-6.804,83.524-2.612,120.826,1.897c27.369,3.309,159.397-16.729,239.753-26.569c30.997-3.795,39.221,12.652,39.221,12.652"/>
</svg>
