selector,english_word,engmeaning,nepali_word,nepmeaning,image
Permission,Permission,,अनुमति,,
Obligation,Obligation,,,कुनै कुरा काम गर्न बाध्य बनाउनु,
borrow,borrow,,,सापट लिनु,
casual,casual,,अनौपचारिक,,
formal,formal,,औपचारिक,,
deny,deny,,,अस्वीकार गर्नु,
mild,mild,,हल्का,,
librarian,librarian,,,पुस्तकालय रेखदेख गर्ने व्यक्ती ,
unattended,unattended,,,"वास्ता नगरिएको, ध्यान नदिएको",
trip,trip,,,छोटो भ्रमण वा अवलोकन,
assigment,assigment,,,जिम्मा लगाएको काम,
mess,mess,,लथालिङ्ग,,
zookeeper’s,zookeeper,,,चिडियाखानाको रेखदेख गर्ने व्यक्ती ,
trash,trash,,,"फोहोर, मैला",
bother,bother,,,दु:ख दिनु,
garbage,garbage,,,"फोहोर, मैला",
flash,flash,,,फोटो खिच्दा प्रयोग गरिने  तेजिलो प्रकाश,
