selector,english_word,engmeaning,nepali_word,nepmeaning,image
Purr,purr,,बिरालो घुर्नु,,
Whiskers,whiskers,,जनावरको जुँगा,,
Feeds on,feed on,,खानु,,
Goods,goods,,सामानहरु,,
Guards,guard,,सुरक्षा गर्नु,,
Loyal,loyal,,वफादार,,
Masters,master,,मालिक,,
huge,huge,,"ठुलो, विशाल",,
chase,chase,,पीछा गर्नु,,
trunk,trunk,,हात्तीको सूँड,,
