selector,english_word,engmeaning,nepali_word,nepmeaning,image
Remember,remember,,,याद गर,
pay,pay,,तिर्नु,,
stationery,stationery,"a shop for buying education materials (like books, pens, pencils, etc)",,"शैक्षिक सामाग्री (जस्‍तै किताब, कलम, कापी) पाइने पसल",
total,total,,जम्‍मा,,
revise,revise,to go through again,,फेरि दोहोर्‍याएर हेर्नु,
method,method,,प्रक्रिया,कुनै काम गर्ने तरिका,
items,item,,सामान,,
exercise book,exercise book,,कापी,,
