<?xml version="1.0" encoding="utf-8"?>
<!-- Generator: Adobe Illustrator 15.0.0, SVG Export Plug-In . SVG Version: 6.00 Build 0)  -->
<!DOCTYPE svg PUBLIC "-//W3C//DTD SVG 1.1//EN" "http://www.w3.org/Graphics/SVG/1.1/DTD/svg11.dtd">
<svg version="1.1" id="Layer_1" xmlns="http://www.w3.org/2000/svg" xmlns:xlink="http://www.w3.org/1999/xlink" x="0px" y="0px"
	 width="783.18px" height="580.554px" viewBox="0 0 783.18 580.554" enable-background="new 0 0 783.18 580.554"
	 xml:space="preserve">
	<animate id="zoomin" attributeName="viewBox" from="0 0 783.18 580.554" to="150 150 283 380" begin="pollenreached.end" dur="1s" fill="freeze"/>

	<animate id="zoominrevert" attributeName="viewBox" from="150 150 283 380" to="0 0 783.18 580.554" begin="zoomin.end+5s" dur="1s" fill="freeze"/>
 <!-- outer part of flower -->
<g>
		<path fill="#B7258F" stroke="#C63493" stroke-width="1.3523" stroke-miterlimit="10" d="M452.575,220.899
			c0,0,5.215-1.096,8.785-9.881c3.568-8.784,9.608-13.998,9.059-21.957c-0.55-7.963-1.1-9.334,3.568-20.313
			c4.667-10.979,10.432-15.921,4.395-32.39c-6.041-16.469,0-15.646-3.298-23.057c-3.294-7.412-9.605-9.606-12.353-6.588
			c-2.747,3.018-16.744,23.057-18.393,35.133c-1.646,12.08-6.861,40.627-5.215,52.703c1.647,12.078,9.333,32.391,9.333,32.391
			L452.575,220.899z"/>
		<path fill="#E188B9" stroke="#C63493" stroke-width="1.3523" stroke-miterlimit="10" d="M400.718,373.36
			c0,0,27.725-26.709,33.809-49.021c6.084-22.314,25.693-59.504,22.99-77.76c-2.705-18.259-10.144-43.951-8.452-56.122
			c1.69-12.172,5.069-18.597,1.69-32.456c-3.382-13.859-2.705-15.213,2.702-25.357c5.411-10.139,5.749-4.394,6.085-8.112
			c0.342-3.72,9.47-18.933,4.734-18.933s-18.594,15.889-18.594,15.889s-5.411,5.749-9.128,7.439
			c-3.721,1.688-9.806,5.407-16.906,12.846c-7.099,7.439-21.637-5.746-30.089-4.731c-8.451,1.015-22.313,9.804-26.033,8.451
			c-3.717-1.351-16.227-9.806-21.299-9.466c-5.07,0.338-18.934,12.509-22.313,11.833c-3.381-0.677-9.806-5.07-16.566-11.157
			c-6.76-6.087-9.127-5.746-13.521-4.734c-4.396,1.016-12.171,12.848-18.258,29.078c-6.087,16.227-11.157,40.23-3.382,74.377
			c7.775,34.145,72.921,183.662,92.531,201.244C380.329,454.245,400.718,373.36,400.718,373.36z"/>
		<path fill="none" stroke="#C63493" stroke-width="1.3523" stroke-miterlimit="10" d="M377.636,140.662
			c-6.075,14.947,3.824,35.347,6.133,50.263c3.798,24.537,6.432,50.486,7.324,75.295c0.748,20.801,0.002,41.766,0.002,62.59
			c0,8.973-1.092,17.994-3.613,26.146c-2.525,8.186-18.471,70.355-22.911,76.809"/>
		<path fill="none" stroke="#C63493" stroke-width="1.3523" stroke-miterlimit="10" d="M387.425,351.753
			c-5.983-1.168-13.801-13.789-17.539-18.359c-5.935-7.248-9.977-16.076-14.145-24.369c-5.717-11.361-14.806-22.137-22.79-31.936
			c-5.639-6.918-9.303-13.947-15.892-20.156c-5.274-4.975-12.639-8.666-17.131-14.09"/>
		<path fill="none" stroke="#C63493" stroke-width="1.3523" stroke-miterlimit="10" d="M292.587,156.572
			c5.074-0.587,18.658,21.499,22.258,26.164c7.468,9.685,14.584,19.028,23.117,27.815c6.688,6.893,17.277,11.535,22.436,19.734
			c2.517,4.006,3.343,9.273,4.836,13.755c2.559,7.683,6.859,14.138,10.124,21.472c2.661,5.98,6.795,15.406,11.455,20.16"/>
		<path fill="none" stroke="#C63493" stroke-width="1.3523" stroke-miterlimit="10" d="M391.095,259.974
			c-3.233-13.072,0.625-28.977,1.238-42.366c0.272-6.001,0.776-13.082-0.259-18.95c-0.935-5.298-3.218-9.854-2.215-15.507
			c1.317-7.427,7.182-15.22,12.962-19.88c5.459-4.398,11.659-10.707,17.642-14.653"/>
		<path fill="none" stroke="#C63493" stroke-width="1.3523" stroke-miterlimit="10" d="M394.155,287.509
			c-1.475-9.756,8.723-15.85,12.61-23.902c3.216-6.66,5.023-14.85,7.489-21.928c3.762-10.791,2.267-22.527,6.228-33.486
			c3.237-8.963,7.733-16.879,11.47-25.434c3.064-7.022,3.991-15.291,6.869-22.517"/>
		<path fill="none" stroke="#C63493" stroke-width="1.3523" stroke-miterlimit="10" d="M391.708,317.491
			c5.188,1.031,16.15-24.816,19.488-29.012c5.822-7.314,9.724-14.006,13.399-22.521c5.392-12.49,14.759-19.313,23.4-29.232"/>
		<g>
			<path fill="#B7258F" stroke="#C63493" stroke-width="1.3523" stroke-miterlimit="10" d="M65.374,265.366
				c0,0-12.902,0.314-15.734,7.867c-2.834,7.555-5.352,7.867-10.07,9.439c-4.721,1.574-32.415,22.031-36.191,53.502
				c-3.777,31.475,3.776,19.197,3.776,19.197s27.063-25.807,43.744-33.045c16.68-7.236,49.095-22.344,72.384-23.602
				c23.286-1.262,6.607-22.029-9.126-26.438C98.419,267.882,65.374,265.366,65.374,265.366z"/>
			<path fill="#DD75AE" stroke="#C63493" stroke-width="1.3523" stroke-miterlimit="10" d="M360.157,432.925
				c0,0-32.781-100.252-35.633-117.355c0,0-1.898-11.879-12.826-18.057c-10.932-6.176-13.779-21.379-19.482-30.408
				c-5.701-9.026-12.826-24.705-25.182-28.979c-12.354-4.276-18.529,1.427-23.754-5.227c-5.227-6.652-5.227-21.382-11.879-22.806
				c-6.652-1.428-19.954,6.176-28.507,3.799c-8.554-2.373-10.455-17.578-16.63-17.578c-6.176,0-25.655,7.601-45.135,9.025
				c-19.482,1.428-67.944,24.232-82.197,61.291c0,0,2.375-0.949,6.65,1.9c4.275,2.854,19.006,18.529,28.031,17.58
				c9.029-0.949,15.68-3.326,20.432,0.949s3.801,10.93,9.027,18.055c5.227,7.129,5.7,19.008,18.529,22.33
				c12.826,3.326,17.104-3.799,20.43,7.604c3.326,11.404-6.177,19.004,32.309,29.459
				C194.341,364.507,315.021,482.339,360.157,432.925z"/>
			<path fill="none" stroke="#C63493" stroke-width="1.3523" stroke-miterlimit="10" d="M329.157,418.327
				c-6.873-7.768-15.738-13.613-22.438-21.654c-6.099-7.316-11.875-14.938-17.682-22.467c-8.063-10.455-16.878-20.205-24.89-30.686
				c-15.267-19.965-34.313-37.795-53.185-54.438c-14.9-13.137-30.68-22.299-48.371-31.434c-14.353-7.412-29.86-16.176-46.105-17.635
				c-9.579-0.857-19.4-0.762-28.352,2.768c-7.191,2.836-16.483,10.253-23.678,12.846"/>
			<path fill="none" stroke="#C63493" stroke-width="1.3523" stroke-miterlimit="10" d="M292.816,377.757
				c-3.14-9.863,2.16-20.924-0.343-31c-1.521-6.113-4.838-10.975-5.973-17.063c-0.904-4.867-2.832-9.631-4.25-14.531
				c-4.848-16.719-3.056-35.186-3.056-52.939"/>
			<path fill="none" stroke="#C63493" stroke-width="1.3523" stroke-miterlimit="10" d="M224.249,298.854
				c1.586-12.758,2.059-25.584-1.857-37.829c-4.401-13.75-7.687-27.832-12.231-41.538"/>
			<path fill="none" stroke="#C63493" stroke-width="1.3523" stroke-miterlimit="10" d="M166.951,257.997
				c-0.097-12.001-7.157-24.73-13.489-34.46c-4.002-6.153-12.238-11.38-18.914-14.854"/>
			<path fill="none" stroke="#C63493" stroke-width="1.3523" stroke-miterlimit="10" d="M132.199,245.316
				c-2.616,0.267-4.499,2.541-6.931,3.651c-3.547,1.625-8.067,2.146-11.811,3.185c-6.09,1.688-11.701,1.62-18.018,1.62
				c-6.54,0-17.197-1.668-21.01,4.693"/>
			<path fill="none" stroke="#C63493" stroke-width="1.3523" stroke-miterlimit="10" d="M191.374,275.372
				c-7.654,2.949-16.316,7.355-25.367,8.475c-6.694,0.828-13.572,0.451-20.348,0.451c-5.011,0-9.471,0.336-13.98-1.334
				c-2.855-1.059-5.321-3.396-8.403-1.486"/>
			<path fill="none" stroke="#C63493" stroke-width="1.3523" stroke-miterlimit="10" d="M223.777,298.854
				c-12.517,15.791-33.452,13.156-51.958,13.154c-9.508-0.006-14.824-4.176-22.715-8.457"/>
			<path fill="none" stroke="#C63493" stroke-width="1.3523" stroke-miterlimit="10" d="M258.531,334.55
				c-4.078-2.326-11.957,5.781-15.817,7.227c-3.476,1.305-5.783,1.229-9.688,1.229c-7.129,0-14.264-0.037-21.391,0
				c-13.147,0.061-23.448-7.734-35.289-9.865"/>
			<path fill="none" stroke="#C63493" stroke-width="1.3523" stroke-miterlimit="10" d="M291.878,380.106
				c-6.06,2.357-17.861,1.258-24.479,0.307c-8.408-1.205-16.07-3.898-23.321-7.951c-4.767-2.662-8.829-5.855-14.061-7.654
				c-3.844-1.326-8.127-1.434-11.872-3.016"/>
			<path fill="none" stroke="#C63493" stroke-width="1.3523" stroke-miterlimit="10" d="M258.063,333.14
				c0.745-1.441-1.61-8.668-2.116-11.246c-0.906-4.602-2.018-8.252-2.109-13.047c-0.11-5.727-0.94-11.332-0.94-17.234
				c0-9.205-6.769-28.141,0.47-35.963"/>
		</g>
		<g>
			<path fill="#B7258F" stroke="#C63493" stroke-width="1.3523" stroke-miterlimit="10" d="M775.964,234.485
				c0,0,1.812,7.695-10.41,23.538c-12.225,15.847-38.935,11.319-48.441,11.319c-9.505,0-6.791-1.359-24.899,4.979
				c-18.104,6.338-19.466-6.789-39.385-4.074c-19.919,2.719,2.717-21.73,19.466-25.352c16.752-3.622,57.493-6.79,59.308-6.79
				c1.813,0,38.479-2.718,38.479-2.718L775.964,234.485z"/>
			<path fill="#B7258F" stroke="#C63493" stroke-width="1.3523" stroke-miterlimit="10" d="M630.281,282.866l3.147,8.627
				c0,0-15.771-2.316-24.11,10.98c-8.339,13.297-10.594,13.973-11.271,12.846s-4.96-25.24,15.554-29.748
				C634.111,281.063,630.281,282.866,630.281,282.866z"/>
			<path fill="#B7258F" stroke="#C63493" stroke-width="1.3523" stroke-miterlimit="10" d="M588.357,332.226
				c0,0-4.729,12.848-13.974,17.131c-9.24,4.281-16.229,3.83-20.737,1.578c-4.506-2.254,7.891-22.764,18.259-24.117
				C582.272,325.466,588.357,332.226,588.357,332.226z"/>
			<path fill="#DD75AE" stroke="#C63493" stroke-width="1.3523" stroke-miterlimit="10" d="M779.132,235.843
				c0,0,0.906-4.527-13.128-3.17c-14.034,1.356-13.581-4.982-43.008-15.395c-29.425-10.412-50.703-40.289-67.001-47.08
				c-16.296-6.79-51.156,6.791-64.736,9.055c-13.581,2.264-23.993-4.076-23.993-4.076s-12.223,13.131-22.184,16.752
				c-9.96,3.621-18.107-5.885-24.9,1.356c-6.788,7.244-10.411,21.278-10.411,21.278s-28.521-0.453-25.352,21.729
				c0,0-2.719,5.885-18.112,16.751c-15.393,10.862-17.956,32.747-17.956,32.747s-19.162,12.977-35.01,62.773
				c-15.846,49.799-48.893,92.354-48.893,92.354s17.202,4.074,26.256,2.264c9.056-1.811,75.603-25.35,94.166-40.742
				c18.564-15.393,32.146-38.479,43.01-44.367c10.865-5.887,25.807-5.883,28.069-5.883c2.262,0,14.035-17.656,19.919-17.656
				c5.885,0,7.695,4.074,14.485,0c6.791-4.076,5.887-11.316,9.508-23.541c3.621-12.223,9.958-23.992,30.33-22.637
				c0,0,5.432,5.434,8.147,3.623c2.718-1.811,9.058-15.393,14.487-21.73c5.433-6.338,0.003-14.939,40.744-21.275
				c0,0,11.318-4.53,25.804-2.265c0,0,8.15,5.884,15.396,6.788C742.011,254.402,774.604,239.914,779.132,235.843z"/>
			<path fill="none" stroke="#C63493" stroke-width="1.3523" stroke-miterlimit="10" d="M777.184,234.278
				c-11.434,7.057-26.686,4.035-38.244,1.771c-8.288-1.625-16.588-2.426-23.907-7.568c-5.979-4.2-13.402-9.445-19.975-11.396
				c-33.934-10.066-69.874-9.298-104.793,2.061c-21.61,7.035-44.356,15.101-60.72,31.59c-17.564,17.699-30.413,39.525-44.971,59.533
				c-6.7,9.215-12.449,19.354-18.821,28.9c-6.177,9.25-13.785,17.092-20.826,25.566c-11.349,13.66-22.564,26.857-34.115,40.404
				c-3.898,4.574-7.402,9.6-11.731,13.781c-3.817,3.691-7.864,9.281-12.269,12.377"/>
			<path fill="none" stroke="#C63493" stroke-width="1.3523" stroke-miterlimit="10" d="M421.688,389.692
				c19.463,1.863,43.604,8.277,60.509-4.131c7.711-5.658,18.806-18.492,29.44-16.672"/>
			<path fill="none" stroke="#C63493" stroke-width="1.3523" stroke-miterlimit="10" d="M478.593,322.386
				c7.228,4.984,20.756,7.004,29.231,7.951c9.494,1.063,17.855-0.791,26.756-3.33c11.186-3.188,22.291-5.521,33.988-7.682
				c10.28-1.898,15.731-8.686,25.056-12.848"/>
			<path fill="none" stroke="#C63493" stroke-width="1.3523" stroke-miterlimit="10" d="M526.318,255.08
				c14.842,6.248,26.089,14.438,43.356,15.323c9.613,0.492,19.396-0.027,29.028-0.027c9.42,0,19.16,0.889,28.509,0
				c7.224-0.682,11.349-6.738,17.811-7.341"/>
			<path fill="none" stroke="#C63493" stroke-width="1.3523" stroke-miterlimit="10" d="M611.37,214.085
				c12.433,4.67,19.656,12.189,34.009,13.646c10.331,1.05,20.467,2.48,30.744,3.474c10.909,1.054,22.472,2.954,32.532,7.97"/>
			<path fill="none" stroke="#C63493" stroke-width="1.3523" stroke-miterlimit="10" d="M613.815,212.249
				c-0.35-12.063,11.316-17.167,20.818-21.785c7.072-3.439,19.534-10.931,27.52-9.418"/>
			<path fill="none" stroke="#C63493" stroke-width="1.3523" stroke-miterlimit="10" d="M528.156,253.244
				c-4.84-15.28,5.615-24.491,13.425-35.759c3.438-4.96,7.351-8.79,11.217-13.311c5.055-5.912,13.667-12.408,16.966-18.848"/>
			<path fill="none" stroke="#C63493" stroke-width="1.3523" stroke-miterlimit="10" d="M493.28,297.911
				c0.037-15.34,1.602-31.346,6.301-45.932c1.729-5.362,3.092-30.954,10.83-30.553"/>
			<path fill="none" stroke="#C63493" stroke-width="1.3523" stroke-miterlimit="10" d="M475.535,324.22
				c-0.051-6.268-2.047-11.348-2.447-17.486c-0.458-7.021,0-14.219,0-21.254c0-9.313,1.069-17.74,1.835-26.729"/>
			<path fill="none" stroke="#C63493" stroke-width="1.3523" stroke-miterlimit="10" d="M443.104,365.827
				c-5.174-12.135-4.796-24.145-3.043-37.275c1.256-9.398,1.789-23.133,7.326-31.252"/>
			<path fill="none" stroke="#C63493" stroke-width="1.3523" stroke-miterlimit="10" d="M421.688,390.915
				c-17.892-14.793,3.659-37.225,1.835-54.457"/>
		</g>
		<g>
			<g>
				<path fill="#C5CF61" d="M510.066,334.743c0,0-31.816,71.75-119.263,110.965l-1.157-5.637c0,0,69.74-24.273,115.453-103.992
					L510.066,334.743z"/>
				<g>
					<g>
						<g>
							<g>
								<g>
									<path fill="#DC8644" d="M518.755,341.306c0.648-0.699,0.836-1.021,1.104-1.676c0.231-0.561,0.161-1.436,0.154-2.029
										c-0.021-1.307,0.097-2.625,0.026-3.932c-0.128-2.475-0.453-5.137-1.285-7.316c-0.562-1.465-1.588-2.803-2.145-4.182
										c-0.432-1.076-0.635-2.244-1.064-3.307c-1.022-2.529-1.756-4.814-3.541-7.119c-1.456-1.871-4.119-7.377-7.145-5.412
										c-2.184,1.414-2.206,4.713-1.951,7c0.551,4.928,1.447,9.805,3.131,14.414c1.235,3.387,2.068,7.127,3.931,10.258
										c1.019,1.711,2.013,3.875,4.085,4.395c2.181,0.553,2.878,0.105,4.456-0.955L518.755,341.306z"/>
									<path fill="none" stroke="#4F2C15" stroke-width="0.6762" stroke-miterlimit="10" d="M518.755,341.306
										c0.648-0.699,0.836-1.021,1.104-1.676c0.231-0.561,0.161-1.436,0.154-2.029c-0.021-1.307,0.097-2.625,0.026-3.932
										c-0.128-2.475-0.453-5.137-1.285-7.316c-0.562-1.465-1.588-2.803-2.145-4.182c-0.432-1.076-0.635-2.244-1.064-3.307
										c-1.022-2.529-1.756-4.814-3.541-7.119c-1.456-1.871-4.119-7.377-7.145-5.412c-2.184,1.414-2.206,4.713-1.951,7
										c0.551,4.928,1.447,9.805,3.131,14.414c1.235,3.387,2.068,7.127,3.931,10.258c1.019,1.711,2.013,3.875,4.085,4.395
										c2.181,0.553,2.878,0.105,4.456-0.955L518.755,341.306z"/>
								</g>
							</g>
						</g>
						<path fill="#E39961" stroke="#E39961" stroke-width="0.6762" stroke-miterlimit="10" d="M504.584,312.487
							c0.305,1.242,0.69,2.342,0.729,3.605c0.039,1.225,0.078,2.447,0.289,3.67c0.188,1.104,0.495,2.25,0.797,3.334
							c0.308,1.09,0.978,1.996,1.251,3.113c0.557,2.287,2.087,3.768,3.184,5.771c0.909,1.658,1.856,3.793,3.392,4.982
							c-1.637-4.148-5.31-7.18-6.345-11.514c-0.496-2.08-1.429-4.158-1.751-6.277c-0.17-1.115-0.302-2.045-0.645-3.143
							c-0.257-0.813-0.545-1.889-0.394-2.691"/>
					</g>
					<g>
						<g>
							<g>
								<g>
									<path fill="#DC8644" d="M512.108,344.421c0.646-0.699,0.833-1.021,1.104-1.674c0.232-0.563,0.161-1.436,0.154-2.031
										c-0.021-1.307,0.097-2.627,0.027-3.93c-0.129-2.477-0.455-5.139-1.286-7.316c-0.563-1.467-1.587-2.805-2.145-4.184
										c-0.435-1.076-0.635-2.246-1.064-3.307c-1.025-2.527-1.757-4.814-3.542-7.117c-1.454-1.875-4.118-7.381-7.146-5.416
										c-2.181,1.418-2.203,4.717-1.949,7c0.552,4.93,1.448,9.809,3.133,14.414c1.234,3.387,2.067,7.127,3.929,10.262
										c1.018,1.709,2.011,3.873,4.084,4.393c2.183,0.553,2.877,0.105,4.455-0.953L512.108,344.421z"/>
									<path fill="none" stroke="#4F2C15" stroke-width="0.6762" stroke-miterlimit="10" d="M512.108,344.421
										c0.646-0.699,0.833-1.021,1.104-1.674c0.232-0.563,0.161-1.436,0.154-2.031c-0.021-1.307,0.097-2.627,0.027-3.93
										c-0.129-2.477-0.455-5.139-1.286-7.316c-0.563-1.467-1.587-2.805-2.145-4.184c-0.435-1.076-0.635-2.246-1.064-3.307
										c-1.025-2.527-1.757-4.814-3.542-7.117c-1.454-1.875-4.118-7.381-7.146-5.416c-2.181,1.418-2.203,4.717-1.949,7
										c0.552,4.93,1.448,9.809,3.133,14.414c1.234,3.387,2.067,7.127,3.929,10.262c1.018,1.709,2.011,3.873,4.084,4.393
										c2.183,0.553,2.877,0.105,4.455-0.953L512.108,344.421z"/>
								</g>
							</g>
						</g>
						<path fill="#E39961" stroke="#E39961" stroke-width="0.6762" stroke-miterlimit="10" d="M497.938,315.601
							c0.304,1.242,0.688,2.342,0.725,3.607c0.041,1.227,0.08,2.447,0.292,3.672c0.188,1.104,0.495,2.25,0.796,3.33
							c0.308,1.092,0.979,1.998,1.249,3.115c0.561,2.285,2.089,3.768,3.186,5.773c0.907,1.656,1.857,3.791,3.393,4.98
							c-1.636-4.146-5.31-7.18-6.347-11.514c-0.495-2.08-1.427-4.16-1.751-6.275c-0.168-1.119-0.299-2.045-0.645-3.146
							c-0.256-0.813-0.543-1.889-0.394-2.688"/>
					</g>
				</g>
			</g>
			<g>
				<path fill="#C5CF61" d="M465.625,284.329c0,0-9.919,84.301-70.942,140.02l-2.549-7.27c0,0,43.291-29.518,70.533-131.051
					L465.625,284.329z"/>
				<g>
					<g>
						<g>
							<g>
								<g>
									<path fill="#DC8644" d="M476.869,289.515c0.558-0.775,0.702-1.119,0.888-1.799c0.161-0.588-0.018-1.445-0.104-2.035
										c-0.179-1.293-0.229-2.619-0.455-3.904c-0.437-2.438-1.09-5.041-2.186-7.1c-0.742-1.385-1.926-2.584-2.647-3.883
										c-0.565-1.016-0.911-2.148-1.468-3.148c-1.332-2.381-2.342-4.561-4.4-6.623c-1.675-1.68-5.006-6.809-7.759-4.485
										c-1.992,1.677-1.606,4.953-1.07,7.187c1.159,4.824,2.657,9.555,4.897,13.916c1.648,3.209,2.939,6.814,5.176,9.691
										c1.222,1.57,2.479,3.596,4.6,3.854c2.232,0.273,2.867-0.252,4.304-1.504L476.869,289.515z"/>
									<path fill="none" stroke="#4F2C15" stroke-width="0.6762" stroke-miterlimit="10" d="M476.869,289.515
										c0.558-0.775,0.702-1.119,0.888-1.799c0.161-0.588-0.018-1.445-0.104-2.035c-0.179-1.293-0.229-2.619-0.455-3.904
										c-0.437-2.438-1.09-5.041-2.186-7.1c-0.742-1.385-1.926-2.584-2.647-3.883c-0.565-1.016-0.911-2.148-1.468-3.148
										c-1.332-2.381-2.342-4.561-4.4-6.623c-1.675-1.68-5.006-6.809-7.759-4.485c-1.992,1.677-1.606,4.953-1.07,7.187
										c1.159,4.824,2.657,9.555,4.897,13.916c1.648,3.209,2.939,6.814,5.176,9.691c1.222,1.57,2.479,3.596,4.6,3.854
										c2.232,0.273,2.867-0.252,4.304-1.504L476.869,289.515z"/>
								</g>
							</g>
						</g>
						<path fill="#E39961" stroke="#E39961" stroke-width="0.6762" stroke-miterlimit="10" d="M459.226,262.677
							c0.455,1.197,0.976,2.24,1.169,3.49c0.191,1.209,0.384,2.416,0.745,3.605c0.321,1.072,0.769,2.166,1.205,3.207
							c0.438,1.043,1.217,1.861,1.627,2.936c0.837,2.199,2.539,3.479,3.876,5.332c1.107,1.531,2.313,3.533,3.982,4.521
							c-2.137-3.91-6.16-6.463-7.727-10.635c-0.75-2.004-1.933-3.951-2.518-6.012c-0.306-1.09-0.552-1.992-1.029-3.039
							c-0.356-0.775-0.773-1.807-0.726-2.624"/>
					</g>
					<g>
						<g>
							<g>
								<g>
									<path fill="#DC8644" d="M470.661,293.431c0.555-0.773,0.701-1.119,0.889-1.799c0.157-0.588-0.021-1.445-0.103-2.033
										c-0.182-1.293-0.229-2.619-0.46-3.904c-0.435-2.439-1.088-5.041-2.183-7.1c-0.741-1.387-1.927-2.588-2.65-3.883
										c-0.563-1.016-0.906-2.15-1.468-3.148c-1.329-2.385-2.342-4.561-4.398-6.625c-1.675-1.678-5.006-6.811-7.762-4.483
										c-1.989,1.677-1.604,4.952-1.064,7.188c1.157,4.818,2.654,9.551,4.897,13.912c1.645,3.207,2.938,6.814,5.171,9.689
										c1.224,1.572,2.48,3.598,4.599,3.855c2.233,0.275,2.871-0.252,4.305-1.502L470.661,293.431z"/>
									<path fill="none" stroke="#4F2C15" stroke-width="0.6762" stroke-miterlimit="10" d="M470.661,293.431
										c0.555-0.773,0.701-1.119,0.889-1.799c0.157-0.588-0.021-1.445-0.103-2.033c-0.182-1.293-0.229-2.619-0.46-3.904
										c-0.435-2.439-1.088-5.041-2.183-7.1c-0.741-1.387-1.927-2.588-2.65-3.883c-0.563-1.016-0.906-2.15-1.468-3.148
										c-1.329-2.385-2.342-4.561-4.398-6.625c-1.675-1.678-5.006-6.811-7.762-4.483c-1.989,1.677-1.604,4.952-1.064,7.188
										c1.157,4.818,2.654,9.551,4.897,13.912c1.645,3.207,2.938,6.814,5.171,9.689c1.224,1.572,2.48,3.598,4.599,3.855
										c2.233,0.275,2.871-0.252,4.305-1.502L470.661,293.431z"/>
								</g>
							</g>
						</g>
						<path fill="#E39961" stroke="#E39961" stroke-width="0.6762" stroke-miterlimit="10" d="M453.017,266.595
							c0.458,1.195,0.978,2.24,1.171,3.486c0.19,1.215,0.382,2.42,0.745,3.605c0.321,1.072,0.769,2.172,1.201,3.207
							c0.438,1.045,1.219,1.863,1.629,2.938c0.837,2.201,2.539,3.477,3.876,5.332c1.105,1.531,2.313,3.531,3.98,4.521
							c-2.135-3.91-6.155-6.465-7.725-10.633c-0.75-2.006-1.933-3.951-2.518-6.014c-0.308-1.086-0.552-1.992-1.029-3.041
							c-0.354-0.771-0.772-1.805-0.726-2.617"/>
					</g>
				</g>
			</g>
			<g>
				<path fill="#C5CF61" d="M415.737,238.003c0,0,18.971,82.729-19.786,155.719l-4.845-5.994c0,0,30.858-42.35,22.415-147.135
					L415.737,238.003z"/>
				<g>
					<g>
						<g>
							<g>
								<g>
									<path fill="#DC8644" d="M425.198,238.267c0.474-0.822,0.587-1.183,0.704-1.877c0.102-0.601-0.163-1.436-0.304-2.016
										c-0.31-1.27-0.487-2.58-0.843-3.837c-0.677-2.383-1.583-4.909-2.878-6.846c-0.872-1.308-2.169-2.384-3.019-3.603
										c-0.66-0.953-1.115-2.048-1.771-2.986c-1.563-2.24-2.783-4.307-5.035-6.155c-1.835-1.504-5.656-6.276-8.168-3.688
										c-1.815,1.864-1.104,5.088-0.349,7.254c1.633,4.685,3.591,9.244,6.257,13.361c1.955,3.026,3.602,6.486,6.11,9.127
										c1.373,1.44,2.822,3.331,4.957,3.383c2.247,0.049,2.827-0.539,4.127-1.926L425.198,238.267z"/>
									<path fill="none" stroke="#4F2C15" stroke-width="0.6762" stroke-miterlimit="10" d="M425.198,238.267
										c0.474-0.822,0.587-1.183,0.704-1.877c0.102-0.601-0.163-1.436-0.304-2.016c-0.31-1.27-0.487-2.58-0.843-3.837
										c-0.677-2.383-1.583-4.909-2.878-6.846c-0.872-1.308-2.169-2.384-3.019-3.603c-0.66-0.953-1.115-2.048-1.771-2.986
										c-1.563-2.24-2.783-4.307-5.035-6.155c-1.835-1.504-5.656-6.276-8.168-3.688c-1.815,1.864-1.104,5.088-0.349,7.254
										c1.633,4.685,3.591,9.244,6.257,13.361c1.955,3.026,3.602,6.486,6.11,9.127c1.373,1.44,2.822,3.331,4.957,3.383
										c2.247,0.049,2.827-0.539,4.127-1.926L425.198,238.267z"/>
								</g>
							</g>
						</g>
						<path fill="#E39961" stroke="#E39961" stroke-width="0.6762" stroke-miterlimit="10" d="M404.985,213.317
							c0.572,1.146,1.191,2.133,1.509,3.354c0.312,1.188,0.621,2.369,1.101,3.516c0.428,1.035,0.979,2.084,1.516,3.072
							c0.541,0.994,1.396,1.73,1.909,2.762c1.054,2.104,2.873,3.207,4.39,4.918c1.254,1.414,2.652,3.285,4.412,4.104
							c-2.515-3.679-6.768-5.82-8.744-9.813c-0.945-1.92-2.315-3.738-3.103-5.733c-0.412-1.051-0.746-1.928-1.328-2.921
							c-0.428-0.736-0.949-1.721-0.982-2.535"/>
					</g>
					<g>
						<g>
							<g>
								<g>
									<path fill="#DC8644" d="M419.417,242.781c0.476-0.824,0.587-1.181,0.704-1.875c0.101-0.601-0.163-1.437-0.304-2.017
										c-0.308-1.27-0.487-2.582-0.844-3.838c-0.678-2.383-1.585-4.908-2.88-6.847c-0.874-1.307-2.173-2.384-3.021-3.603
										c-0.66-0.952-1.116-2.049-1.771-2.986c-1.563-2.24-2.783-4.307-5.035-6.152c-1.836-1.504-5.657-6.277-8.169-3.693
										c-1.815,1.869-1.104,5.09-0.349,7.259c1.631,4.685,3.592,9.241,6.257,13.358c1.956,3.026,3.602,6.492,6.11,9.127
										c1.371,1.445,2.822,3.332,4.957,3.383c2.25,0.051,2.832-0.538,4.134-1.924L419.417,242.781z"/>
									<path fill="none" stroke="#4F2C15" stroke-width="0.6762" stroke-miterlimit="10" d="M419.417,242.781
										c0.476-0.824,0.587-1.181,0.704-1.875c0.101-0.601-0.163-1.437-0.304-2.017c-0.308-1.27-0.487-2.582-0.844-3.838
										c-0.678-2.383-1.585-4.908-2.88-6.847c-0.874-1.307-2.173-2.384-3.021-3.603c-0.66-0.952-1.116-2.049-1.771-2.986
										c-1.563-2.24-2.783-4.307-5.035-6.152c-1.836-1.504-5.657-6.277-8.169-3.693c-1.815,1.869-1.104,5.09-0.349,7.259
										c1.631,4.685,3.592,9.241,6.257,13.358c1.956,3.026,3.602,6.492,6.11,9.127c1.371,1.445,2.822,3.332,4.957,3.383
										c2.25,0.051,2.832-0.538,4.134-1.924L419.417,242.781z"/>
								</g>
							</g>
						</g>
						<path fill="#E39961" stroke="#E39961" stroke-width="0.6762" stroke-miterlimit="10" d="M399.195,217.83
							c0.572,1.146,1.193,2.136,1.509,3.356c0.313,1.187,0.621,2.369,1.103,3.515c0.426,1.035,0.979,2.082,1.516,3.071
							c0.541,0.996,1.396,1.732,1.91,2.761c1.053,2.106,2.875,3.209,4.389,4.92c1.252,1.415,2.65,3.285,4.412,4.103
							c-2.514-3.676-6.77-5.815-8.744-9.813c-0.946-1.918-2.317-3.735-3.103-5.731c-0.414-1.049-0.745-1.924-1.327-2.922
							c-0.431-0.734-0.95-1.719-0.98-2.535"/>
					</g>
				</g>
			</g>
		</g>
		<g>
			<g>
				<path fill="#C5CF61" d="M203.811,334.745c0,0,31.815,71.748,119.268,110.963l1.157-5.637c0,0-69.752-24.273-115.459-103.988
					L203.811,334.745z"/>
				<g>
					<g>
						<g>
							<g>
								<g>
									<path fill="#DC8644" d="M195.122,341.306c-0.646-0.697-0.835-1.021-1.104-1.67c-0.232-0.566-0.161-1.438-0.154-2.033
										c0.02-1.307-0.098-2.627-0.027-3.93c0.129-2.477,0.453-5.137,1.286-7.314c0.56-1.469,1.587-2.807,2.144-4.184
										c0.436-1.08,0.636-2.244,1.065-3.309c1.023-2.529,1.755-4.816,3.54-7.115c1.456-1.875,4.12-7.381,7.143-5.416
										c2.187,1.418,2.209,4.717,1.953,6.998c-0.549,4.93-1.448,9.809-3.131,14.414c-1.234,3.389-2.07,7.129-3.929,10.26
										c-1.019,1.711-2.014,3.873-4.086,4.396c-2.181,0.549-2.878,0.105-4.453-0.957L195.122,341.306z"/>
									<path fill="none" stroke="#4F2C15" stroke-width="0.6762" stroke-miterlimit="10" d="M195.122,341.306
										c-0.646-0.697-0.835-1.021-1.104-1.67c-0.232-0.566-0.161-1.438-0.154-2.033c0.02-1.307-0.098-2.627-0.027-3.93
										c0.129-2.477,0.453-5.137,1.286-7.314c0.56-1.469,1.587-2.807,2.144-4.184c0.436-1.08,0.636-2.244,1.065-3.309
										c1.023-2.529,1.755-4.816,3.54-7.115c1.456-1.875,4.12-7.381,7.143-5.416c2.187,1.418,2.209,4.717,1.953,6.998
										c-0.549,4.93-1.448,9.809-3.131,14.414c-1.234,3.389-2.07,7.129-3.929,10.26c-1.019,1.711-2.014,3.873-4.086,4.396
										c-2.181,0.549-2.878,0.105-4.453-0.957L195.122,341.306z"/>
								</g>
							</g>
						</g>
						<path fill="#E39961" stroke="#E39961" stroke-width="0.6762" stroke-miterlimit="10" d="M209.292,312.487
							c-0.306,1.244-0.689,2.346-0.727,3.605c-0.039,1.229-0.081,2.447-0.29,3.672c-0.187,1.105-0.495,2.25-0.798,3.332
							c-0.307,1.092-0.977,1.998-1.25,3.115c-0.557,2.287-2.086,3.766-3.182,5.771c-0.91,1.656-1.858,3.791-3.394,4.982
							c1.636-4.146,5.308-7.178,6.345-11.514c0.497-2.082,1.43-4.158,1.75-6.277c0.172-1.115,0.301-2.043,0.646-3.143
							c0.256-0.814,0.543-1.891,0.394-2.691"/>
					</g>
					<g>
						<g>
							<g>
								<g>
									<path fill="#DC8644" d="M201.767,344.423c-0.647-0.697-0.834-1.023-1.104-1.672c-0.232-0.566-0.16-1.438-0.15-2.035
										c0.019-1.307-0.1-2.623-0.03-3.928c0.131-2.477,0.453-5.139,1.286-7.316c0.562-1.467,1.587-2.807,2.144-4.182
										c0.437-1.078,0.636-2.244,1.065-3.309c1.023-2.529,1.758-4.816,3.543-7.117c1.453-1.871,4.117-7.379,7.143-5.416
										c2.184,1.418,2.208,4.717,1.953,6.998c-0.55,4.932-1.449,9.811-3.131,14.414c-1.238,3.393-2.07,7.133-3.932,10.262
										c-1.021,1.711-2.014,3.875-4.084,4.396c-2.181,0.547-2.877,0.105-4.455-0.957L201.767,344.423z"/>
									<path fill="none" stroke="#4F2C15" stroke-width="0.6762" stroke-miterlimit="10" d="M201.767,344.423
										c-0.647-0.697-0.834-1.023-1.104-1.672c-0.232-0.566-0.16-1.438-0.15-2.035c0.019-1.307-0.1-2.623-0.03-3.928
										c0.131-2.477,0.453-5.139,1.286-7.316c0.562-1.467,1.587-2.807,2.144-4.182c0.437-1.078,0.636-2.244,1.065-3.309
										c1.023-2.529,1.758-4.816,3.543-7.117c1.453-1.871,4.117-7.379,7.143-5.416c2.184,1.418,2.208,4.717,1.953,6.998
										c-0.55,4.932-1.449,9.811-3.131,14.414c-1.238,3.393-2.07,7.133-3.932,10.262c-1.021,1.711-2.014,3.875-4.084,4.396
										c-2.181,0.547-2.877,0.105-4.455-0.957L201.767,344.423z"/>
								</g>
							</g>
						</g>
						<path fill="#E39961" stroke="#E39961" stroke-width="0.6762" stroke-miterlimit="10" d="M215.938,315.601
							c-0.304,1.248-0.689,2.348-0.728,3.607c-0.039,1.229-0.078,2.449-0.289,3.672c-0.188,1.104-0.494,2.25-0.797,3.332
							c-0.306,1.092-0.978,2-1.248,3.115c-0.56,2.289-2.09,3.766-3.185,5.771c-0.909,1.658-1.856,3.793-3.394,4.982
							c1.635-4.146,5.31-7.178,6.344-11.512c0.498-2.082,1.432-4.158,1.752-6.279c0.17-1.115,0.301-2.043,0.646-3.145
							c0.255-0.811,0.544-1.889,0.392-2.689"/>
					</g>
				</g>
			</g>
			<g>
				<path fill="#C5CF61" d="M248.249,284.335c0,0,9.918,84.295,70.948,140.014l2.549-7.27c0,0-43.298-29.518-70.538-131.053
					L248.249,284.335z"/>
				<g>
					<g>
						<g>
							<g>
								<g>
									<path fill="#DC8644" d="M237.007,289.515c-0.559-0.771-0.701-1.117-0.891-1.797c-0.158-0.588,0.02-1.443,0.104-2.035
										c0.179-1.293,0.229-2.617,0.457-3.904c0.438-2.439,1.09-5.039,2.188-7.098c0.741-1.389,1.923-2.586,2.646-3.887
										c0.563-1.012,0.908-2.148,1.468-3.146c1.332-2.383,2.342-4.559,4.399-6.622c1.674-1.681,5.004-6.812,7.76-4.483
										c1.992,1.676,1.604,4.95,1.067,7.188c-1.159,4.82-2.655,9.551-4.897,13.912c-1.648,3.207-2.939,6.816-5.174,9.691
										c-1.224,1.57-2.478,3.596-4.599,3.854c-2.233,0.275-2.868-0.252-4.304-1.502L237.007,289.515z"/>
									<path fill="none" stroke="#4F2C15" stroke-width="0.6762" stroke-miterlimit="10" d="M237.007,289.515
										c-0.559-0.771-0.701-1.117-0.891-1.797c-0.158-0.588,0.02-1.443,0.104-2.035c0.179-1.293,0.229-2.617,0.457-3.904
										c0.438-2.439,1.09-5.039,2.188-7.098c0.741-1.389,1.923-2.586,2.646-3.887c0.563-1.012,0.908-2.148,1.468-3.146
										c1.332-2.383,2.342-4.559,4.399-6.622c1.674-1.681,5.004-6.812,7.76-4.483c1.992,1.676,1.604,4.95,1.067,7.188
										c-1.159,4.82-2.655,9.551-4.897,13.912c-1.648,3.207-2.939,6.816-5.174,9.691c-1.224,1.57-2.478,3.596-4.599,3.854
										c-2.233,0.275-2.868-0.252-4.304-1.502L237.007,289.515z"/>
								</g>
							</g>
						</g>
						<path fill="#E39961" stroke="#E39961" stroke-width="0.6762" stroke-miterlimit="10" d="M254.646,262.679
							c-0.456,1.195-0.976,2.24-1.169,3.488c-0.19,1.213-0.385,2.42-0.745,3.605c-0.322,1.072-0.769,2.172-1.203,3.209
							c-0.438,1.041-1.22,1.861-1.626,2.936c-0.838,2.201-2.54,3.479-3.877,5.33c-1.107,1.533-2.313,3.533-3.984,4.521
							c2.141-3.91,6.158-6.461,7.727-10.633c0.748-2.006,1.935-3.951,2.517-6.012c0.308-1.086,0.552-1.992,1.03-3.039
							c0.355-0.775,0.775-1.807,0.725-2.621"/>
					</g>
					<g>
						<g>
							<g>
								<g>
									<path fill="#DC8644" d="M243.214,293.433c-0.555-0.773-0.701-1.119-0.889-1.797c-0.161-0.588,0.02-1.445,0.102-2.037
										c0.183-1.293,0.229-2.617,0.461-3.902c0.435-2.438,1.088-5.041,2.183-7.1c0.741-1.385,1.926-2.586,2.649-3.883
										c0.563-1.018,0.906-2.148,1.467-3.15c1.33-2.385,2.342-4.561,4.4-6.621c1.674-1.68,5-6.813,7.758-4.485
										c1.99,1.677,1.604,4.954,1.065,7.187c-1.157,4.822-2.655,9.551-4.896,13.912c-1.646,3.209-2.939,6.818-5.174,9.695
										c-1.225,1.566-2.478,3.592-4.599,3.854c-2.231,0.273-2.869-0.252-4.302-1.504L243.214,293.433z"/>
									<path fill="none" stroke="#4F2C15" stroke-width="0.6762" stroke-miterlimit="10" d="M243.214,293.433
										c-0.555-0.773-0.701-1.119-0.889-1.797c-0.161-0.588,0.02-1.445,0.102-2.037c0.183-1.293,0.229-2.617,0.461-3.902
										c0.435-2.438,1.088-5.041,2.183-7.1c0.741-1.385,1.926-2.586,2.649-3.883c0.563-1.018,0.906-2.148,1.467-3.15
										c1.33-2.385,2.342-4.561,4.4-6.621c1.674-1.68,5-6.813,7.758-4.485c1.99,1.677,1.604,4.954,1.065,7.187
										c-1.157,4.822-2.655,9.551-4.896,13.912c-1.646,3.209-2.939,6.818-5.174,9.695c-1.225,1.566-2.478,3.592-4.599,3.854
										c-2.231,0.273-2.869-0.252-4.302-1.504L243.214,293.433z"/>
								</g>
							</g>
						</g>
						<path fill="#E39961" stroke="#E39961" stroke-width="0.6762" stroke-miterlimit="10" d="M260.854,266.595
							c-0.455,1.197-0.975,2.24-1.17,3.488c-0.191,1.213-0.383,2.42-0.743,3.607c-0.325,1.07-0.771,2.168-1.203,3.205
							c-0.438,1.047-1.217,1.861-1.627,2.939c-0.837,2.197-2.542,3.479-3.878,5.332c-1.105,1.531-2.313,3.531-3.984,4.52
							c2.141-3.908,6.16-6.461,7.727-10.633c0.75-2.004,1.936-3.951,2.521-6.014c0.306-1.086,0.55-1.99,1.028-3.037
							c0.355-0.775,0.773-1.809,0.725-2.623"/>
					</g>
				</g>
			</g>
			<g>
				<path fill="#C5CF61" d="M298.144,238.005c0,0-18.979,82.729,19.783,155.719l4.845-5.994c0,0-30.861-42.35-22.412-147.135
					L298.144,238.005z"/>
				<g>
					<g>
						<g>
							<g>
								<g>
									<path fill="#DC8644" d="M288.675,238.272c-0.477-0.828-0.586-1.184-0.703-1.877c-0.103-0.604,0.16-1.438,0.302-2.018
										c0.308-1.271,0.489-2.582,0.844-3.841c0.677-2.383,1.585-4.903,2.88-6.846c0.875-1.306,2.172-2.382,3.021-3.601
										c0.662-0.955,1.115-2.05,1.773-2.988c1.559-2.237,2.78-4.305,5.035-6.153c1.833-1.502,5.654-6.276,8.168-3.69
										c1.813,1.867,1.104,5.088,0.346,7.26c-1.631,4.682-3.59,9.238-6.254,13.355c-1.959,3.029-3.604,6.491-6.113,9.131
										c-1.37,1.441-2.821,3.33-4.957,3.379c-2.25,0.051-2.829-0.539-4.133-1.924L288.675,238.272z"/>
									<path fill="none" stroke="#4F2C15" stroke-width="0.6762" stroke-miterlimit="10" d="M288.675,238.272
										c-0.477-0.828-0.586-1.184-0.703-1.877c-0.103-0.604,0.16-1.438,0.302-2.018c0.308-1.271,0.489-2.582,0.844-3.841
										c0.677-2.383,1.585-4.903,2.88-6.846c0.875-1.306,2.172-2.382,3.021-3.601c0.662-0.955,1.115-2.05,1.773-2.988
										c1.559-2.237,2.78-4.305,5.035-6.153c1.833-1.502,5.654-6.276,8.168-3.69c1.813,1.867,1.104,5.088,0.346,7.26
										c-1.631,4.682-3.59,9.238-6.254,13.355c-1.959,3.029-3.604,6.491-6.113,9.131c-1.37,1.441-2.821,3.33-4.957,3.379
										c-2.25,0.051-2.829-0.539-4.133-1.924L288.675,238.272z"/>
								</g>
							</g>
						</g>
						<path fill="#E39961" stroke="#E39961" stroke-width="0.6762" stroke-miterlimit="10" d="M308.896,213.317
							c-0.572,1.148-1.193,2.135-1.51,3.355c-0.313,1.189-0.623,2.373-1.1,3.519c-0.428,1.032-0.982,2.079-1.516,3.071
							c-0.543,0.994-1.396,1.729-1.911,2.758c-1.052,2.107-2.874,3.209-4.388,4.923c-1.254,1.411-2.654,3.282-4.414,4.103
							c2.517-3.68,6.771-5.818,8.746-9.813c0.944-1.921,2.315-3.738,3.101-5.731c0.414-1.053,0.746-1.929,1.327-2.923
							c0.431-0.735,0.949-1.721,0.98-2.536"/>
					</g>
					<g>
						<g>
							<g>
								<g>
									<path fill="#DC8644" d="M294.464,242.784c-0.475-0.825-0.59-1.182-0.703-1.877c-0.103-0.604,0.16-1.436,0.301-2.016
										c0.309-1.271,0.488-2.58,0.845-3.84c0.676-2.383,1.585-4.906,2.88-6.846c0.874-1.307,2.172-2.383,3.021-3.6
										c0.662-0.957,1.115-2.051,1.772-2.991c1.563-2.238,2.783-4.302,5.035-6.149c1.834-1.506,5.654-6.281,8.167-3.693
										c1.814,1.865,1.105,5.087,0.348,7.259c-1.629,4.685-3.589,9.237-6.254,13.358c-1.959,3.028-3.602,6.488-6.113,9.129
										c-1.371,1.439-2.819,3.332-4.957,3.377c-2.248,0.052-2.83-0.535-4.131-1.92L294.464,242.784z"/>
									<path fill="none" stroke="#4F2C15" stroke-width="0.6762" stroke-miterlimit="10" d="M294.464,242.784
										c-0.475-0.825-0.59-1.182-0.703-1.877c-0.103-0.604,0.16-1.436,0.301-2.016c0.309-1.271,0.488-2.58,0.845-3.84
										c0.676-2.383,1.585-4.906,2.88-6.846c0.874-1.307,2.172-2.383,3.021-3.6c0.662-0.957,1.115-2.051,1.772-2.991
										c1.563-2.238,2.783-4.302,5.035-6.149c1.834-1.506,5.654-6.281,8.167-3.693c1.814,1.865,1.105,5.087,0.348,7.259
										c-1.629,4.685-3.589,9.237-6.254,13.358c-1.959,3.028-3.602,6.488-6.113,9.129c-1.371,1.439-2.819,3.332-4.957,3.377
										c-2.248,0.052-2.83-0.535-4.131-1.92L294.464,242.784z"/>
								</g>
							</g>
						</g>
						<path fill="#E39961" stroke="#E39961" stroke-width="0.6762" stroke-miterlimit="10" d="M314.683,217.832
							c-0.571,1.147-1.19,2.134-1.508,3.356c-0.313,1.188-0.621,2.369-1.101,3.516c-0.428,1.035-0.981,2.084-1.519,3.07
							c-0.539,0.996-1.395,1.732-1.907,2.759c-1.054,2.106-2.875,3.211-4.39,4.923c-1.254,1.412-2.651,3.284-4.412,4.104
							c2.516-3.68,6.771-5.819,8.744-9.814c0.945-1.919,2.318-3.738,3.102-5.73c0.414-1.053,0.747-1.928,1.327-2.922
							c0.43-0.735,0.95-1.721,0.981-2.537"/>
					</g>
				</g>
			</g>
		</g>
		<g>
			<path fill="#A2CF62" stroke="#5B9A42" stroke-width="1.3523" stroke-linejoin="bevel" stroke-miterlimit="10" d="
				M417.803,435.341c0,0,25.37-16.479,59.638-0.264c34.269,16.217,44.468,40.805,43.422,54.406
				c-1.045,13.602,8.11,41.326-8.109,41.85c0,0-8.891-0.264-13.34-13.342c0,0-20.664-10.461-25.633-23.801
				c0,0-13.604-27.986-28.251-35.311C430.882,451.554,417.803,435.341,417.803,435.341z"/>
			<path fill="#BBD97C" d="M436.948,437.151c2.029-0.063,28.129,13.77,29.634,14.84c1.573,1.119,3,2.131,4.661,3.115
				c1.894,1.131,4.007,2.246,5.787,3.523c2.105,1.508,4.697,1.678,6.499,3.518c1.989,2.033,4.709,1.816,7.032,3.463
				c2.135,1.516,4.159,3.309,6.404,4.617c1.002,0.586,3.713,6.725,4.569,4.252c0.519-1.486-3.674-5.234-4.55-6.219
				c-2.225-2.482-4.845-3.605-7.798-5.166c-5.735-3.033-13.536-6.17-18.792-9.865c-3.524-2.475-28.456-15.867-32.802-15.863"/>
			<path fill="#BBD97C" d="M475.848,465.062c1.448-0.156,4.034,2.184,5.001,3.107c2.067,1.977,3.92,4.662,5.809,6.854
				c2.491,2.891,5.567,4.646,7.58,7.695c1.229,1.861,3.267,2.756,4.721,4.514c1.757,2.121,2.123,6.229,4.273,7.992
				c-0.623-2.982-1.458-6.971-3.182-9.457c-2.004-2.891-4.558-5.268-6.81-7.881c-3.053-3.545-6.068-6.334-10.043-8.793
				c-1.673-1.035-3.278-2.262-4.963-3.234c-1.979-1.146-4.351-1.67-6.063-3.205c2.431,2.121-6.89-5.311-3.968-3.969"/>
			<path fill="#BBD97C" d="M473.161,471.782c9.947,4.848,11.729,9.498,15.836,16.143c1.877,3.035,6.128,5.547,8.069,8.545
				c0.955,1.467,0.813,6.836,2.983,4.895c2.143-1.912-0.132-4.572-1.584-5.838c-2.146-1.865-4.393-3.465-6.047-5.781
				c-1.926-2.695-3.691-5.549-5.926-8.002c-2.186-2.398-3.864-5.338-6.145-7.658c-1.773-1.807-5.21-2.477-7.692-2.807"/>
			<path fill="#BBD97C" d="M464.925,470.269c3.621,1.186,7.823,4.189,10.522,6.936c1.246,1.268,4.904,5.092,4.616,6.801
				c-1.879-1.785-5.887-6.145-8.083-7.584c-1.688-1.104-3.494-2.512-5.038-3.777c-1.281-1.049-1.281,1.523-2.565,0.48
				c-0.618-0.51-3.281-3.258-0.628-2.854"/>
			<path fill="#69AA44" stroke="#5B9A42" stroke-width="1.3523" stroke-linejoin="bevel" stroke-miterlimit="10" d="
				M370.649,469.399c0,0,16.027-26.996,51.862-14.182c35.835,12.818,50.307,37.008,50.307,37.008s-8.721-48.516-61.031-59.764
				c0,0-12.293-4.188-24.586,1.83C387.201,434.292,374.312,441.407,370.649,469.399z"/>
		</g>
		<g>
			<path fill="#7DBB42" stroke="#5B9A42" stroke-width="1.3523" stroke-miterlimit="10" d="M364.722,538.474h27.223
				c-7.436-12.061-13.622-25.635-17.253-40.621c0,0-16.218-36.619,13.601-65.65l-68.267-1.572c0,0,28.509,36.883,30.34,70.1
				C350.942,511.19,356.399,524.509,364.722,538.474z"/>
			<g>
				<path fill="#A6CE39" d="M359.943,523.206c1.008,2.68,1.339,5.615,2.588,8.262c1.171,2.484,2.554,4.719,4.019,7.006h2.696
					c-1.718-2.277-3.55-4.445-4.884-7.018c-2.16-4.166-3.577-8.742-5.088-13.166c-0.863-2.537-2.625-4.264-3.299-6.674
					c-0.621-2.211-1.26-3.83-1.43-6.137c-0.199-2.729-0.097-5.307-0.815-7.939c-0.476-1.744-1.541-3.207-2.354-4.857
					c0.508,4.613,1.135,9.23,2.168,13.736C354.925,512.446,357.786,517.466,359.943,523.206z"/>
				<path fill="#A6CE39" d="M348.642,477.134c-0.2,1.609,0.525,3.15,1.018,4.734C349.486,480.235,349.345,478.589,348.642,477.134z"
					/>
				<path fill="#A6CE39" d="M351.378,492.683c-0.05-0.439-0.104-0.883-0.149-1.324c-0.247-2.332-0.575-4.389-1.113-6.643
					c0.082,1.967-0.006,3.848,0.419,5.697C350.72,491.233,351.027,491.974,351.378,492.683z"/>
				<path fill="#A6CE39" d="M333.284,444.646c2.691,2.791,5.23,4.906,9.039,5.766c4.287,0.967,8.417,1.191,12.833,1.191
					c2.572,0,5.144,0,7.716,0c1.631,0,3.313,0.176,4.813-0.42c1.472-0.586,2.622-1.777,4.063-2.469
					c1.142-0.545,4.179-1.648,4.149-2.99c-1.057,1.123-2.028,2.801-3.309,3.66c-1.293,0.875-3.021,1.215-4.392,2.07
					c-2.843,1.775-5.603,2.104-8.903,2.104c-5.74,0-12.623,1.482-17.607-1.518c-3.016-1.814-6.969-4.238-8.522-7.396"/>
				<path fill="#A6CE39" d="M369.808,455.075c-1.773,1.59-1.775,5.844-1.771,8.137c0.006,2.367-0.313,4.504-0.352,6.746
					c-0.096,5.016,0.453,10.182,1.371,15.104c1.813,9.697,2.021,20.42,7.082,29.273c2.384,4.176,4.48,8.43,6.211,13.018
					c0.356-1.701-2.396-3.488-2.817-5.135c-0.517-2.01-0.582-3.822-1.485-5.775c-1.826-3.934-3.014-7.713-4.795-11.594
					c-1.068-2.336-1.893-4.424-2.123-6.92c-0.197-2.123,0.027-4.307-0.416-6.326c-0.815-3.713-2.218-7.346-2.498-11.365
					c-0.27-3.873,0.01-7.854,0-11.736c-0.008-3.801,0.248-8.295,1.063-12.008"/>
			</g>
		</g>
		<g>
			<path fill="#A2CF62" stroke="#5B9A42" stroke-width="1.3523" stroke-linejoin="bevel" stroke-miterlimit="10" d="
				M291.774,435.341c0,0-25.371-16.479-59.639-0.264c-34.264,16.217-44.465,40.805-43.418,54.406s-8.106,41.326,8.107,41.85
				c0,0,8.895-0.264,13.34-13.342c0,0,20.664-10.461,25.633-23.801c0,0,13.604-27.986,28.252-35.311
				C278.696,451.556,291.774,435.341,291.774,435.341z"/>
			<path fill="#BBD97C" d="M248.351,449.099c-2.029-0.063-3.853,1.822-5.354,2.893c-1.573,1.119-3.002,2.131-4.657,3.115
				c-1.896,1.131-4.008,2.246-5.791,3.523c-2.104,1.508-4.696,1.678-6.496,3.518c-1.991,2.033-4.709,1.816-7.031,3.463
				c-2.135,1.516-4.159,3.309-6.402,4.617c-1.005,0.586-3.715,6.725-4.572,4.252c-0.519-1.486,3.672-5.234,4.551-6.219
				c2.224-2.482,4.845-3.605,7.796-5.166c5.733-3.033,11.479-5.857,16.737-9.551c3.52-2.477,6.203-4.449,10.547-4.445"/>
			<path fill="#BBD97C" d="M233.731,465.062c-1.447-0.156-4.033,2.184-4.999,3.107c-2.07,1.977-3.92,4.662-5.812,6.854
				c-2.488,2.891-5.563,4.646-7.574,7.695c-1.229,1.861-3.27,2.756-4.724,4.514c-1.758,2.121-2.122,6.229-4.274,7.992
				c0.621-2.982,1.459-6.971,3.181-9.457c2.006-2.891,4.558-5.268,6.812-7.881c3.053-3.545,6.068-6.334,10.041-8.793
				c1.676-1.035,3.277-2.262,4.963-3.234c1.978-1.146,4.35-1.67,6.063-3.205c-2.43,2.121,6.891-5.311,3.969-3.969"/>
			<path fill="#BBD97C" d="M236.419,471.782c-9.947,4.848-11.729,9.498-15.834,16.143c-1.878,3.035-6.129,5.547-8.072,8.545
				c-0.949,1.467-0.813,6.836-2.982,4.895c-2.141-1.912,0.133-4.572,1.587-5.838c2.146-1.865,4.392-3.465,6.045-5.781
				c1.927-2.695,3.69-5.549,5.927-8.002c2.184-2.398,3.864-5.338,6.143-7.658c1.773-1.807,5.208-2.477,7.691-2.807"/>
			<path fill="#BBD97C" d="M244.651,470.269c-3.619,1.186-7.821,4.189-10.52,6.936c-1.248,1.268-4.904,5.092-4.617,6.801
				c1.882-1.785,5.887-6.145,8.08-7.584c1.688-1.104,3.498-2.512,5.039-3.777c1.28-1.049,1.28,1.523,2.563,0.48
				c0.619-0.51,3.285-3.258,0.631-2.854"/>
			<path fill="#69AA44" stroke="#5B9A42" stroke-width="1.3523" stroke-linejoin="bevel" stroke-miterlimit="10" d="
				M340.974,466.542c0,0-18.073-24.141-53.906-11.324c-35.835,12.818-50.307,37.008-50.307,37.008s8.719-48.516,61.028-59.764
				c0,0,12.293-4.188,24.589,1.83C322.38,434.292,340.19,458.696,340.974,466.542z"/>
		</g>
</g>

<!-- inner part of flower -->
<g>
	<path fill="#C5DD83" stroke="#5B9A42" stroke-width="1.9553" stroke-miterlimit="10" d="M344.608,29.986
		c1.214,2.286,0.365,15.235,2.076,34.618c2.584,29.363-6.6,152.726-30.67,200.664c-20.338,18.076-33.816,49.559-33.816,85.402
		c0,56.082,32.984,101.553,73.673,101.553c40.686,0,73.673-45.471,73.673-101.553c0-33.355-11.663-62.949-29.673-81.465
		c-17.208-34.672-28.354-172.494-28.489-207.337c-0.072-19.45,2.711-29.55,3.924-31.837"/>
	<path fill="#98AE3B" stroke="#5B9A42" stroke-width="1.9553" stroke-miterlimit="10" d="M355.604,35.554l-1.707,116.576
		l-2.965,111.582l0.571,174.539h9.562l-0.229-173.588c0,0,0.49-125.742,0.726-132.346c0.236-6.609,0.415-96.758,0.415-96.758"/>
	<path fill="#C5DD83" stroke="#5B9A42" stroke-width="1.9553" stroke-miterlimit="10" d="M383.865,22.349
		c0,7.527-10.719,13.636-23.94,13.636c-13.225,0-23.942-6.108-23.942-13.636c0-7.532,10.719-13.637,23.942-13.637
		C373.146,8.712,383.865,14.816,383.865,22.349z"/>
	<g>
		<circle fill="#896527" cx="340.632" cy="20.39" r="0.803"/>
		<circle fill="#896527" cx="342.104" cy="17.445" r="0.802"/>
		<circle fill="#896527" cx="343.71" cy="21.19" r="0.803"/>
		<circle fill="#896527" cx="345.181" cy="18.246" r="0.802"/>
		<circle fill="#896527" cx="344.778" cy="15.037" r="0.802"/>
		<circle fill="#896527" cx="347.855" cy="15.839" r="0.803"/>
		<circle fill="#896527" cx="348.39" cy="13.164" r="0.802"/>
		<circle fill="#896527" cx="351.468" cy="13.967" r="0.802"/>
		<circle fill="#896527" cx="352.804" cy="11.824" r="0.804"/>
		<circle fill="#896527" cx="355.882" cy="12.627" r="0.803"/>
		<circle fill="#896527" cx="359.228" cy="11.291" r="0.802"/>
		<circle fill="#896527" cx="362.304" cy="12.094" r="0.803"/>
		<circle fill="#896527" cx="358.56" cy="13.7" r="0.803"/>
		<circle fill="#896527" cx="364.979" cy="13.7" r="0.803"/>
		<circle fill="#896527" cx="369.394" cy="14.635" r="0.803"/>
		<circle fill="#896527" cx="361.233" cy="14.77" r="0.802"/>
		<circle fill="#896527" cx="366.853" cy="11.824" r="0.804"/>
		<circle fill="#896527" cx="369.929" cy="12.627" r="0.801"/>
		<circle fill="#896527" cx="373.007" cy="14.501" r="0.802"/>
		<circle fill="#896527" cx="376.083" cy="15.305" r="0.802"/>
		<circle fill="#896527" cx="377.955" cy="23.331" r="0.803"/>
		<circle fill="#896527" cx="381.032" cy="24.133" r="0.802"/>
		<circle fill="#896527" cx="377.822" cy="19.719" r="0.802"/>
		<circle fill="#896527" cx="380.899" cy="20.521" r="0.802"/>
		<circle fill="#896527" cx="376.484" cy="17.445" r="0.803"/>
		<circle fill="#896527" cx="379.561" cy="18.247" r="0.803"/>
	</g>
	<path fill="#98AE3B" stroke="#5B9A42" stroke-width="1.9553" stroke-miterlimit="10" d="M359.794,264.504
		c33.772,3.206,61.431,41.045,61.431,87.253c0,48.311-29.139,87.473-65.083,87.473c-35.946,0-65.086-39.162-65.086-87.473
		c0-45.832,27.227-83.431,60.611-87.167"/>
	<rect x="360.77" y="347.697" fill="#11A459" width="0.581" height="26.768"/>
	<rect x="360.77" y="309.804" fill="#11A459" width="0.581" height="26.503"/>
	<g>
		<path fill="#E8D1BD" d="M373.039,374.465c0,0,14.243-5.587,17.09,8.547c2.848,14.131-0.875,23.007-10.517,21.144
			c-9.642-1.861-12.271-18.297-12.271-18.297h-6.635v-11.392h12.333V374.465z"/>
		<path fill="none" stroke="#ABB09F" stroke-width="0.7374" stroke-miterlimit="10" d="M373.039,374.465
			c0,0,14.243-5.587,17.09,8.547c2.848,14.131-0.875,23.007-10.517,21.144c-9.642-1.861-12.271-18.297-12.271-18.297h-6.635v-11.392
			h12.333V374.465z"/>
	</g>
	
		<path fill="#11A459" stroke="#0A8040" stroke-width="1.7215" stroke-linecap="square" stroke-linejoin="bevel" stroke-miterlimit="10" d="
		M361.348,274.907c28.044,2.764,50.194,35.934,50.194,76.48c0,40.539-22.15,73.709-50.194,76.473v-42.003h5.396
		c0.002,0,2.632,16.435,12.275,18.298c9.64,1.863,13.363-7.013,10.514-21.144c-2.845-14.134-17.09-8.547-17.09-8.547H361.35v-26.768
		h5.396c0,0,2.63,16.434,12.272,18.296c9.64,1.862,13.364-7.009,10.516-21.142c-2.847-14.132-17.09-8.547-17.09-8.547h-11.095
		v-26.501h5.396c0,0,2.631,16.438,12.273,18.299c9.639,1.862,13.363-7.012,10.515-21.145c-2.846-14.133-17.09-8.545-17.09-8.545"/>
	<g>
		<path fill="#E8D1BD" d="M390.723,344.852c2.849,14.133-0.877,23.004-10.514,21.142c-9.644-1.862-12.271-18.296-12.271-18.296
			h-6.637v-11.391h12.335C373.634,336.305,387.877,330.72,390.723,344.852z"/>
		<path fill="none" stroke="#ABB09F" stroke-width="0.7374" stroke-miterlimit="10" d="M390.723,344.852
			c2.849,14.133-0.877,23.004-10.514,21.142c-9.644-1.862-12.271-18.296-12.271-18.296h-6.637v-11.391h12.335
			C373.634,336.305,387.877,330.72,390.723,344.852z"/>
	</g>
	<g>
		<g>
			<rect x="350.837" y="347.697" fill="#11A459" width="0.58" height="26.768"/>
			<rect x="350.837" y="309.804" fill="#11A459" width="0.58" height="26.503"/>
			
				<path fill="#11A459" stroke="#0A8040" stroke-width="1.7215" stroke-linecap="square" stroke-linejoin="bevel" stroke-miterlimit="10" d="
				M361.835,274.911c-2.012-0.317-11.082,0.118-11.082,0.118c-28.058,3.413-50.193,35.934-50.193,76.48
				c0,40.539,22.148,73.709,50.193,76.473v-42.003h-5.4c0,0-2.629,16.435-12.267,18.298c-9.642,1.863-13.367-7.013-10.517-21.144
				c2.849-14.134,17.089-8.547,17.089-8.547h11.095v-26.768h-5.4c0,0-2.629,16.434-12.267,18.296
				c-9.642,1.862-13.367-7.009-10.517-21.142c2.849-14.132,17.089-8.547,17.089-8.547h11.095v-26.501h-5.4
				c0,0-2.629,16.438-12.267,18.299c-9.642,1.862-13.367-7.012-10.517-21.145c2.849-14.133,17.089-8.545,17.089-8.545h16.238h17.117
				"/>
			<g>
				<path fill="#E8D1BD" d="M321.463,344.852c-2.849,14.133,0.875,23.004,10.519,21.142c9.636-1.862,12.267-18.296,12.267-18.296
					h6.64v-11.391h-12.334C338.554,336.305,324.313,330.72,321.463,344.852z"/>
				<path fill="none" stroke="#ABB09F" stroke-width="0.7374" stroke-miterlimit="10" d="M321.463,344.852
					c-2.849,14.133,0.875,23.004,10.519,21.142c9.636-1.862,12.267-18.296,12.267-18.296h6.64v-11.391h-12.334
					C338.554,336.305,324.313,330.72,321.463,344.852z"/>
			</g>
			<g>
				<path fill="#E8D1BD" d="M321.761,306.959c-2.851,14.134,0.875,23.008,10.519,21.146c9.636-1.86,12.267-18.301,12.267-18.301
					h6.259v-11.391h-11.954C338.851,298.413,324.611,292.826,321.761,306.959z"/>
				<path fill="none" stroke="#ABB09F" stroke-width="0.7374" stroke-miterlimit="10" d="M321.761,306.959
					c-2.851,14.134,0.875,23.008,10.519,21.146c9.636-1.86,12.267-18.301,12.267-18.301h6.259v-11.391h-11.954
					C338.851,298.413,324.611,292.826,321.761,306.959z"/>
			</g>
			<g>
				<path fill="#E8D1BD" d="M338.554,374.465c0,0-14.241-5.587-17.089,8.547c-2.85,14.131,0.873,23.007,10.518,21.144
					c9.635-1.861,12.266-18.297,12.266-18.297h6.642v-11.392h-12.336V374.465z"/>
				<path fill="none" stroke="#ABB09F" stroke-width="0.7374" stroke-miterlimit="10" d="M338.554,374.465
					c0,0-14.241-5.587-17.089,8.547c-2.85,14.131,0.873,23.007,10.518,21.144c9.635-1.861,12.266-18.297,12.266-18.297h6.642
					v-11.392h-12.336V374.465z"/>
			</g>
		</g>
	</g>
	<g>
		<path fill="#E8D1BD" d="M390.129,306.959c2.849,14.134-0.875,23.008-10.515,21.146c-9.643-1.86-12.272-18.301-12.272-18.301
			h-6.259v-11.391h11.958C373.039,298.413,387.282,292.826,390.129,306.959z"/>
		<path fill="none" stroke="#ABB09F" stroke-width="0.7374" stroke-miterlimit="10" d="M390.129,306.959
			c2.849,14.134-0.875,23.008-10.515,21.146c-9.643-1.86-12.272-18.301-12.272-18.301h-6.259v-11.391h11.958
			C373.039,298.413,387.282,292.826,390.129,306.959z"/>
	</g>
</g>

<!-- path for pollen grain -->
<path id="path1" fill="none" stroke="none" stroke-width="2" stroke-miterlimit="10" d="M358.855,36.094l-2.543,184.066l-0.32,49.911
	c0,0,44.507-0.636,56.587,54.997s-12.398,104.589-55.633,109.04v-51.997h-18.386"/>
<circle opacity="0" fill="#ffff00" cx="331.433" cy="385.372" r="4.693"> 
	<animate id="pollenreached" attributeName="opacity" from="0" to="1" begin="pollenmove.end" dur="0.6" fill="freeze"/>
	<animate id="pollenreached2" attributeName="opacity" from="1" to="0" begin="zoominrevert.end" dur="0.6" fill="freeze"/>

	<animate id="pollenreachedreverse" attributeName="opacity" from="1" to="0" begin="zoominrevert.end" dur="0.6" fill="freeze"/>
	<!-- <animate id="pollendestination" attributeName="cx" from="339.607" to="329.607" begin="pollenreached.end" dur="1" fill="freeze"/> -->
	<animate id="pollendestination2" attributeName="r" from="4.693" to="7.693" begin="pollenreached.end" dur="0.3s" fill="freeze" repeatCount="indefinite"/>
</circle>
<circle fill="#ffff00" cx="0" cy="0" r="6.693">
	<animateMotion id="pollenmove" begin="1s;pollenreached2.end+1s" dur="6s" rotate="auto">
        <mpath xlink:href="#path1"/>
	</animateMotion>
</circle>

<!-- seed -->
<g opacity="0">
	<path fill="#E16A39" stroke="#4D4D4D" stroke-width="0.2383" stroke-linecap="round" stroke-linejoin="round" stroke-miterlimit="10" d="
		M300.078,429.066c0,0,0.491-22.227,18.813-22.115c16.387,0.1,9.666,20.48,9.306,21.275c-0.36,0.793-2.52,2.574,0.476,6.828
		c2.176,3.088,1.731,19.662-8.295,19.662S300.338,446.378,300.078,429.066z"/>
	
		<path fill="#FCAA8C" stroke="#4D4D4D" stroke-width="0.2383" stroke-linecap="round" stroke-linejoin="round" stroke-miterlimit="10" d="
		M320.377,453.287c-5.01,0-9.37-1.992-12.613-5.764c-3.663-4.262-5.663-10.648-5.779-18.473c-0.002-0.107-0.138-10.428,5.724-16.406
		c2.773-2.83,6.49-4.266,11.043-4.266h0.134c3.905,0.023,6.668,1.246,8.211,3.633c3.273,5.064,0.418,14.326-0.244,15.82
		c-0.021,0.047-0.109,0.18-0.173,0.277c-0.659,0.992-2.2,3.318,0.738,7.492c1.226,1.742,1.652,8.971-0.738,13.578
		C325.265,451.906,323.144,453.287,320.377,453.287z"/>
	<path fill="#FCBC7B" stroke="#4D4D4D" stroke-width="0.2383" stroke-miterlimit="10" d="M318.809,449.119
		c-8.146,0-13.313-7.537-13.49-19.67c-0.001-0.098-0.707-8.652,3.666-13.256c1.901-2.004,4.141-3.533,7.404-3.533l1.476-0.072
		c3.556,0.492,3.882,2.055,4.16,2.484c1.851,2.846,0.412,9.311-0.394,11.607c-2.135,3.428-1.776,6.361,0.193,11.389
		c0.521,1.383,1.297,6.541-0.605,9.598C320.467,448.871,319.711,449.119,318.809,449.119z"/>
	
		<path fill="#C6E08A" stroke="#4D4D4D" stroke-width="0.2383" stroke-linecap="round" stroke-linejoin="round" stroke-miterlimit="10" d="
		M324.322,410.843c-0.934-0.908-3.375-0.619-4.441-0.445c-1.066,0.172-2.716-0.523-2.716-0.523s0.583,1.662,2.206,2.029
		c1.625,0.369,3.363-1.129,5.601,0.725C324.972,412.626,325.292,411.789,324.322,410.843z"/>
	
		<path fill="#E1ECB5" stroke="#4D4D4D" stroke-width="0.2383" stroke-linecap="round" stroke-linejoin="round" stroke-miterlimit="10" d="
		M325.793,411.775c0,0,3.538,2.516,2.809,7.984c-0.749,5.617-0.547,7.621-3.137,7.293c-2.805-0.354,0.464-5.059,0.729-7.293
		c0.292-2.443,1.35-5.396-1.75-7.475"/>
	
		<path fill="#C6E08A" stroke="#4D4D4D" stroke-width="0.2383" stroke-linecap="round" stroke-linejoin="round" stroke-miterlimit="10" d="
		M324.521,410.839c-1.404-0.49-3.793,0.986-4.813,1.678c-1.022,0.693-3.063,0.768-3.063,0.768s1.969,2.006,3.828,1.604
		c1.859-0.4,2.284-4.223,5.99-2.307C326.463,412.582,325.979,411.351,324.521,410.839z"/>
		<!-- <animate id="seedshow" attributeName="opacity" from="0" to="1" begin="pollendestination.end" dur="0.6" fill="freeze"/> -->
</g>
</svg>
