selector,english_word,engmeaning,nepali_word,nepmeaning,image
Profit ,Profit,,फाइदा,,
loss,loss,,घाटा,,
run,run,,चलाउनु,,
customers,customer,,ग्राहक,,
dozen,dozen,dozen = 12 units,दर्जन,,
display,display,,प्रदर्शन,देखाउन राखेको,
article,article,,,कुनै वस्तु,
