<?xml version="1.0" encoding="utf-8"?>
<!-- Generator: Adobe Illustrator 15.0.0, SVG Export Plug-In . SVG Version: 6.00 Build 0)  -->
<!DOCTYPE svg PUBLIC "-//W3C//DTD SVG 1.1//EN" "http://www.w3.org/Graphics/SVG/1.1/DTD/svg11.dtd">
<svg version="1.1" id="Layer_1" xmlns="http://www.w3.org/2000/svg" xmlns:xlink="http://www.w3.org/1999/xlink" x="0px" y="0px"
	 width="383.104px" height="371.474px" viewBox="0 0 383.104 371.474" enable-background="new 0 0 383.104 371.474"
	 xml:space="preserve">
<text transform="matrix(1 0 0 1 17.3755 34.5923)" font-family="'MyriadPro-Semibold'" font-size="25.2546">A</text>
<text transform="matrix(1 0 0 1 17.3755 351.7061)" font-family="'MyriadPro-Semibold'" font-size="25.2546">B</text>
<text transform="matrix(1 0 0 1 348.479 34.5923)" font-family="'MyriadPro-Semibold'" font-size="25.2546">D</text>
<text transform="matrix(1 0 0 1 348.479 351.7061)" font-family="'MyriadPro-Semibold'" font-size="25.2546">C</text>

<line fill="none" stroke="#1D1D1B" stroke-width="2.5255" stroke-linecap="round" stroke-linejoin="round" stroke-miterlimit="10" x1="36.561" y1="340.458" x2="36.561" y2="35.894">
<animate  stroke="remove" from="#1D1D1B" to="red" begin="0s;anim002.end" dur="0.8s" restart="always" id="anim001" calcMode="linear" attributeName="stroke" accumulate="none" additive="replace">
		</animate>
		<animate  fill="remove" from="red" to="#1D1D1B" begin="anim001.end" dur="0.8s" restart="always" id="anim002" calcMode="linear" attributeName="stroke" accumulate="none" additive="replace">
		</animate>
</line>
<line fill="none" stroke="#1D1D1B" stroke-width="2.5255" stroke-linecap="round" stroke-linejoin="round" stroke-miterlimit="10" x1="343.409" y1="340.458" x2="36.561" y2="340.458">
	<animate  stroke="remove" from="#1D1D1B" to="red" begin="0s;anim002.end" dur="0.8s" restart="always" id="anim001" calcMode="linear" attributeName="stroke" accumulate="none" additive="replace">
		</animate>
		<animate  fill="remove" from="red" to="#1D1D1B" begin="anim001.end" dur="0.8s" restart="always" id="anim002" calcMode="linear" attributeName="stroke" accumulate="none" additive="replace">
		</animate>
</line>
<line fill="none" stroke="#1D1D1B" stroke-width="2.5255" stroke-linecap="round" stroke-linejoin="round" stroke-miterlimit="10" x1="343.409" y1="35.894" x2="343.409" y2="340.458">
	<animate  stroke="remove" from="#1D1D1B" to="red" begin="0s;anim002.end" dur="0.8s" restart="always" id="anim001" calcMode="linear" attributeName="stroke" accumulate="none" additive="replace">
		</animate>
		<animate  fill="remove" from="red" to="#1D1D1B" begin="anim001.end" dur="0.8s" restart="always" id="anim002" calcMode="linear" attributeName="stroke" accumulate="none" additive="replace">
		</animate>
</line>
<line fill="none" stroke="#1D1D1B" stroke-width="2.5255" stroke-linecap="round" stroke-linejoin="round" stroke-miterlimit="10" x1="36.561" y1="35.894" x2="343.409" y2="35.894">
	<animate  stroke="remove" from="#1D1D1B" to="red" begin="0s;anim002.end" dur="0.8s" restart="always" id="anim001" calcMode="linear" attributeName="stroke" accumulate="none" additive="replace">
		</animate>
		<animate  fill="remove" from="red" to="#1D1D1B" begin="anim001.end" dur="0.8s" restart="always" id="anim002" calcMode="linear" attributeName="stroke" accumulate="none" additive="replace">
		</animate>
</line>

</svg>
