<?xml version="1.0" encoding="utf-8"?>
<!-- Generator: Adobe Illustrator 15.0.0, SVG Export Plug-In . SVG Version: 6.00 Build 0)  -->
<!DOCTYPE svg PUBLIC "-//W3C//DTD SVG 1.1//EN" "http://www.w3.org/Graphics/SVG/1.1/DTD/svg11.dtd">
<svg version="1.1" id="Layer_1" xmlns="http://www.w3.org/2000/svg" xmlns:xlink="http://www.w3.org/1999/xlink" x="0px" y="0px"
	 width="354.789px" height="401.597px" viewBox="535.547 162.026 354.789 401.597"
	 enable-background="new 535.547 162.026 354.789 401.597" xml:space="preserve">
<path opacity="0.8" fill="#007CB7" enable-background="new    " d="M873.661,371.732h-318.63V519.42c0,0.002,0,0.002,0,0.002
	c15.524-15.35,80.14-26.863,157.524-26.863c85.271,0,155.022,13.98,160.688,31.666c-0.001-0.003-0.003-0.006-0.003-0.01h0.419
	L873.661,371.732L873.661,371.732z"/>
<path fill="none" stroke="#333333" stroke-width="6.1667" stroke-miterlimit="10" d="M887.253,291.576
	c0-12.905-78.041-23.371-174.312-23.371S538.63,278.67,538.63,291.576"/>
<path opacity="0.8" fill="#AFD6EA" stroke="#333333" stroke-width="6.1667" stroke-linejoin="round" stroke-miterlimit="10" enable-background="new    " d="
	M552.365,522.943c0.205-0.41,0.463-0.816,0.734-1.224C552.824,522.127,552.572,522.533,552.365,522.943z"/>
<path opacity="0.8" fill="#AFD6EA" stroke="#333333" stroke-width="6.1667" stroke-linejoin="round" stroke-miterlimit="10" enable-background="new    " d="
	M553.527,521.117c0.261-0.344,0.556-0.687,0.864-1.025C554.083,520.432,553.79,520.773,553.527,521.117z"/>
<path opacity="0.8" fill="#AFD6EA" stroke="#333333" stroke-width="6.1667" stroke-linejoin="round" stroke-miterlimit="10" enable-background="new    " d="
	M551.681,524.752c0.119-0.479,0.304-0.957,0.517-1.432C551.982,523.795,551.802,524.271,551.681,524.752z"/>
<path opacity="0.8" fill="#AFD6EA" stroke="#333333" stroke-width="6.1667" stroke-linejoin="round" stroke-miterlimit="10" enable-background="new    " d="
	M873.5,525.209c0.082,0.447,0.161,0.892,0.161,1.34C873.661,526.099,873.595,525.654,873.5,525.209z"/>
<path opacity="0.8" fill="#AFD6EA" stroke="#333333" stroke-width="6.1667" stroke-linejoin="round" stroke-miterlimit="10" enable-background="new    " d="
	M551.455,526.549c0-0.549,0.074-1.092,0.195-1.634C551.525,525.455,551.455,526,551.455,526.549z"/>
<path fill="#AFD6EA" stroke="#333333" stroke-width="6.1667" stroke-linejoin="round" stroke-miterlimit="10" d="M554.393,520.092
	c0.204-0.224,0.411-0.447,0.637-0.669C554.804,519.646,554.597,519.868,554.393,520.092z"/>
<path fill="#AFD6EA" stroke="#333333" stroke-width="6.1667" stroke-linejoin="round" stroke-miterlimit="10" d="M551.65,524.915
	c0.012-0.055,0.017-0.11,0.029-0.163C551.667,524.805,551.662,524.86,551.65,524.915z"/>
<path fill="#AFD6EA" stroke="#333333" stroke-width="6.1667" stroke-linejoin="round" stroke-miterlimit="10" d="M873.5,525.209
	c-0.06-0.328-0.151-0.656-0.255-0.984C873.349,524.553,873.431,524.882,873.5,525.209z"/>
<path fill="#AFD6EA" stroke="#333333" stroke-width="6.1667" stroke-linejoin="round" stroke-miterlimit="10" d="M552.196,523.32
	c0.057-0.126,0.104-0.252,0.169-0.377C552.302,523.068,552.253,523.194,552.196,523.32z"/>
<path fill="#AFD6EA" stroke="#333333" stroke-width="6.1667" stroke-linejoin="round" stroke-miterlimit="10" d="M553.101,521.721
	c0.138-0.201,0.271-0.401,0.428-0.604C553.372,521.318,553.237,521.518,553.101,521.721z"/>
<path fill="#61BEED" stroke="#333333" stroke-width="6.1667" stroke-linejoin="round" stroke-miterlimit="10" d="M712.557,492.559
	c-77.386,0-142,11.515-157.527,26.864c-0.226,0.222-0.433,0.445-0.637,0.669c-0.31,0.34-0.604,0.683-0.864,1.025
	c-0.155,0.201-0.29,0.401-0.428,0.604c-0.271,0.406-0.529,0.813-0.734,1.224c-0.063,0.125-0.112,0.251-0.169,0.377
	c-0.213,0.475-0.396,0.951-0.517,1.432c-0.014,0.053-0.019,0.108-0.029,0.163c-0.121,0.542-0.195,1.085-0.195,1.634
	c0,18.771,72.127,33.99,161.102,33.99c88.979,0,161.104-15.219,161.104-33.99c0-0.448-0.079-0.893-0.161-1.34
	c-0.069-0.327-0.151-0.656-0.255-0.984C867.579,506.539,797.827,492.559,712.557,492.559z"/>

	
	<g id="test"  stroke-width="3" stroke="#F1A30F" >
	<path fill="#999999" d="M764.671,162.404v-0.378C764.671,162.026,764.479,162.183,764.671,162.404z"/>
	<path fill="#999999" d="M796.859,162.026v0.662C797.427,162.328,796.859,162.026,796.859,162.026z"/>
	<path fill="#BBC9C9" d="M790.348,163.684c-2.218,0.122-5.131,0.198-8.98,0.198c-2.983,0-5.439-0.046-7.463-0.123
		c-7.12-0.272-8.871-0.933-9.232-1.355v351.174c0,0,2.337,2.325,9.232,3.293c1.809,0.254,3.913,0.42,6.392,0.42
		c4.414,0,7.654-0.34,10.053-0.811c5.556-1.095,6.513-2.902,6.513-2.902v-350.89C796.309,163.04,794.657,163.447,790.348,163.684z"
		/>
		
	<style type="text/css" >
							<![CDATA[

							#test path {
							
							transition: 10s ease;
							}
  

      ]]>
    </style>	
		
		
		
	</g>




<g id="test2">
	<path fill="#DC9570" d="M626.36,162.404v-0.378C626.36,162.026,626.17,162.183,626.36,162.404z"/>
	<path fill="#DC9570" d="M658.549,162.026v0.662C659.115,162.328,658.549,162.026,658.549,162.026z"/>
	<path fill="#DC9570" d="M652.037,163.684c-2.219,0.122-5.131,0.198-8.98,0.198c-2.984,0-5.439-0.046-7.466-0.123
		c-7.119-0.272-8.869-0.933-9.229-1.355v351.174c0,0,2.336,2.325,9.229,3.293c1.811,0.254,3.914,0.42,6.394,0.42
		c4.415,0,7.653-0.34,10.054-0.811c5.556-1.095,6.512-2.902,6.512-2.902v-350.89C657.997,163.04,656.346,163.447,652.037,163.684z"
		/>
		
			
		
		
		
	
</g>



<g>
	<g>
		<path opacity="0.7" fill="#99CCFF" enable-background="new    " d="M873.661,371.732h-318.63V519.42
			c-2.326,2.3-3.576,4.684-3.576,7.129c0,18.771,72.127,33.99,161.102,33.99c88.979,0,161.104-15.219,161.104-33.99
			c0-0.785-0.173-1.562-0.419-2.334h0.419V371.732z"/>
		<path fill="none" stroke="#333333" stroke-width="6.1667" stroke-linejoin="round" stroke-miterlimit="10" d="M559.451,302.659
			l-4.42,0.026V519.42c-2.326,2.3-3.576,4.684-3.576,7.129c0,18.771,72.127,33.99,161.102,33.99
			c88.979,0,161.104-15.219,161.104-33.99c0-0.785-0.173-1.562-0.419-2.334h0.419V300.707h-0.227
			c-26.522,8.369-88.394,14.238-160.493,14.238C646.585,314.945,588.9,309.974,559.451,302.659z"/>
	</g>
	<path fill="none" stroke="#333333" stroke-width="6.1667" stroke-miterlimit="10" d="M538.631,291.576
		c0,4.01,7.543,7.785,20.82,11.083c29.449,7.313,87.134,12.286,153.49,12.286c72.101,0,133.971-5.869,160.493-14.238
		c8.892-2.805,13.817-5.891,13.817-9.131"/>
</g>
</svg>
