<?xml version="1.0" encoding="utf-8"?>
<!DOCTYPE svg PUBLIC "-//W3C//DTD SVG 1.1//EN" "http://www.w3.org/Graphics/SVG/1.1/DTD/svg11.dtd">
<svg version="1.1" id="Layer_1" xmlns="http://www.w3.org/2000/svg" xmlns:xlink="http://www.w3.org/1999/xlink" x="0px" y="0px"
	 width="100%" height="100%" viewBox="0 0 707 418" enable-background="new 0 0 707 418" xml:space="preserve">
<line fill="none" stroke="#666666" stroke-width="4.0249" stroke-linecap="round" stroke-linejoin="round" stroke-miterlimit="10" x1="345.472" y1="199.522" x2="345.472" y2="221.731"/>
<line fill="none" stroke="#666666" stroke-width="4.0249" stroke-linecap="round" stroke-linejoin="round" stroke-miterlimit="10" x1="516.7" y1="199.522" x2="516.7" y2="221.731"/>
<text transform="matrix(1 0 0 1 352.5129 233.0791)" font-family="'MyriadPro-Regular'" font-size="19.2">C</text>
<text transform="matrix(1 0 0 1 533.7131 233.0791)" font-family="'MyriadPro-Regular'" font-size="19.2">F</text>
<g id="raydiagramobject">
	<linearGradient id="SVGID_1_" gradientUnits="userSpaceOnUse" x1="142.4851" y1="175.8855" x2="142.4851" y2="214.9217">
		<stop  offset="0" style="stop-color:#74380F"/>
		<stop  offset="1" style="stop-color:#A77E00"/>
	</linearGradient>
	<rect x="137.595" y="178.043" fill="url(#SVGID_1_)" width="9.78" height="29.979"/>
	<linearGradient id="SVGID_2_" gradientUnits="userSpaceOnUse" x1="142.4836" y1="137.3899" x2="142.4836" y2="183.6348">
		<stop  offset="0.0112" style="stop-color:#799C3C"/>
		<stop  offset="1" style="stop-color:#AEBB00"/>
	</linearGradient>
	<path fill="url(#SVGID_2_)" d="M162.181,160.394c0.522-1.212,0.812-2.548,0.812-3.95c0-5.097-3.803-9.302-8.732-9.949
		c-1.031-5.823-5.668-10.217-11.234-10.217c-5.538,0-10.159,4.35-11.221,10.133c-0.078-0.001-0.156-0.005-0.234-0.005
		c-5.553,0-10.053,4.494-10.053,10.038c0,1.491,0.328,2.904,0.913,4.178c-3.06,2.053-5.073,5.542-5.073,9.499
		c0,6.318,5.127,11.438,11.453,11.438c2.446,0,4.711-0.768,6.571-2.072c1.979,1.63,4.517,2.609,7.285,2.609
		c2.688,0,5.156-0.927,7.111-2.476c1.824,1.223,4.018,1.938,6.38,1.938c6.325,0,11.452-5.12,11.452-11.438
		C167.609,166.012,165.44,162.411,162.181,160.394z"/>
</g>
<g id="raydiagramimage">	
	<linearGradient id="SVGID_3_" gradientUnits="userSpaceOnUse" x1="452.1858" y1="473.741" x2="452.1858" y2="491.2474" gradientTransform="matrix(-1 0 0 -1 891.6353 698.9683)">
		<stop  offset="0" style="stop-color:#74380F"/>
		<stop  offset="1" style="stop-color:#A77E00"/>
	</linearGradient>
	<rect x="437.256" y="210.815" fill="url(#SVGID_3_)" width="4.386" height="13.444"/>
	
	<linearGradient id="SVGID_4_" gradientUnits="userSpaceOnUse" x1="452.1858" y1="456.4783" x2="452.1858" y2="477.2169" gradientTransform="matrix(-1 0 0 -1 891.6353 698.9683)">
		<stop  offset="0.0112" style="stop-color:#799C3C"/>
		<stop  offset="1" style="stop-color:#AEBB00"/>
	</linearGradient>
	<path fill="url(#SVGID_4_)" d="M430.616,232.174c-0.234,0.544-0.364,1.144-0.364,1.772c0,2.285,1.706,4.171,3.916,4.461
		c0.463,2.611,2.542,4.582,5.037,4.582c2.484,0,4.558-1.951,5.033-4.544c0.035,0,0.07,0.002,0.104,0.002
		c2.49,0,4.51-2.015,4.51-4.501c0-0.669-0.148-1.303-0.41-1.873c1.371-0.921,2.275-2.486,2.275-4.262c0-2.833-2.3-5.128-5.136-5.128
		c-1.099,0-2.113,0.344-2.947,0.929c-0.889-0.731-2.025-1.17-3.268-1.17c-1.204,0-2.312,0.416-3.188,1.11
		c-0.818-0.549-1.802-0.869-2.861-0.869c-2.837,0-5.136,2.295-5.136,5.128C428.182,229.655,429.156,231.268,430.616,232.174z"/>
</g>
<line fill="none" stroke="#666666" stroke-width="3.1306" stroke-miterlimit="10" x1="2.273" y1="209.651" x2="688.673" y2="209.651"/>
<polyline id="blueray" fill="none" stroke="#007DC5" stroke-width="1.2" stroke-miterlimit="10" points="143.376,136.991 686.659,243.185 
    164.837,243.185 "/>
<line id="greenray" fill="none" stroke="#008C44" stroke-width="1.2" stroke-miterlimit="10" x1="143.376" y1="137.243" x2="668.089" y2="326.89"/>
<polyline id="redray" fill="none" stroke="#ED1C24" stroke-width="1.2" stroke-miterlimit="10" points="143.376,136.562 680.271,136.022 
    280.032,315.397 "/>
<g id="arrowgroup">
	<polyline fill="none" stroke="#007DC5" stroke-width="1.2" stroke-miterlimit="10" points="339.312,179.687 348.152,176.911 
		341.327,170.646 	"/>
	<polyline fill="none" stroke="#007DC5" stroke-width="1.2" stroke-miterlimit="10" points="295.417,238.894 287.226,243.222 
		295.07,248.151 	"/>
	<polyline fill="none" stroke="#008C44" stroke-width="1.2" stroke-miterlimit="10" points="287.948,194.294 297.103,192.866 
		291.29,185.651 	"/>
	<polyline fill="none" stroke="#008C44" stroke-width="1.2" stroke-miterlimit="10" points="583.161,291.317 573.982,292.567 
		579.654,299.892 	"/>
	<polyline fill="none" stroke="#ED1C24" stroke-width="1.2" stroke-miterlimit="10" points="314.157,141.001 322.181,136.368 
		314.157,131.735 	"/>
	<polyline fill="none" stroke="#ED1C24" stroke-width="1.2" stroke-miterlimit="10" points="344.835,280.921 339.589,288.558 
		348.825,289.282 	"/>
</g>
<g>
	<path fill="#0DF1FF" d="M688.337,99.3c-11.709-34.714-29.062-67.473-51.121-96.719h-14.931
		c21.959,29.306,39.012,61.667,50.674,96.239c12.33,36.556,18.381,74.847,17.985,113.812c-0.395,38.808-7.194,76.846-20.214,113.059
		c-11.553,32.133-27.83,62.305-48.368,89.737h14.935c20.667-27.422,37.204-57.93,48.822-90.245
		c12.964-36.061,19.736-74.255,20.125-112.566C706.635,174.178,700.625,135.729,688.337,99.3z"/>
	<path fill="#00A7FF" d="M672.959,98.82c-11.662-34.572-28.715-66.934-50.674-96.239h-1.869h-1.869c22.42,29.521,39.771,62.223,51.568,97.198
		c12.223,36.236,18.221,74.194,17.829,112.821c-0.391,38.472-7.132,76.179-20.036,112.074
		c-11.703,32.553-28.285,63.084-49.281,90.753h1.87h1.865c20.538-27.433,36.815-57.604,48.368-89.737
		c13.02-36.213,19.819-74.251,20.214-113.059C691.34,173.667,685.289,135.376,672.959,98.82z"/>
</g>
</svg>
