selector,english_word,engmeaning,nepali_word,nepmeaning,image
The Will,will,a page with instructions as to what should be done with one's money and property after one's death,इच्‍छापत्र,मरेपछि आफ्नो धनसम्पति कसलाई दिने भनेर लेखिएको कागज,
bred,breed,,पाल्‍नु,पाल्‍नु,
cattle fair,cattle fair,a fair for buying and selling animals,पशुमेला,जनावरहरू किनबेच गर्न खुलेको मेला,
rear,rear,,हुर्काउनु,,
often,often,,धेरैपटक,,
herd,herd,,बथान,धेरै जनावरहरूको समूह,
lifeless,lifeless,,मृत,जीवन नभएको,
seal,seal,,सील,सुरक्षाका लागि बन्द गर्न प्रयोग गरिने वस्तु,
wrapped,wrap,,बेर्नु,,
advice,advice,,सल्‍लाह,,
look after,look after,,हेरचाह गर्नु,,
responsibility,responsibility,,जिम्मेवारी,,
top to bottom,top to bottom,,,माथिदेखि तलसम्‍म,
fulfilled,fulfill,,,पूरा गर्नु,
decisions,decision,,निर्णय,,
event,event,,विशेष कार्यक्रम,,
surprised,surprised,,,अचम्म हुनु,
remembered,remember,,,याद गर्नु,
sheets,sheet,a page,पाना,,
stuck,stick,,टाँसिनु,,
corner,corner,,कुना,,
rubbed,rub,,कोट्याउनु,,
lit up,lit up,,,उज्यालो हुनु,
witness,witness,,घटना देख्‍ने व्‍यक्‍ति,,
property,property,,सम्पति,,
distributed,distribute,,बाँड्नु,,
remainder,remainder,,बाँँकी,,
unfamiliar,unfamiliar,,,थाहा नभएको,
predictions,prediction,,भविष्‍यवाणी,,
predict,predict,,,पछि (भविष्‍यमा) के हुन्‍छ भनेर अनुमान गर्नु,
intelligent,intelligent,,बुद्धिमान,,
demanded,demand,,,माग गर्नु,
impossible,impossible,,असम्भव,हुनै नसक्‍ने,
quarreling,quarrel,,,भनाभन गर्दै झगडा गर्नु,
entire,entire,all,सारा,सबै,
willing,willing,,इच्छुक,केही (काम) गर्न तयार,
back down,back down,,पछि हट्नु,,
exclaimed,exclaim,,,एक्‍कासि ठुलो आवाजमा बोल्‍नु,
buried,bury,,गाड्नु,माटोमुनि गाड्नु,
support,support,,समर्थन,कसैको कुरामा सहमत हुनु,
suggest,suggest,,सुझाव, सल्‍लाह,
just,just,,निष्पक्ष,सबैसँग बराबर व्‍यवहार गर्ने,
