<?xml version="1.0" encoding="utf-8"?>
<!-- Generator: Adobe Illustrator 15.0.0, SVG Export Plug-In . SVG Version: 6.00 Build 0)  -->
<!DOCTYPE svg PUBLIC "-//W3C//DTD SVG 1.1//EN" "http://www.w3.org/Graphics/SVG/1.1/DTD/svg11.dtd">
<svg version="1.1" id="Layer_1" xmlns="http://www.w3.org/2000/svg" xmlns:xlink="http://www.w3.org/1999/xlink" x="0px" y="0px"
	 width="252.458px" height="295.333px" viewBox="0 0 252.458 295.333" enable-background="new 0 0 252.458 295.333"
	 xml:space="preserve">
<g id="path0">
	<path fill="#434343" d="M241.708,143.584c0,25.496-3.33,47.303-9.99,65.42c-6.66,18.121-16.221,32.908-28.682,44.365
		c-12.461,11.461-27.607,19.873-45.439,25.244s-39.068,8.057-63.702,8.057H27.508c-4.727,0-8.701-1.396-11.924-4.189
		s-4.834-7.338-4.834-13.643V26.495c0-6.301,1.611-10.85,4.834-13.643s7.197-4.189,11.924-4.189h71.328
		c24.777,0,45.795,2.9,63.057,8.701c17.258,5.801,31.797,14.395,43.613,25.781s20.803,25.459,26.963,42.217
		C238.625,102.12,241.708,121.53,241.708,143.584z M183.27,145.518c0-13.176-1.541-25.422-4.619-36.738
		c-3.082-11.313-8.023-21.125-14.824-29.434c-6.805-8.305-15.543-14.787-26.211-19.443c-10.672-4.652-24.674-6.982-42.002-6.982
		H67.039v189.063h29.434c15.469,0,28.5-2.004,39.102-6.016c10.598-4.008,19.443-10.061,26.533-18.154
		c7.09-8.09,12.387-18.154,15.898-30.186C181.514,175.596,183.27,161.561,183.27,145.518z"/>
</g>
<g id="gr" display="none">
	
	<line id="path1" fill="none" stroke="#000000" stroke-width="21" stroke-miterlimit="10" x1="41.236" y1="22.083" x2="41.236" y2="273.25"/>
	<path id="path2" fill="none" stroke="#000000" stroke-width="21" stroke-miterlimit="10" d="M30.903,31.748
		c0,0,16.564,0.002,33.333,0.002c73.667-0.002,131.896,8.182,142.667,83.333c14.668,102.334-34.332,139.334-77.666,146.668
		c-33.981,5.75-89.334,0.875-89.334,0.875"/>
</g>
</svg>
