selector,english_word,engmeaning,nepali_word,nepmeaning,image
expressing,express,,,व्‍यक्‍त गर्नु,
interesting,interesting,,,रोचक,
knowledge,knowledge,,,ज्ञान,
simply,simply,,,सरल रूपमा,
established,establish,,स्‍थापित,कुनै व्‍यावसाय वा संस्‍था खोल्‍नु वा सुरु गर्नु,
slopes,slope,the sides of hills and mountains,भिर,हिमाल वा पहाडको भिर,
species,species,,प्रजाति,एउटै जातिको बुझाउने शब्द,
stated,state,to say something,,भन्‍नु,
shoemaker,shoemaker,a person who makes shoes,,जुत्ता बनाउने मान्‍छे,
repaired,repair,,,मर्मत गर्नु,
