<?xml version="1.0" encoding="utf-8"?>
<!-- Generator: Adobe Illustrator 15.0.0, SVG Export Plug-In . SVG Version: 6.00 Build 0)  -->
<!DOCTYPE svg PUBLIC "-//W3C//DTD SVG 1.1//EN" "http://www.w3.org/Graphics/SVG/1.1/DTD/svg11.dtd">
<svg version="1.1" id="Layer_1" xmlns="http://www.w3.org/2000/svg" xmlns:xlink="http://www.w3.org/1999/xlink" x="0px" y="0px"
	 width="610.137px" height="510.137px" viewBox="0 0 610.137 510.137" enable-background="new 0 0 610.137 510.137"
	 xml:space="preserve">
<path id="fullimg" fill="#D4A847" d="M176.136,347.417l-74.469,157.271H5.923l243.617-500h111.701l244.682,500h-98.938
	L430.39,347.417H176.136z M411.24,296.972l-70.21-143.917c-15.959-32.641-26.597-62.314-37.234-91.247h-2.127
	c-10.641,29.673-22.341,60.089-36.171,90.505l-70.212,144.658L411.24,296.972L411.24,296.972z"/>
<g id="path01">
	<g>
		<polygon fill="none" stroke="#231F20" stroke-width="3" stroke-linecap="square" stroke-linejoin="round" points="34.652,461.199
			242.462,15.495 244.966,10.125 247.501,4.687 252.939,7.223 262.257,11.569 294.873,26.78 299.532,28.952 304.97,31.489
			302.435,36.927 297.427,47.666 89.616,493.369 87.113,498.74 84.577,504.18 79.14,501.645 69.822,497.298 37.205,482.088
			32.546,479.912 27.109,477.379 29.644,471.942 		"/>
	</g>
</g>
<g id="path02">
	<g>
		<polygon fill="none" stroke="#231F20" stroke-width="3" stroke-linecap="square" stroke-linejoin="round" points="369.814,20.865
			577.622,466.571 580.128,471.942 582.661,477.379 577.226,479.912 567.906,484.261 535.291,499.471 530.632,501.645
			525.195,504.18 522.657,498.74 517.652,488.002 309.841,42.297 307.337,36.927 304.802,31.489 310.24,28.952 319.558,24.607
			352.174,9.396 356.833,7.223 362.271,4.687 364.806,10.125 		"/>
	</g>
</g>
<g id="path03">
	<g>
		<polygon fill="none" stroke="#231F20" stroke-width="3" stroke-linecap="square" stroke-linejoin="round" points="
			421.111,297.514 427.111,297.514 427.111,303.514 427.111,316.28 427.111,335.428 427.111,341.811 427.111,347.811
			421.111,347.811 408.804,347.811 193.439,347.811 187.285,347.811 181.285,347.811 181.285,341.811 181.285,329.045
			181.285,309.897 181.285,303.514 181.285,297.514 187.285,297.514 199.592,297.514 414.955,297.514 		"/>
	</g>
</g>
<path id="fill01" fill="none" stroke="transparent" stroke-width="60" stroke-miterlimit="10" d="M278.569,22.571L54.902,491.905"/>
<path id="fill03" fill="none" stroke="transparent" stroke-width="69.6752" stroke-miterlimit="10" d="M142.864,325.239h322.743"/>
<path id="fill02" fill="none" stroke="transparent" stroke-width="60" stroke-miterlimit="10" d="M329.903,23.239l225.333,468.333"/>
</svg>
