{
  "phy": {
    "lesson_name": "Personal hygiene",
    "about_the_lesson_content": {
      "en": "Students will learn about the importance of cleaning their body parts regularly. By the end of the lesson, they will be able to explain why it is important to maintain personal hygiene. Overall, they will learn about many ways to maintain personal hygiene. ",
      "np": "यस पाठमा विद्यार्थीहरूले आफ्नो शरीर नियमित सफा राख्\u200dनुको महत्त्वको बारेमा जान्\u200dनेछन्। साथै शरीरलाई कसरी सफा राख्\u200dने भनेर केही उपाएहरू समेत जान्\u200dनेछन्।"
    },
    "curricular_requirement_content": {
      "en": "“Personal hygiene” belongs to the “Personal hygiene” unit, which is given a curricular weightage of 11 teaching hours. Out of these, this E-Paath chapter can be given a total of 2 teaching hours.",
      "np": "\"स्वास्थ्य शिक्षा अन्तर्गत पर्ने \"व्यक्तिगत सफाइ\" खण्डका लागि राष्ट्रिय पाठ्यक्रमले अनुमानित ११ घन्टी दिएको भएपनि यो ई-पाठको लागि भने बढीमा २ घन्टी बराबरको समय दिनु उपयोगी हुन सक्छ।\""
    },
    "prerequisites_content": {
      "paragraph": {
        "en": "Students may want to review the following previous chapters before beginning this lesson.",
        "np": "विद्यार्थीहरूले यो पाठ पढ्नु अघि तलका क्रियाकलाप हेर्नु उपयोगी हुनेछ। "
      },
      "chapter_links": {
        "chapter_link_data1": {
          "grade": "3",
          "id": "clb",
          "breadcrumb_data": {
            "en": "Grade 3 > Clean body",
            "np": " कक्षा ३  ➔ सफा शरीर "
          }
        },
        "chapter_link_data2": {
          "grade": "2",
          "id": "phy",
          "breadcrumb_data": {
            "en": "Grade 2 > Personal hygiene",
            "np": " कक्षा २  ➔ शरीरको सफाइ "
          }
        },
        "chapter_link_data3": {
          "grade": "4",
          "id": "ttt",
          "breadcrumb_data": {
            "en": "Grade 4 > Cleanliness",
            "np": " कक्षा ४  ➔ शरीरको सफाइ "
          }
        }
      }
    },
    "lesson_guidelines_content": {
      "en": {
        "paragraph": "",
        "list": [
          "Students are given a comprehensive list of rules to maintain their health and clean their bodies. They learn why they must do certain activities, such as washing their hands and bathing regularly. They will also learn what happens if they do not engage in these activities (i.e. get sick more frequently). ",
          "Teachers may need to demonstrate one or more of the rules given in the lesson (washing hands, brushing teeth, etc.). "
        ]
      },
      "np": {
        "paragraph": "",
        "list": [
          "पाठमा विद्यार्थीहरूलाई शरीर कसरी सफा र स्वस्थ राख्\u200dन सकिन्छ भनेर नियमसहित बताइएको छ। साथै किन ती नियमहरुको पालना गर्नुपर्छ भनेर पनि कारण सहित प्रस्ट पारिएको छ। जस्तै: हात नधोई खाना खाए बिरामी परिन्छ।",
          "शरीर कसरी सफा राख्\u200dने भनेर शिक्षकले दाँत माझेर वा हात धोएर उनीहरूलाई अवलोकन गर्न लगाई अझै स्पष्ट पार्न सकिन्छ।"
        ]
      }
    },
    "related_activities_content": {
      "en": {
        "paragraph": "",
        "list": [
          "Have students record their daily hygiene routine for a week. They can mark down what they do or don’t do. For example, they can record how frequently they washed their hair and how often they brushed their teeth.",
          "Teachers should demonstrate how to properly wash hands and nails.",
          "Have a class discussion on the importance of personal hygiene and encourage students to practice as many of the rules in the E-paath as possible. ",
          "Have students write their morning and night time routines. They can write what time they bathe, when they brush their teeth, when they eat, etc.. "
        ]
      },
      "np": {
        "paragraph": "",
        "list": [
          "विद्यार्थीहरूलाई आफूले सरसफाइ कसरी गर्ने गरेका छौ? दिनमा कति पटक दाँत माझ्छौ? हप्\u200dतामा कति पटक नुहाउँछौ? जस्ता कुराको सूची बनाउन लगाएर त्यसमा उनीहरूले गरेको कार्यमा ठिक चिह्\u200dन लगाउने गरी चार्ट पेपर तयार पार्न लगाउन सकिन्छ।",
          "हात र नङ कसरी सफासँग धुने भनेर शिक्षकले आफैँ गरेर देखाउन सकिनेछ।",
          "सफा बन्\u200dनुको महत्त्व झल्कने गरी विद्यार्थीहरूलाई पाठमा दिएका नियमहरूको बढी भन्दा बढी पालना गराउनको लागी उत्प्रेरित गर्न सकिन्छ।",
          "विद्यार्थीहरूलाई आफूले सरसफाइका लागि बिहानदेखि बेलुकीसम्म गर्ने कार्यहरू समेटिने गरी तालिका बनाउन लगाई समूहमा छलफल गराउन सकिनेछ।"
        ]
      }
    },
    "evaluation_content": {
      "en": {
        "paragraph": " ",
        "list": []
      },
      "np": {
        "paragraph": " ",
        "list": []
      }
    }
  },
  "pof": {
    "lesson_name": "Parts of a flower",
    "about_the_lesson_content": {
      "en": "Students will learn about the different parts of a flower and their functions. By the end of this E-paath lesson, students should not only be able to identify the parts of a flower, but also be able to explain their functions in detail. ",
      "np": "यो पाठमा विद्यार्थीहरूले फूलको विभिन्\u200dन भागहरूका बारेमा जानकारी प्राप्\u200dत गर्नेछन्। साथै उनीहरूले हरेक भागले गर्ने कार्यको बारेमा समेत जान्\u200dनेछन्। "
    },
    "curricular_requirement_content": {
      "en": "“Parts of a flower” belongs to the “Living Things” unit, which is given a curricular weightage of 45 teaching hours. Out of these, this E-Paath chapter can be given a total of 2-3 teaching hours.",
      "np": "“फूलका विभिन्\u200dन भागहरू” शीर्षकको पाठ “सजीव वस्तु” अन्तर्गत पर्ने भएकोले राष्ट्रिय पाठ्यक्रमले यसको लागि ४५ घन्टी दिएको छ। यस पाठको लागि बढीमा २-३ घन्टी दिन सकिनेछ।\""
    },
    "prerequisites_content": {
      "paragraph": {
        "en": "Before beginning this lesson, students should be familiar with plants and their functions as living organisms. They should also be able to identify some parts of a plant (flower, stem, leaves, and roots). Students can refer to the following E-paath chapter to review if necessary: ",
        "np": "विद्यार्थीहरूसँग बिरुवाका विभिन्\u200dन भागहरूका बारेमा सामान्य जानकारी हुनु उपयोगी हुनेछ। साथै उनीहरूले तलको ई-पाठ हेरेर यो पाठ पढेमा पाठ अझै रोचक हुने अपेक्षा गरिन्छ।"
      },
      "chapter_links": {
        "chapter_link_data1": {
          "grade": "5",
          "id": "pop",
          "breadcrumb_data": {
            "en": "Grade 5 > Parts of a plant",
            "np": " कक्ष ५  ➔ बिरुवाका विभिन्\u200dन भागहरू"
          }
        }
      }
    },
    "lesson_guidelines_content": {
      "en": {
        "paragraph": "",
        "list": [
          "Teachers can start this activity in the garden or in the classroom with flowers available for the students. They can explain that flowers are of different types but most of them have the same basic parts. They can bring a complete flower and show the 4 main parts: androecium, gynoecium, corolla and calyx. The teachers can explain that “gyno” means relating to women and “andro” means relating to men. This will help the students remember the male and female parts of a flower. ",
          "In the first class, teachers can go through the different parts of a flower and explain complete/incomplete flowers. In the second class, they can explain in brief about pollination and formation of seeds. The students can work on the Do It Yourself section as well as the exercise, both of which will summarize their learning."
        ]
      },
      "np": {
        "paragraph": "",
        "list": [
          "शिक्षकले यो पाठलाई बगैँचामा वा विद्यार्थीहरूलाई फूल उपलब्ध गराएर पढाउनु बेस हुनेछ। पत्रदल, पुष्पदल, स्त्रीकेशर र पुङ्\u200dकेशरका बारेमा बताइदिन सकिन्छ। ",
          "पहिलो कक्षामा फूलका विभिन्\u200dन भाग र तिनका कार्यहरूको सामान्य जानकारी दिएर दोस्रो कक्षामा परागसेचनका बारेमा बताइदिन सकिन्छ।"
        ]
      }
    },
    "related_activities_content": {
      "en": {
        "paragraph": "",
        "list": [
          "As their homework, students can get a complete flower and show its different parts on a chart paper.",
          "Divide students into different groups and have each group look at different flowers. Students should identify the different parts of the flowers.",
          "Students can choose one part of the flower to focus on and learn about that one part in-depth and present their findings to the class.",
          "Teachers can make statements of parts of a flower. They can even demonstrate the flowers. Students will need to say whether the statements are wrong or right with reasons. E.g. teachers can get an incomplete flower and mention that the single flower is sufficient for pollination to happen. Student will need to say that it is a wrong statement as the flower has no androecium or gynoecium part."
        ]
      },
      "np": {
        "paragraph": "",
        "list": [
          "गृहकार्यका रूपमा विद्यार्थीहरूले पूर्ण फूलको चित्रलाई चार्ट पेपरमा उतार्न लगाउन सकिन्छ।",
          "विद्यार्थीहरूलाई समूहमा बाँडेर फूल उपलब्ध गराई त्यसका विभिन्\u200dन भागहरू चिन्\u200dन लगाउन सकिन्छ। ",
          "विद्यार्थीहरूले फूलको कुनै एक भाग छानेर त्यसको बारेमा विस्तृतमा अध्ययन गर्नेछन्। त्यसपछि आफूले पाएको कुराहरूलाई कक्षामा प्रस्तुत गर्नेछन्।  ",
          "शिक्षकले फूलका विभिन्\u200dन भागको चित्र बनाएर त्यसको कार्य बताउँदै विद्यार्थीहरूलाई नाम भन्\u200dन लगाउन सकिन्छ। "
        ]
      }
    },
    "evaluation_content": {
      "en": {
        "paragraph": " ",
        "list": []
      },
      "np": {
        "paragraph": " ",
        "list": []
      }
    }
  },
  "pop": {
    "lesson_name": "Parts of a plant",
    "about_the_lesson_content": {
      "en": "Students will learn about the different parts of a plant and their function. By the end of this E-paath lesson, students should not only be able to identify the parts of a plant, but also be able to explain their functions in detail. ",
      "np": "यो पाठमा विद्यार्थीहरूले बिरुवाको विभिन्\u200dन भागहरूका बारेमा जानकारी प्राप्\u200dत गर्नेछन्। साथै उनीहरूले हरेक भागले गर्ने कार्यका बारेमा समेत जान्\u200dनेछन्। "
    },
    "curricular_requirement_content": {
      "en": "“Parts of a plant belongs to the “Living Things” unit, which is given a curricular weightage of 45 teaching hours. Out of these, this E-Paath chapter can be given a total of 2-3 teaching hours.",
      "np": "“बिरुवाका विभिन्\u200dन भागहरू” शीर्षकको पाठ “सजीव वस्तु” अन्तर्गत पर्ने भएकोले राष्ट्रिय पाठ्यक्रमले यसको लागि ४५ घन्टी दिएको छ। यस पाठको लागि बढीमा २-३ घन्टी दिन सकिनेछ।\""
    },
    "prerequisites_content": {
      "paragraph": {
        "en": "Before beginning this lesson, students should be familiar with plants and their functions as living organisms. They should also be able to identify some parts of a plant (flower, stem, leaves, and roots). Students can refer to the following E-paath chapters to review if necessary: ",
        "np": "विद्यार्थीहरूसँग बिरुवाका विभिन्\u200dन भागहरूका बारेमा सामान्य जानकारी हुनु उपयोगी हुनेछ। साथै उनीहरूले तलको ई-पाठ हेरेर यो पाठ पढेमा पाठ अझै रोचक हुने अपेक्षा गरिन्छ।"
      },
      "chapter_links": {
        "chapter_link_data1": {
          "grade": "4",
          "id": "stp",
          "breadcrumb_data": {
            "en": "Grade 4 > Different Stages of Plants",
            "np": " कक्षा ४  ➔ बिरुवाका विकासका चरणहरू"
          }
        },
        "chapter_link_data2": {
          "grade": "3",
          "id": "typ",
          "breadcrumb_data": {
            "en": "Grade 3 > Type of Plants",
            "np": " कक्षा ३  ➔ विभिन्\u200dन प्रकारका बिरुवाहरू"
          }
        },
        "chapter_link_data3": {
          "grade": "1",
          "id": "pop",
          "breadcrumb_data": {
            "en": "Grade 1 > Parts of a plant",
            "np": " कक्षा १  ➔ बिरुवाका विभिन्\u200dन भागहरू"
          }
        }
      }
    },
    "lesson_guidelines_content": {
      "en": {
        "paragraph": "",
        "list": [
          "Use section 1 and previous E-paath chapters listed above to review plants and their parts. Ask students to identify different parts of their body and explain their functions. Then, tell them this is what they will be learning in this lesson with plants. Label a plant’s parts together as a class. ",
          "Section 2, pages 1-4. Talk about flowers and their purpose. Students and teachers can refer to E-paath lesson, Parts of a flower, for additional information. Give examples of different types of flowers. Teachers can also introduce and explain pollination here, if it is appropriate for the class. ",
          "Section 2, pages 4-7. Talk about leaves and their purpose. Make sure to explain photosynthesis and give a diagram (example below) of how it works. Teachers may want to show a video or give a more extensive lesson to explain photosynthesis and its importance in our world.",
          "Section 2, pages 8-12. Learn about stems and their purpose. Explain in detail how nutrients and water move through the stem. Give examples of stems bending in different ways to support the plant.",
          "Section 2, pages 12-15. Learn about fruits (both edible and inedible) and their purpose in respect to plants. Explain how fruits help protect seeds and give examples of how animals eating fruits spread seeds to grow more plants.",
          "Section 2, pages 16-19. Talk about roots and their purpose. In this section, teachers can introduce different types of roots. Give examples of how roots work to provide the plant with what it needs to grow. Teachers can also explain why roots are good for the soil, not just the plant."
        ]
      },
      "np": {
        "paragraph": "",
        "list": [
          "सेक्सन १ मा दिएजस्तै गरी विद्यार्थीहरूलाई आफ्नो शरीरका भागहरू छुँदै प्रत्येकका नाम र तिनका काम भन्\u200dन लगाउन सकिन्छ। त्यसै गरी एउटा बिरुवा ल्याएर त्यसको विभिन्\u200dन भागहरूका बारेमा सामान्य जानकारी हुनु उपयोगी हुनेछ। साथै उनीहरूले तलको ई-पाठ हेरेर यो पाठ पढेमा पाठ अझै रोचक हुने अपेक्षा गरिन्छ।",
          "सेक्सन २-४ सम्म फूल र यसको महत्त्वको बारेमा बताईएको छ। यही प्रसङ्गमा परागसेचनको बारेमा पनि बताउन सकिन्छ।",
          "सेक्सन ५-७ सम्म पात र यसको महत्त्वको बारेमा बताईएको छ। यही प्रसङ्गमा प्रकाश संश्\u200dलेषणको बारेमा पनि बताउन सकिन्छ।",
          "सेक्सन ८-१२ सम्म बिरुवाको डाँठ र यसको महत्त्वको बारेमा बताईएको छ। यही प्रसङ्गमा पोषणको बारेमा पनि बताउन सकिन्छ।",
          "सेक्सन १२-१५ सम्म फल र यसको महत्त्वको बारेमा बताईएको छ। यही प्रसङ्गमा फलले बीउलाई संसक्षण गरेर राखेको हुन्छ भने त्यही फल खाँदा जनावरहरूले बीउलाई एक ठाउँबाट अर्को ठाउँमा छर्छन् भन्\u200dने  बारेमा पनि बताउन सकिन्छ।",
          "सेक्सन १६-१९ सम्म जरा र यसको महत्त्वको बारेमा बताईएको छ। यही प्रसङ्गमा जराले कसरी पानी र खानालाई बिरुवाको विभिन्\u200dन भागहरूसम्म पुर्\u200dयाउँछ भनेर बताउन सकिन्छ।"
        ]
      }
    },
    "related_activities_content": {
      "en": {
        "paragraph": "",
        "list": [
          "Have students create and label their own plants (drawn or on a blank plant diagram). ",
          "Have students create their own explanation of photosynthesis. ",
          "Students can do the DIY activity in section 3 individually or in groups. ",
          "Students can choose one part of the plant to focus on and learn about that one part in-depth and present their findings to the class. ",
          "Students can work on exercise levels 1 and 2."
        ]
      },
      "np": {
        "paragraph": "",
        "list": [
          "विद्यार्थीहरूलाई बिरुवाको ठुलो र सफा चित्र बनाउन लगाई त्यसका विभिन्\u200dन भागहरूलाई नामाकरण गर्न लगाउन सकिन्छ।",
          "विद्यार्थीहरूलाई प्रकाश संश्\u200dलेषणको बारेमा पनि बताउन लगाउन सकिन्छ।",
          "विद्यार्थीहरूलाई व्यक्तिगत वा समूहमा विभाजन गरेर पाठको सेक्सन ३ मा भएको क्रियाकलाप गर्न लगाउन सकिन्छ।",
          "विद्यार्थीहरूलाई बिरुवाको कुनै एउटा भाग छान्\u200dन लगाई त्यसको बारेमा खोज गरेर ई-पाठमा भएका जानकारीमा थप गर्न लगाउँदै प्रस्तुतिकरण दिन लगाउन सकिन्छ।",
          "विद्यार्थीहरूले अभ्यास १ र २ गर्न सक्नेछन्। "
        ]
      }
    },
    "evaluation_content": {
      "en": {
        "paragraph": " ",
        "list": []
      },
      "np": {
        "paragraph": " ",
        "list": []
      }
    }
  },
  "coe": {
    "lesson_name": "Conservation of environment",
    "about_the_lesson_content": {
      "en": "Students will learn about all the different ways to conserve the environment. ",
      "np": "यस पाठमा विद्यार्थीहरूले वातावरण संरक्षणका उपायहरू बताउन सिक्नेछन्।"
    },
    "curricular_requirement_content": {
      "en": "“Personal hygiene” belongs to the “Personal hygiene” unit, which is given a curricular weightage of 11 teaching hours. Out of these, this E-Paath chapter can be given a total of 2 teaching hours.",
      "np": "\"स्वास्थ्य शिक्षा अन्तर्गत पर्ने \"वातावरणीय सफाइ\" खण्डका लागि राष्ट्रिय पाठ्यक्रमले अनुमानित ११ घन्टी दिएको भएपनि यो ई-पाठको लागि भने बढीमा २ घन्टी बराबरको समय दिनु उपयोगी हुन सक्छ।\""
    },
    "prerequisites_content": {
      "paragraph": {
        "en": "Students should be familiar with different aspects of the environment. ",
        "np": "विद्यार्थीहरूले वातावरणका सामान्य पक्षका बारेमा जानकारी हासिल गर्न सके उपयोगी हुनेेछ। "
      },
      "chapter_links": {}
    },
    "lesson_guidelines_content": {
      "en": {
        "paragraph": "",
        "list": [
          "Students are introduced to a large list of ways to help conserve their environment. This lesson pairs very well with the “Human Activities and the Environment” lesson in grade 5. The sections in this chapter give examples of how people can reduce production of smoke and dust, prevent deforestation, conserve water, improve farming, and maintain proper waste management. ",
          "It is important to discuss what is feasible and what isn’t with the students. For example, the section on improving farming might not be a possibility for them since they are only students. Encourage the students to help conserve the environment in as many ways as they can, but remind them that small acts of conservation (throwing away trash, walking instead of driving) are still helpful. "
        ]
      },
      "np": {
        "paragraph": "",
        "list": [
          "विद्यार्थीहरूले वातावरण संरक्षणका उपायहरूका बारेमा जानकारी पाउनेछन्। यो पाठ कक्षा ५ को \"मानव क्रियाकलाप र वातावरण\" शीर्षकको पाठसँग मिल्दोजुल्दो छ।   ",
          "फोहरलाई भाँडोमा हाल्ने, पानीको स्रोत वरपर फोहर नगर्ने जस्ता कुन कुन कार्य विद्यार्थीहरूले गर्न सक्छन? भनेर छलफल गराउन सकिन्छ। "
        ]
      }
    },
    "related_activities_content": {
      "en": {
        "paragraph": "",
        "list": [
          "Have students make posters promoting ways to conserve the environment. Posters can be posted around the school or around town. Encourage the students to write posters in English or Nepali. ",
          "Have students brainstorm easy ways to help conserve the environment. ",
          "Students can record their daily activities (bathing, getting to school, brushing teeth, etc.) to see how they can reduce their impact on the environment. For example, if a student spends 2 minutes brushing their teeth with the water running, they can turn off the water for a majority of the time to conserve it. ",
          "Teachers can have a “planting day” where students plant trees or other plants to help with their environment. ",
          "Students and teachers can pick up waste around their school together. ",
          "Have students discuss ways they are already helping the environment (using solar power, not using plastic bags, etc.)."
        ]
      },
      "np": {
        "paragraph": "",
        "list": [
          " विद्यार्थीहरूले वातावरण संरक्षणका उपायहरू समेटिने गरी पोस्टर बनाएर विद्यालय वा घर वरपर टाँस्\u200dन सक्नेछन्।",
          " विद्यार्थीहरूलाई वातावरण संरक्षणका सरल उपायहरूबारे बताइदिन सकिन्छ। ",
          " विद्यार्थीहरूले बिहानदेखि बेलुकीसम्म गर्ने क्रियाकलापले कसरी वातावरण संरक्षणका लागि सहयोग गरिरहेको छ भनेर बयान गर्न लगाउन सकिन्छ। जस्तै दाँत माज्‍ने बेलामा अनावश्यक रूपमा धारा नखोलेमा पानीको बचत हुन सक्छ।",
          " विद्यार्थीहरूलाई वातावरण संरक्षणका लागि फूल वा कुनै उपयोगी बिरुवा रोप्\u200dन लगाउन सकिन्छ।",
          " वातावरण संरक्षणका लागि विद्यार्थीहरूले शिक्षकको सहयोगमा विद्यालय वरपरका फोहरलाई सङ्\u200dकलन गरी व्यवस्थापन गर्न सक्नेछन्।",
          "उनीहरूका दैनिक क्रियाकलापले वातावरण संरक्षणमा मदत पुर्\u200dयाइरहको छ? भनेर छलफल गराउन सकिन्छ। जस्तै: प्लाष्\u200dटिकको सट्टामा कपडाको झोला प्रयोग गर्ने। "
        ]
      }
    },
    "evaluation_content": {
      "en": {
        "paragraph": " ",
        "list": []
      },
      "np": {
        "paragraph": " ",
        "list": []
      }
    }
  },
  "clv": {
    "lesson_name": "Classification of vertebrates",
    "about_the_lesson_content": {
      "en": " In grade 4, students learned the definition and characteristics of vertebrates and invertebrates. In grade 5, students will further look into the classification of vertebrate animals. ",
      "np": "विद्यार्थीहरूले कक्षा ४ मा ढाड भएका र नभएका जनावरहरूको बारेमा पढिसकेका हुनाले यस पाठमा ढाड भएका जनावरहरू पहिचान गरी वर्गीकरण गर्न र तिनीहरूका लक्षणहरू वर्णन गर्न सक्ने गरी जानकारी दिइएको छ।"
    },
    "curricular_requirement_content": {
      "en": "“Classification of vertebrates” belongs to the “Living Things” unit, which is given a curricular weightage of 45 teaching hours. Out of these, this E-Paath chapter can be given a total of 3-4 teaching hours.",
      "np": "“ढाड भएका जनावरको वर्गीकरण” शीर्षकको पाठ “सजीव वस्तु” अन्तर्गत पर्ने भएकोले राष्ट्रिय पाठ्यक्रमले यसको लागि ४५ घन्टी दिएको छ। यस पाठको लागि बढीमा २-३ घन्टी दिन सकिनेछ।"
    },
    "prerequisites_content": {
      "paragraph": {
        "en": "Students should be familiar with the difference between invertebrates and vertebrates.",
        "np": "विद्यार्थीहरूले ढाड भएका र नभएका जनावरहरूको भिन्\u200dनताका बारेमा जानेको हुनुपर्नेछ। "
      },
      "chapter_links": {
        "chapter_link_data1": {
          "grade": "4",
          "id": "vai",
          "breadcrumb_data": {
            "en": "Grade 4 > Vertebrate and Invertebrate Animals",
            "np": " कक्षा ४≻ ➔ ढाड भएका र नभएका जनावरहरू"
          }
        }
      }
    },
    "lesson_guidelines_content": {
      "en": {
        "paragraph": "",
        "list": [
          "This is an advanced lesson meant to teach students about the many different categories of vertebrates. After reviewing the differences between vertebrates and invertebrates, students are able to explore each classification of vertebrates in a detailed and engaging way. Students can test their knowledge of the various classifications in a DIY activity in section 3. ",
          "While this E-paath lesson does give in-depth explanations of each category of vertebrates, it is recommended that the teacher spends a significant amount of time discussing each category. The chapter is dense and uses a lot of complex vocabulary, so it is important to go through the chapter slowly and discuss each classification thoroughly as a class.  ",
          "The classifications given in this lesson are: Pisces, Amphibians, Reptiles, Aves and Mammals.  ",
          "This lesson can also be paired with Grade 5, Classification of Invertebrates. "
        ]
      },
      "np": {
        "paragraph": "",
        "list": [
          "यो पाठमा विद्यार्थीहरूले ढाड भएका र नभएका जनावरहरूको बारेमा सामान्य जानकारी पाउनेछन्। साथै ढाड भएका जनावरको वर्गीकरण गरी तिनका बारेमा पनि जान्\u200dने छन्। यसका साथै पाठमा सोधिने प्रश्\u200dनहरूको सही जवाफ पनि दिन सक्ने अपेक्षा गरिएको छ।  ",
          "यस पाठमा ढाड भएका जनावरको वर्गीकरणका बारेमा विस्तृतमा जानकारी हासिल गर्ने भएकोले विद्यार्थीहरूलाई प्रशस्त समय दिनु आवश्यक हुन्छ।",
          "यस पाठमा उनीहरूले माछा समूह, उभयचर समूह,  सरीसृप समूह, चरा समूह र स्तनधारी समूहका बारेमा व्याख्या गरिएको छ।",
          "यो पाठ पढाउँदा कक्षा ५ को \"ढाड भएका र नभएका जनावरहरू\" सँगै पढाउनु उपयुक्त हुन्छ।"
        ]
      }
    },
    "related_activities_content": {
      "en": {
        "paragraph": "",
        "list": [
          "Assign groups of students a classification to present on to the class. Students can take notes on the other students’ presentations to help learn the material. ",
          "Have students brainstorm a list of all the vertebrates they can name. Teachers can show an animal not in the E-Paath chapter and ask the students their traits. Based on these traits, students should be able to guess their correct classification.",
          "Create a matching game (similar to the DIY in section 3) where students have to match a specific vertebrate (i.e. whale) to a specific classification (mammal). ",
          "Students can choose one vertebrate to do research on and construct a presentation and/or poster around that vertebrate. "
        ]
      },
      "np": {
        "paragraph": "",
        "list": [
          "ढाड भएका जनावरको वर्गीकरण गरी विद्यार्थीहरूलाई हरेक समूहको बारेमा जानकारीमूलक प्रस्तुति दिन लगाउन सकिन्छ।  ",
          "विद्यार्थीहरूलाई ढाड भएका जनावरको सूची बनाउन लगाएर सही समूहमा वर्गीकरण समेत गराउन सकिन्छ।",
          "सेक्सन ३ मा भएको क्रियाकलाप जस्तै विद्यार्थीहरूलाई जनावरको चित्र वा नाम दिएर तिनका समूह चिन्\u200dन सक्ने खेल खेलाउन सकिन्छ।",
          "विद्यार्थीहरूले ढाड भएका जनावरहरू मध्ये कुनै एकलाई छानेर त्यसको चित्रसहित व्याख्यालाई समावेश गरी पोस्टर बनाएर कक्षा भित्र/बाहिर टाँस्\u200dन लगाउन सकिन्छ।"
        ]
      }
    },
    "evaluation_content": {
      "en": {
        "paragraph": " ",
        "list": []
      },
      "np": {
        "paragraph": " ",
        "list": []
      }
    }
  },
  "buf": {
    "lesson_name": "Life cycle of a butterfly",
    "about_the_lesson_content": {
      "en": " Students learn about the different stages of a butterfly’s life in this E-paath lesson. They’ll learn about what happens in each stage and should be able to identify and explain the life cycle of a butterfly by the end of the chapter",
      "np": "यस पाठमा विद्यार्थीहरूले पुतलीको जीवनचक्रको विभिन्\u200dन चरणहरूका बारेमा सिक्नेछन्। अन्त्यमा उनीहरूले पुतलीको जीवनचक्रको बारेमा बताउन सक्ने अपेक्षा समेत गरिन्छ।"
    },
    "curricular_requirement_content": {
      "en": "“Life cycle of a butterfly” belongs to the “Living Things” unit, which is given a curricular weightage of 45 teaching hours. Out of these, this E-Paath chapter can be given a total of 2-3 teaching hours.",
      "np": "“पुतलीको जीवनचक्र” शीर्षकको पाठ “सजीव वस्तु” अन्तर्गत पर्ने भएकोले राष्ट्रिय पाठ्यक्रमले यसको लागि ४५ घन्टी दिएको छ। यस पाठको लागि बढीमा २-३ घन्टी दिन सकिनेछ।"
    },
    "prerequisites_content": {
      "paragraph": {
        "en": "Students should be familiar with the concept of life cycles. ",
        "np": "विद्यार्थीहरूले जीवनचक्र भनेको के हो? भनेर जानेको भए उपयोगी हुनेछ।"
      },
      "chapter_links": {}
    },
    "lesson_guidelines_content": {
      "en": {
        "paragraph": "",
        "list": [
          "Review life cycle (use examples of humans, dogs, etc.). Use section 1 to give a brief overview of the life cycle of butterflies. Explain why the life cycle of butterflies is so significant and different from others.  ",
          "Lesson on the egg and larva stages of the life cycle elaborates further and goes into more detail than what is given in the slides. This may take two days depending on the level of the students and how much detail the teachers want to give.",
          "Lesson on the pupa and adult stages of a butterfly’s life talks about the chrysalis and what goes on inside the chrysalis during this time of a butterfly’s life. Again, go into more detail than what is given in the E-paath lesson. The teacher can possibly show a video about the life of a butterfly at the end of this section. Covering this part of the butterfly’s life may also take two days. ",
          "Review life cycle of a butterfly. Compare the butterfly’s lifecycle to other organisms. Use section 3 for some examples. Teachers can also do DIY activity in section 4 together as a class to review. "
        ]
      },
      "np": {
        "paragraph": "",
        "list": [
          "सामान्यतया मानिस, कुकुर आदिको जीवनचक्रको बारेमा समिक्षा गर्दै पुतलीको जीवनचक्रको बारेमा बताउन सकिन्छ। कसरी पुतलीको जीवनचक्र अन्य जीवको तुलनामा फरक छ? भनेर पनि छलफल गराउन सकिन्छ।",
          "पुतलीको जीवनचक्रको अण्डा र लार्भा अवस्थाको बारेमा ई-पाठ मार्फत् बयान गर्न सकिन्छ।",
          "यसरी नै पुतलीको जीवनचक्रको प्युपा र वयस्क अवस्थाको बारेमा पानि सम्भव भए कुनै भिडियो मार्फत् पनि व्याख्या र विश्लेषण गर्न सकिन्छ।",
          "पुतलीको जीवनचक्रलाई अन्य जीवहरूको जीवनचक्रसँग दाँजेर हेरी के भिन्\u200dनता पाइन्छ? भनेर छलफल गर्न सकिन्छ।"
        ]
      }
    },
    "related_activities_content": {
      "en": {
        "paragraph": "",
        "list": [
          "Students can illustrate the life cycle of a butterfly and present it with full explanations to the class. ",
          "Watch videos about the life of a butterfly.",
          "Have students create other life cycles for different organisms or their own “life cycle”.",
          "DIY activity in section 4 can be done even in the classroom. "
        ]
      },
      "np": {
        "paragraph": "",
        "list": [
          "विद्यार्थीहरूले पुतलीको जीवनचक्रको ठुलो र सफा चित्र बनाएर कक्षामा बयान गर्न सक्नेछन्।",
          "पुतलीको जीवनचक्रसँग सम्बन्धित भिडियो खोजेर देखाई छलफल गराउन सकिन्छ।",
          "पुतलीको जीवनचक्र जस्तै गरी कुनै अन्य जीवको पनि जीवनचक्र बनाउन लगाएर कक्षामा प्रस्तुत गर्न लगाउन सकिन्छ।",
          "सेक्सन ४ मा भएको क्रियाकलापलाई पुन: कक्षामा पनि गराउन सकिन्छ।"
        ]
      }
    },
    "evaluation_content": {
      "en": {
        "paragraph": " ",
        "list": []
      },
      "np": {
        "paragraph": " ",
        "list": []
      }
    }
  },
  "cli": {
    "lesson_name": "Classification of invertebrates",
    "about_the_lesson_content": {
      "en": "Students will learn how to identify and classify invertebrates. They will also learn about their various characteristics. ",
      "np": "विद्यार्थीहरूले कक्षा ४ मा ढाड भएका र नभएका जनावरहरूको बारेमा पढिसकेका हुनाले यस पाठमा ढाड नभएका जनावरहरू पहिचान गरी वर्गीकरण गर्न र तिनीहरूका लक्षणहरू वर्णन गर्न सक्ने गरी जानकारी दिइएको छ।"
    },
    "curricular_requirement_content": {
      "en": "“Classification of invertebrates” belongs to the “Living Things” unit, which is given a curricular weightage of 45 teaching hours. Out of these, this E-Paath chapter can be given a total of 3-4 teaching hours.",
      "np": "“ढाड नभएका जनावरको वर्गीकरण” शीर्षकको पाठ “सजीव वस्तु” अन्तर्गत पर्ने भएकोले राष्ट्रिय पाठ्यक्रमले यसको लागि ४५ घन्टी दिएको छ। यस पाठको लागि बढीमा २-३ घन्टी दिन सकिनेछ।"
    },
    "prerequisites_content": {
      "paragraph": {
        "en": "Students should be familiar with the difference between invertebrates and vertebrates. ",
        "np": "विद्यार्थीहरूले ढाड भएका र नभएका जनावरहरूको भिन्\u200dनताका बारेमा जानेको हुनुपर्नेछ। "
      },
      "chapter_links": {
        "chapter_link_data1": {
          "grade": "4",
          "id": "vai",
          "breadcrumb_data": {
            "en": "Grade 4 > Vertebrate and Invertebrate Animals",
            "np": " कक्षा  ४ ➔ ढाड भएका र नभएका जनावरहरू "
          }
        }
      }
    },
    "lesson_guidelines_content": {
      "en": {
        "paragraph": "",
        "list": [
          "This is an advanced lesson meant to teach students about the many different categories of invertebrates. After reviewing the differences between vertebrates and invertebrates, students are able to explore each classification of invertebrate in a detailed and engaging way. Students can test their knowledge of the various classifications in a DIY activity in section 3. ",
          "While this E-paath lesson does give in-depth explanations of each category of invertebrate, it is recommended that the teacher spends a significant amount of time discussing each category. The chapter is dense and uses a lot of complex vocabulary, so it is important to go through the chapter slowly and discuss each classification thoroughly as a class. ",
          "They can learn about 9 different classifications of invertebrates in this lesson. ",
          "This lesson can also be paired with Grade 5, Classification of Vertebrates. "
        ]
      },
      "np": {
        "paragraph": "",
        "list": [
          "यो पाठमा विद्यार्थीहरूले ढाड भएका र नभएका जनावरहरूको बारेमा सामान्य जानकारी पाउनेछन्। साथै ढाड नभएका जनावरको वर्गीकरण गरी तिनका बारेमा पनि जान्\u200dने छन्। यसका साथै पाठमा सोधिने प्रश्\u200dनहरूको सही जवाफ पनि दिन सक्ने अपेक्षा गरिएको छ।  ",
          "यस पाठमा ढाड नभएका जनावरको वर्गीकरणका बारेमा विस्तृतमा जानकारी हासिल गर्ने भएकोले विद्यार्थीहरूलाई प्रशस्त समय दिनु आवश्यक हुन्छ।",
          "यस पाठमा उनीहरूले ९ ओटा समूहका जनावरहरूको बारेमा जान्\u200dनेछन्।",
          "यो पाठलाई कक्षा ५ को \"ढाड भएका जनावरको वर्गीकरण\" सँगै पढाउनु उपयुक्त हुनेछ।"
        ]
      }
    },
    "related_activities_content": {
      "en": {
        "paragraph": "",
        "list": [
          "Assign groups of students a classification to present on to the class. Students can take notes on the other students’ presentations to help learn the material. ",
          "Have students brainstorm a list of all the invertebrates they can name. ",
          "Create a matching game (similar to the DIY in section 3) where students have to match a specific invertebrate (i.e. spider) to a specific classification (arthropoda). ",
          "For review, students can sort different animals into vertebrate and invertebrate categories. ",
          "Students can choose one invertebrate to do research on and construct a presentation and/or poster around that invertebrate. "
        ]
      },
      "np": {
        "paragraph": "",
        "list": [
          "ढाड नभएका जनावरको वर्गीकरण गरी विद्यार्थीहरूलाई हरेक समूहको बारेमा जानकारीमूलक प्रस्तुति दिन लगाउन सकिन्छ।  ",
          "विद्यार्थीहरूलाई ढाड नभएका जनावरको सूची बनाउन लगाएर सही समूहमा वर्गीकरण समेत गराउन सकिन्छ।",
          "सेक्सन ३ मा भएको क्रियाकलाप जस्तै विद्यार्थीहरूलाई जनावरको चित्र वा नाम दिएर तिनका समूह चिन्\u200dन सक्ने खेल खेलाउन सकिन्छ।",
          "विद्यार्थीहरूले ढाड नभएका जनावरहरू मध्ये कुनै एकलाई छानेर त्यसको चित्रसहित व्याख्यालाई समावेश गरी पोस्टर बनाएर कक्षा भित्र/बाहिर टाँस्\u200dन लगाउन सकिन्छ।"
        ]
      }
    },
    "evaluation_content": {
      "en": {
        "paragraph": " ",
        "list": []
      },
      "np": {
        "paragraph": " ",
        "list": []
      }
    }
  },
  "mdi": {
    "lesson_name": "Monocotyledon and dicotyledon",
    "about_the_lesson_content": {
      "en": "In this lesson, students will be introduced to the characteristics of monocot and dicot plants. They will also be able to explain the characteristics and differentiate between those two types of plants. ",
      "np": "यस पाठमा एकदलिय र दुईदलिय बिरुवाको परिचय दिन र तिनको गुणहरू व्याख्या गर्न सकिने गरी रोचक तरिकाले क्रियाकलापहरू प्रस्तुत गरिएका छन्। साथै बिरुवालाई दुई भागमा विभाजन गर्न समेत सकिने छ।"
    },
    "curricular_requirement_content": {
      "en": "“Monocotyledon and dicotyledon” belongs to the “Living Things” unit, which is given a curricular weightage of 45 teaching hours. Out of these, this E-Paath chapter can be given a total of 2-3 teaching hours.",
      "np": "“एकदलिय र दुईदलिय बिरुवा” शीर्षकको पाठ “सजीव वस्तु” अन्तर्गत पर्ने भएकोले राष्ट्रिय पाठ्यक्रमले यसको लागि ४५ घन्टी दिएको छ। यस पाठको लागि बढीमा २-३ घन्टी दिन सकिनेछ।"
    },
    "prerequisites_content": {
      "paragraph": {
        "en": "Students should have an understanding of how plants grow and their general characteristics. They also need to know the different parts of plants and flowers. Have students refer to the E-paath lessons “parts of a plant” and “parts of a flower” before completing this lesson. ",
        "np": "विद्यार्थीहरूले सामान्यतया बिरुवा कसरी हुर्कन्छ र तिनका के कस्ता विशेषता हुन्छन् भनेर जानेको हुनुपर्छ। साथै फूल र बिरुवाको विभिन्\u200dन भागका बारेमा पनि उनीहरूले नाम बताउन सके उपयपोगी हुनेछ। तलका ई-पाठले पनि विषयवस्तुलाई रोचक बनाउन सहयोग गर्नेछन्।"
      },
      "chapter_links": {
        "chapter_link_data1": {
          "grade": "5",
          "id": "pop",
          "breadcrumb_data": {
            "en": "Grade 5 > parts of a plant",
            "np": " कक्षा  ५ ➔ बिरुवाका विभिन्\u200dन भागहरू "
          },
          "chapter_link_data2": {
            "grade": "5",
            "id": "pof",
            "breadcrumb_data": {
              "en": "Grade 5 > Parts of a flower",
              "np": " कक्षा ५ ➔ फूलका विभिन्\u200dन भागहरू"
            }
          }
        }
      }
    },
    "lesson_guidelines_content": {
      "en": {
        "paragraph": "",
        "list": [
          "Review parts of plants and flowers. Discuss flowering plants and what they do. Refer to section 1 for topics to review. Then, introduce how flowering plants are divided based on their seed type (monocot and dicot). ",
          "Section 2. Teach the differences between monocot and dicot plants. Review each slide in this section slowly with the students and talk about the overall meaning of each section (for example, when talking about the differences in germination for monocot and dicot plants, review what germination is with the students). This is a great opportunity to review what they have learned in earlier lessons. Because of the review, this section might take more than two days to teach. This lesson should take more time due to its difficulty level. ",
          "Review what was learned in section 2 and do DIY activity in section 3 together as a class. Keep going through similar examples together as a class until the students understand the differences between monocot and dicot plants. ",
          "Give examples of plants and talk about how to tell if they are a monocot or dicot plant. The DIY activity in section 4 is great for examples, but more information needs to be given for the students to properly identify which plant it is. This can be combined with day 4 or incorporated to earlier lessons. "
        ]
      },
      "np": {
        "paragraph": "",
        "list": [
          "विद्यार्थीहरूलाई कक्षा ५ को \"विभिन्\u200dन किसिमका फूल\" र \"विभिन्\u200dन किसिमका बिरुवा\" शिर्षकका पाठहरूको समिक्षा गर्न लगाउन सकिन्छ। साथै फूल फूल्ने बिरुवा र त्यसका प्रकारहरूलाई उदाहरणसहित जान्\u200dन सकिन्छ।",
          "एकदलिय र दुईदलिय बिरुवाको भिन्\u200dनताका बारेमा यस पाठमा दिइएको छ। विद्यार्थीहरूलाई ध्यानपूर्वक अवलोकन गर्न लगाउन सकिन्छ।  ",
          "सेक्सन ३ को क्रियाकलापलाई पटक पटक दोहोर्\u200dयाएर विद्यार्थीहरूलाई विषयवस्तुबारे प्रस्ट्\u200dयाउन सकिन्छ।",
          "विभिन्\u200dन किसिमका बिरुवा देखाउँदै यो कुन किसिमको बिरुवा हो? भनेर छलफल गराउन सकिन्छ।"
        ]
      }
    },
    "related_activities_content": {
      "en": {
        "paragraph": "",
        "list": [
          "Have students identify and label monocot and dicot plants using pictures similar to those in the DIY activity in section 3. ",
          "Have students do the DIY activities in the lesson. ",
          "Students can do the chapter exercise together in small groups. ",
          "Assign students different plants (from section 4 or the exercise) and have them present on what makes it a monocot or dicot plant. Have them explain their reasoning. "
        ]
      },
      "np": {
        "paragraph": "",
        "list": [
          "एकदलिय र दुईदलिय बिरुवाको सफा चित्र बनाएर विभिन्\u200dन भागहरूको नामाकरण गर्न लगाउन सकिन्छ। ",
          "ई-पाठमा भएको सेक्सन ३ र ४ को जस्तै अभ्यास गराउन सकिन्छ। ",
          "विद्यार्थीहरूको समूह बनाएर अभ्यासमा भएका जस्ता प्रश्\u200dनहरूलाई दोहोर्\u200dयाउन लगाउन सकिन्छ।",
          "विद्यार्थीहरूलाई बिरुवाको छुट्टाछुट्टै भाग दिएर एकदलिय र दुईदलिय बिरुवामध्ये कुन हो? भनेर कारणसहित छलफल गराउन सकिन्छ।"
        ]
      }
    },
    "evaluation_content": {
      "en": {
        "paragraph": " ",
        "list": []
      },
      "np": {
        "paragraph": " ",
        "list": []
      }
    }
  },
  "cle": {
    "lesson_name": "Menstruation",
    "about_the_lesson_content": {
      "en": "In this lesson, students will learn about menstruation. They’ll learn about common misconceptions associated with menstruation and how to stay healthy while menstruating. ",
      "np": "यस पाठ पढेर विद्यार्थीहरूले महिनावारीको परिचय दिँदै उक्त समयमा गर्नुपर्ने सरसफाइको बारेमा बताउन सक्नेछन्। "
    },
    "curricular_requirement_content": {
      "en": "“Personal hygiene” unit, which is given a curricular weightage of 11 teaching hours. Out of these, this E-Paath chapter can be given a total of 2 teaching hours.",
      "np": "\"व्यक्तिगत सफाइ\" खण्डका लागि राष्ट्रिय पाठ्यक्रमले अनुमानित ११ घन्टी दिएको भएपनि यो ई-पाठको लागि भने बढीमा २ घन्टी बराबरको समय दिनु उपयोगी हुन सक्छ।"
    },
    "prerequisites_content": {
      "paragraph": {},
      "chapter_links": {}
    },
    "lesson_guidelines_content": {
      "en": {
        "paragraph": "",
        "list": [
          "Talk to students about what they think of menstruation and what they already know. Have students write about their experiences with and myths about (women are dirty while menstruating, having a period is embarrassing, etc.) menstruation anonymously on notecards. Collect the notecards and answer those questions in-depth. Give an introduction to what menstruation is, how it works, and why it’s normal. Use sections 1 and 2 to help contribute to the conversation if the students feel shy or awkward.",
          "Section 2. Physiological portion of menstruation. Talk about how periods affect the body and ways to help alleviate pain while menstruating. If there is time, use section 3 to talk about what foods to eat while menstruating.",
          "Section 3 and 4. Talk about nutrition with the students if needed. Show the students sanitary napkins and cloths and talk about their use and how to properly clean them. Make sure to talk about changing their sanitary napkins frequently. ",
          "Revisit the conversation about social stigmas and myths about menstruation. Use section 5 to aid the conversation. Debunk these myths together and encourage a productive discussion about these issues."
        ]
      },
      "np": {
        "paragraph": "",
        "list": [
          "विद्यार्थीहरूलाई महिनावारी भनेको के हो? भनेर सोध्दै आफूले जानेका कुरा बताउन लगाउन सकिन्छ। सामाजिक विकृतिका कारण महिनावारीसँग सम्बन्धित  केही अनुभव भए कक्षामा बताउन लगाउन सकिन्छ। त्यसको कारण खोज्न लगाई सही र गलत कुराको बारेमा विस्तृतमा जानकारी दिनुपर्छ। यदि सेक्सन १ र २ मा भएका कुराकानी विद्यार्थीहरूलाई पढ्न असजिलो भएमा  वा लाज मानेमा सहयोग गरिदिनुपर्ने हुन्छ। ",
          "सेक्सन २: यस भागमा महिनावारी हुँदा शरीरमा के असर पर्छ र त्यस अवस्थामा हुने पिडा कम गर्ने तरिकाको बारेमा पनि बताइएको छ। यदि समय भएमा  सेक्सन ३ मा भएको  महिनावारी हुँदा खानुपर्ने खानेकुराको बारेमा पनि बताउन सकिन्छ। ",
          "विद्यार्थीहरूलाई आवश्यक पर्दा पौष्टिक खानेकुरा पनि खानुपर्छ भनेर  सम्झाउन सकिन्छ। विद्यार्थीहरूलाई महिनावारी हुँदा प्रयोग गर्ने कपडा वा प्याड देखाई कसरी सफा गर्ने भन्\u200dने कुरा पनि देखाउन सकिन्छ। यदि प्याडको प्रयोग गर्ने हो भने त्यसलाई बेलाबेलामा बदल्नुपर्ने जानकारी पनि दिनुपर्ने हुन्छ। ",
          "सेक्सन ५ मा भएका कुराकानीबारे छलफल गर्दै सम्भव भए सामाजिक विकृतिका बारेमा स्पष्ट बनाएर सही जानकारी दिन सकिन्छ।  "
        ]
      }
    },
    "related_activities_content": {
      "en": {
        "paragraph": "",
        "list": [
          "Students can write down the summary in section 5 on page 7.",
          "Have students write their own experiences down their thoughts about menstruation as a homework assignment. ",
          "Students can make presentations in small groups about what to do if someone has their period. "
        ]
      },
      "np": {
        "paragraph": "",
        "list": [
          "विद्यार्थीहरूलाई सेक्सन ५ को पाना ७ मा भएको सारांश लेख्न लगाउन सकिन्छ।",
          "विद्यार्थीहरूलाई आफ्नो अनुभव समेटेर महिनावारीसँग सम्बन्धित लेख्न लेखाउन पनि सकिन्छ। ",
          "विद्यार्थीहरूलाई समूहमा विभाजन गरी  यदि कोही साथीको महिनावारी भए तिमीहरू उसलाई के के गर्न सल्लाह दिन्छौ? भनेर कक्षामा प्रदर्शन गर्न लगाउन सकिन्छ।"
        ]
      }
    },
    "evaluation_content": {
      "en": {
        "paragraph": " ",
        "list": []
      },
      "np": {
        "paragraph": " ",
        "list": []
      }
    }
  },
  "iac": {
    "lesson_name": "Information and Communication",
    "about_the_lesson_content": {
      "en": "Students will receive in-depth information about information and communication technology. They will learn about means of communication used throughout history (from ancient times to the present day). They will also learn more about communicating with computers. ",
      "np": "विद्यार्थीहरूले यस पाठ मार्फत् सूचना र सञ्चारको बारेमा विस्तृत रूपमा जानकारी प्राप्त गर्नेछन्। साथै प्राचिन समयदेखि अहिलेसम्म प्रयोगमा आएका सञ्चारका साधनहरूको बारेमा यहाँ चर्चा गरिएको छ। साथै उनीहरूले कम्प्यूटरसँग कसरी सञ्चार गर्ने भनेर पनि देख्नेछन्।"
    },
    "curricular_requirement_content": {
      "en": "Information and communication technology” belongs to the “Information and communication technology” unit which has a curricular weightage of 10 teaching units, the highest, in grade 4. This particular chapter is allocated 3 teaching units. Teachers can spend at least 2 periods using E-Paath for this chapter. ",
      "np": "“सूचना र सञ्\u200dचार प्रविधि” शीर्षकको पाठ पाठ्\u200dयक्रमको “सूचना र सञ्\u200dचार प्रविधि”  अन्तर्गत नै पर्दछ। यसको लागि १० घन्टी छुट्याइएको भएपनि यस पाठको लागि २ घन्टीसम्म दिन सकिन्छ। "
    },
    "prerequisites_content": {
      "paragraph": {
        "en": "Students should be familiar with various means of communication. They should also know about one-way and two-way communication. ",
        "np": "विद्यार्थीहरूले सञ्\u200dचारका विभिन्\u200dन साधनहरूका बारेमा जानकारी प्राप्\u200dत गरेको हुनुपर्छ। उनीहरूले एकतर्फी र दुईतर्फी सञ्\u200dचारका बारेमा पनि जानकारी हासिल गरेको हुनुपर्छ। "
      },
      "chapter_links": {
        "chapter_link_data1": {
          "grade": "4",
          "id": "ict",
          "breadcrumb_data": {
            "en": "Grade 4 > Information and communication technology",
            "np": " कक्ष ४  ➔ सूचना र सञ्चार प्रविधि"
          }
        }
      }
    },
    "lesson_guidelines_content": {
      "en": {
        "paragraph": "",
        "list": [
          "Students are given a comprehensive list of ancient forms of communication. They are told what items were used for different purposes (i.e. a fire was used for warning, a bell was used to signify a meeting). They are also given definitions of the words information and communication. ",
          "Students are introduced to information resources (both digital and physical). The differences between secondary and primary sources are explained as well. Teachers may need to further explain these differences and talk about how the two types of sources are used. When digital publications are introduced, it may be necessary to explain to the students the importance of a credible online source. Three different types of communication are introduced and elaborated on in section 4. These are internal communication, interpersonal communication, and mass communication. ",
          "In section 5, an in-depth explanation of computers is given. It explains the different parts of a computer. Teacher should elaborate on how computers are used to communicate information with others. "
        ]
      },
      "np": {
        "paragraph": "",
        "list": [
          "यस पाठमा प्राचिन समयमा के कस्ता सञ्चारका साधनहरू प्रयोग हुने गरेका थिए भनेर बताइएको छ। जस्तै: चेतावनी दिन आगो, मानिसहरू भेला गराउन ठुलो घन्टी आदिको प्रयोग गरिन्थ्यो।  ",
          " यस पाठमा विद्यार्थीहरूलाई सूचनाका स्रोत (भौतिक तथा डिजिटल) का बारेमा परिचित गराइएको छ।  प्रथम र द्वितीय स्रोतका बारेमा पनि बताइएको छ। शिक्षकले यसका बारेमा अझै विस्तृत रूपमा जानकारी दिई तिनीहरूको प्रयोगका बारेमा बताउन सक्नेछन्। साथै इन्टरनेटमा पाइने थुप्रै किसिमका जानकारीहरूको महत्त्व पनि बताउन सकिनेछ। पाठको सेक्सन ४ मा तीन किसिमका सञ्चारका बारेमा बयान गरिएको छ। तिनीहरू आन्तरिक सञ्चार, अन्तर्वैयक्तिक सञ्चार र आम सञ्चार हुन्। ",
          "पाठको सेक्सन ४ मा  कम्प्युटरका बारेमा विस्तृत रूपमा जानकारी राखिएको छ।  यहाँ  कम्प्युटरका विभिन्\u200dन पाटपूर्जाका बारेमा बताइएको छ। कम्प्युटरले कसरी सञ्चारका साधनको रूपमा कार्य गर्छ भनेर शिक्षकले  सप्रसङ्ग व्याख्या गरिदिन सकिन्छ। "
        ]
      }
    },
    "related_activities_content": {
      "en": {
        "paragraph": "",
        "list": [
          "Talk to the students about the importance of communication. What can they learn by communicating with others? How can they communicate effectively? This can be a class discussion or writing assignment. ",
          "Have students come up with examples of primary and secondary source documents. Explain the importance of both types of sources and make sure students understand the differences. ",
          "Give students a research topic and have them collect two primary sources and two secondary sources (two digital, two physical) for that topic. They can work in pairs and present the sources they found in front of the class. ",
          "Have students come up with different scenarios for each type of communication.",
          "Teachers can show the different parts of a computer to the class. Students should also practice typing on a computer. "
        ]
      },
      "np": {
        "paragraph": "",
        "list": [
          "सञ्चारको महत्त्वको बारेमा विद्यार्थीहरूलाई बताइदिन सकिन्छ। अन्य व्यक्तिसँग सञ्चार गर्दा उनीहरूले के-के सिक्न सक्छन् भनेर छलफल गर्न सकिन्छ। कसरी सञ्चारलाई प्रभावकारी बनाउन सकिएला भनेर छलफल वा लिखित रूपमा व्याख्या गर्न लगाउन सकिन्छ। ",
          "विद्यार्थीहरूलाई सूचनाका प्रथम र द्वितीय स्रोतका सामग्रीहरू कोज्न लगाउन सकिन्छ। तिनीहरूका महत्त्व र भिन्\u200dनताका बारेमा पनि बताउन लगाउन सकिन्छ। ",
          "विद्यार्थीहरूलाई सूचनाका दुई प्रथम र दुई द्वितीय स्रोत(दुई भौतिक तथा दुई डिजिटल) का सामग्रीहरू खोज्न लगाउन सकिन्छ। तिनीहरूका बारेमा कक्षामा समूहगत रूपमा प्रस्तुति दिन लगाउन सकिन्छ।  ",
          "सञ्चारको प्रत्येक किसिमका बारेमा बताउनका लागि फरक परिवेश दिएर विद्यार्थीहरूलाई छलफल गर्न लगाउन पनि सकिन्छ।",
          "शिक्षकले कम्प्यूटरका पाटपूर्जाका बारेमा बताउँदै सम्भव भए अक्षर टाइप समेत गर्न लगाउन सकिन्छ।"
        ]
      }
    },
    "evaluation_content": {
      "en": {
        "paragraph": " ",
        "list": []
      },
      "np": {
        "paragraph": " ",
        "list": []
      }
    }
  },
  "bet": {
    "lesson_name": "Balanced Diet",
    "about_the_lesson_content": {
      "en": "Balanced diet comprises of food with essential nutrients required for the body. This E-Paath discusses the concept of balanced diet. It also emphasizes the health hazards related to the lack of nutrients in the body. ",
      "np": "सन्तुलित आहार भन्\u200dनाले शरीरको लागि आवश्यक पर्ने  अत्यावश्यक पोषण भएको खानेकुरा हो। यो ई-पाठले सन्तुलित आहारको धारणा दिन खोजेको छ। साथै सन्तुलित आहारको कमीले गर्दा स्वास्थ्यमा पर्ने असरका बारेमा समेत व्याख्या गरिएको छ। "
    },
    "curricular_requirement_content": {},
    "prerequisites_content": {
      "paragraph": {
        "en": "Teachers could refer to the following E-Paath as it discusses the generic features and functions of nutritious food. It also discusses the harmful effects of unhealthy food.",
        "np": "यस पाठले सन्तुलित आहारको बारेमा जानकारी दिनुका साथै अस्वस्थकर खानाले हुने हानीका बारेमा पनि बताउँछ।"
      },
      "chapter_links": {
        "chapter_link_data1": {
          "grade": "4",
          "id": "ntf",
          "breadcrumb_data": {
            "en": "Grade 4 >  Nutritious food",
            "np": " कक्ष ४  ➔ पौष्टिक खाना"
          }
        }
      }
    },
    "lesson_guidelines_content": {
      "en": {
        "paragraph": "Teachers could use this E-Paath with interactive discussion. For example: in section one, the learners get introduced to the concept of balanced diet. While each food group is briefly discussed, students can be asked if they eat the food belonging to certain food group. For example: green vegetables, banana, carrot, watermelon, etc. from ‘vitamins and minerals’. Students can be asked what they conventionally eat for lunch and dinner before doing section 3.  A DIY is given in section 3 that helps the students create their own lunch and dinner plates. Section 4 presents the case study of an undernourished and an overnourished kid. Section 5 discusses the diseases caused by the deficiency of nutrients in the body. ",
        "list": []
      },
      "np": {
        "paragraph": "शिक्षकले यस पाठलाई छलफल विधिद्वारा पढाउन सकिनेछ। जस्तै; यस पाठको सेक्सन १ मा सन्तुलित आहारको धारणा दिन खोजिएको छ। खाना समूहको बारेमा छलफल गर्ने बेलामा विद्यार्थीहरूले खाएका कानेकुरा कुन कुन समूहमा पर्ने रहेछन् भनेर बताउन लगाउन सकिन्छ। जस्तै; हरिया सागपात, केरा, गाजर, खर्बुजा आदि 'भिटामिन र खनिज' समूह अन्तर्गत पर्छन्। सेक्सन ३ मा जानुपूर्व विद्यार्थीलाई सामान्यतया उनीहरूले खाजा र बेलुकीको खानामा के खान्छन् भनेर सोध्न सकिन्छ। सेक्सन ३ मा 'आफैँ गर' शीर्षक अन्तर्गत विद्यार्थीलाई  खाजा र बेलुकीको खानाको लागि थालीमा सन्तुलित आहार मिलाएर राख्न लगाउन सकिन्छ। यस पाठको सेक्सन ४ मा खानामा पाइने पौष्टिक तत्व कम वा अधिक हुँदा देखिने कुपोषणका बारेमा बताइएको छ। त्यसैगरी शरीरमा पोषणको कमीले गर्दा देखिने रोग वा त्यसका लक्षणका बारेमा सेक्सन ५ मा जानकारी दिइएको छ।",
        "list": []
      }
    },
    "related_activities_content": {
      "en": {
        "paragraph": "Students can be kept in groups and asked to create a pie chart of balanced diet as shown in  section one. They can be asked to draw and color the food items as per the food groups. They must label the food items as well. They can also be asked to individually create their own dinner or lunch ‘plate’ by pasting the pictures of the food items in a circular shaped chart paper or a paper plate. The students will label the food items and give a short presentation in the classroom. They will briefly state why the particular items have been chosen. Students could also be kept in groups and asked to roleplay on the harmful effects caused by deficiency of nutrients in the body. Each group could be given a different scenario. For example: group A will roleplay on deficiency of vitamin A, group B will deal with deficiency of protein, etc. ",
        "list": []
      },
      "np": {
        "paragraph": "विद्यार्थीहरूलाई समूहमा विभाजन गरी सेक्सन १ मा दिएको जस्तै गरी सन्तुलित आहार मिलाई Pie चार्ट बनाउन लगाउन सकिन्छ। खाना समूह अनुसार विभिन्\u200dन किसिमका खानेकुराका चित्र बनाई  रङ भर्न लगाउन सकिन्छ। सम्भव भए नामाकरण समेत गर्न लगाउन सकिन्छ।  साथै विद्यार्थीलाई  खाजा र बेलुकीको खानाको लागि थालीमा खानेकुराका चित्र टाँसेर सन्तुलित आहार  बनाई मिलाएर राख्न लगाउन सकिन्छ। विद्यार्थीले ति खानेकुराहरूको नामाकरण गरी कक्षामा प्रस्तुति दिन लगाउन सकिन्छ। उनीहरूले किन  ति खानेकुरा नै समावेश गर्नुपर्छ भनेर पनि बताउन सक्नेछन्। त्यसैगरी शरीरमा पोषणको कमीले गर्दा देखिने रोग वा त्यसका लक्षणका बारेमा जानकारी दिने उद्देश्यले विद्यार्थीहरूलाई नाटक गराउन सकिन्छ। यसो गर्दा उनीहरूलाई समूहमा बाँडेर फरक परिवेश दिई भिटामिन 'ए', प्रोटिन जस्ता तत्वको कमीले हुने असरबारे भूमिका प्रदर्शन गर्न लगाउन सकिन्छ। ",
        "list": []
      }
    },
    "evaluation_content": {
      "en": {
        "paragraph": " ",
        "list": []
      },
      "np": {
        "paragraph": " ",
        "list": []
      }
    }
  },
  "hae": {
    "lesson_name": "Human activities and environment",
    "about_the_lesson_content": {
      "en": "This lesson will explain the impact that humans have on the environment. Students will be able to differentiate between different types of pollution by the end of the lesson. ",
      "np": "यो पाठमा मानिसका क्रियाकलापले गर्दा वातावरणमा पर्ने असरका बारेमा जानकारी दिइएको छ। यो पाठको पढिसकेपछि विद्यार्थीहरूले प्रदुषणका विभिन्\u200dन किसिमहरू छुट्याउन सक्नेछन्। "
    },
    "curricular_requirement_content": {},
    "prerequisites_content": {
      "paragraph": {
        "en": "Students should be familiar with different aspects of the environment before beginning.  It may be helpful for students to review “Conservation of the Environment” in grade 5 before beginning this lesson. ",
        "np": "यो पाठको पढ्नु अघि विद्यार्थीहरूलाई वातावरणका विभिन्\u200dन पक्षका बारेमा सामान्य जानकारी हुनुपर्छ। साथै कक्षा ५ मा भएको 'वातावरणको संरक्षण' भन्\u200dने पाठ पढेर मात्रै यो पाठमा प्रवेश गर्दा अझै अर्थपूर्ण हुनेछ।"
      },
      "chapter_links": {}
    },
    "lesson_guidelines_content": {
      "en": {
        "paragraph": "",
        "list": [
          "Students will learn about the various effects humans have had on the environment. They will learn about various forms of a pollution in an interactive and kid-friendly way. They also learn about the effects pollution has on human bodies. ",
          "Sections 2-4 are each dedicated to a different type of pollution and effectively illustrate the causes and effects of pollution. Section 5 explains how humans are causing deforestation. The importance of forests is discussed as well in this section. ",
          "Teachers may want to give examples of pollution as they relate to Nepal. For example, teachers could discuss the air pollution in Kathmandu and come up with different solutions for the problem. "
        ]
      },
      "np": {
        "paragraph": "",
        "list": [
          "वातावरणमा मानिसले गर्दा हुने असरका बारेमा विद्यार्थीहरूले जानकारी पाउनेछन्। विद्यार्थी मैत्री अन्तर्क्रियात्मक खेलका माध्यमबाट विद्यार्थीहरूले प्रदुषणका विभिन्\u200dन किसिमहरूका बारेमा जानकारी हासिल गर्न सक्नेछन्। साथै प्रदुषणले गर्दा मानव शरीरमा पर्ने हानीका बारेमा समेत सिक्न सकिनेछ।",
          "पाठको सेक्सन २-४ मा प्रदुषणका कारण, किसिमका साथसाथै असरबारे विस्तृतमा जानकारी दिइएको छ। सेक्सन ५ मा मानिसकै कारण कसरी वन विनाश हुँदैछ भन्\u200dने कुरा उल्\u200dलेख गरिएको छ। साथै वनको महत्त्वको बारेमा पनि संक्षेपमा चर्चा गरिएको छ।",
          "शिक्षकले नेपालको सन्दर्भमा मिल्ने गरी प्रदुषणका केही उदाहरणहरू दिन सक्नेछन्। जस्तै; काठमाडौँको वायु प्रदुषण र त्यसका सम्भावित समाधानहरूका बारेमा छलफल गर्न सकिनेछ।"
        ]
      }
    },
    "related_activities_content": {
      "en": {
        "paragraph": "",
        "list": [
          "Host classroom discussions about ways to reduce the different types of pollution (air, water, land/soil, deforestation). ",
          "Have students come up with their own ways to help the environment. Teachers can create a worksheet similar to this one (http://pulitzercenter.org/sites/default/files/a_day_of_climate_action_0.pdf) so students can see how their schools and families contribute to pollution and/or help the environment. ",
          "Students can record their walks home and identify the types of pollution they see. Is there trash on the ground? Are people using pesticides? Asking these types of questions will help students recognize the environmental degradation in their towns. ",
          "Use different articles about pollution in Nepal for students to read and write about (https://thehimalayantimes.com/opinion/air-pollution-the-invisible-killer/) . ",
          "Have students choose a type of pollution to research. They can present on how this pollution occurs, what effect it has on the environment, how it affects humans and other organisms, and how it can be reduced. ",
          "Brainstorm a list of ways to reduce pollution as a homework assignment. "
        ]
      },
      "np": {
        "paragraph": "",
        "list": [
          "प्रदुषणका विभिन्\u200dन किसिमहरू जस्तै; वायु प्रदुषण, जल प्रदुषण, माटो प्रदुषणका साथै वन फँडानीलाई कसरी घटाउन सकिन्छ भनेर कक्षामा छलफल गराउन सकिन्छ।",
          "विद्यार्थीहरूलाई पनि आफूले कसरी वातावरण संरक्षण गर्न सकिन्छ भनेर खोज्न लगाउन सकिन्छ। सम्भव भए यो लिङ्क (http://pulitzercenter.org/sites/default/files/a_day_of_climate_action_0.pdf) मा भए जस्तो वातावरण संरक्षणसँग सम्बन्धित कार्य पनि गर्न लगाउन सकिनेछ।   ",
          "विद्यार्थीलाई विद्यालयबाट घरसम्म जाँदा बाटोमा कस्तो प्रकारका प्रदुषण देख्यौ, नोट गर भनेर कार्य दिन सकिन्छ। बाटोमा फोहर छरिएको थियो? मानिसले किटनाशक औषधी प्रयोग गरेको देख्यौ? यस किसिमका प्रश्नहरू सोधेर सहभगीहरूलाई आफ्नो वरपर भएको वातावरण प्रदुषणका बारेमा जागृत गराउन सकिन्छ। ",
          "विद्यार्थीलाई प्रदुषणसँग सम्बन्धित लेख रचनाहरू पढ्न लगाउन सकिन्छ।  (https://thehimalayantimes.com/opinion/air-pollution-the-invisible-killer/) ",
          "विद्यार्थीलाई प्रदुषणसँग सम्बन्धित कुनै विषयमा खोजमूलक लेख लेख्न लगाउन सकिनेछ। त्यसलाई कक्षामा प्रदर्शन समेत गर्न लगाउन सकिन्छ। साथै प्रदुषण हुने कारण, त्यसले वातावरण, मानिस लगायत अन्य जीवहरूमा पार्ने असर, प्रदुषणलाई कम गर्ने तरिका आदिका बारेमा विद्यार्थीहरूले बताउन सक्नेछन्।",
          "प्रदुषणलाई कम गर्ने प्रभावकारी तरिकाहरू के-के हुन सक्लान्? भनेर चिन्तन मनन गर्ने गरी गृहकार्य दिन पनि सकिन्छ। "
        ]
      }
    },
    "evaluation_content": {
      "en": {
        "paragraph": " ",
        "list": []
      },
      "np": {
        "paragraph": " ",
        "list": []
      }
    }
  },
  "wtr": {
    "lesson_name": "Weather",
    "about_the_lesson_content": {
      "en": " In this lesson, students will learn how to identify different factors which affect the weather and how the weather affects daily life. The students will know the differences between weather and climate by the end of the lesson. They will also learn about the various types of clouds.",
      "np": "यस पाठमा विद्यार्थीहरूले मौसमलाई असर पार्ने तत्वका बारेमा जानकारी प्राप्त गर्नुका साथै मौसमले दैनिक जीवनमा पार्ने प्रभावका बारेमा पनि जानकारी दिन्छ। पाठको अन्तमा विद्यार्थीहरूले मौसम र हावापानीका बारेमा फरक छुट्याउन सक्नेछन्। साथै बादलका किसिमबारे पनि संक्षिप्तमा व्याख्या गरिएको छ।"
    },
    "curricular_requirement_content": {},
    "prerequisites_content": {
      "paragraph": {
        "en": "None required. Students may benefit from reviewing the Water Cycle chapter in Grade 3. ",
        "np": "कक्षा ३ को 'बादल र पानी' शीर्षकको पाठ हेर्नु उपयोगी हुन सक्छ।"
      },
      "chapter_links": {}
    },
    "lesson_guidelines_content": {
      "en": {
        "paragraph": "",
        "list": [
          "In the first section, students are introduced to different adjectives used to describe weather. They will see illustrations of rainy, sunny, cloudy, snowy, and foggy days. They are also shown the definitions for weather and climate, as well as, a brief overview of how weather affects daily life. ",
          "An in-depth explanation of the factors affecting weather is given in section 2. They will learn about the following factors: direction of air, force of wind (rain/hailstone/snow), air temperature, position of the sun, fog, and clouds. Each factor is illustrated and explained thoroughly on an individual slide. ",
          "Section 3 allows the students to learn more about different types of clouds. They learn about cirrus, cumulus, stratus, and nimbus clouds. They will learn how to identify each type of cloud and will also learn about their specific characteristics. Each cloud is represented by an image so that the students can easily identify the type of cloud. ",
          "In section 4, students have the opportunity to describe the weather in their own location. "
        ]
      },
      "np": {
        "paragraph": "",
        "list": [
          "पाठको पहिलो सेक्सनमा मौसमा बारेमा विभिन्न विशेषणको प्रयोग गर्दै व्याख्या गरिएको छ। स्क्रिनमा पानी परेको, घाम लागेको, बादल लागेको र कुहिरोको चित्रसमेत देख्न सकिनेछ। पाठमा मौसम र हावापानीको परिभाषा दिनुका साथै दैनिक जीवनमा मौसमले पार्ने असरका बारेमा बताइएको छ। ",
          "मौसमलाई असर पार्ने तत्वका बारेमा सेक्सन २ मा विशेष प्रकारले जानकारी दिइएको छ। जस्तै; वायुको दिशा, वायुको वहाव, हिमपात वा वर्षा, वायुको तापक्रम, सूर्यको स्थान, कुहिरो र बादल आदि। प्रत्येक तत्वको बारेमा छुट्टाछुट्टै पानामा व्याख्या गरिएको छ।",
          "सेक्सन ३ मा विद्यार्थीले बादलका किसिमहरूबारे जानकारी पाउन सक्नेछन्। जस्तै, सिरस, क्युमुलस, स्ट्राटस र निम्बस बादल। प्रत्येक बादलका किसिमअन्तर्गत तिनका विशेषताबारे विद्यार्थीहरूले थुप्रै कुरा सिक्नेछन्। विद्यार्थीलाई हरेक किसिमका बादल सजिलै चिनाउनका लागि चित्रको समेत प्रयोग गरिएको छ।",
          "पाठको चौथो सेक्सनमा भने विद्यार्थीले आफ्नो स्थानको मौसम व्याख्या गर्ने अवसर प्राप्त गर्ने छन्। "
        ]
      }
    },
    "related_activities_content": {
      "en": {
        "paragraph": "",
        "list": [
          "After completing this lesson, teachers can ask the students each day to describe the weather and type of cloud before beginning class.  ",
          "Students can draw four different types of weather for homework. ",
          "Students can record the weather and type of clouds for a week and write a summary to be graded by the teacher. ",
          "Teachers may need to further explain the difference between weather and climate. They can do this by discussing the climate in their own area and also talking about the different types of weather they have. ",
          "Teachers can assign students a city in a different part of the world to research. Students will have to record the city’s weather for a few days (using an online source like weather.com) and present their findings to the class. Teachers should prepare their own example for the students. "
        ]
      },
      "np": {
        "paragraph": "",
        "list": [
          "यो पाठ पढिसकेपछि शिक्षकले हरेक दिन विद्यार्थीहरूलाई आजको मौसम कस्तो छ? तिमीले आकाशमा कुन बादल देख्छौ? जस्ता प्रश्न क्रमिक रुपमा सोधेर विद्यार्थीहरूलाई अवलोकनको सीप विकास गराउन सकिनेछ। ",
          "गृहकार्यका रूपमा विद्यार्थीलाई प्रत्येक किसिमका बादलहरूको चित्र कोर्न लगाउन सकिन्छ।",
          "विद्यार्थीहरूले एक हप्तासम्म मौसम र बादलको अवलोकन गर्दै रकर्ड राख्न सक्नेछन्। साथै त्यसबाट निष्कर्ष समेत निकाल्न सक्नेछन्।",
          "शिक्षकले मौसम र हावापानी बिचको के-के फरक छ? भनेर बयान गर्न सकिनेछ। यसमा विद्यार्थीहरूले स्थानीय रूपमा देखिएको विविधताका बारेमा छलफल गर्न सक्नेछन्।",
          "शिक्षकले विद्यार्थीहरूलाई शहरका फरक फरक स्थानका बारेमा अनुसन्धान गर्न लगाउन सक्नेछन्। उनीहरूलाइ केही दिनको मौसम अवलोकन गर्न लगाउँदै आवश्यक जानकारी टिपोट गर्न लगाउन सकिन्छ। जस्तै: (weather.com). साथै शिक्षकले केही उदाहरणहरू खोजेर प्रस्तुत गर्न सक्नेछन्। "
        ]
      }
    },
    "evaluation_content": {
      "en": {
        "paragraph": " ",
        "list": []
      },
      "np": {
        "paragraph": " ",
        "list": []
      }
    }
  },
  "lpp": {
    "lesson_name": "Life processes of a plant",
    "about_the_lesson_content": {
      "en": " Students would have understood about life processes in grade 4. It talks about the 7 life processes carried out by all living organisms. This chapter focuses on the life processes of plants. It focuses on the 5 life processes and how they are carried out by plants.",
      "np": "जीवन प्रक्रियाको बारेमा  विद्यार्थीहरूले सामान्यतया जानकारी कक्षा ४ मा पाइसकेका हुन्छन्।  उक्त पाठले सजीव प्राणीमा हुने ७ किसिमका जीवन प्रक्रियाका बारेमा बताइको छ।  त्यसैले यस पाठमा भने बिरुवाको जीवन प्रक्रियाको बारेमा जानकारी दिइएको छ।"
    },
    "curricular_requirement_content": {
      "en": "“Life processes of a plant” belongs to the “Living Things” unit, which is given a curricular weightage of 45 teaching hours. Out of these, this E-Paath chapter can be given a total of 3-4 teaching hours.",
      "np": "“बिरुवाको जीवन प्रक्रिया ” पाठ “सजीव प्राणी” अन्तर्गत पर्दछ। यसको लागि राष्ट्रिय पाठ्यक्रमले ४५ घन्टी छुट्याइएको भएपनि यस पाठको लागि ३ घन्टीसम्म दिन सकिन्छ। "
    },
    "prerequisites_content": {
      "paragraph": {
        "en": "Students should review the following chapter before beginning this lesson.",
        "np": "यो पाठ पढ्नु अगाडि  तलको ई-पाठको समीक्षा गर्नु राम्रो हुन्छ।"
      },
      "chapter_links": {
        "chapter_link_data1": {
          "grade": "4",
          "id": "afl",
          "breadcrumb_data": {
            "en": "Grade 4 > Life Processes",
            "np": " कक्षा ४  ➔ जीवन प्रक्रिया "
          }
        }
      }
    },
    "lesson_guidelines_content": {
      "en": {
        "paragraph": "",
        "list": [
          "Teachers can first revise the concept of life processes and then get into the details of each process given in this chapter. They are: Nutrition, Respiration, Internal Transport, Excretion and Reproduction. ",
          "Teachers can cover 1-2 life processes in one period. They can then move on to the two Do It Yourself (DIY) activities in the E-Paath chapter. Students can then do the Exercise to test their knowledge. ",
          "In addition, teachers should attempt to put the different life processes together to provide a complete overview. They can ask questions like: how is the carbon dioxide gas (CO2) connected to the different life processes of a plant. Students can then attempt to explain that CO2 is taken in during photosynthesis which is part of the nutrition life process in plants. During photosynthesis, minerals reach the leaves through the internal transport process. CO2 is released during respiration - releasing CO2 during respiration is one of the ways plants excrete."
        ]
      },
      "np": {
        "paragraph": "",
        "list": [
          "शिक्षकले यो पाठमा जीवन प्रक्रियाको बारेमा बताउँदै पछि पालैपालो दिइएको जीवन प्रक्रियाको बारेमा बयान गर्न सकिने छ। जस्तै: पोषण, श्\u200dवासप्रश्\u200dवास, परिवहन, प्रजनन आदि।",
          "शिक्षकले एक घन्टीमा १-२ ओटा  जीवन प्रक्रियाको बारेमा बताउन सक्नेछन्। त्यसपछि 'आफैँ गर' खण्डमा काम गराउन सकिने छ। आफ्नो स्वमूल्याङ्कन गर्नको लागि विद्यार्थीहरूले अभ्यास गर्न सक्नेछन्।",
          "यसका साथै, जीवन प्रक्रियाको बारेमा बताउँदा सबै प्रक्रियाहरूलाई पुन: स्मरण गराउनु पर्छ। उनीहरूले करी प्रश्न सोध्न सक्नेछन्। जस्तै: कसरी कार्बनडाई अक्साइड  ग्यास विभिन्\u200dन जीवन प्रक्रियाहरूसँग सम्बन्धित छ? यस्तै किसिमका प्रश्\u200dनहरू सोध्दै  विद्यार्थीलाई तिनका सही उत्तर बताउन प्रयास गराउन सकिनेछ।"
        ]
      }
    },
    "related_activities_content": {
      "en": {
        "paragraph": "",
        "list": [
          "Teachers can list out some specific plants like cactus, marigold etc and ask the students to divide into groups and pick one specific plant. Students can be asked to research how these plants go through the life processes and present in the class.",
          "Teachers can divide students into groups and take a quiz asking questions on the life processes. "
        ]
      },
      "np": {
        "paragraph": "",
        "list": [
          "विद्यार्थीहरूलाई सिउँडी, सयपत्री लगायत केही बिरुवाहरू दिएर हरेकलाई १/१ ओटा बिरुवा लिन लगाउन सकिन्छ। अब आफूले छानेको बिरुवामा जीवन प्रक्रिया कसरी चालु हुन्छ भनेर लघु अनुसन्धान गराउन सकिन्छ। ",
          "जीवन प्रक्रियाको बारेमा प्रश्\u200dनहरू सोध्दै  विद्यार्थीलाई समूहमा बाँडेर हाजिरीजवाफ गराउन सकिन्छ।"
        ]
      }
    },
    "evaluation_content": {
      "en": {
        "paragraph": " ",
        "list": []
      },
      "np": {
        "paragraph": " ",
        "list": []
      }
    }
  }
}
