<?xml version="1.0" encoding="utf-8"?>
<!-- Generator: Adobe Illustrator 15.0.0, SVG Export Plug-In . SVG Version: 6.00 Build 0)  -->
<!DOCTYPE svg PUBLIC "-//W3C//DTD SVG 1.1//EN" "http://www.w3.org/Graphics/SVG/1.1/DTD/svg11.dtd">
<svg version="1.1" id="Layer_1" xmlns="http://www.w3.org/2000/svg" xmlns:xlink="http://www.w3.org/1999/xlink" x="0px" y="0px"
	 width="405.18px" height="405.179px" viewBox="0 0 405.18 405.179" enable-background="new 0 0 405.18 405.179"
	 xml:space="preserve">
<g id="main">
	<path fill="#4CAEDE" d="M402.59,202.586c0,110.46-89.543,200.003-200,200.003c-110.455,0-200-89.543-200-200.003
		C2.59,92.132,92.135,2.59,202.591,2.59S402.59,92.132,402.59,202.586z"/>
	<path fill="#A7DFF4" d="M381.59,202.585c0,98.861-80.14,179.004-179,179.004c-98.856,0-178.999-80.146-178.999-179.004
		c0-98.857,80.143-178.997,179-178.997C301.45,23.588,381.59,103.728,381.59,202.585z"/>
	<path fill="#F3F4F4" d="M374.002,202.585C374.002,297.251,297.256,374,202.59,374c-94.665,0-171.411-76.748-171.411-171.415
		c0-94.665,76.746-171.407,171.412-171.407C297.256,31.178,374.002,107.92,374.002,202.585z"/>
	<path fill="#FFFFFF" d="M356.292,202.589c0,84.887-68.815,153.706-153.703,153.706c-84.884,0-153.7-68.815-153.7-153.706
		c0-84.89,68.816-153.703,153.7-153.703C287.477,48.886,356.292,117.699,356.292,202.589z"/>
	<path fill="#FBFBFB" d="M356.292,202.589c0,84.887-307.403,84.887-307.403,0c0-84.89,68.816-153.703,153.7-153.703
		C287.477,48.886,356.292,117.699,356.292,202.589z"/>
	<rect x="201.372" y="34.66" fill="#010101" width="2.487" height="9.001"/>

		<rect x="184.289" y="35.554" transform="matrix(0.9946 -0.1036 0.1036 0.9946 -3.1507 19.4334)" fill="#010101" width="2.489" height="8.998"/>

		<rect x="167.391" y="38.209" transform="matrix(0.9782 -0.2075 0.2075 0.9782 -5.1919 35.9203)" fill="#010101" width="2.49" height="9.002"/>

		<rect x="150.87" y="42.653" transform="matrix(0.9514 -0.3081 0.3081 0.9514 -7.1279 49.1588)" fill="#010101" width="2.488" height="8.999"/>

		<rect x="134.898" y="48.767" transform="matrix(0.9138 -0.4062 0.4062 0.9138 -9.899 59.9011)" fill="#010101" width="2.488" height="9"/>
	<polygon fill="#010101" points="124.229,64.316 122.07,65.562 117.574,57.768 119.726,56.52 	"/>
	<polygon fill="#010101" points="110.206,73.266 108.19,74.727 102.901,67.448 104.913,65.98 	"/>

		<rect x="92.01" y="76.618" transform="matrix(0.743 -0.6693 0.6693 0.743 -30.3247 83.2661)" fill="#010101" width="2.492" height="9"/>
	<polygon fill="#010101" points="85.34,95.296 83.667,97.148 76.982,91.129 78.647,89.277 	"/>
	<polygon fill="#010101" points="74.766,108.141 73.299,110.156 66.021,104.867 67.481,102.854 	"/>

		<rect x="59.827" y="116.351" transform="matrix(0.5005 -0.8657 0.8657 0.5005 -74.1177 113.2307)" fill="#010101" width="2.492" height="8.998"/>
	<polygon fill="#010101" points="57.925,136.781 56.909,139.055 48.688,135.398 49.697,133.124 	"/>
	<polygon fill="#010101" points="51.835,152.264 51.065,154.631 42.507,151.853 43.271,149.485 	"/>
	<polygon fill="#010101" points="47.404,168.296 46.885,170.731 38.083,168.864 38.594,166.43 	"/>
	<polygon fill="#010101" points="44.668,184.707 44.405,187.183 35.458,186.243 35.71,183.771 	"/>
	<polygon fill="#010101" points="43.663,201.312 43.663,203.802 34.667,203.808 34.659,201.32 	"/>

		<rect x="38.809" y="215.131" transform="matrix(-0.1039 -0.9946 0.9946 -0.1039 -174.2247 282.295)" fill="#010101" width="2.49" height="9"/>

		<rect x="41.483" y="232.037" transform="matrix(-0.2088 -0.978 0.978 -0.2088 -179.6781 327.7085)" fill="#010101" width="2.488" height="9.002"/>
	<polygon fill="#010101" points="51.045,250.485 51.817,252.854 43.26,255.637 42.486,253.276 	"/>
	<polygon fill="#010101" points="56.882,266.063 57.895,268.335 49.678,272.001 48.663,269.734 	"/>
	<polygon fill="#010101" points="64.316,280.946 65.561,283.1 57.772,287.603 56.522,285.453 	"/>
	<polygon fill="#010101" points="73.265,294.968 74.726,296.985 67.451,302.273 65.988,300.27 	"/>
	<polygon fill="#010101" points="83.631,307.98 85.294,309.835 78.614,315.853 76.944,314.015 	"/>
	<polygon fill="#010101" points="95.297,319.841 97.146,321.507 91.132,328.193 89.278,326.537 	"/>
	<polygon fill="#010101" points="108.141,330.414 110.153,331.876 104.869,339.156 102.856,337.703 	"/>
	<polygon fill="#010101" points="122.02,339.585 124.176,340.832 119.682,348.621 117.523,347.386 	"/>
	<polygon fill="#010101" points="136.784,347.255 139.055,348.271 135.398,356.488 133.125,355.486 	"/>
	<polygon fill="#010101" points="152.268,353.341 154.631,354.117 151.851,362.666 149.491,361.91 	"/>
	<polygon fill="#010101" points="168.299,357.779 170.733,358.296 168.861,367.093 166.434,366.585 	"/>
	<polygon fill="#010101" points="184.708,360.513 187.184,360.775 186.241,369.718 183.773,369.464 	"/>
	<polygon fill="#010101" points="201.313,361.517 203.803,361.521 203.803,370.511 201.322,370.519 	"/>
	<polygon fill="#010101" points="217.934,360.779 220.41,360.523 221.348,369.462 218.882,369.734 	"/>
	<polygon fill="#010101" points="234.383,358.308 236.818,357.796 238.688,366.589 236.264,367.113 	"/>
	<polygon fill="#010101" points="250.49,354.13 252.854,353.367 255.633,361.917 253.277,362.691 	"/>
	<polygon fill="#010101" points="266.064,348.294 268.342,347.287 271.994,355.5 269.734,356.513 	"/>
	<polygon fill="#010101" points="280.947,340.859 283.105,339.621 287.602,347.406 285.458,348.654 	"/>
	<polygon fill="#010101" points="294.975,331.912 296.986,330.455 302.271,337.726 300.27,339.195 	"/>
	<polygon fill="#010101" points="307.984,321.544 309.836,319.886 315.85,326.566 314.016,328.234 	"/>
	<polygon fill="#010101" points="319.842,309.88 321.507,308.033 328.189,314.048 326.538,315.898 	"/>
	<polygon fill="#010101" points="330.414,297.035 331.882,295.026 339.152,300.308 337.705,302.318 	"/>
	<polygon fill="#010101" points="339.585,283.158 340.835,281.003 348.616,285.498 347.391,287.651 	"/>
	<polygon fill="#010101" points="347.256,268.392 348.271,266.125 356.482,269.779 355.486,272.05 	"/>
	<polygon fill="#010101" points="353.346,252.912 354.116,250.55 362.662,253.324 361.911,255.685 	"/>
	<polygon fill="#010101" points="357.779,236.878 358.3,234.445 367.09,236.313 366.588,238.742 	"/>
	<polygon fill="#010101" points="360.514,220.468 360.777,217.998 369.715,218.935 369.469,221.402 	"/>
	<polygon fill="#010101" points="361.516,203.86 361.525,201.375 370.506,201.375 370.521,203.855 	"/>
	<polygon fill="#010101" points="360.777,187.24 360.525,184.767 369.458,183.828 369.732,186.292 	"/>
	<polygon fill="#010101" points="358.311,170.788 357.802,168.356 366.583,166.487 367.116,168.909 	"/>
	<polygon fill="#010101" points="354.135,154.688 353.371,152.319 361.913,149.543 362.695,151.896 	"/>
	<polygon fill="#010101" points="348.299,139.105 347.289,136.832 355.495,133.18 356.518,135.437 	"/>
	<polygon fill="#010101" points="340.863,124.225 339.621,122.067 347.404,117.576 348.656,119.715 	"/>
	<polygon fill="#010101" points="331.916,110.201 330.458,108.185 337.725,102.904 339.193,104.901 	"/>
	<polygon fill="#010101" points="321.55,97.19 319.891,95.335 326.563,89.321 328.236,91.157 	"/>
	<polygon fill="#010101" points="309.885,85.329 308.035,83.66 314.045,76.984 315.896,78.634 	"/>
	<polygon fill="#010101" points="297.039,74.757 295.025,73.29 300.309,66.021 302.323,67.47 	"/>
	<polygon fill="#010101" points="283.161,65.586 281.005,64.335 285.494,56.553 287.652,57.783 	"/>
	<polygon fill="#010101" points="268.396,57.914 266.125,56.896 269.779,48.688 272.05,49.687 	"/>
	<polygon fill="#010101" points="252.913,51.827 250.545,51.054 253.324,42.509 255.689,43.262 	"/>
	<polygon fill="#010101" points="236.879,47.393 234.443,46.87 236.314,38.082 238.744,38.587 	"/>
	<polygon fill="#010101" points="220.469,44.656 217.995,44.392 218.936,35.456 221.402,35.704 	"/>
	<g>
		<g>
			<rect x="199.452" y="32.67" fill="#EC2227" width="6.006" height="14.23"/>
		</g>
		<g>

				<rect x="118.069" y="54.542" transform="matrix(0.8661 -0.4999 0.4999 0.8661 -14.6094 68.7855)" fill="#EC2227" width="6.008" height="14.233"/>
		</g>
		<g>

				<rect x="58.53" y="114.187" transform="matrix(0.5 -0.866 0.866 0.5 -74.2839 113.9397)" fill="#EC2227" width="6.009" height="14.23"/>
		</g>
		<g>
			<rect x="32.674" y="199.716" fill="#EC2227" width="14.232" height="6.01"/>
		</g>
		<g>

				<rect x="58.648" y="277.007" transform="matrix(-0.4997 -0.8662 0.8662 -0.4997 -153.6419 479.509)" fill="#EC2227" width="6.009" height="14.234"/>
		</g>
		<g>

				<rect x="118.299" y="336.535" transform="matrix(-0.8661 -0.4999 0.4999 -0.8661 54.5802 701.9224)" fill="#EC2227" width="6.009" height="14.232"/>
		</g>
		<g>
			<rect x="199.722" y="358.271" fill="#EC2227" width="6.004" height="14.234"/>
		</g>
		<g>

				<rect x="281.09" y="336.364" transform="matrix(-0.866 0.5 -0.5 -0.866 701.8654 498.9061)" fill="#EC2227" width="6.008" height="14.236"/>
		</g>
		<g>
			<polygon fill="#EC2227" points="335.98,282.914 338.984,277.714 351.313,284.832 348.305,290.03 			"/>
		</g>
		<g>
			<rect x="358.271" y="199.45" fill="#EC2227" width="14.231" height="6.006"/>
		</g>
		<g>

				<rect x="340.525" y="113.954" transform="matrix(0.5 0.866 -0.866 0.5 276.6193 -236.9714)" fill="#EC2227" width="6.008" height="14.23"/>
		</g>
	</g>
	<g>
		<polygon fill="#EC2227" points="282.918,69.192 277.717,66.192 284.831,53.864 290.033,56.871 		"/>
	</g>
</g>
<circle id="circle1" display="none" fill="#FFB6CB" cx="269.781" cy="93.752" r="27.637"/>
<circle id="circle2" display="none" fill="#FFB6CB" cx="316.455" cy="132.442" r="27.637"/>
<circle id="circle3" display="none" fill="#FFB6CB" cx="338.564" cy="201.84" r="27.637"/>
<circle id="circle4" display="none" fill="#FFB6CB" cx="321.982" cy="265.71" r="27.637"/>
<circle id="circle5" display="none" fill="#FFB6CB" cx="267.939" cy="317.298" r="27.637"/>
<circle id="circle6" display="none" fill="#FFB6CB" cx="200.385" cy="338.792" r="27.637"/>
<circle id="circle7" display="none" fill="#FFB6CB" cx="139.585" cy="321.598" r="27.638"/>
<circle id="circle8" display="none" fill="#FFB6CB" cx="90.455" cy="273.695" r="27.637"/>
<circle id="circle9" display="none" fill="#FFB6CB" cx="68.346" cy="196.313" r="27.637"/>
<circle id="circle10" display="none" fill="#FFB6CB" cx="92.297" cy="141.041" r="27.637"/>
<circle id="circle11" display="none" fill="#FFB6CB" cx="138.357" cy="88.226" r="27.637"/>
<circle id="circle12" display="none" fill="#FFB6CB" cx="204.068" cy="70.415" r="27.636"/>

<g id="nmbers">
	<g>
		<text transform="matrix(1 0 0 1 175.7817 85.7017)" fill="#000" font-family="'ArialRoundedMTBold'" font-size="44" id="num_12">12</text>
	</g>
	<g>
		<text transform="matrix(1 0 0 1 111.3013 105.5444)" fill="#000" font-family="'ArialRoundedMTBold'" font-size="44" id="num_11">11</text>
	</g>
	<g>
		<text transform="matrix(1 0 0 1 64.7769 160.0845)" fill="#000" font-family="'ArialRoundedMTBold'" font-size="44" id="num_10">10</text>
	</g>
	<g>
		<text transform="matrix(1 0 0 1 53.9624 213.6167)" fill="#000" font-family="'ArialRoundedMTBold'" font-size="44" id="num_9">9</text>
	</g>
	<g>
		<text transform="matrix(1 0 0 1 74.7769 286.9478)" fill="#000" font-family="'ArialRoundedMTBold'" font-size="44" id="num_8">8</text>
	</g>
	<g>
		<text transform="matrix(1 0 0 1 124.2915 337.4702)" fill="#000" font-family="'ArialRoundedMTBold'" font-size="44" id="num_7">7</text>
	</g>
	<g>
		<text transform="matrix(1 0 0 1 187.8687 353.312)" fill="#000" font-family="'ArialRoundedMTBold'" font-size="44" id="num_6">6</text>
	</g>
	<g>
		<text transform="matrix(1 0 0 1 254.4658 336.4976)" fill="#000" font-family="'ArialRoundedMTBold'" font-size="44" id="num_5">5</text>
	</g>
	<g>
		<text transform="matrix(1 0 0 1 306.8193 280.9556)" fill="#000" font-family="'ArialRoundedMTBold'" font-size="44" id="num_4">4</text>
	</g>
	<g>
		<text transform="matrix(1 0 0 1 326.6611 219.5366)" fill="#000" font-family="'ArialRoundedMTBold'" font-size="44" id="num_3">3</text>
	</g>
	<g>
		<text transform="matrix(1 0 0 1 304.8115 148.0952)" fill="#000" font-family="'ArialRoundedMTBold'" font-size="44" id="num_2">2</text>
	</g>
	<!-- <g> -->
		<!-- <text transform="matrix(1 0 0 1 257.2607 106.562)" fill="#000" font-family="'ArialRoundedMTBold'" font-size="44">1</text> -->
	<!-- </g> -->
	<g>
		<text transform="matrix(1 0 0 1 257.2607 106.562)" fill="#231F20" font-family="'ArialRoundedMTBold'" font-size="44" id="num_1">1</text>
	</g>
</g>
<path id="hour_x5F_arm" fill="#26793C" d="M205.383,210.394c-3.655,2.841-9.208,1.81-12.405-2.301l-38.912-50.079
	c-3.194-4.113-2.821-9.749,0.835-12.589l0,0c3.656-2.84,9.209-1.81,12.404,2.303l38.911,50.08
	C209.411,201.917,209.039,207.553,205.383,210.394L205.383,210.394z"/>
<path id="min_x5F_arm" fill="#F26722" d="M209.397,203.123c-0.091,4.628-4.385,8.297-9.589,8.194l-94.047-2.167
	c-5.206-0.103-9.35-3.938-9.258-8.569l0,0c0.091-4.628,4.386-8.297,9.589-8.193l94.046,2.168
	C205.343,194.66,209.489,198.494,209.397,203.123L209.397,203.123z"/>
<path id="second_x5F_arm" display="none" fill="#BB1F3B" d="M206.527,208.666c0,3.025-2.063,5.479-4.606,5.479l0,0
	c-2.543,0-4.604-2.451-4.604-5.479V57.474c0-3.026,2.062-5.478,4.604-5.478l0,0c2.545,0,4.606,2.451,4.606,5.478V208.666z"/>
<path id="circle" fill="#EAE73C" d="M208.936,202.422c0,3.931-3.188,7.117-7.116,7.117c-3.931,0-7.117-3.187-7.117-7.117
	c0-3.928,3.187-7.115,7.117-7.115C205.748,195.307,208.936,198.494,208.936,202.422z"/>
</svg>
