selector,english_word,engmeaning,nepali_word,nepmeaning,image
straight,straight,,सिधा,,
Left,Left,,बाँया,,
Right,Right,,दाँया,,
reach,reach,,पुग्‍नु,,
restaurant,restaurant,,रेस्टुरेन्ट,"खाजा, खाना खाने ठाँउ",
cinema,cinema,,सिनेमा,फिल्म,
material,material,,सामाग्री,सामान,
intersections,intersection,,चौबाटो,२ ओटा बाटो काट्टिएको ठाँउ,
facing,face,,फर्कनु,,
fountains,fountain,,,पानीको मुल वा फोहोरा,
awesome,awesome,,,धेरै राम्रो,
leaves,leave,,छाड्नु,,
