{
  "default_unique_key": {
    "about_the_lesson_content": {
      "en": "This math concept and the E-Paath lesson has a strong practical link since it relates to concepts of profit and loss. Students will be able to think of these terms using various formulae.  ",
      "np": "यो ई-पाठले नाफा र नोक्सान सम्‍बन्धी अवधारणालाई व्यावहारिक रूपमा स्पष्‍ट बनाउँछ।  विद्यार्थीहरू नाफा र नोक्सान सम्‍बन्धी विभिन्‍न नियमहरू प्रयोग गर्न सक्षम हुनेछन्।"
    },
    "curricular_requirement_content": {
      "en": "Eleven periods have been allocated for subtraction. Even though students are required to subtract a double digit number from another double digit number (without regrouping) by the end of Grade 1, this E-Paath mainly uses single-digit numbers. ",
      "np": "ग्यारह अवधिहरू घटाउको लागि आवंटित गरिएको छ। यद्यपि विद्यार्थीहरूले ग्रेड 1 को अन्त्य सम्म दोहोरो डबल अंक (दोहोर्याइए बिना) दुई अंकको अंक घटाउन आवश्यक छ, यो ई-पाथले मुख्यतया एकल अंकको नम्बरहरू प्रयोग गर्दछ।"
    },
    "prerequisites_content": {
      "paragraph": {
        "en": "Aside from basic addition and subtraction problems, students should be familiar with algebraic expressions and equations. They should be able to think in abstract terms. The following Grade 5 lessons will be good for review. ",
        "np": "विद्यार्थीहरू आधारभूत जोड र घटाउ संगसंगै बीजीय अभिव्‍यञ्‍जक र समीकरणहरू परिचित हुनुपर्छ। नाफा र नोक्सान को शिक्षण गर्नु अघि कक्षा 5 को तल दिइएको ई-पाठहरू समीक्षा गर्नु उपयोगी हुन्छ।  "
      },
      "chapter_links": {
        "chapter_link_data1": {
          "grade": "5",
          "id": "aep",
          "breadcrumb_data": {
            "en": "Grade 5 > Algebraic Expressions",
            "np": " कक्षा ५  ➔ बीजीय अभिव्‍यञ्‍जक "
          }
        },
        "chapter_link_data2": {
          "grade": "5",
          "id": "ag5",
          "breadcrumb_data": {
            "en": "Grade 5 > Algebraic Equations",
            "np": " कक्षा ५  ➔ बीजीय समीकरण "
          }
        }
      }
    },
    "lesson_guidelines_content": {
      "en": {
        "paragraph": "Even though this is a new concept, Profit and Loss can be relatively simple for students who have met the above prerequisites. The E-Paath lesson can be completed within 3 days. However, if students are still struggling to meet the prerequisites, teachers should review addition, subtraction and algebraic equations before teaching this unit. ",
        "list": [
          "Day 1: Sections 1,2 and 3: Teachers should go through the sections slowly, making sure every student is following. Section 2 has a DIY. ",
          "Day 2: Sections 4 and 5: Section 4 deals with calculating loss.",
          "Day 3 and onwards: For more practice, students could practice Profit and Loss problems using fake money. "
        ]
      },
      "np": {
        "paragraph": "नाफा र नोक्सान नयाँ अवधारणा भए पनि माथि दिइएका पूर्व आवश्‍यकताहरू पूरा गर्ने विद्यार्थीहरूको लागि भने सजिलो हुन्छ। यो ई-पाठ तीन दिन भित्र पूरा गर्न सकिन्छ। यद्यपि, विद्यार्थीहरूले पूर्व आवश्‍यकता पूरा गर्न सकेका छैनन् भने, पाठ पढाउनु अघि जोड, घटाउ, बीजीय अभिव्‍यञ्‍जक र समीकरणहरूको समीक्षा गर्न सकिन्छ। ",
        "list": [
          "दिन 1: भागहरु 1, 2 र 3: शिक्षकहरू सबै विद्यार्थीहरूलाई समेटने गरी बिस्तारै अघि बढ्न सक्छन्।",
          "दिन 2: भागहरु 4, 5 र 6: शिक्षकहरू सबै विद्यार्थीहरूलाई समेटने गरी बिस्तारै अघि बढ्न सक्छन्।",
          "दिन 3 र त्यसपछि: विद्यार्थीहरूलाई अझै अभ्यास चाहिन्छ भने, थप अभ्यासहरु दिन सकिन्छ।"
        ]
      }
    },
    "related_activities_content": {
      "en": {
        "paragraph": "",
        "list": [
          "Since the main idea of the lesson has a direct connection to the lives of students, have them bring examples from home that involved Profit and Loss scenarios. Students can orally share these examples and then write short ‘story problems’. Partners can solve each other’s problems. ",
          "Students can practice problems from the textbook for homework. ",
          "Teachers can provide additional problems for students to practice in class or at home. "
        ]
      },
      "np": {
        "paragraph": "",
        "list": [
          "यो पाठ विद्यार्थीहरूको दैनिकीसँग सम्बन्धित भएकाले, उनीहरूले घरबाट नाफा र नोक्सान समावेश भएका उदाहरणहरू ल्याउन सक्छन्। विद्यार्थीहरूले यी उदाहरणहरूलाई मौखिक रूपमा एक अर्कासँग भन्‍नु‌का साथै एक अर्काको समस्याहरू समाधान गर्न सक्छन्।",
          "विद्यार्थीहरूले घरमा पाठ्यपुस्तकबाट अभ्यास गर्न सक्छन्।",
          "शिक्षकहरूले कक्षा वा घरमा अभ्यास गर्न थप प्रश्‍नहरू दिन सक्छन्।"
        ]
      }
    },
    "evaluation_content": {
      "en": {
        "paragraph": " ",
        "list": ["", ""]
      },
      "np": {
        "paragraph": " ",
        "list": ["", ""]
      }
    }
  }
}
