<?xml version="1.0" encoding="utf-8"?>
<!-- Generator: Adobe Illustrator 15.0.0, SVG Export Plug-In . SVG Version: 6.00 Build 0)  -->
<!DOCTYPE svg PUBLIC "-//W3C//DTD SVG 1.1//EN" "http://www.w3.org/Graphics/SVG/1.1/DTD/svg11.dtd">
<svg version="1.1" id="Layer_1" xmlns="http://www.w3.org/2000/svg" xmlns:xlink="http://www.w3.org/1999/xlink" x="0px" y="0px"
	 width="487.863px" height="450.621px" viewBox="0 0 487.863 450.621" enable-background="new 0 0 487.863 450.621"
	 xml:space="preserve">
<g>
	<g>
		<path fill="#ED7D31" d="M415.215,87.129h-73.713v308.675l-39.586-37.018V193.604h-70.301c5.311,5.918,9.736,12.285,13.278,19.111
			l7.977,21.158l3.316,15.016v12.285c0,8.191-2.037,17.063-6.1,26.619c-8.127,19.111-22.129,30.949-41.987,35.492l-10.164,1.365
			c-8.125,0-17.383-2.953-27.76-8.873l-25.744-19.111c-11.282-8.639-20.092-18.652-26.416-30.031l-18.278-37.539l-13.544-38.904
			l-6.1-22.523H94.5l6.175,19.793l6.857,19.111l8.916,16.381l10.291,17.062c5.939,8.189,14.396,16.156,25.381,23.889l17.832,10.238
			l17.831,4.777c3.199,0,7.092-1.131,11.668-3.412c8.232-4.096,13.949-12.734,17.148-25.938v-8.873c0-5.459-1.6-11.145-4.779-17.062
			l-8.871-19.793c-2.73-5.908-7.744-13.875-15.016-23.889c-10.015-12.734-17.981-20.924-23.889-24.572h137.872V87.129H71.219V54.367
			h343.995V87.129z"/>
	</g>
</g>
</svg>
