<?xml version="1.0" encoding="utf-8"?>
<!-- Generator: Adobe Illustrator 15.0.0, SVG Export Plug-In . SVG Version: 6.00 Build 0)  -->
<!DOCTYPE svg PUBLIC "-//W3C//DTD SVG 1.1//EN" "http://www.w3.org/Graphics/SVG/1.1/DTD/svg11.dtd">
<svg version="1.1" id="Layer_1" xmlns="http://www.w3.org/2000/svg" xmlns:xlink="http://www.w3.org/1999/xlink" x="0px" y="0px"
	 width="487.863px" height="450.621px" viewBox="0 0 487.863 450.621" enable-background="new 0 0 487.863 450.621"
	 xml:space="preserve">
<g>
	<g>
		<path fill="#ED7D31" d="M405.472,87.131H337.22v308.673l-38.223-42.094V223.637l-23.889,10.238L240.3,248.207
			c0,5.92-1.141,11.156-3.412,15.699l-10.238,19.793l-15.016,19.111c-4.096,4.094-10.238,7.508-18.428,10.236
			c-8.191,2.73-16.158,4.096-23.889,4.096c-3.648,0-7.285,0-10.922,0c-4.094-1.365-7.848-2.494-11.262-3.412
			c-3.412-0.906-9.213-5.461-17.404-13.65l-10.92-13.65c-8.191-10.463-14.109-23.654-17.746-39.588l6.826-6.143
			c0.906,5.92,3.412,12.521,7.508,19.793c4.094,7.285,9.096,13.203,15.016,17.746c10.92,8.191,22.523,12.285,34.809,12.285h6.824
			c9.098-1.363,16.146-4.436,21.16-9.213c5-4.777,11.145-12.627,18.428-23.547c5.908-10.463,8.873-21.607,8.873-33.445
			c0-7.273-1.824-13.65-5.461-19.109c-3.646-5.461-9.107-10.463-16.381-15.018c-7.283-4.543-15.25-6.824-23.889-6.824h-8.873
			c-3.646,0-7.283,1.141-10.92,3.412l-12.285,8.191c-3.648,1.822-8.648,6.602-15.016,14.332l-14.334-31.396
			c8.191-10.152,18.193-16.914,30.031-20.305l12.969-2.9l13.65-1.365l12.285,1.365c5.002,0,11.369,2.73,19.111,8.189l16.381,14.334
			l10.92,10.92l8.873,12.969l15.016,2.047c6.367,0,14.334-2.047,23.889-6.143c12.285-6.826,19.793-16.828,22.523-30.031V87.131
			H81.271V54.369h324.202V87.131z"/>
	</g>
</g>
</svg>
