<?xml version="1.0" encoding="utf-8"?>
<!-- Generator: Adobe Illustrator 15.0.0, SVG Export Plug-In . SVG Version: 6.00 Build 0)  -->
<!DOCTYPE svg PUBLIC "-//W3C//DTD SVG 1.1//EN" "http://www.w3.org/Graphics/SVG/1.1/DTD/svg11.dtd">
<svg version="1.1" id="Layer_1" xmlns="http://www.w3.org/2000/svg" xmlns:xlink="http://www.w3.org/1999/xlink" x="0px" y="0px"
	 width="487.863px" height="450.621px" viewBox="0 0 487.863 450.621" enable-background="new 0 0 487.863 450.621"
	 xml:space="preserve">

	<path id="path0" fill="#548135" d="M391.304,87.129h-85.315v136.506h-57.334h-15.016c-5.459,0-10.237,0.917-14.332,2.73
		c-8.191,1.365-16.381,4.777-24.572,10.237c-7.742,3.647-14.108,8.19-19.11,13.651c-3.188,4.095-7.06,11.154-11.603,21.158
		c-3.189,9.555-4.777,17.746-4.777,24.57c0,8.649,2.047,17.299,6.143,25.937c4.095,8.649,9.32,15.134,15.697,19.452
		c6.367,4.33,14.217,7.967,23.548,10.92c9.321,2.965,18.312,4.438,26.96,4.438h13.65l9.556-2.678l17.063-4.01
		c8.189-1.781,14.098-3.23,17.746-4.351c3.637-1.109,8.189-2.784,13.65-5.022l19.11-9.364l12.968-8.702l25.254,34.127
		l-12.648,9.726l-13.991,8.34l-27.962,11.806l-19.261,5.557l-19.271,3.477h-8.938c-14.227,0-24.539-1.142-30.959-3.435
		l-29.584-12.36c-10.099-5.492-18.588-11.326-25.467-17.511c-6.879-6.186-13.757-14.312-20.635-24.39l-13.064-26.789
		c-3.221-11.443-4.82-20.604-4.82-27.473l0.682-30.906c0.907-6.867,3.179-14.877,6.826-24.037l6.143-11.678l7.508-13.054
		c3.178-4.575,9.438-9.491,18.77-14.759c9.32-5.27,19.676-8.82,31.055-10.654l22.523-2.73h9.556c9.097,0,14.781,0,17.063,0
		l10.238,2.73V87.129H96.452V54.367h294.853V87.129z"/>

	<g id="gr" display="none">
		<path id="path1" fill="none" stroke="#231F20" stroke-width="25" stroke-miterlimit="10" d="M282.853,81.903v120
			c0,0-94.666-28.001-123.333,34.666s14.667,146.666,102.667,139.333c56.568-4.714,84.667-35.333,84.667-35.333"/>
		<line id="path2" fill="none" stroke="#231F20" stroke-width="25" stroke-miterlimit="10" x1="97.521" y1="71.901" x2="392.853" y2="71.901"/>
	</g>
</svg>
