<?xml version="1.0" encoding="utf-8"?>
<!-- Generator: Adobe Illustrator 15.0.0, SVG Export Plug-In . SVG Version: 6.00 Build 0)  -->
<!DOCTYPE svg PUBLIC "-//W3C//DTD SVG 1.1//EN" "http://www.w3.org/Graphics/SVG/1.1/DTD/svg11.dtd">
<svg version="1.1" id="Layer_1" xmlns="http://www.w3.org/2000/svg" xmlns:xlink="http://www.w3.org/1999/xlink" x="0px" y="0px"
	 width="487.863px" height="450.621px" viewBox="0 0 487.863 450.621" enable-background="new 0 0 487.863 450.621"
	 xml:space="preserve">
 		<path id="path0" fill="#AF4425" d="M384.739,87.129H265.978v101.014l19.111,6.826c12.285,5.012,23.088,10.92,32.42,17.746
 			c9.32,6.824,17.629,14.108,24.912,21.84c5.461,6.378,10.238,15.25,14.334,26.619c4.095,11.379,6.143,21.841,6.143,31.396
 			c0,10.92-2.283,22.299-6.826,34.127c-6.824,21.84-21.158,39.586-42.999,53.236c-8.649,5.461-18.663,9.791-30.031,12.969
 			l-36.856,2.73c-23.665,0-45.506-6.367-65.523-19.111c-11.379-6.825-21.051-15.123-29.008-24.912
 			c-7.966-9.779-14.449-22.406-19.451-37.881c-1.824-6.825-3.413-13.533-4.778-20.135c-1.364-6.59-2.048-12.627-2.048-18.087
 			c0-12.286,2.271-23.089,6.826-32.42c4.543-9.321,10.238-17.405,17.063-24.229c5.002-4.543,14.1-10.463,27.302-17.746l15.016-4.096
 			c8.638-1.365,14.333-3.178,17.063-5.46c8.189-5.001,13.874-9.779,17.063-14.333c3.179-4.543,5.461-10.238,6.826-17.063v-73.03
 			H102.172V54.367h282.567V87.129z M331.502,274.142c0-7.273-1.482-14.217-4.437-20.818c-2.965-6.59-7.626-13.074-13.992-19.451
 			c-14.108-15.464-31.173-23.207-51.19-23.207l-34.126,18.6l-31.396,8.958c-7.743,1.386-13.651,3.679-17.746,6.89l-20.477,16.529
 			c-5.46,5.514-8.873,11.71-10.238,18.6l-1.365,15.164c0,16.083,6.592,30.779,19.794,44.088c5.002,4.597,12.052,8.959,21.159,13.086
 			l21.84,5.514h18.429c10.003,0,21.383-1.931,34.126-5.803c12.734-3.859,22.865-7.955,30.373-12.285
 			c7.508-4.318,14.217-10.686,20.135-19.111c5.908-8.414,10.58-16.721,13.992-24.912
 			C329.795,287.793,331.502,280.519,331.502,274.142z"/>
		<g id="gr" display="none">
			<path id="path1" fill="none" stroke="#231F20" stroke-width="25" stroke-miterlimit="10" d="M250.521,81.281v105.333
				c0,0-63.333,13.333-88.667,50s-34,146.667,97.333,140c120.66-6.125,85.334-144,38-166c-48.533-22.559-50.666-26-50.666-26"/>
			<line id="path2" fill="none" stroke="#231F20" stroke-width="25" stroke-miterlimit="10" x1="101.854" y1="72.614" x2="385.187" y2="72.614"/>
		</g>
</svg>
