selector,english_word,engmeaning,nepali_word,nepmeaning,image
बहुवचन,बहुवचन,plural,,व्याकरणमा एकभन्दा बढी वस्तु वा व्यक्तिलाई बुझाउने शब्द,
एकवचन ,एकवचन,singular,,व्याकरणमा एउटा वस्तु वा व्यक्तिलाई बुझाउने शब्द,
