selector,english_word,engmeaning,nepali_word,nepmeaning,image
drop her off,drop off,,,कुनै ठाउँमा पुर्याइदिनु,
dialogues,dialogue,"conversation, talk",संवाद,,
announcing,announce,,घोषणा,,
passport,passport,"an official document issued by a government, certifying the holder's identity and citizenship and giving them right to travel under its protection to and from foreign countries.",राहदनी ,विदेश जान सरकारले दिएको अनुमति भएको पत्र ,
visa,visa,"an approval on a passport indicating that the holder is allowed to enter, leave, or stay for a specified period of time in a country.",भिसा,सरकारले विदेशीलाई आफ्‍नो देशमा रहने अनुमति दिईएको पासपोर्टमा भएको स्वीकृति ,
luggage,luggage,suitcases or other bags to pack personal belongings for travelling,सामान,,
backpack,backpack,a bag carried on the back,,ढाडमा बोक्ने झोला,
prohibited,prohibited,not allowed ,निषेधित,,
aisle ,aisle seat ,a seat on a plane situated at the end of a row,अयस्क सीट,गाडी वा विमानमा हुने सिटको छेउ,
window seat,window seat,a seat next to a window ,झ्यालको सिट,,
boarding pass,boarding pass,,,यात्रुलाई विमान चढ्ने अनुमति दिने टिकट,
boarding ,board,the action of getting on or into a vehicle,,(गाडी वा विमान) चढ्‍नु; सवार हुनु,
prefer,prefer,,छान्‍नु; रुचाउनु,,
respond,respond,,,"जवाफ दिनु, प्रतिक्रिया दिनु",
conveyor belt,conveyor belt,a continuous moving belt used for transporting objects from one place to another.,वाहक बेल्ट,,
announcement,announce,,घोषणा,,
board,board,to get on ( a vehicle),चढ्नु,(गाडी) चढ्‍नु; सवार हुनु,
