selector,english_word,engmeaning,nepali_word,nepmeaning,image
tidy,tidy,"neat and clean",सफा,,
disturb,disturb,,बिथोल्नु (बाधा पुर्‍याउनु),,
proper,proper,"fitting, right",सही,,
doubt,doubt,"not sure",शङ्का,,
neatly,neatly,"cleanly",सफासँग,,
raise,raise,,उचाल्नु (उठाउनु),,
rude,rude,not polite,रुखो (अशिष्ट),,
wrappers,wrapper,"materials, such as paper, in which something is covered",बेर्ने कागज,,
bad language,bad language,bad words or sentences,गाली गर्ने शब्द (फोहोरी शब्द) ,,
promise,promise,,"बाचा,कसम",,
littering,litter,throwing waste,फोहर पार्नु,,
rules,rule,,नियम,,
