<?xml version="1.0" encoding="utf-8"?>
<!-- Generator: Adobe Illustrator 15.0.0, SVG Export Plug-In . SVG Version: 6.00 Build 0)  -->
<!DOCTYPE svg PUBLIC "-//W3C//DTD SVG 1.1//EN" "http://www.w3.org/Graphics/SVG/1.1/DTD/svg11.dtd">
<svg version="1.1" id="Layer_1" xmlns="http://www.w3.org/2000/svg" xmlns:xlink="http://www.w3.org/1999/xlink" x="0px" y="0px"
	 width="487.863px" height="450.621px" viewBox="0 0 487.863 450.621" enable-background="new 0 0 487.863 450.621"
	 xml:space="preserve">
<g>
	<path fill="#ED7D31" d="M414.646,86.94h-70.984v308.674l-39.586-37.57V190.003c-12.285,3.646-24.123,10.014-35.492,19.109
		l-13.65,12.969l-11.604,17.746l-12.967,26.619l-38.904-28.666l21.84-26.619c-4.095-10.004-11.837-17.971-23.205-23.889
		c-6.378-2.73-12.521-4.096-18.429-4.096h-8.19c-3.188,0-5.695,0.459-7.508,1.377c-10.014,2.75-17.298,6.994-21.841,12.732
		c-4.554,5.738-8.19,12.041-10.921,18.92l-1.365,24.08c0,4.596,2.048,11.016,6.143,19.27l6.826,11.699
		c7.273,12.852,15.239,23.174,23.889,30.959l18.428,15.826l25.254,21.34l-9.556,12.383l-27.301-21.158l-25.254-21.16l-29.349-27.301
		c-6.826-8.189-13.427-19.559-19.793-34.127L84.3,226.858l-3.412-20.475c0-7.273,1.589-14.1,4.777-20.477
		c6.825-16.828,19.559-28.207,38.222-34.127l17.746-2.73c7.731,0,17.628,2.166,29.69,6.484c12.051,4.33,23.088,11.496,33.102,21.5
		c4.544,4.555,10.463,12.969,17.746,25.254l14.334-12.285l17.745-12.969l10.238-6.824c6.826-4.096,12.51-6.826,17.064-8.191
		l13.65-4.777l8.873-2.049V86.94H71.332V54.178h343.314V86.94z"/>
</g>
</svg>
