<?xml version="1.0" encoding="utf-8"?>
<!-- Generator: Adobe Illustrator 15.0.0, SVG Export Plug-In . SVG Version: 6.00 Build 0)  -->
<!DOCTYPE svg PUBLIC "-//W3C//DTD SVG 1.1//EN" "http://www.w3.org/Graphics/SVG/1.1/DTD/svg11.dtd">
<svg version="1.1" id="Layer_1" xmlns="http://www.w3.org/2000/svg" xmlns:xlink="http://www.w3.org/1999/xlink" x="0px" y="0px"
	 width="487.863px" height="450.621px" viewBox="0 0 487.863 450.621" enable-background="new 0 0 487.863 450.621"
	 xml:space="preserve">
<path id="path0" fill="#D4A847" d="M368.684,87.837h-93.507l2.729,15.025l2.729,12.969v30.053c0,20.039-3.987,40.749-11.954,62.143
	c-3.988,11.389-10.42,22.768-19.271,34.147l-18.599,21.852l19.11,27.324c4.543,5.918,16.829,18.438,36.856,37.549l27.301,24.593
	l30.031,22.534v20.485l-25.937-17.756l-47.094-38.937c-19.57-16.852-39.588-37.338-60.063-61.481l-20.476-24.582
	c-5.461-6.823-10.473-14.344-15.016-22.545l-6.143-15.708l-1.365-13.661c1.365-10.921,4.436-17.863,9.214-20.828
	c4.778-2.965,11.262-4.447,19.452-4.447h40.27l6.825-21.158l2.048-17.746c0-12.733-0.802-21.724-2.389-26.96
	c-1.6-5.226-6.037-12.851-13.311-22.864H119.56V55.075h249.124V87.837z"/>
<g id="gr" display="none">
	<path id="path1" display="inline" fill="none" stroke="#231F20" stroke-width="25" stroke-miterlimit="10" d="M250.018,75.891
		c0,0,15.747,36.587,8.334,106.938c0,0-0.586,80.315-65.253,58.982c-64.667-21.333,11.333-100.001,26.667-26
		s12,100.524,119.334,163.333"/>

		<line id="path2" display="inline" fill="none" stroke="#231F20" stroke-width="25" stroke-miterlimit="10" x1="118.778" y1="70.337" x2="368.066" y2="70.337"/>
</g>
</svg>
