<?xml version="1.0" encoding="utf-8"?>
<!-- Generator: Adobe Illustrator 15.0.0, SVG Export Plug-In . SVG Version: 6.00 Build 0)  -->
<!DOCTYPE svg PUBLIC "-//W3C//DTD SVG 1.1//EN" "http://www.w3.org/Graphics/SVG/1.1/DTD/svg11.dtd">
<svg version="1.1" id="Layer_1" xmlns="http://www.w3.org/2000/svg" xmlns:xlink="http://www.w3.org/1999/xlink" x="0px" y="0px"
	 width="487.863px" height="450.621px" viewBox="0 0 487.863 450.621" enable-background="new 0 0 487.863 450.621"
	 xml:space="preserve">
<g>
	<path fill="#D4A847" d="M386.658,86.629h-51.872v308.674l-36.857-37.645V246.757L183.189,310.36l-14.94-34.671l122.855-68.936
		c-6.826-12.285-16.381-22.523-28.666-30.713l-16.381-10.238l-18.429-4.777c-4.554,0-9.331,0.916-14.333,2.729l-16.381,6.144
		l-43.682,23.205l-18.429-36.856c14.099-9.812,30.938-17.298,50.507-22.448l15.699-2.805h15.016h14.332
		c15.464,2.793,30.031,10.951,43.683,24.475c10.462,10.26,18.429,21.211,23.888,32.857V86.629H99.313V53.867h287.345V86.629z"/>
</g>
</svg>
