<?xml version="1.0" encoding="utf-8"?>
<!-- Generator: Adobe Illustrator 15.0.0, SVG Export Plug-In . SVG Version: 6.00 Build 0)  -->
<!DOCTYPE svg PUBLIC "-//W3C//DTD SVG 1.1//EN" "http://www.w3.org/Graphics/SVG/1.1/DTD/svg11.dtd">
<svg version="1.1" id="Layer_1" xmlns="http://www.w3.org/2000/svg" xmlns:xlink="http://www.w3.org/1999/xlink" x="0px" y="0px"
	 width="246.67px" height="338.67px" viewBox="0 0 246.67 338.67" enable-background="new 0 0 246.67 338.67" xml:space="preserve">
<path id="path0" fill="#434343" d="M225.293,265.839c1.406,4.219,2.285,7.559,2.637,10.02s-0.118,4.307-1.406,5.537
	c-1.291,1.23-3.576,1.991-6.855,2.285c-3.282,0.291-7.795,0.439-13.535,0.439c-5.977,0-10.635-0.088-13.975-0.264
	s-5.889-0.527-7.646-1.055s-2.988-1.258-3.691-2.197c-0.703-0.937-1.291-2.167-1.758-3.691L163.77,231.21h-85.43l-14.414,44.473
	c-0.47,1.643-1.085,3.019-1.846,4.131c-0.764,1.115-1.994,1.994-3.691,2.637c-1.7,0.643-4.104,1.082-7.207,1.318
	c-3.106,0.233-7.18,0.352-12.217,0.352c-5.392,0-9.61-0.176-12.656-0.527c-3.049-0.352-5.158-1.2-6.328-2.549
	c-1.173-1.346-1.582-3.252-1.23-5.713s1.23-5.74,2.637-9.844L91.523,63.691c0.703-1.991,1.521-3.604,2.461-4.834
	c0.937-1.23,2.431-2.167,4.482-2.813c2.049-0.643,4.892-1.055,8.525-1.23c3.631-0.176,8.438-0.264,14.414-0.264
	c6.914,0,12.42,0.088,16.524,0.264c4.101,0.176,7.295,0.588,9.58,1.23c2.285,0.646,3.925,1.612,4.922,2.9
	c0.994,1.291,1.846,3.049,2.549,5.273L225.293,265.839z M120.878,99.023h-0.176l-32.168,96.68h64.512L120.878,99.023z"/>
<g id="gr" display="none">
	
		<line id="path3" display="inline" fill="none" stroke="#000000" stroke-width="21" stroke-miterlimit="10" x1="66.791" y1="216.335" x2="176.292" y2="216.335"/>
	
		<line id="path2" display="inline" fill="none" stroke="#000000" stroke-width="21" stroke-miterlimit="10" x1="122.335" y1="64.335" x2="198.791" y2="277.335"/>
	
		<line id="path1" display="inline" fill="none" stroke="#000000" stroke-width="21" stroke-miterlimit="10" x1="118.791" y1="64.335" x2="42.291" y2="278.835"/>
</g>
</svg>
