selector,english_word,engmeaning,nepali_word,nepmeaning,image
समीकरण,equation,,समीकरण,समान बनाउने वा बराबर पार्ने क्रिया,
बीजगणितीय,algebra,,बीजगणित,,
गतिविधिमा,activity,,गतिविधि,"कुनै पनि व्यक्ति, कामकुरा आदिको व्यवस्था वा स्थिति",
सावधानीपूर्वक,carefully,,सावधानीपूर्वक,,
सरलीकरण,simplify,,सरलीकरण,अप्ठ्यारो कुरालाई सजिलो पार्ने काम वा क्रिया,
कुल,total,,कुल,जम्मा,
अज्ञात,unknown,,अज्ञात,"नजानेको, नचिनेको, अपरिचित, अज्ञात",
चल,variable,,चल,मानको सट्‍टामा लेखिने अक्षर,
प्रश्‍न,question,,प्रश्‍न,,
परिणाम,result,,परिणाम,"फल, नतिजा",
अवलोकन,overview,,अवलोकन,"सूक्ष्म रूपमा हेर्ने वा तथ्य पत्ता लगाउन अध्ययन गर्ने काम, निरीक्षण",
प्रश्‍नानुसार,as per,,प्रश्‍नानुसार,,
विकल्प,option,,विकल्प,दुई वा बढी विषयमध्‍ये कुनै एक विषय छान्‍ने काम,
अन्यथा,otherwise,,अन्यथा,विपरित,
केवल,only,,केवल,"खालि, त्यही एक मात्र",
निश्‍चित,"certain, definite",,निश्‍चित,"निधो भएको, टुङ्गो लागेको",
शाब्‍दिक समस्‍याहरू,Word Problem,,शाब्‍दिक समस्‍या,,
मात्रा,quantity,,मात्रा,,
तुलना,Comparison,,तुलना,मानका आधारमा दुई वस्तुमा भएका समानता वा असमानताको परीक्षण गर्ने काम,
मान,value,,मान,,
चरणहरू,step,,चरण,,
