selector,english_word,engmeaning,nepali_word,nepmeaning,image
fur,fur,,,"भुत्ला, भुवा",
container,container,,,"बाकस, भाँडो",
volume,volume,,,परिमाण,
pour,pour,,,खन्याउनु,
spread,spread,,,फैलनु,
held,held,,,"रोकिएको, रोक्नु",
vessel,vessel,,,भाँडो,
exist,exist,,,अस्तित्वमा रहनु,
state,state,,,अवस्था,
Matter,Matter,,,पदार्थ,
