<?xml version="1.0" encoding="utf-8"?>
<!DOCTYPE svg PUBLIC "-//W3C//DTD SVG 1.1//EN" "http://www.w3.org/Graphics/SVG/1.1/DTD/svg11.dtd">
<svg version="1.1" id="Layer_1" xmlns="http://www.w3.org/2000/svg" xmlns:xlink="http://www.w3.org/1999/xlink" x="0px" y="0px"
	 width="406.25px" height="381.25px" viewBox="0 0 406.25 381.25" enable-background="new 0 0 406.25 381.25" xml:space="preserve">
<g>
	<circle fill="#FFFDE9" stroke="#F58220" stroke-width="2.52" stroke-miterlimit="10" cx="202.865" cy="190.374" r="73.4"/>
	<text transform="matrix(1 0 0 1 173.4756 175.2705)" fill="#2B7F03" font-family="'Helvetica-Narrow-Bold'" font-size="49.6">8 p</text>
	<text transform="matrix(1 0 0 1 173.4756 234.79)" fill="#0A7CD6" font-family="'Helvetica-Narrow-Bold'" font-size="49.6">8 n</text>
</g>
<circle fill="none" stroke="#0095DA" stroke-width="3" stroke-miterlimit="10" cx="202.865" cy="190.376" r="162.201"/>
<circle fill="none" stroke="#0095DA" stroke-width="3" stroke-miterlimit="10" cx="202.866" cy="190.375" r="126.976"/>
<g>
	<circle fill="#F8878B" stroke="#AF2E38" stroke-width="0.96" stroke-miterlimit="10" cx="203.564" cy="67.671" r="13.65"/>
	
		<rect x="195.457" y="65.272" transform="matrix(-0.9999 0.0136 -0.0136 -0.9999 408.0256 132.5668)" fill="#231F20" width="16.21" height="4.801"/>
</g>
<g>
	<circle fill="#F8878B" stroke="#AF2E38" stroke-width="0.96" stroke-miterlimit="10" cx="203.564" cy="27.718" r="13.65"/>
	
		<rect x="195.457" y="25.318" transform="matrix(-0.9999 0.0135 -0.0135 -0.9999 407.4786 52.6848)" fill="#231F20" width="16.209" height="4.799"/>
</g>
<g>
	<circle fill="#F8878B" stroke="#AF2E38" stroke-width="0.96" stroke-miterlimit="10" cx="203.564" cy="352.718" r="13.65"/>
	
		<rect x="195.457" y="350.318" transform="matrix(-0.9999 0.0135 -0.0135 -0.9999 411.8647 702.6562)" fill="#231F20" width="16.209" height="4.799"/>
</g>
<g>
	<circle fill="#F8878B" stroke="#AF2E38" stroke-width="0.96" stroke-miterlimit="10" cx="344.023" cy="108.298" r="13.65"/>
	
		<rect x="335.914" y="105.901" transform="matrix(-0.9999 0.0136 -0.0136 -0.9999 689.4817 211.9087)" fill="#231F20" width="16.21" height="4.801"/>
</g>
<g>
	<circle fill="#F8878B" stroke="#AF2E38" stroke-width="0.96" stroke-miterlimit="10" cx="343.828" cy="271.384" r="13.65"/>
	
		<rect x="335.721" y="268.98" transform="matrix(-0.9999 0.0135 -0.0135 -0.9999 691.2826 538.0948)" fill="#231F20" width="16.209" height="4.799"/>
</g>
<g>
	<circle fill="#F8878B" stroke="#AF2E38" stroke-width="0.96" stroke-miterlimit="10" cx="62.169" cy="271.384" r="13.65"/>
	
		<rect x="54.065" y="268.982" transform="matrix(-0.9999 0.0135 -0.0135 -0.9999 127.9952 541.8999)" fill="#231F20" width="16.209" height="4.799"/>
</g>
<g>
	<circle fill="#F8878B" stroke="#AF2E38" stroke-width="0.96" stroke-miterlimit="10" cx="62.426" cy="107.935" r="13.65"/>
	
		<rect x="54.321" y="105.535" transform="matrix(-0.9999 0.0135 -0.0135 -0.9999 126.3021 215.0163)" fill="#231F20" width="16.209" height="4.799"/>
</g>
<g>
	<circle fill="#F8878B" stroke="#AF2E38" stroke-width="0.96" stroke-miterlimit="10" cx="203.564" cy="313.498" r="13.65"/>
	
		<rect x="195.453" y="311.096" transform="matrix(-0.9999 0.0136 -0.0136 -0.9999 411.3461 624.2041)" fill="#231F20" width="16.209" height="4.8"/>
</g>
</svg>
