<?xml version="1.0" encoding="utf-8"?>
<!DOCTYPE svg PUBLIC "-//W3C//DTD SVG 1.1//EN" "http://www.w3.org/Graphics/SVG/1.1/DTD/svg11.dtd">
<svg version="1.1" id="Layer_1" xmlns="http://www.w3.org/2000/svg" xmlns:xlink="http://www.w3.org/1999/xlink" x="0px" y="0px" width="100%" height="100%" viewBox="0 0 152 152" enable-background="new 0 0 152 152" preserveAspectRatio="none">
<path id="degreecircle" fill="none" data-animstep="step0" stroke="#9D0EE7" stroke-width="10" stroke-dasharray="446" stroke-dashoffset="446" d="M75.827,5C115.039,4.905,146.904,36.615,147,75.827 c0.096,39.212-31.613,71.078-70.827,71.173C36.961,147.096,5.096,115.385,5,76.174c-0.001-0.368,0.001-0.735,0.005-1.103 C5.499,36.367,36.981,5.095,75.827,5z"/>
</svg>
