<?xml version="1.0" encoding="utf-8"?>
<!-- Generator: Adobe Illustrator 15.0.0, SVG Export Plug-In . SVG Version: 6.00 Build 0)  -->
<!DOCTYPE svg PUBLIC "-//W3C//DTD SVG 1.1//EN" "http://www.w3.org/Graphics/SVG/1.1/DTD/svg11.dtd">
<svg version="1.1" id="Layer_1" xmlns="http://www.w3.org/2000/svg" xmlns:xlink="http://www.w3.org/1999/xlink" x="0px" y="0px"
	 width="647.41px" height="316.716px" viewBox="0 0 647.41 316.716" enable-background="new 0 0 647.41 316.716"
	 xml:space="preserve">

<line fill="none" stroke="#F58220" stroke-width="4" stroke-linecap="round" stroke-linejoin="round" stroke-miterlimit="10" x1="323.705" y1="2" x2="323.705" y2="0"> 
<animate id="line1" attributeName="y2" from="0" to="138.358" begin="0s;line4.end+2s" dur="0.7s" fill="freeze"/>
</line>

<line fill="none" stroke="#F58220" stroke-width="4" stroke-linecap="round" stroke-linejoin="round" stroke-miterlimit="10" x1="0" y1="138.358" x2="2" y2="138.358">
<animate id="line4" attributeName="y2" from="138.358" to="314.716" begin="line3.end+0.5s" dur="0.7s" fill="freeze"/>

</line>

<line fill="none" stroke="#F58220" stroke-width="4" stroke-linecap="round" stroke-linejoin="round" stroke-miterlimit="10" x1="645.41" y1="138.358" x2="645.41" y2="138.358">
<animate id="line4" attributeName="y2" from="138.358" to="314.716" begin="line3.end+0.5s" dur="0.7s" fill="freeze"/>

</line>

<!-- <line fill="none" stroke="#F58220" stroke-width="4" stroke-linecap="round" stroke-linejoin="round" stroke-miterlimit="10" x1="0" y1="138.358" x2="2" y2="138.358">
<animate id="line2" attributeName="x1" from="0" to="314.716" begin="line1.end+0.5s" dur="0.7s" fill="freeze"/>

</line> -->

<line fill="none" stroke="#F58220" stroke-width="4" stroke-linecap="round" stroke-linejoin="round" stroke-miterlimit="10" x1="0" y1="138.358" x2="0" y2="138.358">
<animate id="line3" attributeName="x2" from="0" to="645.41" begin="line1.end+0.5s" dur="0.7s" fill="freeze"/>
</line>
</svg>
