<?xml version="1.0" encoding="utf-8"?>
<!-- Generator: Adobe Illustrator 15.0.0, SVG Export Plug-In . SVG Version: 6.00 Build 0)  -->
<!DOCTYPE svg PUBLIC "-//W3C//DTD SVG 1.1//EN" "http://www.w3.org/Graphics/SVG/1.1/DTD/svg11.dtd">
<svg version="1.1" id="Layer_1" xmlns="http://www.w3.org/2000/svg" xmlns:xlink="http://www.w3.org/1999/xlink" x="0px" y="0px"
	 width="961px" height="581px" viewBox="0 0 961 581" enable-background="new 0 0 961 581" xml:space="preserve">
<g>
	<g>
		<rect x="13.982" y="77.444" fill="#DADFA1" width="50.193" height="50.179"/>
		<text transform="matrix(1.0003 0 0 1 30.6885 112.3633)" fill="#231F20" font-family="'Calibri-Bold'" font-size="26.5879">H</text>
		<g>
			<g>
				<text transform="matrix(1.0003 0 0 1 35.377 89.3555)" fill="#231F20" font-family="'Calibri-Bold'" font-size="14.5974">1</text>
			</g>
		</g>
	</g>
	<text transform="matrix(1.0003 0 0 1 26.1465 121.0391)" fill="#231F20" font-family="'Calibri-Bold'" font-size="6.3864">Hydro­gen</text>
</g>
<g>
	<g>
		<rect x="898.402" y="77.444" fill="#DADFA1" width="50.188" height="50.179"/>
		<text transform="matrix(1.0003 0 0 1 908.4121 111.8916)" fill="#231F20" font-family="'Calibri-Bold'" font-size="26.5879">He</text>
		<text transform="matrix(1.0003 0 0 1 913.9307 122.3945)" fill="#231F20" font-family="'Calibri-Bold'" font-size="6.3864">Helium</text>
	</g>
	<g>
		<g>
			<text transform="matrix(1.0003 0 0 1 919.7959 89.3555)" fill="#231F20" font-family="'Calibri-Bold'" font-size="14.5974">2</text>
		</g>
	</g>
</g>
<g>
	<rect x="66.138" y="129.447" fill="#DADFA1" width="50.191" height="50.179"/>
	<text transform="matrix(1.0003 0 0 1 77.085 163.8955)" fill="#231F20" font-family="'Calibri-Bold'" font-size="26.5879">Be</text>
	<text transform="matrix(1.0003 0 0 1 78.46 174.3965)" fill="#231F20" font-family="'Calibri-Bold'" font-size="6.3864">Beryl­lium</text>
	<g>
		<g>
			<text transform="matrix(1.0003 0 0 1 87.5342 141.3574)" fill="#231F20" font-family="'Calibri-Bold'" font-size="14.5974">4</text>
		</g>
	</g>
</g>
<g>
	<g>
		<rect x="638.316" y="129.447" fill="#DADFA1" width="50.192" height="50.179"/>
		<text transform="matrix(1.0003 0 0 1 655.959 164.918)" font-family="'Calibri-Bold'" font-size="26.5879">B</text>
		<text transform="matrix(1.0003 0 0 1 655.2793 175.4199)" font-family="'Calibri-Bold'" font-size="6.3864">Boron</text>
	</g>
	<g>
		<g>
			<text transform="matrix(1.0003 0 0 1 659.7139 141.3574)" font-family="'Calibri-Bold'" font-size="14.5974">5</text>
		</g>
	</g>
</g>
<g>
	<g>
		<rect x="690.336" y="129.447" fill="#DADFA1" width="50.189" height="50.179"/>
		<text transform="matrix(1.0003 0 0 1 708.3906 163.8955)" fill="#231F20" font-family="'Calibri-Bold'" font-size="26.5879">C</text>
		<text transform="matrix(1.0003 0 0 1 705.8223 174.3965)" fill="#231F20" font-family="'Calibri-Bold'" font-size="6.3864">Carbon</text>
	</g>
	<g>
		<g>
			<text transform="matrix(1.0003 0 0 1 711.7305 141.3574)" fill="#231F20" font-family="'Calibri-Bold'" font-size="14.5974">6</text>
		</g>
	</g>
</g>
<g>
	<g>
		<rect x="742.351" y="129.447" fill="#DADFA1" width="50.194" height="50.179"/>
		<text transform="matrix(1.0003 0 0 1 758.6855 163.8955)" fill="#231F20" font-family="'Calibri-Bold'" font-size="26.5879">N</text>
		<text transform="matrix(1.0003 0 0 1 755.7002 174.3965)" fill="#231F20" font-family="'Calibri-Bold'" font-size="6.3864">Nitro­gen</text>
	</g>
	<g>
		<g>
			<text transform="matrix(1.0003 0 0 1 763.7461 141.3574)" fill="#231F20" font-family="'Calibri-Bold'" font-size="14.5974">7</text>
		</g>
	</g>
</g>
<g>
	<g>
		<rect x="794.368" y="129.447" fill="#DADFA1" width="50.19" height="50.179"/>
		<text transform="matrix(1.0003 0 0 1 810.4688 163.8955)" fill="#231F20" font-family="'Calibri-Bold'" font-size="26.5879">O</text>
		<text transform="matrix(1.0003 0 0 1 809.4258 174.3965)" fill="#231F20" font-family="'Calibri-Bold'" font-size="6.3864">Oxy­gen</text>
	</g>
	<g>
		<g>
			<text transform="matrix(1.0003 0 0 1 815.7627 141.3574)" fill="#231F20" font-family="'Calibri-Bold'" font-size="14.5974">8</text>
		</g>
	</g>
</g>
<g>
	<g>
		<rect x="846.384" y="129.447" fill="#DADFA1" width="50.191" height="50.179"/>
		<text transform="matrix(1.0003 0 0 1 865.375 163.8955)" fill="#231F20" font-family="'Calibri-Bold'" font-size="26.5879">F</text>
		<text transform="matrix(1.0003 0 0 1 860.4961 174.3965)" fill="#231F20" font-family="'Calibri-Bold'" font-size="6.3864">Fluor­ine</text>
	</g>
	<g>
		<g>
			<text transform="matrix(1.0003 0 0 1 867.7803 141.3574)" fill="#231F20" font-family="'Calibri-Bold'" font-size="14.5974">9</text>
		</g>
	</g>
</g>
<g>
	<g>
		<rect x="898.402" y="129.447" fill="#DADFA1" width="50.188" height="50.179"/>
		<text transform="matrix(1.0003 0 0 1 908.042 163.8955)" fill="#231F20" font-family="'Calibri-Bold'" font-size="26.5879">Ne</text>
		<text transform="matrix(1.0003 0 0 1 916.292 174.3965)" fill="#231F20" font-family="'Calibri-Bold'" font-size="6.3864">Neon</text>
	</g>
	<g>
		<g>
			<text transform="matrix(1.0003 0 0 1 916.0957 141.3574)" fill="#231F20" font-family="'Calibri-Bold'" font-size="14.5974">10</text>
		</g>
	</g>
</g>
<g>
	<rect x="66.138" y="181.449" fill="#DADFA1" width="50.191" height="50.182"/>
	<text transform="matrix(1.0003 0 0 1 73.3057 215.8984)" fill="#231F20" font-family="'Calibri-Bold'" font-size="26.5879">Mg</text>
	<text transform="matrix(1.0003 0 0 1 75.5967 226.4004)" fill="#231F20" font-family="'Calibri-Bold'" font-size="6.3864">Magne­sium</text>
	<g>
		<g>
			<text transform="matrix(1.0003 0 0 1 83.834 193.3604)" fill="#231F20" font-family="'Calibri-Bold'" font-size="14.5974">12</text>
		</g>
	</g>
</g>
<g>
	<g>
		<rect x="638.316" y="181.449" fill="#DADFA1" width="50.192" height="50.182"/>
		<text transform="matrix(1.0003 0 0 1 652.0898 216.9209)" fill="#231F20" font-family="'Calibri-Bold'" font-size="26.5879">Al</text>
		<text transform="matrix(1.0003 0 0 1 648.7256 227.4238)" fill="#231F20" font-family="'Calibri-Bold'" font-size="6.3864">Alumin­ium</text>
	</g>
	<g>
		<g>
			<text transform="matrix(1.0003 0 0 1 656.0137 193.3604)" fill="#231F20" font-family="'Calibri-Bold'" font-size="14.5974">13</text>
		</g>
	</g>
</g>
<g>
	<g>
		<rect x="690.336" y="181.449" fill="#DADFA1" width="50.189" height="50.182"/>
		<text transform="matrix(1.0003 0 0 1 705.8779 216.9209)" fill="#231F20" font-family="'Calibri-Bold'" font-size="26.5879">Si</text>
		<text transform="matrix(1.0003 0 0 1 706.7393 227.4238)" fill="#231F20" font-family="'Calibri-Bold'" font-size="6.3864">Sili­con</text>
	</g>
	<g>
		<g>
			<text transform="matrix(1.0003 0 0 1 708.0313 193.3604)" fill="#231F20" font-family="'Calibri-Bold'" font-size="14.5974">14</text>
		</g>
	</g>
</g>
<g>
	<g>
		<rect x="742.351" y="181.449" fill="#DADFA1" width="50.194" height="50.182"/>
		<text transform="matrix(1.0003 0 0 1 760.3672 215.8984)" fill="#231F20" font-family="'Calibri-Bold'" font-size="26.5879">P</text>
		<text transform="matrix(1.0003 0 0 1 751.7119 226.4004)" fill="#231F20" font-family="'Calibri-Bold'" font-size="6.3864">Phos­phorus</text>
	</g>
	<g>
		<g>
			<text transform="matrix(1.0003 0 0 1 760.0469 193.3604)" fill="#231F20" font-family="'Calibri-Bold'" font-size="14.5974">15</text>
		</g>
	</g>
</g>
<g>
	<g>
		<rect x="794.368" y="181.449" fill="#DADFA1" width="50.19" height="50.182"/>
		<text transform="matrix(1.0003 0 0 1 813.1768 215.8984)" fill="#231F20" font-family="'Calibri-Bold'" font-size="26.5879">S</text>
		<text transform="matrix(1.0003 0 0 1 811.5352 226.4004)" fill="#231F20" font-family="'Calibri-Bold'" font-size="6.3864">Sulfur</text>
	</g>
	<g>
		<g>
			<text transform="matrix(1.0003 0 0 1 812.0625 193.3604)" fill="#231F20" font-family="'Calibri-Bold'" font-size="14.5974">16</text>
		</g>
	</g>
</g>
<g>
	<g>
		<rect x="846.384" y="181.449" fill="#DADFA1" width="50.191" height="50.182"/>
		<text transform="matrix(1.0003 0 0 1 861.1748 215.8984)" fill="#231F20" font-family="'Calibri-Bold'" font-size="26.5879">Cl</text>
		<text transform="matrix(1.0003 0 0 1 860.2715 226.4004)" fill="#231F20" font-family="'Calibri-Bold'" font-size="6.3864">Chlor­ine</text>
	</g>
	<g>
		<g>
			<text transform="matrix(1.0003 0 0 1 864.0801 193.3604)" fill="#231F20" font-family="'Calibri-Bold'" font-size="14.5974">17</text>
		</g>
	</g>
</g>
<g>
	<g>
		<rect x="898.402" y="181.449" fill="#DADFA1" width="50.188" height="50.182"/>
		<text transform="matrix(1.0003 0 0 1 910.71 215.8984)" fill="#231F20" font-family="'Calibri-Bold'" font-size="26.5879">Ar</text>
		<text transform="matrix(1.0003 0 0 1 915.4189 226.4004)" fill="#231F20" font-family="'Calibri-Bold'" font-size="6.3864">Argon</text>
	</g>
	<g>
		<g>
			<text transform="matrix(1.0003 0 0 1 916.0957 193.3604)" fill="#231F20" font-family="'Calibri-Bold'" font-size="14.5974">18</text>
		</g>
	</g>
</g>
<g>
	<rect x="66.138" y="233.454" fill="#DADFA1" width="50.191" height="50.181"/>
	<text transform="matrix(1.0003 0 0 1 77.6299 267.9014)" fill="#231F20" font-family="'Calibri-Bold'" font-size="26.5879">Ca</text>
	<text transform="matrix(1.0003 0 0 1 80.6875 278.4043)" fill="#231F20" font-family="'Calibri-Bold'" font-size="6.3864">Cal­cium</text>
	<g>
		<g>
			<text transform="matrix(1.0003 0 0 1 83.834 245.3643)" fill="#231F20" font-family="'Calibri-Bold'" font-size="14.5974">20</text>
		</g>
	</g>
</g>
<g>
	<g>
		<rect x="118.154" y="233.454" fill="#DADFA1" width="50.192" height="50.181"/>
		<text transform="matrix(1.0003 0 0 1 131.3975 267.9014)" fill="#231F20" font-family="'Calibri-Bold'" font-size="26.5879">Sc</text>
		<text transform="matrix(1.0003 0 0 1 130.2402 278.4043)" fill="#231F20" font-family="'Calibri-Bold'" font-size="6.3864">Scan­dium</text>
	</g>
	<g>
		<g>
			<text transform="matrix(1.0003 0 0 1 135.8506 245.3643)" fill="#231F20" font-family="'Calibri-Bold'" font-size="14.5974">21</text>
		</g>
	</g>
</g>
<g>
	<g>
		<rect x="170.171" y="233.454" fill="#DADFA1" width="50.19" height="50.181"/>
		<text transform="matrix(1.0003 0 0 1 185.416 267.9014)" fill="#231F20" font-family="'Calibri-Bold'" font-size="26.5879">Ti</text>
		<text transform="matrix(1.0003 0 0 1 183.3457 278.4043)" fill="#231F20" font-family="'Calibri-Bold'" font-size="6.3864">Tita­nium</text>
	</g>
	<g>
		<g>
			<text transform="matrix(1.0003 0 0 1 187.8672 245.3643)" fill="#231F20" font-family="'Calibri-Bold'" font-size="14.5974">22</text>
		</g>
	</g>
</g>
<g>
	<g>
		<rect x="222.188" y="233.454" fill="#DADFA1" width="50.19" height="50.181"/>
		<text transform="matrix(1.0003 0 0 1 239.417 267.9014)" fill="#231F20" font-family="'Calibri-Bold'" font-size="26.5879">V</text>
		<text transform="matrix(1.0003 0 0 1 233.6553 278.4043)" fill="#231F20" font-family="'Calibri-Bold'" font-size="6.3864">Vana­dium</text>
	</g>
	<g>
		<g>
			<text transform="matrix(1.0003 0 0 1 239.8828 245.3643)" fill="#231F20" font-family="'Calibri-Bold'" font-size="14.5974">23</text>
		</g>
	</g>
</g>
<g>
	<g>
		<rect x="274.204" y="233.454" fill="#DADFA1" width="50.19" height="50.181"/>
		<text transform="matrix(1.0003 0 0 1 287.5322 267.9014)" fill="#231F20" font-family="'Calibri-Bold'" font-size="26.5879">Cr</text>
		<text transform="matrix(1.0003 0 0 1 285.2871 278.4043)" fill="#231F20" font-family="'Calibri-Bold'" font-size="6.3864">Chrom­ium</text>
	</g>
	<g>
		<g>
			<text transform="matrix(1.0003 0 0 1 291.8994 245.3643)" fill="#231F20" font-family="'Calibri-Bold'" font-size="14.5974">24</text>
		</g>
	</g>
</g>
<g>
	<g>
		<rect x="326.22" y="233.454" fill="#DADFA1" width="50.194" height="50.181"/>
		<text transform="matrix(1.0003 0 0 1 332.5566 267.9014)" fill="#231F20" font-family="'Calibri-Bold'" font-size="26.5879">Mn</text>
		<text transform="matrix(1.0003 0 0 1 335.877 278.4043)" fill="#231F20" font-family="'Calibri-Bold'" font-size="6.3864">Manga­nese</text>
	</g>
	<g>
		<g>
			<text transform="matrix(1.0003 0 0 1 343.915 245.3643)" fill="#231F20" font-family="'Calibri-Bold'" font-size="14.5974">25</text>
		</g>
	</g>
</g>
<g>
	<g>
		<rect x="378.236" y="233.454" fill="#DADFA1" width="50.191" height="50.181"/>
		<text transform="matrix(1.0003 0 0 1 390.5322 267.9014)" fill="#231F20" font-family="'Calibri-Bold'" font-size="26.5879">Fe</text>
		<text transform="matrix(1.0003 0 0 1 397.8525 278.4043)" fill="#231F20" font-family="'Calibri-Bold'" font-size="6.3864">Iron</text>
	</g>
	<g>
		<g>
			<text transform="matrix(1.0003 0 0 1 395.9326 245.3643)" fill="#231F20" font-family="'Calibri-Bold'" font-size="14.5974">26</text>
		</g>
	</g>
</g>
<g>
	<g>
		<rect x="430.253" y="233.454" fill="#DADFA1" width="50.191" height="50.181"/>
		<text transform="matrix(1.0003 0 0 1 441.1592 267.9014)" fill="#231F20" font-family="'Calibri-Bold'" font-size="26.5879">Co</text>
		<text transform="matrix(1.0003 0 0 1 446.6973 278.4043)" fill="#231F20" font-family="'Calibri-Bold'" font-size="6.3864">Cobalt</text>
	</g>
	<g>
		<g>
			<text transform="matrix(1.0003 0 0 1 447.9473 245.3643)" fill="#231F20" font-family="'Calibri-Bold'" font-size="14.5974">27</text>
		</g>
	</g>
</g>
<g>
	<g>
		<rect x="482.27" y="233.454" fill="#DADFA1" width="50.189" height="50.181"/>
		<text transform="matrix(1.0003 0 0 1 495.3379 267.9014)" fill="#231F20" font-family="'Calibri-Bold'" font-size="26.5879">Ni</text>
		<text transform="matrix(1.0003 0 0 1 499.1543 278.4043)" fill="#231F20" font-family="'Calibri-Bold'" font-size="6.3864">Nickel</text>
	</g>
	<g>
		<g>
			<text transform="matrix(1.0003 0 0 1 499.9639 245.3643)" fill="#231F20" font-family="'Calibri-Bold'" font-size="14.5974">28</text>
		</g>
	</g>
</g>
<g>
	<g>
		<rect x="534.286" y="233.454" fill="#DADFA1" width="50.193" height="50.181"/>
		<text transform="matrix(1.0003 0 0 1 545.2051 267.9014)" fill="#231F20" font-family="'Calibri-Bold'" font-size="26.5879">Cu</text>
		<text transform="matrix(1.0003 0 0 1 549.7402 278.4043)" fill="#231F20" font-family="'Calibri-Bold'" font-size="6.3864">Copper</text>
	</g>
	<g>
		<g>
			<text transform="matrix(1.0003 0 0 1 551.9805 245.3643)" fill="#231F20" font-family="'Calibri-Bold'" font-size="14.5974">29</text>
		</g>
	</g>
</g>
<g>
	<g>
		<rect x="586.302" y="233.454" fill="#DADFA1" width="50.191" height="50.181"/>
		<text transform="matrix(1.0003 0 0 1 597.9043 267.9014)" fill="#231F20" font-family="'Calibri-Bold'" font-size="26.5879">Zn</text>
		<text transform="matrix(1.0003 0 0 1 605.9756 278.4043)" fill="#231F20" font-family="'Calibri-Bold'" font-size="6.3864">Zinc</text>
	</g>
	<g>
		<g>
			<text transform="matrix(1.0003 0 0 1 603.9971 245.3643)" fill="#231F20" font-family="'Calibri-Bold'" font-size="14.5974">30</text>
		</g>
	</g>
</g>
<g>
	<g>
		<rect x="638.316" y="233.454" fill="#DADFA1" width="50.192" height="50.181"/>
		<text transform="matrix(1.0003 0 0 1 648.375 268.9238)" fill="#231F20" font-family="'Calibri-Bold'" font-size="26.5879">Ga</text>
		<text transform="matrix(1.0003 0 0 1 653.0762 279.4268)" fill="#231F20" font-family="'Calibri-Bold'" font-size="6.3864">Gallium</text>
	</g>
	<g>
		<g>
			<text transform="matrix(1.0003 0 0 1 656.0137 245.3643)" fill="#231F20" font-family="'Calibri-Bold'" font-size="14.5974">31</text>
		</g>
	</g>
</g>
<g>
	<g>
		<rect x="690.336" y="233.454" fill="#DADFA1" width="50.189" height="50.181"/>
		<text transform="matrix(1.0003 0 0 1 700.2627 268.9238)" fill="#231F20" font-family="'Calibri-Bold'" font-size="26.5879">Ge</text>
		<text transform="matrix(1.0003 0 0 1 699.6064 279.4268)" fill="#231F20" font-family="'Calibri-Bold'" font-size="6.3864">Germa­nium</text>
	</g>
	<g>
		<g>
			<text transform="matrix(1.0003 0 0 1 708.0313 245.3643)" fill="#231F20" font-family="'Calibri-Bold'" font-size="14.5974">32</text>
		</g>
	</g>
</g>
<g>
	<g>
		<rect x="742.351" y="233.454" fill="#DADFA1" width="50.194" height="50.181"/>
		<text transform="matrix(1.0003 0 0 1 754.083 268.9238)" fill="#231F20" font-family="'Calibri-Bold'" font-size="26.5879">As</text>
		<text transform="matrix(1.0003 0 0 1 757.5977 279.4268)" fill="#231F20" font-family="'Calibri-Bold'" font-size="6.3864">Arsenic</text>
	</g>
	<g>
		<g>
			<text transform="matrix(1.0003 0 0 1 760.0469 245.3643)" fill="#231F20" font-family="'Calibri-Bold'" font-size="14.5974">33</text>
		</g>
	</g>
</g>
<g>
	<g>
		<rect x="794.368" y="233.454" fill="#DADFA1" width="50.19" height="50.181"/>
		<text transform="matrix(1.0003 0 0 1 806.4824 267.9014)" fill="#231F20" font-family="'Calibri-Bold'" font-size="26.5879">Se</text>
		<text transform="matrix(1.0003 0 0 1 807.0811 278.4043)" fill="#231F20" font-family="'Calibri-Bold'" font-size="6.3864">Sele­nium</text>
	</g>
	<g>
		<g>
			<text transform="matrix(1.0003 0 0 1 812.0625 245.3643)" fill="#231F20" font-family="'Calibri-Bold'" font-size="14.5974">34</text>
		</g>
	</g>
</g>
<g>
	<g>
		<rect x="846.384" y="233.454" fill="#DADFA1" width="50.191" height="50.181"/>
		<text transform="matrix(1.0003 0 0 1 859.2959 267.9014)" fill="#231F20" font-family="'Calibri-Bold'" font-size="26.5879">Br</text>
		<text transform="matrix(1.0003 0 0 1 860.0723 278.4043)" fill="#231F20" font-family="'Calibri-Bold'" font-size="6.3864">Bromine</text>
	</g>
	<g>
		<g>
			<text transform="matrix(1.0003 0 0 1 864.0801 245.3643)" fill="#231F20" font-family="'Calibri-Bold'" font-size="14.5974">35</text>
		</g>
	</g>
</g>
<g>
	<g>
		<rect x="898.402" y="233.454" fill="#DADFA1" width="50.188" height="50.181"/>
		<text transform="matrix(1.0003 0 0 1 911.4961 267.9014)" fill="#231F20" font-family="'Calibri-Bold'" font-size="26.5879">Kr</text>
		<text transform="matrix(1.0003 0 0 1 912.7881 278.4043)" fill="#231F20" font-family="'Calibri-Bold'" font-size="6.3864">Kryp­ton</text>
	</g>
	<g>
		<g>
			<text transform="matrix(1.0003 0 0 1 916.0957 245.3643)" fill="#231F20" font-family="'Calibri-Bold'" font-size="14.5974">36</text>
		</g>
	</g>
</g>
<g>
	<rect x="66.138" y="285.457" fill="#DADFA1" width="50.191" height="50.179"/>
	<text transform="matrix(1.0003 0 0 1 80.2197 319.9043)" fill="#231F20" font-family="'Calibri-Bold'" font-size="26.5879">Sr</text>
	<text transform="matrix(1.0003 0 0 1 77.8076 330.4082)" fill="#231F20" font-family="'Calibri-Bold'" font-size="6.3864">Stront­ium</text>
	<g>
		<g>
			<text transform="matrix(1.0003 0 0 1 83.834 297.3691)" fill="#231F20" font-family="'Calibri-Bold'" font-size="14.5974">38</text>
		</g>
	</g>
</g>
<g>
	<g>
		<rect x="118.154" y="285.457" fill="#DADFA1" width="50.192" height="50.179"/>
		<text transform="matrix(1.0003 0 0 1 136.3398 319.9043)" fill="#231F20" font-family="'Calibri-Bold'" font-size="26.5879">Y</text>
		<text transform="matrix(1.0003 0 0 1 133.2012 330.4082)" fill="#231F20" font-family="'Calibri-Bold'" font-size="6.3864">Yttrium</text>
	</g>
	<g>
		<g>
			<text transform="matrix(1.0003 0 0 1 135.8506 297.3691)" fill="#231F20" font-family="'Calibri-Bold'" font-size="14.5974">39</text>
		</g>
	</g>
</g>
<g>
	<g>
		<rect x="170.171" y="285.457" fill="#DADFA1" width="50.19" height="50.179"/>
		<text transform="matrix(1.0003 0 0 1 184.1826 319.9043)" fill="#231F20" font-family="'Calibri-Bold'" font-size="26.5879">Zr</text>
		<text transform="matrix(1.0003 0 0 1 181.8955 330.4082)" fill="#231F20" font-family="'Calibri-Bold'" font-size="6.3864">Zirco­nium</text>
	</g>
	<g>
		<g>
			<text transform="matrix(1.0003 0 0 1 187.8672 297.3691)" fill="#231F20" font-family="'Calibri-Bold'" font-size="14.5974">40</text>
		</g>
	</g>
</g>
<g>
	<g>
		<rect x="222.188" y="285.457" fill="#DADFA1" width="50.19" height="50.179"/>
		<text transform="matrix(1.0003 0 0 1 231.3848 319.9043)" fill="#231F20" font-family="'Calibri-Bold'" font-size="26.5879">Nb</text>
		<text transform="matrix(1.0003 0 0 1 235.8066 330.4082)" fill="#231F20" font-family="'Calibri-Bold'" font-size="6.3864">Nio­bium</text>
	</g>
	<g>
		<g>
			<text transform="matrix(1.0003 0 0 1 239.8828 297.3691)" fill="#231F20" font-family="'Calibri-Bold'" font-size="14.5974">41</text>
		</g>
	</g>
</g>
<g>
	<g>
		<rect x="274.204" y="285.457" fill="#DADFA1" width="50.19" height="50.179"/>
		<text transform="matrix(1.0003 0 0 1 280.5264 319.9043)" fill="#231F20" font-family="'Calibri-Bold'" font-size="26.5879">Mo</text>
		<text transform="matrix(1.0003 0 0 1 281.3711 330.4082)" fill="#231F20" font-family="'Calibri-Bold'" font-size="6.3864">Molyb­denum</text>
	</g>
	<g>
		<g>
			<text transform="matrix(1.0003 0 0 1 291.8994 297.3691)" fill="#231F20" font-family="'Calibri-Bold'" font-size="14.5974">42</text>
		</g>
	</g>
</g>
<g>
	<g>
		<rect x="326.22" y="285.457" fill="#DADFA1" width="50.194" height="50.179"/>
		<text transform="matrix(1.0003 0 0 1 339.167 319.9043)" fill="#231F20" font-family="'Calibri-Bold'" font-size="26.5879">Tc</text>
		<text transform="matrix(1.0003 0 0 1 335.5107 330.4082)" fill="#231F20" font-family="'Calibri-Bold'" font-size="6.3864">Tech­netium</text>
	</g>
	<g>
		<g>
			<text transform="matrix(1.0003 0 0 1 343.915 297.3691)" fill="#231F20" font-family="'Calibri-Bold'" font-size="14.5974">43</text>
		</g>
	</g>
</g>
<g>
	<g>
		<rect x="378.236" y="285.457" fill="#DADFA1" width="50.191" height="50.179"/>
		<text transform="matrix(1.0003 0 0 1 388.708 319.9043)" fill="#231F20" font-family="'Calibri-Bold'" font-size="26.5879">Ru</text>
		<text transform="matrix(1.0003 0 0 1 388.5205 330.4082)" fill="#231F20" font-family="'Calibri-Bold'" font-size="6.3864">Ruthe­nium</text>
	</g>
	<g>
		<g>
			<text transform="matrix(1.0003 0 0 1 395.9326 297.3691)" fill="#231F20" font-family="'Calibri-Bold'" font-size="14.5974">44</text>
		</g>
	</g>
</g>
<g>
	<g>
		<rect x="430.253" y="285.457" fill="#DADFA1" width="50.191" height="50.179"/>
		<text transform="matrix(1.0003 0 0 1 440.7236 319.9043)" fill="#231F20" font-family="'Calibri-Bold'" font-size="26.5879">Rh</text>
		<text transform="matrix(1.0003 0 0 1 443.248 330.4082)" fill="#231F20" font-family="'Calibri-Bold'" font-size="6.3864">Rho­dium</text>
	</g>
	<g>
		<g>
			<text transform="matrix(1.0003 0 0 1 447.9473 297.3691)" fill="#231F20" font-family="'Calibri-Bold'" font-size="14.5974">45</text>
		</g>
	</g>
</g>
<g>
	<g>
		<rect x="482.27" y="285.457" fill="#DADFA1" width="50.189" height="50.179"/>
		<text transform="matrix(1.0003 0 0 1 493.1494 319.9043)" fill="#231F20" font-family="'Calibri-Bold'" font-size="26.5879">Pd</text>
		<text transform="matrix(1.0003 0 0 1 494.0713 330.4082)" fill="#231F20" font-family="'Calibri-Bold'" font-size="6.3864">Pallad­ium</text>
	</g>
	<g>
		<g>
			<text transform="matrix(1.0003 0 0 1 499.9639 297.3691)" fill="#231F20" font-family="'Calibri-Bold'" font-size="14.5974">46</text>
		</g>
	</g>
</g>
<g>
	<g>
		<rect x="534.286" y="285.457" fill="#DADFA1" width="50.193" height="50.179"/>
		<text transform="matrix(1.0003 0 0 1 545.0176 319.9043)" fill="#231F20" font-family="'Calibri-Bold'" font-size="26.5879">Ag</text>
		<text transform="matrix(1.0003 0 0 1 551.9883 330.4082)" fill="#231F20" font-family="'Calibri-Bold'" font-size="6.3864">Silver</text>
	</g>
	<g>
		<g>
			<text transform="matrix(1.0003 0 0 1 551.9805 297.3691)" fill="#231F20" font-family="'Calibri-Bold'" font-size="14.5974">47</text>
		</g>
	</g>
</g>
<g>
	<g>
		<rect x="586.302" y="285.457" fill="#DADFA1" width="50.191" height="50.179"/>
		<text transform="matrix(1.0003 0 0 1 597.2227 319.9043)" fill="#231F20" font-family="'Calibri-Bold'" font-size="26.5879">Cd</text>
		<text transform="matrix(1.0003 0 0 1 598.6621 330.4082)" fill="#231F20" font-family="'Calibri-Bold'" font-size="6.3864">Cad­mium</text>
	</g>
	<g>
		<g>
			<text transform="matrix(1.0003 0 0 1 603.9971 297.3691)" fill="#231F20" font-family="'Calibri-Bold'" font-size="14.5974">48</text>
		</g>
	</g>
</g>
<g>
	<g>
		<rect x="638.316" y="285.457" fill="#DADFA1" width="50.192" height="50.179"/>
		<text transform="matrix(1.0003 0 0 1 652.7324 320.9268)" fill="#231F20" font-family="'Calibri-Bold'" font-size="26.5879">In</text>
		<text transform="matrix(1.0003 0 0 1 653.9766 331.4307)" fill="#231F20" font-family="'Calibri-Bold'" font-size="6.3864">Indium</text>
	</g>
	<g>
		<g>
			<text transform="matrix(1.0003 0 0 1 656.0137 297.3691)" fill="#231F20" font-family="'Calibri-Bold'" font-size="14.5974">49</text>
		</g>
	</g>
</g>
<g>
	<g>
		<rect x="690.336" y="285.457" fill="#DADFA1" width="50.189" height="50.179"/>
		<text transform="matrix(1.0003 0 0 1 702.0078 320.9268)" fill="#231F20" font-family="'Calibri-Bold'" font-size="26.5879">Sn</text>
		<text transform="matrix(1.0003 0 0 1 711.29 331.4307)" fill="#231F20" font-family="'Calibri-Bold'" font-size="6.3864">Tin</text>
	</g>
	<g>
		<g>
			<text transform="matrix(1.0003 0 0 1 708.0313 297.3691)" fill="#231F20" font-family="'Calibri-Bold'" font-size="14.5974">50</text>
		</g>
	</g>
</g>
<g>
	<g>
		<rect x="742.351" y="285.457" fill="#DADFA1" width="50.194" height="50.179"/>
		<text transform="matrix(1.0003 0 0 1 754.0244 320.9268)" fill="#231F20" font-family="'Calibri-Bold'" font-size="26.5879">Sb</text>
		<text transform="matrix(1.0003 0 0 1 754.3252 331.4307)" fill="#231F20" font-family="'Calibri-Bold'" font-size="6.3864">Anti­mony</text>
	</g>
	<g>
		<g>
			<text transform="matrix(1.0003 0 0 1 760.0469 297.3691)" fill="#231F20" font-family="'Calibri-Bold'" font-size="14.5974">51</text>
		</g>
	</g>
</g>
<g>
	<g>
		<rect x="794.368" y="285.457" fill="#DADFA1" width="50.19" height="50.179"/>
		<text transform="matrix(1.0003 0 0 1 806.1846 320.9268)" fill="#231F20" font-family="'Calibri-Bold'" font-size="26.5879">Te</text>
		<text transform="matrix(1.0003 0 0 1 806.6982 331.4307)" fill="#231F20" font-family="'Calibri-Bold'" font-size="6.3864">Tellur­ium</text>
	</g>
	<g>
		<g>
			<text transform="matrix(1.0003 0 0 1 812.0625 297.3691)" fill="#231F20" font-family="'Calibri-Bold'" font-size="14.5974">52</text>
		</g>
	</g>
</g>
<g>
	<g>
		<rect x="846.384" y="285.457" fill="#DADFA1" width="50.191" height="50.179"/>
		<text transform="matrix(1.0003 0 0 1 867.9326 319.9043)" fill="#231F20" font-family="'Calibri-Bold'" font-size="26.5879">I</text>
		<text transform="matrix(1.0003 0 0 1 863.0293 330.4082)" fill="#231F20" font-family="'Calibri-Bold'" font-size="6.3864">Iodine</text>
	</g>
	<g>
		<g>
			<text transform="matrix(1.0003 0 0 1 864.0801 297.3691)" fill="#231F20" font-family="'Calibri-Bold'" font-size="14.5974">53</text>
		</g>
	</g>
</g>
<g>
	<g>
		<rect x="898.402" y="285.457" fill="#DADFA1" width="50.188" height="50.179"/>
		<text transform="matrix(1.0003 0 0 1 909.4756 319.9043)" fill="#231F20" font-family="'Calibri-Bold'" font-size="26.5879">Xe</text>
		<text transform="matrix(1.0003 0 0 1 914.9229 330.4082)" fill="#231F20" font-family="'Calibri-Bold'" font-size="6.3864">Xenon</text>
	</g>
	<g>
		<g>
			<text transform="matrix(1.0003 0 0 1 916.0957 297.3691)" fill="#231F20" font-family="'Calibri-Bold'" font-size="14.5974">54</text>
		</g>
	</g>
</g>
<g>
	<rect x="66.138" y="337.461" fill="#DADFA1" width="50.191" height="50.178"/>
	<text transform="matrix(1.0003 0 0 1 77.2148 371.7178)" fill="#231F20" font-family="'Calibri-Bold'" font-size="26.5879">Ba</text>
	<text transform="matrix(1.0003 0 0 1 81.5732 382.4111)" fill="#231F20" font-family="'Calibri-Bold'" font-size="6.3864">Barium</text>
	<g>
		<g>
			<text transform="matrix(1.0003 0 0 1 83.834 349.3721)" fill="#231F20" font-family="'Calibri-Bold'" font-size="14.5974">56</text>
		</g>
	</g>
</g>
<g>
	<g>
		<rect x="170.171" y="337.461" fill="#DADFA1" width="50.19" height="50.178"/>
		<text transform="matrix(1.0003 0 0 1 182.6699 371.9092)" fill="#231F20" font-family="'Calibri-Bold'" font-size="26.5879">Hf</text>
		<text transform="matrix(1.0003 0 0 1 183.793 382.4111)" fill="#231F20" font-family="'Calibri-Bold'" font-size="6.3864">Haf­nium</text>
	</g>
	<g>
		<g>
			<text transform="matrix(1.0003 0 0 1 187.8672 349.3721)" fill="#231F20" font-family="'Calibri-Bold'" font-size="14.5974">72</text>
		</g>
	</g>
</g>
<g>
	<g>
		<rect x="222.188" y="337.461" fill="#DADFA1" width="50.19" height="50.178"/>
		<text transform="matrix(1.0003 0 0 1 234.1328 371.9092)" fill="#231F20" font-family="'Calibri-Bold'" font-size="26.5879">Ta</text>
		<text transform="matrix(1.0003 0 0 1 234.5684 382.4111)" fill="#231F20" font-family="'Calibri-Bold'" font-size="6.3864">Tanta­lum</text>
	</g>
	<g>
		<g>
			<text transform="matrix(1.0003 0 0 1 239.8828 349.3721)" fill="#231F20" font-family="'Calibri-Bold'" font-size="14.5974">73</text>
		</g>
	</g>
</g>
<g>
	<g>
		<rect x="274.204" y="337.461" fill="#DADFA1" width="50.19" height="50.178"/>
		<text transform="matrix(1.0003 0 0 1 287.2471 371.9092)" fill="#231F20" font-family="'Calibri-Bold'" font-size="26.5879">W</text>
		<text transform="matrix(1.0003 0 0 1 287.0117 382.4111)" fill="#231F20" font-family="'Calibri-Bold'" font-size="6.3864">Tung­sten</text>
	</g>
	<g>
		<g>
			<text transform="matrix(1.0003 0 0 1 291.8994 349.3721)" fill="#231F20" font-family="'Calibri-Bold'" font-size="14.5974">74</text>
		</g>
	</g>
</g>
<g>
	<g>
		<rect x="326.22" y="337.461" fill="#DADFA1" width="50.194" height="50.178"/>
		<text transform="matrix(1.0003 0 0 1 337.1348 371.9092)" fill="#231F20" font-family="'Calibri-Bold'" font-size="26.5879">Re</text>
		<text transform="matrix(1.0003 0 0 1 339.3252 382.4111)" fill="#231F20" font-family="'Calibri-Bold'" font-size="6.3864">Rhe­nium</text>
	</g>
	<g>
		<g>
			<text transform="matrix(1.0003 0 0 1 343.915 349.3721)" fill="#231F20" font-family="'Calibri-Bold'" font-size="14.5974">75</text>
		</g>
	</g>
</g>
<g>
	<g>
		<rect x="378.236" y="337.461" fill="#DADFA1" width="50.191" height="50.178"/>
		<text transform="matrix(1.0003 0 0 1 389.0332 371.9092)" fill="#231F20" font-family="'Calibri-Bold'" font-size="26.5879">Os</text>
		<text transform="matrix(1.0003 0 0 1 392.1426 382.4111)" fill="#231F20" font-family="'Calibri-Bold'" font-size="6.3864">Os­mium</text>
	</g>
	<g>
		<g>
			<text transform="matrix(1.0003 0 0 1 395.9326 349.3721)" fill="#231F20" font-family="'Calibri-Bold'" font-size="14.5974">76</text>
		</g>
	</g>
</g>
<g>
	<g>
		<rect x="430.253" y="337.461" fill="#DADFA1" width="50.191" height="50.178"/>
		<text transform="matrix(1.0003 0 0 1 447.0742 371.9092)" fill="#231F20" font-family="'Calibri-Bold'" font-size="26.5879">Ir</text>
		<text transform="matrix(1.0003 0 0 1 445.7061 382.4111)" fill="#231F20" font-family="'Calibri-Bold'" font-size="6.3864">Iridium</text>
	</g>
	<g>
		<g>
			<text transform="matrix(1.0003 0 0 1 447.9473 349.3721)" fill="#231F20" font-family="'Calibri-Bold'" font-size="14.5974">77</text>
		</g>
	</g>
</g>
<g>
	<g>
		<rect x="482.27" y="337.461" fill="#DADFA1" width="50.189" height="50.178"/>
		<text transform="matrix(1.0003 0 0 1 495.6768 371.9092)" fill="#231F20" font-family="'Calibri-Bold'" font-size="26.5879">Pt</text>
		<text transform="matrix(1.0003 0 0 1 495.3477 382.4111)" fill="#231F20" font-family="'Calibri-Bold'" font-size="6.3864">Plat­inum</text>
	</g>
	<g>
		<g>
			<text transform="matrix(1.0003 0 0 1 499.9639 349.3721)" fill="#231F20" font-family="'Calibri-Bold'" font-size="14.5974">78</text>
		</g>
	</g>
</g>
<g>
	<g>
		<rect x="534.286" y="337.461" fill="#DADFA1" width="50.193" height="50.178"/>
		<text transform="matrix(1.0003 0 0 1 544.1855 371.9092)" fill="#231F20" font-family="'Calibri-Bold'" font-size="26.5879">Au</text>
		<text transform="matrix(1.0003 0 0 1 553.0703 382.4111)" fill="#231F20" font-family="'Calibri-Bold'" font-size="6.3864">Gold</text>
	</g>
	<g>
		<g>
			<text transform="matrix(1.0003 0 0 1 551.9805 349.3721)" fill="#231F20" font-family="'Calibri-Bold'" font-size="14.5974">79</text>
		</g>
	</g>
</g>
<g>
	<g>
		<rect x="586.302" y="337.461" fill="#DADFA1" width="50.191" height="50.178"/>
		<text transform="matrix(1.0003 0 0 1 596.7012 371.9092)" fill="#231F20" font-family="'Calibri-Bold'" font-size="26.5879">Hg</text>
		<text transform="matrix(1.0003 0 0 1 600.1045 382.4111)" fill="#231F20" font-family="'Calibri-Bold'" font-size="6.3864">Mer­cury</text>
	</g>
	<g>
		<g>
			<text transform="matrix(1.0003 0 0 1 603.9971 349.3721)" fill="#231F20" font-family="'Calibri-Bold'" font-size="14.5974">80</text>
		</g>
	</g>
</g>
<g>
	<g>
		<rect x="638.316" y="337.461" fill="#DADFA1" width="50.192" height="50.178"/>
		<text transform="matrix(1.0003 0 0 1 653.5625 372.9316)" fill="#231F20" font-family="'Calibri-Bold'" font-size="26.5879">Tl</text>
		<text transform="matrix(1.0003 0 0 1 651.8154 383.4336)" fill="#231F20" font-family="'Calibri-Bold'" font-size="6.3864">Thallium</text>
	</g>
	<g>
		<g>
			<text transform="matrix(1.0003 0 0 1 656.0137 349.3721)" fill="#231F20" font-family="'Calibri-Bold'" font-size="14.5974">81</text>
		</g>
	</g>
</g>
<g>
	<g>
		<rect x="690.336" y="337.461" fill="#DADFA1" width="50.189" height="50.178"/>
		<text transform="matrix(1.0003 0 0 1 701.2158 372.9316)" fill="#231F20" font-family="'Calibri-Bold'" font-size="26.5879">Pb</text>
		<text transform="matrix(1.0003 0 0 1 709.1211 383.4336)" fill="#231F20" font-family="'Calibri-Bold'" font-size="6.3864">Lead</text>
	</g>
	<g>
		<g>
			<text transform="matrix(1.0003 0 0 1 708.0313 349.3721)" fill="#231F20" font-family="'Calibri-Bold'" font-size="14.5974">82</text>
		</g>
	</g>
</g>
<g>
	<g>
		<rect x="742.351" y="337.461" fill="#DADFA1" width="50.194" height="50.178"/>
		<text transform="matrix(1.0003 0 0 1 756.7246 372.9316)" fill="#231F20" font-family="'Calibri-Bold'" font-size="26.5879">Bi</text>
		<text transform="matrix(1.0003 0 0 1 756.4033 383.4336)" fill="#231F20" font-family="'Calibri-Bold'" font-size="6.3864">Bis­muth</text>
	</g>
	<g>
		<g>
			<text transform="matrix(1.0003 0 0 1 760.0469 349.3721)" fill="#231F20" font-family="'Calibri-Bold'" font-size="14.5974">83</text>
		</g>
	</g>
</g>
<g>
	<g>
		<rect x="794.368" y="337.461" fill="#DADFA1" width="50.19" height="50.178"/>
		<text transform="matrix(1.0003 0 0 1 805.2354 372.9316)" fill="#231F20" font-family="'Calibri-Bold'" font-size="26.5879">Po</text>
		<text transform="matrix(1.0003 0 0 1 806.6738 383.4336)" fill="#231F20" font-family="'Calibri-Bold'" font-size="6.3864">Polo­nium</text>
	</g>
	<g>
		<g>
			<text transform="matrix(1.0003 0 0 1 812.0625 349.3721)" fill="#231F20" font-family="'Calibri-Bold'" font-size="14.5974">84</text>
		</g>
	</g>
</g>
<g>
	<g>
		<rect x="846.384" y="337.461" fill="#DADFA1" width="50.191" height="50.178"/>
		<text transform="matrix(1.0003 0 0 1 858.8105 371.9092)" fill="#231F20" font-family="'Calibri-Bold'" font-size="26.5879">At</text>
		<text transform="matrix(1.0003 0 0 1 860.334 382.4111)" fill="#231F20" font-family="'Calibri-Bold'" font-size="6.3864">Asta­tine</text>
	</g>
	<g>
		<g>
			<text transform="matrix(1.0003 0 0 1 864.0801 349.3721)" fill="#231F20" font-family="'Calibri-Bold'" font-size="14.5974">85</text>
		</g>
	</g>
</g>
<g>
	<g>
		<rect x="898.402" y="337.461" fill="#DADFA1" width="50.188" height="50.178"/>
		<text transform="matrix(1.0003 0 0 1 908.8721 371.9092)" fill="#231F20" font-family="'Calibri-Bold'" font-size="26.5879">Rn</text>
		<text transform="matrix(1.0003 0 0 1 914.915 382.4111)" fill="#231F20" font-family="'Calibri-Bold'" font-size="6.3864">Radon</text>
	</g>
	<g>
		<g>
			<text transform="matrix(1.0003 0 0 1 916.0957 349.3721)" fill="#231F20" font-family="'Calibri-Bold'" font-size="14.5974">86</text>
		</g>
	</g>
</g>
<g>
	<g>
		<g>
			<rect x="14.122" y="129.447" fill="#DADFA1" width="50.191" height="50.179"/>
			<text transform="matrix(1.0003 0 0 1 30.3262 163.8955)" fill="#231F20" font-family="'Calibri-Bold'" font-size="26.5879">Li</text>
			<g>
				<g>
					<text transform="matrix(1.0003 0 0 1 35.5166 141.3574)" fill="#231F20" font-family="'Calibri-Bold'" font-size="14.5974">3</text>
				</g>
			</g>
		</g>
		<text transform="matrix(1.0003 0 0 1 29.1035 174.3965)" fill="#231F20" font-family="'Calibri-Bold'" font-size="6.3864">Lith­ium</text>
	</g>
	<g>
		<rect x="14.122" y="181.449" fill="#DADFA1" width="50.191" height="50.182"/>
		<text transform="matrix(1.0003 0 0 1 23.8926 215.8984)" fill="#231F20" font-family="'Calibri-Bold'" font-size="26.5879">Na</text>
		<text transform="matrix(1.0003 0 0 1 29.1191 226.4004)" fill="#231F20" font-family="'Calibri-Bold'" font-size="6.3864">So­dium</text>
		<g>
			<g>
				<text transform="matrix(1.0003 0 0 1 31.8154 193.3604)" fill="#231F20" font-family="'Calibri-Bold'" font-size="14.5974">11</text>
			</g>
		</g>
	</g>
	<g>
		<rect x="14.122" y="233.454" fill="#DADFA1" width="50.191" height="50.181"/>
		<text transform="matrix(1.0003 0 0 1 31.9434 267.9014)" fill="#231F20" font-family="'Calibri-Bold'" font-size="26.5879">K</text>
		<text transform="matrix(1.0003 0 0 1 25.4111 278.4043)" fill="#231F20" font-family="'Calibri-Bold'" font-size="6.3864">Potas­sium</text>
		<g>
			<g>
				<text transform="matrix(1.0003 0 0 1 31.8154 245.3643)" fill="#231F20" font-family="'Calibri-Bold'" font-size="14.5974">19</text>
			</g>
		</g>
	</g>
	<g>
		<rect x="14.122" y="285.457" fill="#DADFA1" width="50.191" height="50.179"/>
		<text transform="matrix(1.0003 0 0 1 24.5938 319.9043)" fill="#231F20" font-family="'Calibri-Bold'" font-size="26.5879">Rb</text>
		<text transform="matrix(1.0003 0 0 1 26.334 330.4082)" fill="#231F20" font-family="'Calibri-Bold'" font-size="6.3864">Rubid­ium</text>
		<g>
			<g>
				<text transform="matrix(1.0003 0 0 1 31.8154 297.3691)" fill="#231F20" font-family="'Calibri-Bold'" font-size="14.5974">37</text>
			</g>
		</g>
	</g>
	<g>
		<rect x="14.122" y="337.461" fill="#DADFA1" width="50.191" height="50.178"/>
		<text transform="matrix(1.0003 0 0 1 26.8721 371.9092)" fill="#231F20" font-family="'Calibri-Bold'" font-size="26.5879">Cs</text>
		<text transform="matrix(1.0003 0 0 1 27.9102 382.4111)" fill="#231F20" font-family="'Calibri-Bold'" font-size="6.3864">Cae­sium</text>
		<g>
			<g>
				<text transform="matrix(1.0003 0 0 1 31.8154 349.3721)" fill="#231F20" font-family="'Calibri-Bold'" font-size="14.5974">55</text>
			</g>
		</g>
	</g>
	<g>
		<rect x="14.122" y="389.465" fill="#DADFA1" width="50.191" height="50.179"/>
		<text transform="matrix(1.0003 0 0 1 28.3848 423.9121)" fill="#231F20" font-family="'Calibri-Bold'" font-size="26.5879">Fr</text>
		<text transform="matrix(1.0003 0 0 1 26.8311 434.4141)" fill="#231F20" font-family="'Calibri-Bold'" font-size="6.3864">Fran­cium</text>
		<g>
			<g>
				<text transform="matrix(1.0003 0 0 1 31.8154 401.373)" fill="#231F20" font-family="'Calibri-Bold'" font-size="14.5974">87</text>
			</g>
		</g>
	</g>
</g>
<g>
	<rect x="66.138" y="389.465" fill="#DADFA1" width="50.191" height="50.179"/>
	<text transform="matrix(1.0003 0 0 1 77.1816 423.9121)" fill="#231F20" font-family="'Calibri-Bold'" font-size="26.5879">Ra</text>
	<text transform="matrix(1.0003 0 0 1 80.9873 434.4141)" fill="#231F20" font-family="'Calibri-Bold'" font-size="6.3864">Ra­dium</text>
	<g>
		<g>
			<text transform="matrix(1.0003 0 0 1 83.834 401.373)" fill="#231F20" font-family="'Calibri-Bold'" font-size="14.5974">88</text>
		</g>
	</g>
</g>
<g>
	<g>
		<g>
			<rect x="118.154" y="462.792" fill="#7DD9EF" width="50.192" height="50.18"/>
			<text transform="matrix(1.0003 0 0 1 131.0615 498.2617)" fill="#231F20" font-family="'Calibri-Bold'" font-size="26.5879">La</text>
			<text transform="matrix(1.0003 0 0 1 128.123 508.7656)" fill="#231F20" font-family="'Calibri-Bold'" font-size="6.3864">Lan­thanum</text>
		</g>
		<g>
			<g>
				<text transform="matrix(1.0003 0 0 1 135.8506 474.7041)" fill="#231F20" font-family="'Calibri-Bold'" font-size="14.5974">57</text>
			</g>
		</g>
	</g>
	<g>
		<g>
			<rect x="118.154" y="337.461" fill="#7DD9EF" width="50.192" height="50.178"/>
			<text transform="matrix(1.0003 0 0 1 126.54 354.0723)" fill="#231F20" font-family="'Calibri-Bold'" font-size="14.3165">57-71</text>
		</g>
		<text transform="matrix(1.0003 0 0 1 128.4688 370.4941)" fill="#231F20" font-family="'Calibri-Bold'" font-size="10.9481">La-Lu</text>
		<text transform="matrix(1.0003 0 0 1 119.7012 381.1777)" fill="#231F20" font-family="'Calibri-Bold'" font-size="8.9028">Lanthanide</text>
	</g>
	<g>
		<g>
			<rect x="170.171" y="462.792" fill="#7DD9EF" width="50.19" height="50.18"/>
			<text transform="matrix(1.0003 0 0 1 181.5332 498.2617)" fill="#231F20" font-family="'Calibri-Bold'" font-size="26.5879">Ce</text>
			<text transform="matrix(1.0003 0 0 1 185.6748 508.7656)" fill="#231F20" font-family="'Calibri-Bold'" font-size="6.3864">Cerium</text>
		</g>
		<g>
			<g>
				<text transform="matrix(1.0003 0 0 1 187.8672 474.7041)" fill="#231F20" font-family="'Calibri-Bold'" font-size="14.5974">58</text>
			</g>
		</g>
	</g>
	<g>
		<g>
			<rect x="222.188" y="462.792" fill="#7DD9EF" width="50.19" height="50.18"/>
			<text transform="matrix(1.0003 0 0 1 235.4766 498.2617)" fill="#231F20" font-family="'Calibri-Bold'" font-size="26.5879">Pr</text>
			<text transform="matrix(1.0003 0 0 1 227.2891 508.7656)" fill="#231F20" font-family="'Calibri-Bold'" font-size="6.3864">Praseo­dymium</text>
		</g>
		<g>
			<g>
				<text transform="matrix(1.0003 0 0 1 239.8828 474.7041)" fill="#231F20" font-family="'Calibri-Bold'" font-size="14.5974">59</text>
			</g>
		</g>
	</g>
	<g>
		<g>
			<rect x="274.204" y="462.792" fill="#7DD9EF" width="50.19" height="50.18"/>
			<text transform="matrix(1.0003 0 0 1 283.4023 498.2617)" fill="#231F20" font-family="'Calibri-Bold'" font-size="26.5879">Nd</text>
			<text transform="matrix(1.0003 0 0 1 282.8877 508.7656)" fill="#231F20" font-family="'Calibri-Bold'" font-size="6.3864">Neo­dymium</text>
		</g>
		<g>
			<g>
				<text transform="matrix(1.0003 0 0 1 291.8994 474.7041)" fill="#231F20" font-family="'Calibri-Bold'" font-size="14.5974">60</text>
			</g>
		</g>
	</g>
	<g>
		<g>
			<rect x="326.22" y="462.792" fill="#7DD9EF" width="50.194" height="50.18"/>
			<text transform="matrix(1.0003 0 0 1 333.4199 498.2617)" fill="#231F20" font-family="'Calibri-Bold'" font-size="26.5879">Pm</text>
			<text transform="matrix(1.0003 0 0 1 334.5791 508.7656)" fill="#231F20" font-family="'Calibri-Bold'" font-size="6.3864">Prome­thium</text>
		</g>
		<g>
			<g>
				<text transform="matrix(1.0003 0 0 1 343.915 474.7041)" fill="#231F20" font-family="'Calibri-Bold'" font-size="14.5974">61</text>
			</g>
		</g>
	</g>
	<g>
		<g>
			<rect x="378.236" y="462.792" fill="#7DD9EF" width="50.191" height="50.18"/>
			<text transform="matrix(1.0003 0 0 1 386.2275 498.2617)" fill="#231F20" font-family="'Calibri-Bold'" font-size="26.5879">Sm</text>
			<text transform="matrix(1.0003 0 0 1 389.7783 508.7656)" fill="#231F20" font-family="'Calibri-Bold'" font-size="6.3864">Sama­rium</text>
		</g>
		<g>
			<g>
				<text transform="matrix(1.0003 0 0 1 395.9326 474.7041)" fill="#231F20" font-family="'Calibri-Bold'" font-size="14.5974">62</text>
			</g>
		</g>
	</g>
	<g>
		<g>
			<rect x="430.253" y="462.792" fill="#7DD9EF" width="50.191" height="50.18"/>
			<text transform="matrix(1.0003 0 0 1 441.7236 498.2617)" fill="#231F20" font-family="'Calibri-Bold'" font-size="26.5879">Eu</text>
			<text transform="matrix(1.0003 0 0 1 442.3525 508.7656)" fill="#231F20" font-family="'Calibri-Bold'" font-size="6.3864">Europ­ium</text>
		</g>
		<g>
			<g>
				<text transform="matrix(1.0003 0 0 1 447.9482 474.7041)" fill="#231F20" font-family="'Calibri-Bold'" font-size="14.5974">63</text>
			</g>
		</g>
	</g>
	<g>
		<g>
			<rect x="482.27" y="462.792" fill="#7DD9EF" width="50.189" height="50.18"/>
			<text transform="matrix(1.0003 0 0 1 491.7529 498.2617)" fill="#231F20" font-family="'Calibri-Bold'" font-size="26.5879">Gd</text>
			<text transform="matrix(1.0003 0 0 1 491.8818 508.7656)" fill="#231F20" font-family="'Calibri-Bold'" font-size="6.3864">Gadolin­ium</text>
		</g>
		<g>
			<g>
				<text transform="matrix(1.0003 0 0 1 499.9639 474.7041)" fill="#231F20" font-family="'Calibri-Bold'" font-size="14.5974">64</text>
			</g>
		</g>
	</g>
	<g>
		<g>
			<rect x="534.286" y="462.792" fill="#7DD9EF" width="50.193" height="50.18"/>
			<text transform="matrix(1.0003 0 0 1 545.6602 498.2617)" fill="#231F20" font-family="'Calibri-Bold'" font-size="26.5879">Tb</text>
			<text transform="matrix(1.0003 0 0 1 548.1846 508.7656)" fill="#231F20" font-family="'Calibri-Bold'" font-size="6.3864">Ter­bium</text>
		</g>
		<g>
			<g>
				<text transform="matrix(1.0003 0 0 1 551.9814 474.7041)" fill="#231F20" font-family="'Calibri-Bold'" font-size="14.5974">65</text>
			</g>
		</g>
	</g>
	<g>
		<g>
			<rect x="586.302" y="462.792" fill="#7DD9EF" width="50.191" height="50.18"/>
			<text transform="matrix(1.0003 0 0 1 596.7168 498.2617)" fill="#231F20" font-family="'Calibri-Bold'" font-size="26.5879">Dy</text>
			<text transform="matrix(1.0003 0 0 1 595.5996 508.7656)" fill="#231F20" font-family="'Calibri-Bold'" font-size="6.3864">Dyspro­sium</text>
		</g>
		<g>
			<g>
				<text transform="matrix(1.0003 0 0 1 603.9961 474.7041)" fill="#231F20" font-family="'Calibri-Bold'" font-size="14.5974">66</text>
			</g>
		</g>
	</g>
	<g>
		<g>
			<rect x="638.316" y="462.792" fill="#7DD9EF" width="50.192" height="50.18"/>
			<text transform="matrix(1.0003 0 0 1 647.875 498.2617)" fill="#231F20" font-family="'Calibri-Bold'" font-size="26.5879">Ho</text>
			<text transform="matrix(1.0003 0 0 1 651.1416 508.7656)" fill="#231F20" font-family="'Calibri-Bold'" font-size="6.3864">Hol­mium</text>
		</g>
		<g>
			<g>
				<text transform="matrix(1.0003 0 0 1 656.0137 474.7041)" fill="#231F20" font-family="'Calibri-Bold'" font-size="14.5974">67</text>
			</g>
		</g>
	</g>
	<g>
		<g>
			<rect x="690.336" y="462.792" fill="#7DD9EF" width="50.189" height="50.18"/>
			<text transform="matrix(1.0003 0 0 1 704.2168 498.2617)" fill="#231F20" font-family="'Calibri-Bold'" font-size="26.5879">Er</text>
			<text transform="matrix(1.0003 0 0 1 705.8662 508.7656)" fill="#231F20" font-family="'Calibri-Bold'" font-size="6.3864">Erbium</text>
		</g>
		<g>
			<g>
				<text transform="matrix(1.0003 0 0 1 708.0293 474.7041)" fill="#231F20" font-family="'Calibri-Bold'" font-size="14.5974">68</text>
			</g>
		</g>
	</g>
	<g>
		<g>
			<rect x="742.351" y="462.792" fill="#7DD9EF" width="50.194" height="50.18"/>
			<text transform="matrix(1.0003 0 0 1 750.0439 498.2617)" fill="#231F20" font-family="'Calibri-Bold'" font-size="26.5879">Tm</text>
			<text transform="matrix(1.0003 0 0 1 756.4951 508.7656)" fill="#231F20" font-family="'Calibri-Bold'" font-size="6.3864">Thulium</text>
		</g>
		<g>
			<g>
				<text transform="matrix(1.0003 0 0 1 760.0469 474.7041)" fill="#231F20" font-family="'Calibri-Bold'" font-size="14.5974">69</text>
			</g>
		</g>
	</g>
	<g>
		<g>
			<rect x="794.368" y="462.792" fill="#7DD9EF" width="50.19" height="50.18"/>
			<text transform="matrix(1.0003 0 0 1 805.418 498.2617)" fill="#231F20" font-family="'Calibri-Bold'" font-size="26.5879">Yb</text>
			<text transform="matrix(1.0003 0 0 1 806.0928 508.7656)" fill="#231F20" font-family="'Calibri-Bold'" font-size="6.3864">Ytter­bium</text>
		</g>
		<g>
			<g>
				<text transform="matrix(1.0003 0 0 1 812.0625 474.7041)" fill="#231F20" font-family="'Calibri-Bold'" font-size="14.5974">70</text>
			</g>
		</g>
	</g>
	<g>
		<g>
			<rect x="846.384" y="462.792" fill="#7DD9EF" width="50.191" height="50.18"/>
			<text transform="matrix(1.0003 0 0 1 858.7197 498.2617)" fill="#231F20" font-family="'Calibri-Bold'" font-size="26.5879">Lu</text>
			<text transform="matrix(1.0003 0 0 1 859.457 508.7656)" fill="#231F20" font-family="'Calibri-Bold'" font-size="6.3864">Lute­tium</text>
		</g>
		<g>
			<g>
				<text transform="matrix(1.0003 0 0 1 864.0801 474.7041)" fill="#231F20" font-family="'Calibri-Bold'" font-size="14.5974">71</text>
			</g>
		</g>
	</g>
	<g>
		<g>
			<rect x="118.154" y="389.465" fill="#7DD9EF" width="50.192" height="50.179"/>
			<text transform="matrix(1.0003 0 0 1 122.9092 406.0762)" fill="#231F20" font-family="'Calibri-Bold'" font-size="14.3165">89-103</text>
		</g>
		<text transform="matrix(1.0003 0 0 1 127.8477 421.0244)" fill="#231F20" font-family="'Calibri-Bold'" font-size="10.9481">Ac-Lr</text>
		<text transform="matrix(1.0003 0 0 1 124.1123 431.708)" fill="#231F20" font-family="'Calibri-Bold'" font-size="8.9028">Actinide</text>
	</g>
	<g>
		<g>
			<rect x="118.154" y="514.796" fill="#7DD9EF" width="50.192" height="50.178"/>
			<text transform="matrix(1.0003 0 0 1 129.626 550.2676)" fill="#231F20" font-family="'Calibri-Bold'" font-size="26.5879">Ac</text>
			<text transform="matrix(1.0003 0 0 1 131.2373 560.7686)" fill="#231F20" font-family="'Calibri-Bold'" font-size="6.3864">Actin­ium</text>
		</g>
		<g>
			<g>
				<text transform="matrix(1.0003 0 0 1 135.8506 526.7061)" fill="#231F20" font-family="'Calibri-Bold'" font-size="14.5974">89</text>
			</g>
		</g>
	</g>
	<g>
		<g>
			<rect x="170.171" y="514.796" fill="#7DD9EF" width="50.19" height="50.178"/>
			<text transform="matrix(1.0003 0 0 1 181.5459 550.2676)" fill="#231F20" font-family="'Calibri-Bold'" font-size="26.5879">Th</text>
			<text transform="matrix(1.0003 0 0 1 183.9619 560.7686)" fill="#231F20" font-family="'Calibri-Bold'" font-size="6.3864">Thor­ium</text>
		</g>
		<g>
			<g>
				<text transform="matrix(1.0003 0 0 1 187.8672 526.7061)" fill="#231F20" font-family="'Calibri-Bold'" font-size="14.5974">90</text>
			</g>
		</g>
	</g>
	<g>
		<g>
			<rect x="222.188" y="514.796" fill="#7DD9EF" width="50.19" height="50.178"/>
			<text transform="matrix(1.0003 0 0 1 233.6387 550.2676)" fill="#231F20" font-family="'Calibri-Bold'" font-size="26.5879">Pa</text>
			<text transform="matrix(1.0003 0 0 1 229.9678 560.7686)" fill="#231F20" font-family="'Calibri-Bold'" font-size="6.3864">Protac­tinium</text>
		</g>
		<g>
			<g>
				<text transform="matrix(1.0003 0 0 1 239.8828 526.7061)" fill="#231F20" font-family="'Calibri-Bold'" font-size="14.5974">91</text>
			</g>
		</g>
	</g>
	<g>
		<g>
			<rect x="274.204" y="514.796" fill="#7DD9EF" width="50.19" height="50.178"/>
			<text transform="matrix(1.0003 0 0 1 290.6162 550.2676)" fill="#231F20" font-family="'Calibri-Bold'" font-size="26.5879">U</text>
			<text transform="matrix(1.0003 0 0 1 287.6299 560.7686)" fill="#231F20" font-family="'Calibri-Bold'" font-size="6.3864">Ura­nium</text>
		</g>
		<g>
			<g>
				<text transform="matrix(1.0003 0 0 1 291.8994 526.7061)" fill="#231F20" font-family="'Calibri-Bold'" font-size="14.5974">92</text>
			</g>
		</g>
	</g>
	<g>
		<g>
			<rect x="326.22" y="514.796" fill="#7DD9EF" width="50.194" height="50.178"/>
			<text transform="matrix(1.0003 0 0 1 335.4199 550.2676)" fill="#231F20" font-family="'Calibri-Bold'" font-size="26.5879">Np</text>
			<text transform="matrix(1.0003 0 0 1 336.1973 560.7686)" fill="#231F20" font-family="'Calibri-Bold'" font-size="6.3864">Neptu­nium</text>
		</g>
		<g>
			<g>
				<text transform="matrix(1.0003 0 0 1 343.915 526.7061)" fill="#231F20" font-family="'Calibri-Bold'" font-size="14.5974">93</text>
			</g>
		</g>
	</g>
	<g>
		<g>
			<rect x="378.236" y="514.796" fill="#7DD9EF" width="50.191" height="50.178"/>
			<text transform="matrix(1.0003 0 0 1 389.1172 550.2676)" fill="#231F20" font-family="'Calibri-Bold'" font-size="26.5879">Pu</text>
			<text transform="matrix(1.0003 0 0 1 389.4375 560.7686)" fill="#231F20" font-family="'Calibri-Bold'" font-size="6.3864">Pluto­nium</text>
		</g>
		<g>
			<g>
				<text transform="matrix(1.0003 0 0 1 395.9326 526.7061)" fill="#231F20" font-family="'Calibri-Bold'" font-size="14.5974">94</text>
			</g>
		</g>
	</g>
	<g>
		<g>
			<rect x="430.253" y="514.796" fill="#7DD9EF" width="50.191" height="50.178"/>
			<text transform="matrix(1.0003 0 0 1 436.4707 550.2676)" fill="#231F20" font-family="'Calibri-Bold'" font-size="26.5879">Am</text>
			<text transform="matrix(1.0003 0 0 1 440.792 560.7686)" fill="#231F20" font-family="'Calibri-Bold'" font-size="6.3864">Ameri­cium</text>
		</g>
		<g>
			<g>
				<text transform="matrix(1.0003 0 0 1 447.9482 526.7061)" fill="#231F20" font-family="'Calibri-Bold'" font-size="14.5974">95</text>
			</g>
		</g>
	</g>
	<g>
		<g>
			<rect x="482.27" y="514.796" fill="#7DD9EF" width="50.189" height="50.178"/>
			<text transform="matrix(1.0003 0 0 1 489.5088 550.2676)" fill="#231F20" font-family="'Calibri-Bold'" font-size="26.5879">Cm</text>
			<text transform="matrix(1.0003 0 0 1 497.667 560.7686)" fill="#231F20" font-family="'Calibri-Bold'" font-size="6.3864">Curium</text>
		</g>
		<g>
			<g>
				<text transform="matrix(1.0003 0 0 1 499.9639 526.7061)" fill="#231F20" font-family="'Calibri-Bold'" font-size="14.5974">96</text>
			</g>
		</g>
	</g>
	<g>
		<g>
			<rect x="534.286" y="514.796" fill="#7DD9EF" width="50.193" height="50.178"/>
			<text transform="matrix(1.0003 0 0 1 545.543 550.2676)" fill="#231F20" font-family="'Calibri-Bold'" font-size="26.5879">Bk</text>
			<text transform="matrix(1.0003 0 0 1 545.7646 560.7686)" fill="#231F20" font-family="'Calibri-Bold'" font-size="6.3864">Berkel­ium</text>
		</g>
		<g>
			<g>
				<text transform="matrix(1.0003 0 0 1 551.9814 526.7061)" fill="#231F20" font-family="'Calibri-Bold'" font-size="14.5974">97</text>
			</g>
		</g>
	</g>
	<g>
		<g>
			<rect x="586.302" y="514.796" fill="#7DD9EF" width="50.191" height="50.178"/>
			<text transform="matrix(1.0003 0 0 1 600.1514 550.2676)" fill="#231F20" font-family="'Calibri-Bold'" font-size="26.5879">Cf</text>
			<text transform="matrix(1.0003 0 0 1 595.8271 560.7686)" fill="#231F20" font-family="'Calibri-Bold'" font-size="6.3864">Califor­nium</text>
		</g>
		<g>
			<g>
				<text transform="matrix(1.0003 0 0 1 603.9961 526.7061)" fill="#231F20" font-family="'Calibri-Bold'" font-size="14.5974">98</text>
			</g>
		</g>
	</g>
	<g>
		<g>
			<rect x="690.336" y="514.796" fill="#7DD9EF" width="50.189" height="50.178"/>
			<text transform="matrix(1.0003 0 0 1 698.5088 550.2676)" fill="#231F20" font-family="'Calibri-Bold'" font-size="26.5879">Fm</text>
			<text transform="matrix(1.0003 0 0 1 703.4668 560.7686)" fill="#231F20" font-family="'Calibri-Bold'" font-size="6.3864">Fer­mium</text>
		</g>
		<g>
			<g>
				<text transform="matrix(1.0003 0 0 1 704.3291 526.7061)" fill="#231F20" font-family="'Calibri-Bold'" font-size="14.5974">100</text>
			</g>
		</g>
	</g>
	<g>
		<g>
			<rect x="638.316" y="514.796" fill="#7DD9EF" width="50.192" height="50.178"/>
			<text transform="matrix(1.0003 0 0 1 651.6221 550.2676)" fill="#231F20" font-family="'Calibri-Bold'" font-size="26.5879">Es</text>
			<text transform="matrix(1.0003 0 0 1 647.7129 560.7686)" fill="#231F20" font-family="'Calibri-Bold'" font-size="6.3864">Einstei­nium</text>
		</g>
		<g>
			<g>
				<text transform="matrix(1.0003 0 0 1 656.0137 526.7061)" fill="#231F20" font-family="'Calibri-Bold'" font-size="14.5974">99</text>
			</g>
		</g>
	</g>
	<g>
		<g>
			<rect x="742.351" y="514.796" fill="#7DD9EF" width="50.194" height="50.178"/>
			<text transform="matrix(1.0003 0 0 1 748.6865 550.2676)" fill="#231F20" font-family="'Calibri-Bold'" font-size="26.5879">Md</text>
			<text transform="matrix(1.0003 0 0 1 748.9502 560.7686)" fill="#231F20" font-family="'Calibri-Bold'" font-size="6.3864">Mende­levium</text>
		</g>
		<g>
			<g>
				<text transform="matrix(1.0003 0 0 1 756.3457 526.7061)" fill="#231F20" font-family="'Calibri-Bold'" font-size="14.5974">101</text>
			</g>
		</g>
	</g>
	<g>
		<g>
			<rect x="794.368" y="514.796" fill="#7DD9EF" width="50.19" height="50.178"/>
			<text transform="matrix(1.0003 0 0 1 803.5537 550.2676)" fill="#231F20" font-family="'Calibri-Bold'" font-size="26.5879">No</text>
			<text transform="matrix(1.0003 0 0 1 806.3779 560.7686)" fill="#231F20" font-family="'Calibri-Bold'" font-size="6.3864">Nobel­ium</text>
		</g>
		<g>
			<g>
				<text transform="matrix(1.0003 0 0 1 808.3633 526.7061)" fill="#231F20" font-family="'Calibri-Bold'" font-size="14.5974">102</text>
			</g>
		</g>
	</g>
	<g>
		<g>
			<rect x="846.384" y="514.796" fill="#7DD9EF" width="50.191" height="50.178"/>
			<text transform="matrix(1.0003 0 0 1 861.1289 550.2676)" fill="#231F20" font-family="'Calibri-Bold'" font-size="26.5879">Lr</text>
			<text transform="matrix(1.0003 0 0 1 855.2217 560.7686)" fill="#231F20" font-family="'Calibri-Bold'" font-size="6.3864">Lawren­cium</text>
		</g>
		<g>
			<g>
				<text transform="matrix(1.0003 0 0 1 860.3789 526.7061)" fill="#231F20" font-family="'Calibri-Bold'" font-size="14.5974">103</text>
			</g>
		</g>
	</g>
</g>
<g>
	<g>
		<rect x="170.171" y="389.465" fill="#DADFA1" width="50.19" height="50.179"/>
		<text transform="matrix(1.0003 0 0 1 183.5713 423.9121)" fill="#231F20" font-family="'Calibri-Bold'" font-size="26.5879">Rf</text>
		<text transform="matrix(1.0003 0 0 1 175.4561 434.4141)" fill="#231F20" font-family="'Calibri-Bold'" font-size="6.3864">Ruther­fordium</text>
	</g>
	<g>
		<g>
			<text transform="matrix(1.0003 0 0 1 184.166 401.373)" fill="#231F20" font-family="'Calibri-Bold'" font-size="14.5974">104</text>
		</g>
	</g>
</g>
<g>
	<g>
		<rect x="222.188" y="389.465" fill="#DADFA1" width="50.19" height="50.179"/>
		<text transform="matrix(1.0003 0 0 1 231.7627 423.9121)" fill="#231F20" font-family="'Calibri-Bold'" font-size="26.5879">Db</text>
		<text transform="matrix(1.0003 0 0 1 234.9707 434.4141)" fill="#231F20" font-family="'Calibri-Bold'" font-size="6.3864">Dub­nium</text>
	</g>
	<g>
		<g>
			<text transform="matrix(1.0003 0 0 1 236.1826 401.373)" fill="#231F20" font-family="'Calibri-Bold'" font-size="14.5974">105</text>
		</g>
	</g>
</g>
<g>
	<g>
		<rect x="274.204" y="389.465" fill="#DADFA1" width="50.19" height="50.179"/>
		<text transform="matrix(1.0003 0 0 1 286.7061 423.9121)" fill="#231F20" font-family="'Calibri-Bold'" font-size="26.5879">Sg</text>
		<text transform="matrix(1.0003 0 0 1 283.3672 434.4141)" fill="#231F20" font-family="'Calibri-Bold'" font-size="6.3864">Sea­borgium</text>
	</g>
	<g>
		<g>
			<text transform="matrix(1.0003 0 0 1 288.1992 401.373)" fill="#231F20" font-family="'Calibri-Bold'" font-size="14.5974">106</text>
		</g>
	</g>
</g>
<g>
	<g>
		<rect x="326.22" y="389.465" fill="#DADFA1" width="50.194" height="50.179"/>
		<text transform="matrix(1.0003 0 0 1 336.7246 423.9121)" fill="#231F20" font-family="'Calibri-Bold'" font-size="26.5879">Bh</text>
		<text transform="matrix(1.0003 0 0 1 339.8018 434.4141)" fill="#231F20" font-family="'Calibri-Bold'" font-size="6.3864">Bohr­ium</text>
	</g>
	<g>
		<g>
			<text transform="matrix(1.0003 0 0 1 340.2148 401.373)" fill="#231F20" font-family="'Calibri-Bold'" font-size="14.5974">107</text>
		</g>
	</g>
</g>
<g>
	<g>
		<rect x="378.236" y="389.465" fill="#DADFA1" width="50.191" height="50.179"/>
		<text transform="matrix(1.0003 0 0 1 389.6377 423.9121)" fill="#231F20" font-family="'Calibri-Bold'" font-size="26.5879">Hs</text>
		<text transform="matrix(1.0003 0 0 1 392.0352 434.4141)" fill="#231F20" font-family="'Calibri-Bold'" font-size="6.3864">Has­sium</text>
	</g>
	<g>
		<g>
			<text transform="matrix(1.0003 0 0 1 392.2324 401.373)" fill="#231F20" font-family="'Calibri-Bold'" font-size="14.5974">108</text>
		</g>
	</g>
</g>
<g>
	<g>
		<rect x="430.253" y="389.465" fill="#DADFA1" width="50.191" height="50.179"/>
		<text transform="matrix(1.0003 0 0 1 439.1143 423.9121)" fill="#231F20" font-family="'Calibri-Bold'" font-size="26.5879">Mt</text>
		<text transform="matrix(1.0003 0 0 1 439.4414 434.4141)" fill="#231F20" font-family="'Calibri-Bold'" font-size="6.3864">Meit­nerium</text>
	</g>
	<g>
		<g>
			<text transform="matrix(1.0003 0 0 1 444.2471 401.373)" fill="#231F20" font-family="'Calibri-Bold'" font-size="14.5974">109</text>
		</g>
	</g>
</g>
<g>
	<g>
		<rect x="482.27" y="389.465" fill="#DADFA1" width="50.189" height="50.179"/>
		<text transform="matrix(1.0003 0 0 1 493.6758 423.9121)" fill="#231F20" font-family="'Calibri-Bold'" font-size="26.5879">Ds</text>
		<text transform="matrix(1.0003 0 0 1 488.126 434.4141)" fill="#231F20" font-family="'Calibri-Bold'" font-size="6.3864">Darm­stadtium</text>
	</g>
	<g>
		<g>
			<text transform="matrix(1.0003 0 0 1 496.2627 401.373)" fill="#231F20" font-family="'Calibri-Bold'" font-size="14.5974">110</text>
		</g>
	</g>
</g>
<g>
	<g>
		<rect x="534.286" y="389.465" fill="#DADFA1" width="50.193" height="50.179"/>
		<text transform="matrix(1.0003 0 0 1 545.5889 423.9121)" fill="#231F20" font-family="'Calibri-Bold'" font-size="26.5879">Rg</text>
		<text transform="matrix(1.0003 0 0 1 541.4424 434.4141)" fill="#231F20" font-family="'Calibri-Bold'" font-size="6.3864">Roent­genium</text>
	</g>
	<g>
		<g>
			<text transform="matrix(1.0003 0 0 1 548.2803 401.373)" fill="#231F20" font-family="'Calibri-Bold'" font-size="14.5974">111</text>
		</g>
	</g>
</g>
<g>
	<g>
		<rect x="586.302" y="389.465" fill="#DADFA1" width="50.191" height="50.179"/>
		<text transform="matrix(1.0003 0 0 1 597.2227 423.9121)" fill="#231F20" font-family="'Calibri-Bold'" font-size="26.5879">Cn</text>
		<text transform="matrix(1.0003 0 0 1 594.54 434.4141)" fill="#231F20" font-family="'Calibri-Bold'" font-size="6.3864">Coper­nicium</text>
	</g>
	<g>
		<g>
			<text transform="matrix(1.0003 0 0 1 600.2979 401.373)" fill="#231F20" font-family="'Calibri-Bold'" font-size="14.5974">112</text>
		</g>
	</g>
</g>
<g>
	<g>
		<rect x="638.316" y="389.465" fill="#DADFA1" width="50.192" height="50.179"/>
		<text transform="matrix(1.0003 0 0 1 642.9863 424.9346)" fill="#231F20" font-family="'Calibri-Bold'" font-size="26.5879">Uut</text>
		<text transform="matrix(1.0003 0 0 1 648.7871 435.4365)" fill="#231F20" font-family="'Calibri-Bold'" font-size="6.3864">Unun­trium</text>
	</g>
	<g>
		<g>
			<text transform="matrix(1.0003 0 0 1 652.3135 401.373)" fill="#231F20" font-family="'Calibri-Bold'" font-size="14.5974">113</text>
		</g>
	</g>
</g>
<g>
	<g>
		<rect x="690.336" y="389.465" fill="#DADFA1" width="50.189" height="50.179"/>
		<text transform="matrix(1.0003 0 0 1 706.0586 424.9346)" fill="#231F20" font-family="'Calibri-Bold'" font-size="26.5879">Fl</text>
		<text transform="matrix(1.0003 0 0 1 702.0508 435.4365)" fill="#231F20" font-family="'Calibri-Bold'" font-size="6.3864">Flerov­ium</text>
	</g>
	<g>
		<g>
			<text transform="matrix(1.0003 0 0 1 704.3301 401.373)" fill="#231F20" font-family="'Calibri-Bold'" font-size="14.5974">114</text>
		</g>
	</g>
</g>
<g>
	<g>
		<rect x="742.351" y="389.465" fill="#DADFA1" width="50.194" height="50.179"/>
		<text transform="matrix(1.0003 0 0 1 744.4922 424.9346)" fill="#231F20" font-family="'Calibri-Bold'" font-size="26.5879">Uup</text>
		<text transform="matrix(1.0003 0 0 1 748.9414 435.4365)" fill="#231F20" font-family="'Calibri-Bold'" font-size="6.3864">Unun­pentium</text>
	</g>
	<g>
		<g>
			<text transform="matrix(1.0003 0 0 1 756.3457 401.373)" fill="#231F20" font-family="'Calibri-Bold'" font-size="14.5974">115</text>
		</g>
	</g>
</g>
<g>
	<g>
		<rect x="794.368" y="389.465" fill="#DADFA1" width="50.19" height="50.179"/>
		<text transform="matrix(1.0003 0 0 1 807.5469 424.9346)" fill="#231F20" font-family="'Calibri-Bold'" font-size="26.5879">Lv</text>
		<text transform="matrix(1.0003 0 0 1 802.4658 435.4365)" fill="#231F20" font-family="'Calibri-Bold'" font-size="6.3864">Liver­morium</text>
	</g>
	<g>
		<g>
			<text transform="matrix(1.0003 0 0 1 808.3633 401.373)" fill="#231F20" font-family="'Calibri-Bold'" font-size="14.5974">116</text>
		</g>
	</g>
</g>
<g>
	<g>
		<rect x="846.384" y="389.465" fill="#DADFA1" width="50.191" height="50.179"/>
		<text transform="matrix(1.0003 0 0 1 850.3564 423.9121)" fill="#231F20" font-family="'Calibri-Bold'" font-size="26.5879">Uus</text>
		<text transform="matrix(1.0003 0 0 1 853.4141 434.4141)" fill="#231F20" font-family="'Calibri-Bold'" font-size="6.3864">Unun­septium</text>
	</g>
	<g>
		<g>
			<text transform="matrix(1.0003 0 0 1 860.3789 401.373)" fill="#231F20" font-family="'Calibri-Bold'" font-size="14.5974">117</text>
		</g>
	</g>
</g>
<g>
	<g>
		<rect x="898.402" y="389.465" fill="#DADFA1" width="50.188" height="50.179"/>
		<text transform="matrix(1.0003 0 0 1 900.5293 423.9121)" fill="#231F20" font-family="'Calibri-Bold'" font-size="26.5879">Uuo</text>
		<text transform="matrix(1.0003 0 0 1 906.9727 434.4141)" fill="#231F20" font-family="'Calibri-Bold'" font-size="6.3864">Unun­octium</text>
	</g>
	<g>
		<g>
			<text transform="matrix(1.0003 0 0 1 912.3955 401.373)" fill="#231F20" font-family="'Calibri-Bold'" font-size="14.5974">118</text>
		</g>
	</g>
</g>
<g>
	<text transform="matrix(1.0003 0 0 1 32.7227 74.1299)" fill="#6D6B6B" font-family="'ArialMT'" font-size="14.3165">IA</text>
</g>
<g>
	<text transform="matrix(1.0003 0 0 1 78.8086 124.9209)" fill="#6D6B6B" font-family="'ArialMT'" font-size="14.3165">IIA</text>
</g>
<g>
	<text transform="matrix(1.0003 0 0 1 131.7129 228.8857)" fill="#6D6B6B" font-family="'ArialMT'" font-size="14.3165">IIIB</text>
</g>
<g>
	<text transform="matrix(1.0003 0 0 1 185.127 228.8857)" fill="#6D6B6B" font-family="'ArialMT'" font-size="14.3165">IVB</text>
</g>
<g>
	<text transform="matrix(1.0003 0 0 1 234.8516 228.8857)" fill="#6D6B6B" font-family="'ArialMT'" font-size="14.3165">VB</text>
</g>
<g>
	<text transform="matrix(1.0003 0 0 1 287.8779 228.8857)" fill="#6D6B6B" font-family="'ArialMT'" font-size="14.3165">VIB</text>
</g>
<g>
	<text transform="matrix(1.0003 0 0 1 337.707 228.8857)" fill="#6D6B6B" font-family="'ArialMT'" font-size="14.3165">VIIB</text>
</g>
<g>
	<text transform="matrix(1.0003 0 0 1 434.4258 213.0352)" fill="#6D6B6B" font-family="'ArialMT'" font-size="14.3165">VIIIB</text>
</g>
<g>
	<text transform="matrix(1.0003 0 0 1 602.5898 228.8857)" fill="#6D6B6B" font-family="'ArialMT'" font-size="14.3165">IIB</text>
</g>
<g>
	<text transform="matrix(1.0003 0 0 1 548.6328 228.8857)" fill="#6D6B6B" font-family="'ArialMT'" font-size="14.3165">IB</text>
</g>
<g>
	<text transform="matrix(1.0003 0 0 1 652.2559 125.6025)" fill="#6D6B6B" font-family="'ArialMT'" font-size="14.3165">IIIA</text>
</g>
<g>
	<text transform="matrix(1.0003 0 0 1 706.6943 125.6025)" fill="#6D6B6B" font-family="'ArialMT'" font-size="14.3165">IVA</text>
</g>
<g>
	<text transform="matrix(1.0003 0 0 1 758.4619 125.6025)" fill="#6D6B6B" font-family="'ArialMT'" font-size="14.3165">VA</text>
</g>
<g>
	<text transform="matrix(1.0003 0 0 1 805.9111 125.6025)" fill="#6D6B6B" font-family="'ArialMT'" font-size="14.3165">VIA</text>
</g>
<g>
	<text transform="matrix(1.0003 0 0 1 853.0195 125.6025)" fill="#6D6B6B" font-family="'ArialMT'" font-size="14.3165">VIIA</text>
</g>
<g>
	<text transform="matrix(1.0003 0 0 1 913.7676 73.791)" fill="#6D6B6B" font-family="'ArialMT'" font-size="14.3165">VIIIA</text>
</g>
<polyline fill="none" stroke="#6D6B6B" stroke-width="1.0227" stroke-miterlimit="10" points="397.539,233.017 397.539,219.967 
	509.921,219.967 509.921,233.555 "/>
</svg>
