selector,english_word,engmeaning,nepali_word,nepmeaning,image
describe,describe,,,वर्णन गर्नु,
sucks,suck,,चुस्‍नु,,
aspects,aspect,,,"दृष्टिकोण, पक्ष",
possessions,possession,,,आफूसँग भएका कुरा,
blink,blink,,,आँखा झिम्क्याउनु,
jelly beans,jelly bean,,,एक किसिमको चकलेट,
mean,mean,,छुच्‍चो,,
searched,search,,खोज्‍नु,,
blouse,blouse,,ब्लाउज,महिलाले लगाउने चोलो भन्दा सानो र पातलो पहिरन,
attention,attention,,,ध्‍यान दिनु,
inform,inform,,,खबर गर्नु,
physical appearance,physical appearance,,शारीरिक उपस्थिति,,
underneath,underneath,,मुनि,,
shivers,shiver,,काम्नु,,
fright,fright,,डर,,
terrifying ,terrify,,डरलाग्दो,,
beam,beam,,प्रकाश,,
wandered,wander,,बिना लक्ष्य घुम्नु,,
panic,panic,,आत्तिनु,,
wrinkles,wrinkle,,चाउरी,,
