<?xml version="1.0" encoding="utf-8"?>
<!-- Generator: Adobe Illustrator 15.0.0, SVG Export Plug-In . SVG Version: 6.00 Build 0)  -->
<!DOCTYPE svg PUBLIC "-//W3C//DTD SVG 1.1//EN" "http://www.w3.org/Graphics/SVG/1.1/DTD/svg11.dtd">
<svg version="1.1" id="Layer_1" xmlns="http://www.w3.org/2000/svg" xmlns:xlink="http://www.w3.org/1999/xlink" x="0px" y="0px"
	 width="351.791px" height="240.18px" viewBox="0 0 351.791 240.18" enable-background="new 0 0 351.791 240.18"
	 xml:space="preserve">
<path fill="#FAA61A" d="M98.337,141.763c0,0,23.256-34.558,26.176-34.558c2.919,0,26.176,34.558,26.176,34.558H98.337z"/>
<rect x="15.337" y="95.811" fill="#0095DA" width="316.86" height="11.19"/>
<text transform="matrix(1 0 0 1 120.1567 160.1924)" font-family="'MyriadPro-Regular'" font-size="18">F</text>
<text transform="matrix(1 0 0 1 316.5112 176.8691)" font-family="'MyriadPro-Regular'" font-size="18">E</text>
<text transform="matrix(1 0 0 1 24.2036 38.4883)" font-family="'MyriadPro-Regular'" font-size="18">L</text>
<polygon fill="#68B21D" points="33.459,69.933 33.459,42.277 22.957,42.277 22.957,69.933 15.337,69.933 28.208,92.226 
	41.079,69.933 "/>
<polygon fill="#D20A11" points="314.074,131.72 314.074,159.375 324.578,159.375 324.578,131.72 332.197,131.72 319.326,109.427 
	306.455,131.72 "/>
</svg>
