<?xml version="1.0" encoding="utf-8"?>
<!-- Generator: Adobe Illustrator 15.0.0, SVG Export Plug-In . SVG Version: 6.00 Build 0)  -->
<!DOCTYPE svg PUBLIC "-//W3C//DTD SVG 1.1//EN" "http://www.w3.org/Graphics/SVG/1.1/DTD/svg11.dtd">
<svg version="1.1" id="Layer_1" xmlns="http://www.w3.org/2000/svg" xmlns:xlink="http://www.w3.org/1999/xlink" x="0px" y="0px"
	 width="351.791px" height="240.18px" viewBox="0 0 351.791 240.18" enable-background="new 0 0 351.791 240.18"
	 xml:space="preserve">
<rect x="771.159" y="749.313" fill="none" stroke="#231F20" stroke-width="0.18" width="351.61" height="240"/>
<path fill="#FAA61A" d="M786.406,890.986c0,0,23.256-34.558,26.176-34.558s26.177,34.558,26.177,34.558H786.406z"/>
<rect x="786.406" y="845.034" fill="#0095DA" width="316.859" height="11.19"/>
<text transform="matrix(1 0 0 1 778.7065 767.7793)" font-family="'MyriadPro-Regular'" font-size="14">Second class lever</text>
<text transform="matrix(1 0 0 1 808.2261 909.416)" font-family="'MyriadPro-Regular'" font-size="18">F</text>
<text transform="matrix(1 0 0 1 1087.5796 926.0928)" font-family="'MyriadPro-Regular'" font-size="18">E</text>
<text transform="matrix(1 0 0 1 940.2729 787.7119)" font-family="'MyriadPro-Regular'" font-size="18">L</text>
<polygon fill="#68B21D" points="949.89,819.156 949.89,791.501 939.388,791.501 939.388,819.156 931.768,819.156 944.639,841.449 
	957.51,819.156 "/>
<polygon fill="#D20A11" points="1085.142,880.943 1085.142,908.599 1095.646,908.599 1095.646,880.943 1103.265,880.943 
	1090.394,858.65 1077.523,880.943 "/>
<path fill="#FAA61A" d="M15.427,141.853c0,0,23.256-34.558,26.176-34.558s26.176,34.558,26.176,34.558H15.427z"/>
<rect x="15.427" y="95.9" fill="#0095DA" width="316.859" height="11.19"/>
<text transform="matrix(1 0 0 1 37.2466 160.2822)" font-family="'MyriadPro-Regular'" font-size="18">F</text>
<text transform="matrix(1 0 0 1 168.6011 176.959)" font-family="'MyriadPro-Regular'" font-size="18">E</text>
<text transform="matrix(1 0 0 1 314.2935 38.5781)" font-family="'MyriadPro-Regular'" font-size="18">L</text>
<polygon fill="#68B21D" points="324.667,70.022 324.667,42.367 314.164,42.367 314.164,70.022 306.544,70.022 319.416,92.315 
	332.287,70.022 "/>
<polygon fill="#D20A11" points="168.408,131.81 168.408,159.465 178.912,159.465 178.912,131.81 186.531,131.81 173.66,109.517 
	160.789,131.81 "/>
</svg>
