<?xml version="1.0" encoding="utf-8"?>
<!-- Generator: Adobe Illustrator 15.0.0, SVG Export Plug-In . SVG Version: 6.00 Build 0)  -->
<!DOCTYPE svg PUBLIC "-//W3C//DTD SVG 1.1//EN" "http://www.w3.org/Graphics/SVG/1.1/DTD/svg11.dtd">
<svg version="1.1" id="Layer_1" xmlns="http://www.w3.org/2000/svg" xmlns:xlink="http://www.w3.org/1999/xlink" x="0px" y="0px"
	 width="275px" height="360px" viewBox="0 0 275 360" enable-background="new 0 0 275 360" xml:space="preserve">
<g id="path0">
	<path fill="#434343" d="M261.33,296.714c0,4.314-0.129,7.982-0.389,10.998c-0.258,3.021-0.646,5.609-1.164,7.764
		c-0.518,2.16-1.209,4.012-2.07,5.564c-0.865,1.553-2.244,3.324-4.141,5.305c-1.9,1.986-5.564,4.529-10.998,7.635
		c-5.436,3.105-12.078,6.082-19.928,8.928c-7.852,2.848-16.82,5.217-26.914,7.117c-10.092,1.896-21.006,2.847-32.736,2.847
		c-22.947,0-43.65-3.538-62.109-10.61c-18.463-7.072-34.16-17.638-47.1-31.701c-12.939-14.06-22.862-31.613-29.761-52.664
		c-6.902-21.047-10.352-45.547-10.352-73.496c0-28.467,3.793-53.739,11.387-75.825c7.59-22.082,18.2-40.63,31.831-55.64
		c13.627-15.01,29.975-26.396,49.041-34.16c19.062-7.764,40.068-11.646,63.016-11.646c9.316,0,18.285,0.776,26.914,2.329
		c8.625,1.553,16.602,3.583,23.938,6.082c7.33,2.503,13.93,5.394,19.797,8.669c5.863,3.279,9.963,6.082,12.293,8.411
		c2.328,2.329,3.922,4.27,4.787,5.823c0.861,1.553,1.553,3.538,2.07,5.952c0.518,2.418,0.906,5.265,1.164,8.54
		c0.26,3.279,0.389,7.335,0.389,12.163c0,5.176-0.174,9.575-0.518,13.198c-0.348,3.623-0.949,6.559-1.811,8.799
		c-0.865,2.244-1.9,3.882-3.105,4.917c-1.209,1.035-2.588,1.553-4.141,1.553c-2.588,0-5.867-1.508-9.834-4.528
		c-3.971-3.017-9.104-6.381-15.398-10.094c-6.301-3.707-13.805-7.071-22.516-10.092c-8.713-3.017-19.109-4.529-31.184-4.529
		c-13.287,0-25.146,2.717-35.583,8.152c-10.44,5.434-19.324,13.197-26.655,23.291c-7.335,10.092-12.899,22.3-16.692,36.618
		c-3.797,14.322-5.693,30.452-5.693,48.394c0,19.668,2.026,36.708,6.082,51.111c4.052,14.407,9.834,26.267,17.339,35.583
		s16.563,16.264,27.172,20.833c10.611,4.573,22.556,6.857,35.843,6.857c12.074,0,22.514-1.424,31.313-4.27
		c8.799-2.848,16.344-5.993,22.645-9.446c6.295-3.449,11.471-6.555,15.527-9.316c4.051-2.758,7.201-4.141,9.445-4.141
		c1.723,0,3.105,0.348,4.141,1.035c1.035,0.691,1.896,2.07,2.588,4.141c0.688,2.07,1.205,4.962,1.553,8.669
		C261.156,285.546,261.33,290.503,261.33,296.714z"/>
</g>

<g id="gr" display="none">
	<path id="path1" fill="none" stroke="#000000" stroke-width="21" stroke-miterlimit="10" d="M244.894,56.589
	c-47.271-32-115.739-33.799-162.166,6.089c-46.427,39.889-61.466,177.858-11.77,228.208c45.205,45.8,124.895,47.014,173.936,11.702"
	/>
</g>
</svg>
