<?xml version="1.0" encoding="utf-8"?>
<!-- Generator: Adobe Illustrator 15.0.0, SVG Export Plug-In . SVG Version: 6.00 Build 0)  -->
<!DOCTYPE svg PUBLIC "-//W3C//DTD SVG 1.1//EN" "http://www.w3.org/Graphics/SVG/1.1/DTD/svg11.dtd">
<svg version="1.1" id="Layer_1" xmlns="http://www.w3.org/2000/svg" xmlns:xlink="http://www.w3.org/1999/xlink" x="0px" y="0px"
	 width="246.67px" height="338.67px" viewBox="0 0 246.67 338.67" enable-background="new 0 0 246.67 338.67" xml:space="preserve">
<path id="path0" fill="#434343" d="M230.554,153.17H125.314c-4.35,0-7.91,3.56-7.91,7.91v25.047c0,4.351,3.56,7.91,7.91,7.91h47.138
	c1.063,12.098,1.96,49.831-27.498,54.84c-43.844,7.454-59.033-10.463-65.582-17.508c-6.553-7.045-11.65-15.787-15.294-26.231
	c-3.646-10.441-5.469-22.523-5.469-36.243c0-12.481,1.789-23.883,5.376-34.203c3.583-10.317,8.713-19.155,15.387-26.51
	c6.674-7.352,14.706-13.037,24.1-17.055c9.39-4.015,19.896-6.025,31.515-6.025c10.874,0,20.421,1.113,28.642,3.337
	c8.218,2.224,15.294,4.635,21.226,7.229c5.933,2.595,10.689,5.005,14.275,7.229c3.582,2.224,6.177,3.337,7.785,3.337
	c1.113,0,2.068-0.307,2.874-0.927c0.803-0.617,1.483-1.697,2.04-3.244c0.556-1.544,0.988-3.615,1.297-6.211
	c0.308-2.595,0.463-5.684,0.463-9.269c0-6.178-0.371-10.845-1.112-13.996c-0.741-3.151-1.947-5.591-3.615-7.322
	c-1.668-1.729-4.605-3.768-8.806-6.118c-4.203-2.347-9.486-4.542-15.85-6.581c-6.367-2.04-13.813-3.769-22.34-5.191
	c-8.527-1.42-17.982-2.132-28.364-2.132c-18.909,0-36.056,2.906-51.443,8.713c-15.387,5.811-28.52,14.182-39.395,25.119
	c-10.876,10.938-19.279,24.225-25.211,39.857c-5.932,15.636-8.899,33.276-8.899,52.928c0,19.033,2.781,36.057,8.342,51.072
	c5.561,15.018,13.594,27.747,24.1,38.189c10.503,10.445,23.326,18.417,38.467,23.914c15.138,5.498,32.285,8.25,51.443,8.25
	c6.549,0,13.096-0.075,19.558-0.927c20.503-2.706,24.417-15.712,28.061-5.343c2.354,6.702,9.052,5.625,16.873,5.098
	c5.794-0.391,16.892,1.022,18.188-1.758c0.922-1.976,0.253-61.823-0.211-96.322h17.178c4.351,0,7.91-3.56,7.91-7.909v-25.048
	C238.464,156.73,234.904,153.17,230.554,153.17z"/>
<g id="gr" display="none">
	<path id="path1" display="inline" fill="none" stroke="#000000" stroke-width="12.6" stroke-miterlimit="10" d="M196.142,81.719
		C162.921,63.791,88.708,53.948,51.796,102.988c-36.19,48.082-27.705,124.447,23.94,155.671
		c57.268,34.624,126.871,12.014,118.786-77.277"/>
	
		<line id="path2" display="inline" fill="none" stroke="#000000" stroke-width="12.6" stroke-miterlimit="10" x1="128.783" y1="176.69" x2="231.434" y2="176.69"/>
	
		<line id="path3" display="inline" fill="none" stroke="#000000" stroke-width="12.6" stroke-miterlimit="10" x1="196.142" y1="181.117" x2="196.142" y2="283.68"/>
</g>
</svg>
