<?xml version="1.0" encoding="utf-8"?>
<!-- Generator: Adobe Illustrator 15.0.0, SVG Export Plug-In . SVG Version: 6.00 Build 0)  -->
<!DOCTYPE svg PUBLIC "-//W3C//DTD SVG 1.1//EN" "http://www.w3.org/Graphics/SVG/1.1/DTD/svg11.dtd">
<svg version="1.1" id="Layer_1" xmlns="http://www.w3.org/2000/svg" xmlns:xlink="http://www.w3.org/1999/xlink" x="0px" y="0px"
	 width="397.863px" height="540.621px" viewBox="0 0 397.863 540.621" enable-background="new 0 0 397.863 540.621"
	 xml:space="preserve">
<path id="path0" display="inline" fill="#55823B" stroke="#55823B" stroke-width="4.8673" stroke-linecap="square" stroke-linejoin="round" stroke-miterlimit="10" d="
	M127.411,29.918v47.963h83.829h6.419v292.026c0,24.451-1.942,42.256-5.822,53.413c-3.884,11.161-10.965,19.989-21.249,26.489
	c-10.288,6.503-22.513,9.751-36.676,9.751c-19.212,0-34.252-6.013-45.118-18.048c-10.87-12.029-16.982-34.348-18.338-66.948
	l-50.939,6.985c-0.778,42.498,8.778,74.518,28.672,96.058c19.889,21.54,48.561,32.311,86.015,32.311
	c25.225,0,47.2-5.144,65.931-15.428c18.725-10.283,32.404-25.224,41.042-44.827c8.632-19.598,12.953-47.25,12.953-82.958V77.881
	h1.085h83.828V29.918H127.411z"/>
<g id="gr" display="none">
<path id="path1" fill="none" stroke="#231F20" stroke-width="29.2036" stroke-miterlimit="10" d="M247.607,66.179v317.995
	c0,0,5.117,100.884-89.918,100.884c-86.994,0-96.497-106.732-96.497-106.732"/>
<line id="path2" fill="none" stroke="#231F20" stroke-width="29.2036" stroke-miterlimit="10" x1="127.717" y1="51.793" x2="357.995" y2="51.793"/>
</g>
</svg>
