<?xml version="1.0" encoding="utf-8"?>
<!-- Generator: Adobe Illustrator 15.0.0, SVG Export Plug-In . SVG Version: 6.00 Build 0)  -->
<!DOCTYPE svg PUBLIC "-//W3C//DTD SVG 1.1//EN" "http://www.w3.org/Graphics/SVG/1.1/DTD/svg11.dtd">
<svg version="1.1" id="Layer_1" xmlns="http://www.w3.org/2000/svg" xmlns:xlink="http://www.w3.org/1999/xlink" x="0px" y="0px"
	 width="397.863px" height="540.621px" viewBox="0 0 397.863 540.621" enable-background="new 0 0 397.863 540.621"
	 xml:space="preserve">
<polygon id="path0" fill="#B04525" stroke="#B04525" stroke-width="4.7264" stroke-linecap="square" stroke-linejoin="round" stroke-miterlimit="10" points="
	364.198,509.161 140.327,255.376 354.228,30.217 277.03,30.217 98.378,222.212 98.378,30.217 34.69,30.217 34.69,509.161
	98.378,509.161 98.378,346.725 98.378,302.994 281.534,509.161 "/>
<g id="gr" display="none">
<line id="path3" fill="none" stroke="#231F20" stroke-width="28.3586" stroke-miterlimit="10" x1="68.111" y1="29.161" x2="68.111" y2="506.979"/>
<line id="path1" fill="none" stroke="#231F20" stroke-width="28.3586" stroke-miterlimit="10" x1="311.673" y1="39.557" x2="70.149" y2="277.016"/>
<line id="path2" fill="none" stroke="#231F20" stroke-width="28.3586" stroke-miterlimit="10" x1="89.701" y1="268.278" x2="331.259" y2="500.349"/>
</g>
</svg>
