<?xml version="1.0" encoding="utf-8"?>
<!-- Generator: Adobe Illustrator 15.0.0, SVG Export Plug-In . SVG Version: 6.00 Build 0)  -->
<!DOCTYPE svg PUBLIC "-//W3C//DTD SVG 1.1//EN" "http://www.w3.org/Graphics/SVG/1.1/DTD/svg11.dtd">
<svg version="1.1" id="Layer_1" xmlns="http://www.w3.org/2000/svg" xmlns:xlink="http://www.w3.org/1999/xlink" x="0px" y="0px"
	 width="397.861px" height="540.621px" viewBox="0 0 397.861 540.621" enable-background="new 0 0 397.861 540.621"
	 xml:space="preserve">

		<path id="path0" fill="#5F604C" stroke="#5F604C" stroke-width="4.8673" stroke-linecap="square" stroke-linejoin="round" stroke-miterlimit="10" d="
		M381.544,510.045h-78.979L74.975,80.656v429.389H15.338v-480h98.966l207.601,391.994V30.045h59.639V510.045z"/>
<g id="gr" display="none">
<line id="path1" fill="none" stroke="#231F20" stroke-width="30" stroke-miterlimit="10" x1="42.488" y1="43.228" x2="42.488" y2="504.35"/>
<line id="path2" fill="none" stroke="#231F20" stroke-width="30" stroke-miterlimit="10" x1="67.094" y1="38.328" x2="333.464" y2="496.748"/>
<line id="path3" fill="none" stroke="#231F20" stroke-width="30" stroke-miterlimit="10" x1="351.596" y1="488.656" x2="351.596" y2="37.244"/>
</g>
</svg>
