<?xml version="1.0" encoding="utf-8"?>
<!-- Generator: Adobe Illustrator 15.0.0, SVG Export Plug-In . SVG Version: 6.00 Build 0)  -->
<!DOCTYPE svg PUBLIC "-//W3C//DTD SVG 1.1//EN" "http://www.w3.org/Graphics/SVG/1.1/DTD/svg11.dtd">
<svg version="1.1" id="Layer_1" xmlns="http://www.w3.org/2000/svg" xmlns:xlink="http://www.w3.org/1999/xlink" x="0px" y="0px"
	 width="397.861px" height="540.621px" viewBox="0 0 397.861 540.621" enable-background="new 0 0 397.861 540.621"
	 xml:space="preserve">
		<path id="path0" fill="#AF4425" stroke="#AF4425" stroke-width="4.7264" stroke-linecap="square" stroke-linejoin="round" stroke-miterlimit="10" d="
		M378.737,311.341c0,34.105-3.74,63.844-11.21,89.21c-7.476,25.372-19.737,46.476-36.79,63.316
		c-16.214,16.002-35.161,27.686-56.842,35.053c-21.687,7.367-46.949,11.053-75.79,11.053c-29.477,0-55.159-3.898-77.053-11.685
		c-21.897-7.786-40.317-19.263-55.263-34.421C48.737,446.607,36.47,425.766,29,401.341c-7.475-24.42-11.21-54.419-11.21-90V29.973
		h62.526v284.526c0,25.475,1.736,45.582,5.21,60.315c3.474,14.738,9.316,28.105,17.526,40.105c9.262,13.688,21.839,24,37.737,30.947
		c15.893,6.947,34.998,10.421,57.315,10.421c22.524,0,41.685-3.42,57.474-10.263c15.79-6.839,28.422-17.211,37.896-31.105
		c8.21-12,14.052-25.737,17.526-41.211c3.473-15.474,5.21-34.683,5.21-57.632V29.973h62.526V311.341z"/>
<g id="gr" display="none">
<path id="path1" fill="none" stroke="#231F20" stroke-width="28.3586" stroke-miterlimit="10" d="M45.764,29.477v315.333
	c0,0-3.333,137.334,148.667,137.334c152.667,0,152-146,152-146v-306"/>
</g>
</svg>
