<?xml version="1.0" encoding="utf-8"?>
<!-- Generator: Adobe Illustrator 15.0.0, SVG Export Plug-In . SVG Version: 6.00 Build 0)  -->
<!DOCTYPE svg PUBLIC "-//W3C//DTD SVG 1.1//EN" "http://www.w3.org/Graphics/SVG/1.1/DTD/svg11.dtd">
<svg version="1.1" id="Layer_1" xmlns="http://www.w3.org/2000/svg" xmlns:xlink="http://www.w3.org/1999/xlink" x="0px" y="0px"
	 width="397.861px" height="540.621px" viewBox="0 0 397.861 540.621" enable-background="new 0 0 397.861 540.621"
	 xml:space="preserve">
		<path id="path0" fill="#ED7D31" stroke="#ED7D31" stroke-width="5.3119" stroke-linecap="square" stroke-linejoin="round" stroke-miterlimit="10" d="
		M388.992,30.652l-153.104,480h-74.575l-153.104-480h59.886l131.918,422.297L331.93,30.652H388.992z"/>
<g id="gr" display="none">
<line id="path1" fill="none" stroke="#231F20" stroke-width="28.3586" stroke-miterlimit="10" x1="39.321" y1="35.442" x2="187.497" y2="499.83"/>
<line id="path2" fill="none" stroke="#231F20" stroke-width="28.3586" stroke-miterlimit="10" x1="213.864" y1="499.34" x2="358.911" y2="37.672"/>
</g>
</svg>
