<?xml version="1.0" encoding="utf-8"?>
<!-- Generator: Adobe Illustrator 15.0.0, SVG Export Plug-In . SVG Version: 6.00 Build 0)  -->
<!DOCTYPE svg PUBLIC "-//W3C//DTD SVG 1.1//EN" "http://www.w3.org/Graphics/SVG/1.1/DTD/svg11.dtd">
<svg version="1.1" id="Layer_1" xmlns="http://www.w3.org/2000/svg" xmlns:xlink="http://www.w3.org/1999/xlink" x="0px" y="0px"
	 width="437.862px" height="540.621px" viewBox="-20.09 0.374 437.862 540.621"
	 enable-background="new -20.09 0.374 437.862 540.621" xml:space="preserve">

		<path id="path0" fill="#548135" stroke="#548135" stroke-width="5.3845" stroke-linecap="square" stroke-linejoin="round" stroke-miterlimit="10" d="
		M386.001,509.945H11.414V450.63L305.732,86.681H22.375V29.945h356.533v57.704L81.689,453.209h304.312V509.945z"/>
<g id="gr" display="none">
<line id="path1" fill="none" stroke="#231F20" stroke-width="28.3586" stroke-miterlimit="10" x1="28.037" y1="54.546" x2="341.81" y2="53.546"/>
<line id="path2" fill="none" stroke="#231F20" stroke-width="28.3586" stroke-miterlimit="10" x1="352.955" y1="75.764" x2="38.313" y2="459.223"/>
<line id="path3" fill="none" stroke="#231F20" stroke-width="28.3586" stroke-miterlimit="10" x1="48.968" y1="481.879" x2="383.233" y2="481.879"/>
</g>
</svg>
