selector,english_word,engmeaning,nepali_word,nepmeaning,image
notice,notice,,सूचना,,
Venue,venue,,,कुनै कार्यक्रम हुने स्‍थान,
talent,talent,,प्रतिभा,,
information,information,,जानकारी,,
regarding,regarding,,,(केहीको) बारेमा,
upcoming,upcoming,,,भविष्‍यमा हुन लागेको,
event,event,,कार्यक्रम,,
warning ,warning,,चेतावनी,सूचना,
deadline,deadline,,,कुनै काम गरिसक्नु पर्ने अन्तिम मिति,
cultural programme,cultural programme,,सांस्कृतिक कार्यक्रम,,
discussing,discuss,,छलफल गर्नु,,
participated,participate,,,भाग लिनु,
shows,show,,प्रदर्शनी,प्रस्तुति गर्ने ठाउँ ,
flute,flute,,बाँसुरी,,
examine ,examine,,,जाँच गर्नु,
intention,intention,,इरादा,गर्न चाहेको कुरा ,
explanation,explanation,,व्याख्या,कुनै काम (वा कुरा) पछाडीको कारण दिनु,
reason,reason,,कारण,,
more likely,more likely,,,धेरै सम्‍भावना भएको ,
enough,enough,,पर्याप्त,चाहिने जति,
timely,timely,on time,,समयमै,
polio vaccine,polio vaccine,,पोलियो खोप,बच्‍चालाई पोलियो नलागोस भनेर लगाइने खोप,
attend,attend,,,उपस्थित हुनु,
benefit from,benefit,,,लाभ लिनु,
immunized,to immunize,,प्रतिरक्षा गर्नु,रोग नलागोस भनेर सुरक्षित पार्नु,
distribution,distribution,,वितरण,बाँड्नु,
out of town,out of town,,,घर/सहर बाहिर ,
justifications,justification,,,कुनै काम गर्नु पछाडीको कारण दिनु,
