{
  "pal": {
    "lesson_name": "Profit and loss",
    "about_the_lesson_content": {
      "en": "This math concept and the E-Paath lesson - has a strong practical link since it relates to concepts of profit and loss. Students will be able to think of these terms using various formulae.  ",
      "np": "यो ई-पाठले नाफा र नोक्सान सम्बन्धी अवधारणालाई व्यावहारिक रूपमा स्पष्ट बनाउँछ।  विद्यार्थीहरू नाफा र नोक्सान सम्बन्धी विभिन्न नियमहरू प्रयोग गर्न सक्षम हुनेछन्।"
    },
    "curricular_requirement_content": {
      "en": "Eight periods have been allocated for this chapter. About 4% of the curricular weight is allocated to Profit and Loss.  ",
      "np": "यो पाठको लागि अाठ घन्टी दिइएको छ। अन्तिम परीक्षामा प्रश्नहरूको लगभग 4% नाफा र नोक्सानमा आधारित हुनेछ।"
    },
    "prerequisites_content": {
      "paragraph": {
        "en": "Aside from basic addition and subtraction problems, students should be familiar with algebraic expressions and equations. They should be able to think in abstract terms. The following Grade 5 lessons will be good for review. ",
        "np": "विद्यार्थीहरू आधारभूत जोड र घटाउ सँगसँगै बीजीय अभिव्यञ्जक र समीकरणहरू परिचित हुनुपर्छ। नाफा र नोक्सान को शिक्षण गर्नु अघि कक्षा 5 को तल दिइएको ई-पाठहरू समीक्षा गर्नु उपयोगी हुन्छ।  "
      },
      "chapter_links": {
        "chapter_link_data1": {
          "grade": "5",
          "id": "aep",
          "breadcrumb_data": {
            "en": " Grade 5 ≻ Algebraic Expressions",
            "np": " कक्षा ५ ≻ बीजीय अभिव्यञ्जक "
          }
        },
        "chapter_link_data2": {
          "grade": "5",
          "id": "ag5",
          "breadcrumb_data": {
            "en": " Grade 5 ≻ Algebraic Equations",
            "np": " कक्षा ५ ≻ बीजीय समीकरण"
          }
        }
      }
    },
    "lesson_guidelines_content": {
      "en": {
        "paragraph": "Even though this is a new concept, Profit and Loss can be relatively simple for students who have met the above prerequisites. The E-Paath lesson can be completed within 3 days. However, if students are still struggling to meet the prerequisites, teachers should review addition, subtraction and algebraic equations before teaching this unit.",
        "list": [
          "Sections 1,2 and 3: Teachers should go through the sections slowly, making sure every student is following. Section 2 has a DIY. ",
          "Sections 4 and 5: Section 4 deals with calculating loss. ",
          "For more practice, students could practice Profit and Loss problems using fake money. "
        ]
      },
      "np": {
        "paragraph": "नाफा र नोक्सान नयाँ अवधारणा भए पनि माथि दिइएका पूर्व आवश्यकताहरू पूरा गर्ने विद्यार्थीहरूको लागि भने सजिलो हुन्छ। यो ई-पाठ तीन दिन भित्र पूरा गर्न सकिन्छ। यद्यपि, विद्यार्थीहरूले पूर्व आवश्यकता पूरा गर्न सकेका छैनन् भने, पाठ पढाउनु अघि जोड, घटाउ, बीजीय अभिव्यञ्जक र समीकरणहरूको समीक्षा गर्न सकिन्छ।",
        "list": [
          "भागहरु 1, 2 र 3: शिक्षकहरू सबै विद्यार्थीहरूलाई समेटने गरी बिस्तारै अघि बढ्न सक्छन्।",
          "भागहरु 4, 5 र 6: शिक्षकहरू सबै विद्यार्थीहरूलाई समेटने गरी बिस्तारै अघि बढ्न सक्छन्।",
          "विद्यार्थीहरूलाई अझै अभ्यास चाहिन्छ भने, थप अभ्यासहरु दिन सकिन्छ।"
        ]
      }
    },
    "related_activities_content": {
      "en": {
        "paragraph": "",
        "list": [
          "Since the main idea of the lesson has a direct connection to the lives of students, have them bring examples from home that involved Profit and Loss scenarios. Students can orally share these examples and then write short ‘story problems’. Partners can solve each other’s problems. ",
          "Students can practice problems from the textbook for homework. ",
          "Teachers can provide additional problems for students to practice in class or at home.  "
        ]
      },
      "np": {
        "paragraph": "",
        "list": [
          "यो पाठ विद्यार्थीहरूको दैनिकीसँग सम्बन्धित भएकाले, उनीहरूले घरबाट नाफा र नोक्सान समावेश भएका उदाहरणहरू ल्याउन सक्छन्। विद्यार्थीहरूले यी उदाहरणहरूलाई मौखिक रूपमा एक अर्कासँग भ न्‍नुका साथै एक अर्काको समस्याहरू समाधान गर्न सक्छन्।",
          "विद्यार्थीहरूले घरमा पाठ्यपुस्तकबाट अभ्यास गर्न सक्छन्।",
          "शिक्षकहरूले कक्षा वा घरमा अभ्यास गर्न थप प्रश्नहरू दिन सक्छन्।"
        ]
      }
    },
    "evaluation_content": {
      "en": {
        "paragraph": " ",
        "list": ["", ""]
      },
      "np": {
        "paragraph": " ",
        "list": ["", ""]
      }
    }
  },
  "st6": {
    "lesson_name": "Sets",
    "about_the_lesson_content": {
      "en": "Students have been introduced to Sets in Grades 4 and 5. In this E-Paath lesson, students will learn additional concepts and newer terms related to Sets such as calculating cardinality. They will also learn to identify finite, infinite, equivalent and equal sets.  ",
      "np": "विद्यार्थीहरू कक्षा ४ र ५ मा समूहको आधारभूत नियमहरूसँग परिचित भइसकेकाले यो ई-पाठमा उनीहरूले केही थप नियम र सङ्‍केतहरू जस्तै समूहको गणनात्‍मकता सिक्‍ने अपेक्षा गरिन्छ। साथै उनीहरूले सीमित र असीमित तथा समतुल्‍य र बराबर समूहहरू सम्‍बन्‍धी धारणाहरू पनि सिक्‍ने अपेक्षा गरिन्छ।"
    },
    "curricular_requirement_content": {
      "en": "Fifteen periods have been allocated for this chapter. About 8.5% of the curricular weight is allocated to Sets.  ",
      "np": "यो पाठको लागि पन्‍ध्र घन्टी दिइएको छ साथै यो पाठले पाठ्‍यक्रमको करिब ८.५% पाठ्‍यभार ओगटेको छ। "
    },
    "prerequisites_content": {
      "paragraph": {
        "en": "Students should be familiar to the concept of Sets and indicating the elements of a set. Teachers could review E-Paath lessons from Grades 4 and 5.  ",
        "np": "यो ई-पाठ सुरु गर्नुपूर्व विद्यार्थीहरूले समूह सम्‍बन्‍धी सामान्‍य नियमहरू जानेको हुनुपर्दछ। तलको ई-पाठको समीक्षा पछि यो ई-पाठ पढ्दा विद्यार्थीहरूलाई उपयोगी हुन्‍छ।"
      },
      "chapter_links": {
        "chapter_link_data1": {
          "grade": "4",
          "id": "st4",
          "breadcrumb_data": {
            "en": " Grade 4 ≻ Sets",
            "np": " कक्षा ४ ≻  समूह"
          }
        },
        "chapter_link_data2": {
          "grade": "5",
          "id": "st5",
          "breadcrumb_data": {
            "en": " Grade 5 ≻ Sets",
            "np": " कक्षा ५ ≻ समूह"
          }
        }
      }
    },
    "lesson_guidelines_content": {
      "en": {
        "paragraph": "",
        "list": [
          "Sections 1 and 2 (introduction and set builder method). Teachers should go through the sections slowly, making sure every student is following.",
          "Review, practice and DIY. Students could practice coming up with their own sets and describing them using the set builder method. ",
          "Membership of a set. Since this is a new concept, teachers should take their time. ",
          "Review and practice. Since this is a new concept, teachers should provide more examples for students to practice.",
          "Section 4 introduces cardinality (number of elements in a set). Teachers can complete the whole lesson. ",
          "Teachers should could use textbooks or other materials for students to practice. "
        ]
      },
      "np": {
        "paragraph": "पहिलो दिनमा सामान्‍य परिचय तथा समूह निर्माण विधि सिकाउन सकिन्‍छ यसको लागि विद्यार्थीहरू ई-पाठको पहिलो र दोस्रो पृष्‍ठ पढ्‍न सक्‍नेछन्। दोस्रो दिनमा विद्यार्थीहरूलाई आफैँ समूहका उदाहरण दिन लगाई समूह निर्माण विधिमा लेख्‍न लगाउन सकिन्‍छ। यसरी नै आवश्‍यकता अनुसार ५ देखि ६ दिनमा यो ई-पाठ सक्‍न सकिन्‍छ। यहाँ समूहको गणनात्‍मकता तथा समतुल्‍य र बराबर समूहलाई थप समय दिन सकिन्‍छ।",
        "list": []
      }
    },
    "related_activities_content": {
      "en": {
        "paragraph": "",
        "list": [
          "Since several ideas related to Sets depend on written and verbal skills, students should be engaged in activities that require them to describe sets orally and in written form. Students could think of new sets and write short descriptions. They can also draw illustrations. ",
          "Students can practice problems from the textbook for homework. ",
          "Teachers can provide additional problems for students to practice in class or at home.  "
        ]
      },
      "np": {
        "paragraph": "विद्यार्थीहरूलाई समूह सम्‍बन्‍धी रोचक क्रियाकलापहरूको माध्‍यमबाट मौखिक र लिखित रूपमा व्‍याख्‍या गर्न लगाउन सकिन्‍छ। विद्यार्थीहरूले पाठ्‍यपुस्‍तक बाट गृहकार्य गर्न सक्‍छन् साथै शिक्षकले थप अभ्‍यासको लागि थप प्रश्‍नहरू दिन सक्‍छन्।",
        "list": []
      }
    },
    "evaluation_content": {
      "en": {
        "paragraph": " ",
        "list": ["", ""]
      },
      "np": {
        "paragraph": " ",
        "list": ["", ""]
      }
    }
  },
  "sdb": {
    "lesson_name": "Simple interest",
    "about_the_lesson_content": {
      "en": "An interest is a predetermined amount paid by a borrower to the lender in addition to the original amount. “Simple Interest” is a quick method of calculating the interest. This E-Paath lesson includes the basic concept and calculation of simple interest through real world examples. ",
      "np": "ब्याज एक पूर्वनिर्धारित रकम हो जहाँ सापटी लिने व्यक्ति द्वारा दिने व्यक्तिलाई मूल रकममा अतिरिक्त रकम थपेर भुक्तान गरिन्छ। ‘साधारण ब्याज’ ब्याजको गणना गर्ने छिटो र सजिलो तरिका हो। यो ई-पाठमा दैनिक जीवनका उदाहरणहरूको माध्यमबाट साधारण ब्याज को गणना र आधारभूत अवधारणा समावेश छ।"
    },
    "curricular_requirement_content": {
      "en": "Six periods have been allocated for simple interest. About 4% of the final exam questions will be based on simple interest. ",
      "np": "साधारण ब्याजको लागि छ घन्टी दिइएको छ। पाठ्‍यक्रमको लगभग 4% पाठ्‍यभार साधारण ब्याजले ओगटेको छ।"
    },
    "prerequisites_content": {
      "paragraph": {
        "en": "Students should be able to solve basic problems using unitary method. \n\nFor review, teachers can refer to this Grade 5 E-paath chapter titled “Simple Interest”. ",
        "np": "विद्यार्थीहरूले ऐकिक नियम प्रयोग गरेर आधारभूत समस्याहरू समाधान गर्न सक्षम हुनुपर्छ। साधारण ब्याजको शिक्षण गर्नु अघि तल दिइएको कक्षा ५ को ई-पाठ \" साधारण ब्याज \" सिकाउन उपयोगी हुन्छ।"
      },
      "chapter_links": {
        "chapter_link_data1": {
          "grade": "5",
          "id": "sis",
          "breadcrumb_data": {
            "en": " Grade 5 ≻ Simple Interest",
            "np": " कक्षा ५ ≻ साधारण ब्याज"
          }
        }
      }
    },
    "lesson_guidelines_content": {
      "en": {
        "paragraph": "Teachers may add or subtract a day based on the level of students. ",
        "list": [
          "Day 1: Sections 1 and 2; as a review, students should go through the first two sections only. ",
          "Day 2: Sections 3 and 4 (Calculation of simple interest). Teachers should provide more examples until every student understands this concept. ",
          "Day 3: Sections 5 and 6 (Calculation of simple interest). Teachers should provide more examples until every student understands this concept. ",
          "Day 4: Sections 7 and 8 (When the time is given in months). Teachers should provide more example of simple interest when the time is given in months. Students can also practice from DIY.",
          "Day 5 and 6: Students need more practice with the different concepts related to simple interest. They can either go through the textbook or review the E-Paath chapter independently."
        ]
      },
      "np": {
        "paragraph": "",
        "list": [
          "पहिलो दिनमा समीक्षाको रूपमा, विद्यार्थीहरूले पहिलो दुईओटा पृष्‍ठबाट पढ्‍न सुरु गर्दा उपयोगी हुन्‍छ। ",
          "त्यसपछि अन्‍य महत्त्‍वपूर्ण भागहरू जस्तै साधारण ब्याजको हललाई थप समय दिन सकिन्‍छ। ",
          "यहाँ भएका अन्तरक्रियात्मक \"आफैँ गर\" खण्ड शिक्षण गर्नु अघि शिक्षकहरूले अग्रिम तयारी गर्नुपर्छ, अनियमित रूपमा परिवर्तन भइरहने यस्ता प्रश्‍नहरूको माध्‍यमबाट विद्यार्थीले धेरै सिक्‍न र हल गर्न सक्छन्।",
          "पृष्‍ठ ७ र ८ मा समयलाई महिनामा दिइएको अवस्‍थामा साधारण ब्याजको हल गर्न सिकाइएको छ।  ",
          "विद्यार्थीहरूलाई अझै अभ्यास चाहिन्छ भने, थप अभ्यासहरु दिन सकिन्छ।"
        ]
      }
    },
    "related_activities_content": {
      "en": {
        "paragraph": "",
        "list": [
          "Ask students to identify the interest, principal and rate from more real world problems.",
          "Students can practice problems from the DIY and exercise of E-Paath for classwork and homework. They can also practice from textbook at home.",
          "Teachers can provide additional simple interest problems for students to practice in class or at home.  "
        ]
      },
      "np": {
        "paragraph": "",
        "list": [
          "विद्यार्थीहरूलाई वास्तविक समस्याहरूको उदाहरण दिएर ब्याज, सावाँ र दर पहिचान गर्न लगाउन सकिन्छ। ",
          "विद्यार्थीहरूलाई साधारण ब्याज सम्बन्धी रोचक क्रियाकलापहरूको माध्‍यमबाट मौखिक र लिखित रूपमा व्‍याख्‍या प्रश्‍नहरू गर्न लगाउन सकिन्‍छ।",
          "शिक्षकले कक्षा वा घरमा अभ्यास गर्न साधारण ब्याज सम्बन्धी अतिरिक्त समस्याहरू दिन सकिन्छ।"
        ]
      }
    },
    "evaluation_content": {
      "en": {
        "paragraph": " ",
        "list": ["", ""]
      },
      "np": {
        "paragraph": " ",
        "list": ["", ""]
      }
    }
  },
  "cor": {
    "lesson_name": "Coordinates",
    "about_the_lesson_content": {
      "en": "Students are introduced to the concept of axes and coordinates in this E-Paath. They are also taught how to write the coordinates of different points inside the first quadrant. ",
      "np": "यस ई-पाठमा विद्यार्थीहरूले अक्ष र निर्देशाङ्‌कहरूको परिचय दिन तथा पहिलो चतुर्थाशमा रहेका विभिन्‍‍न बिन्‍दुहरूको निर्देशाङ्‌क लेख्‍न सक्‍ने अपेक्षा गरिन्छ।"
    },
    "curricular_requirement_content": {
      "en": "Six periods have been allocated for Coordinates in Grade 6. ",
      "np": "यस पाठको लागि छ घन्टी दिइएको छ।"
    },
    "prerequisites_content": {
      "paragraph": {
        "en": "This is an introductory chapter. No prerequisites needed other than basic number sense. ",
        "np": "यो निर्देशाङ्‌क सम्‍बन्‍धी आधारभूत धारणा भएकोले पाठ सुरु गर्नु अघि कुनै पूर्व आवश्‍यकता पर्दैन।  "
      },
      "chapter_links": {}
    },
    "lesson_guidelines_content": {
      "en": {
        "paragraph": "The E-Paath starts with a fun story in order to engage students. The chapter then introduces the coordinate graph as well as the x- and y-axis. The interactive visuals allow students to learn the subject matter by plotting their own coordinates and selecting appropriate points inside the first quadrant. ",
        "list": []
      },
      "np": {
        "paragraph": "यो ई-पाठ विद्यार्थीहरूलाई सहभागी बनाउन रमाइलो कथाबाट सुरु गरिएको छ। त्यसपछि ग्राफ र ग्राफमा X-अक्ष र Y-अक्षको परिचय दिइएको छ। अन्‍तरक्रियात्‍मक सामग्रीहरूको सहयोगमा उनीहरूले पहिलो चतुर्थाशमा रहेका विभिन्‍‍न बिन्‍दुहरूको निर्देशाङ्‌क लेख्‍न तथा आफैँले चाहेको बिन्‍दुहरू ग्राफमा भर्न सिकाइएको छ। ",
        "list": []
      }
    },
    "related_activities_content": {
      "en": {
        "paragraph": "Even though this E-Paath could be highly useful for teachers who do not have timely access to mathematics materials, it is highly recommend that teachers provide graph paper and stationery so that students can practice more problems concretely. In addition, teachers could also design creative story problems (as shown at the beginning of this E-Paath) so that students remain engaged and enjoy the lesson. ",
        "list": []
      },
      "np": {
        "paragraph": "ई-पाठमा सचित्र एनिमेशनको प्रयोग गरिएकोले विद्यार्थीहरूले सिसाकलम र ग्राफ नभएतापनि सहजै सिक्‍न सक्‍नेछन्। तर विद्यार्थीहरूलाई थप अभ्‍यास गराउन सिसाकलम र ग्राफ उपलब्‍ध गराएर विभिन्‍‍न बिन्‍दुहरूलाई ग्राफमा भर्न तथा पहिल्‍यै भरिएका बिन्‍दुहरूको निर्देशाङ्‌क लेख्‍न लगाउन सकिन्‍छ। साथै शिक्षकहरूले ई-पाठमा भएजस्तै रमाइला कथाहरू सुनाएर पाठलाई थप रोचक बनाउन सकिन्‍छ। ",
        "list": []
      }
    },
    "evaluation_content": {
      "en": {
        "paragraph": " ",
        "list": ["", ""]
      },
      "np": {
        "paragraph": " ",
        "list": ["", ""]
      }
    }
  },
  "lin": {
    "lesson_name": "Lines",
    "about_the_lesson_content": {
      "en": "Students are introduced to the concept of intersecting lines, parallel lines and perpendicular lines. ",
      "np": "यस ई-पाठमा विद्यार्थीहरूले प्रतिच्‍छेदित, समानान्‍तर र लम्ब रेखाहरूलाई चिन्‍‍न र परिभाषित गर्न सक्‍ने अपेक्षा गरिन्छ।"
    },
    "curricular_requirement_content": {
      "en": "Thirteen periods have been allocated for Lines and Angles in Grade 6. Since this E-Paath only deals with lines, teachers should plan their time accordingly.",
      "np": "कक्षा ६ को रेखा र कोणहरू पाठको लागि १३ घन्टी दिइएको छ। यस ई-पाठमा रेखाहरूको बारेमा मात्र सिकाइएकोले विद्यार्थीहरूको आवश्यकता अनुसार समय दिएर सिकाउन सकिनेछ। "
    },
    "prerequisites_content": {
      "paragraph": {
        "en": "This is an introductory chapter. No prerequisites needed other than basic number sense. ",
        "np": "यो रेखा सम्‍बन्‍धी सामान्‍य धारणाहरू भएकोले पढाउनु पूर्व कुनै पूर्व आवश्‍यकता पर्दैन। "
      },
      "chapter_links": {}
    },
    "lesson_guidelines_content": {
      "en": {
        "paragraph": "Students are able to click and manipulate lines in this E-Paath. The visuals also help them understand the concept of different kinds of lines - intersecting, parallel and perpendicular. Standard definitions of these lines are also provided in the chapter. ",
        "list": []
      },
      "np": {
        "paragraph": "यो ई-पाठ विद्यार्थीहरूले निर्देशन अनुसार रेखाहरूमा क्‍लिक गर्दै सिक्‍न सक्‍नेछन्। एनिमेशनको सहयोगले उनीहरूलाई प्रतिच्‍छेदित, समानान्‍तर र लम्ब रेखाहरू चिन्‍न सजिलो हुन्‍छ। पाठभित्र रेखाहरूलाई परिभाषित गरिएको छ। जसबाट विद्यार्थीहरूले रेखाको आधारभूत धारणाहरू सजिलै बुझ्‍न सक्‍नेछन्। ",
        "list": []
      }
    },
    "related_activities_content": {
      "en": {
        "paragraph": "Even though the concept is simple enough and this chapter may be adequate to introduce the idea of different kinds of lines, it will always be helpful to students if teachers use different teaching methods and mediums. For example, teachers could design a movement activity based on lines. Groups of students can be instructed to form intersecting lines, parallel lines and perpendicular lines.",
        "list": []
      },
      "np": {
        "paragraph": "यो ई-पाठ सामान्‍य र बुझ्‍न सजिलो भएतापनि शिक्षकहरूले विभिन्‍न माध्‍यम र क्रियाकलापबाट पाठको उदेश्‍यलाई पुरा गर्नुपर्दछ। विद्यार्थीहरूको विभिन्‍न समूह बनाएर प्रतिच्‍छेदित, समानान्‍तर र लम्ब रेखाहरू जस्तै गरी उभिन लगाउने तथा हिँड्न लगाउने गर्न सकिन्‍छ।",
        "list": []
      }
    },
    "evaluation_content": {
      "en": {
        "paragraph": " ",
        "list": ["", ""]
      },
      "np": {
        "paragraph": " ",
        "list": ["", ""]
      }
    }
  },
  "inq": {
    "lesson_name": "Introduction to Inequality",
    "about_the_lesson_content": {
      "en": "Students are introduced to the concept of inequality in math; they will be able to compare numbers by using the signs of inequality - ‘greater than’ (>), ‘less than’, (<) and  ‘is equal to’ (=). Students will also be able to represent inequalities in a number line. ",
      "np": "यस ई-पाठमा विद्यार्थीलाई असमानताका अवधारणाहरूसँग परिचित गराइएको छ। साथै उनीहरूले असमानताका चिह्‍नहरू भन्‍दा सानो (<), भन्‍दा ठुलो (>) र बराबर (=), प्रयोग गरेर सङ्‍ख्‍याहरूको तुलना गर्न सक्‍ने अपेक्षा गरिन्छ। उनीहरूले असमानतालाई सङ्‍ख्‍या रेखामा व्‍यक्त गर्न पनि सक्षम हुने अपेक्षा गरिन्छ।  "
    },
    "curricular_requirement_content": {
      "en": "Ten periods have been allocated for problems related to Inequality. Since this E-Paath addresses some of the objectives, teachers should set aside some periods of other objectives.",
      "np": "असमानता पाठको लागि दश घन्टी दिइएको छ। ई-पाठमा “असमानताको परिचय” र “असमानताको विशेषताहरू” दुई पाठहरू राखिएको हुँदा आफ्‍नो आवश्‍यकता अनुसार समय दिन सकिन्‍छ।"
    },
    "prerequisites_content": {
      "paragraph": {
        "en": "Even though this is an introductory chapter, the lesson relies on simple algebraic concepts related to variables and equations. There is also a reference to “set notations”. It is recommended that teachers refer to the following E-Paaths for review. ",
        "np": "यो असमानता सम्‍बन्‍धी आधारभूत धारणा भएतापनि पाठ सुरु गर्नु अघि समूह सङ्‍केत तथा चल, अचल सम्‍बन्‍धी बीजगणितका सामान्‍य नियमहरू जानेको हुनुपर्दछ। तल दिइएका ई-पाठहरूको समीक्षा पछि मात्रै यो पाठ पढ्दा विद्यार्थीहरूलाई अझै रोचक र उपयोगी लाग्‍ने छ।"
      },
      "chapter_links": {
        "chapter_link_data1": {
          "grade": "4",
          "id": "ag1",
          "breadcrumb_data": {
            "en": " Grade 4 ≻ Algebra: Variable and Constant",
            "np": " कक्षा ४ ≻ बीजगणित: चल र अचल"
          }
        },
        "chapter_link_data2": {
          "grade": "4",
          "id": "st4",
          "breadcrumb_data": {
            "en": " Grade 4 ≻ Set",
            "np": " कक्षा ४ ≻ समूह"
          }
        },
        "chapter_link_data3": {
          "grade": "5",
          "id": "ag5",
          "breadcrumb_data": {
            "en": " Grade 5 ≻ Algebraic Equations",
            "np": " कक्षा ५ ≻ बीजीय समीकरण"
          }
        }
      }
    },
    "lesson_guidelines_content": {
      "en": {
        "paragraph": "",
        "list": [
          "This E-Paath is longer than other E-Paaths. It also relies on concepts introduced in previous grades - such as variables, algebraic equations, as well as set notation. That’s why it is recommended that teachers make sure students are familiar with these ideas before moving forward with this E-Paath. Otherwise, students who have missed these lessons may get left behind even more. ",
          "Along with introducing signs of inequality, this E-Paath teaches students to combine the different signs for a certain unknown variable. Hence, it relies on abstract algebraic thinking as well as language functions. In addition, it also teaches students to represent inequalities visually in a number line. ",
          "Due to all these factors, it may be useful to students if teachers split this E-Paath in at least two days. Students could go through the first half on one day, practice some more problems in the classroom and then continue the chapter on a different day. This kind of approach will allow students to process new ideas and get prepared for more. "
        ]
      },
      "np": {
        "paragraph": "",
        "list": [
          "अन्‍य ई-पाठहरूको तुलनामा यो अलि लामो छ। यो समूह सङ्‍केत तथा चल, अचल जस्‍ता अघिल्‍लो कक्षामा पढेका बिषयवस्‍तुमा पनि निर्भर गर्छ। त्‍यसैले पाठ सुरु गर्नुअघि समूह सङ्‍केत तथा चल, अचलका नियमहरूको जानकारी दिँदै पाठ अगाडि बढाउन सकिन्‍छ। ",
          "पाठको पहिलो पृष्‍ठमा भन्‍दा सानो र भन्‍दा ठुलो सङ्‍केतको बारेमा निकै सरल ढङ्‍गबाट सिकाउने प्रयास गरिएको छ।",
          "यो पाठमा असमानताका सङ्‍केतहरूको प्रयोग सम्‍बन्‍धी सरल तरिकाले सिकाइएकोले विद्यार्थीहरूलाई बुझ्‍न अझ सजिलो हुन्‍छ। साथै रोचक क्रियाकलापहरू सहित असमानतालाई सङ्‍ख्‍या रेखामा व्‍यक्‍त गर्न सिकाइएको छ।"
        ]
      }
    },
    "related_activities_content": {
      "en": {
        "paragraph": "As described in the Lesson Guidelines, teachers should provide more problems to students to practice and allow time for discussions to clear misunderstandings before moving forward with the entire chapter. Students could also create their own word problems that involve inequalities. This will boost their creative and critical thinking skills. ",
        "list": []
      },
      "np": {
        "paragraph": "सरल तरिकाले प्रस्‍तुत गरिएतापनि ई-पाठ अलि लामो भएकोले विद्यार्थीहरूलाई आवश्‍यक समय दिएर थप अभ्‍यास पनि दिन सकिन्‍छ। विद्यार्थीहरूले असमानता सम्‍बन्‍धी आफैँ शाब्‍दिक समस्‍याहरू सुनाएर सङ्‍केतहरूको प्रयोग गर्न सक्‍छन्। जसले उनीहरूलाई रचनात्‍मक हुन सहयोग पुग्‍छ। ",
        "list": []
      }
    },
    "evaluation_content": {
      "en": {
        "paragraph": " ",
        "list": ["", ""]
      },
      "np": {
        "paragraph": " ",
        "list": ["", ""]
      }
    }
  },
  "unm": {
    "lesson_name": "Unitary Method",
    "about_the_lesson_content": {
      "en": "Students solve numerical problems (that deal with time, money and distance) using the unitary method. Only the direct variation strategy is introduced in this E-Paath. ",
      "np": "यस ई-पाठमा विद्यार्थीहरूले एकाइ मूल्य निकाल्ने विधिबाट समस्याहरू हल गर्न सिक्नेछन्। साथै प्रत्‍यक्ष परिवर्तनमा आधारित समस्याबाट समय, दुरी र मूल्‍य हल गर्ने अपेक्षा गरिन्छ।"
    },
    "curricular_requirement_content": {
      "en": "Five periods have been allocated for problems related to the Unitary Method in Grade 6. ",
      "np": "कक्षा ६ को एकिक नियम पाठका लागि पाँच पिरियडहरू छुट्टाइएको छ।"
    },
    "prerequisites_content": {
      "paragraph": {
        "en": "Students should go through the following Grade 5 E-Paath before using this one. Students should also have mastered multiplication and division problems. ",
        "np": "ऐकिक नियमको शिक्षण गर्नु अघि तल दिइएको कक्षा ५ को ई-पाठ “ऐकिक नियम” को समीक्षा गर्नु उपयोगी हुन्छ।"
      },
      "chapter_links": {
        "chapter_link_data1": {
          "grade": "5",
          "id": "umd",
          "breadcrumb_data": {
            "en": " Grade 5 ≻ Unitary Method",
            "np": " कक्षा ५ ≻ ऐकिक नियम"
          }
        }
      }
    },
    "lesson_guidelines_content": {
      "en": {
        "paragraph": "The Unitary Method is another foundational strategy in mathematics. Students are taught how to find the value of one item if the total value of many items are given and vice versa. This is described as a “Many to One and One to Many” method. For example, “If 1 pencil costs 10 rupees, what is the cost of 5 pencils?” Conversely, “If 5 pencils cost 50 rupees, what is the cost of 1 pencil?” \n    Students must have a strong grasp of multiplication and division in order to solve these kind of problems. Towards the end, problems that require students to use both multiplication and division concepts are introduced.",
        "list": []
      },
      "np": {
        "paragraph": "ऐकिक नियम गणितको एक आधारभूत नियम हो। यहाँ विद्यार्थीहरूलाई जम्मा मूल्यको प्रयोगबाट एकाइ मूल्य निकाल्ने तथा एकाइ मूल्यको प्रयोगबाट जम्मा मूल्य निकाल्‍न सिकाइन्‍छ। जस्तै १ सिसाकलमको मूल्‍य रू. १० पर्छ भने ५ सिसाकलमको मूल्‍य कति पर्छ अथवा, ५ सिसाकलमको मूल्‍य रू. ५० पर्छ भने १ सिसाकलमको मूल्‍य कति पर्छ?",
        "list": []
      }
    },
    "related_activities_content": {
      "en": {
        "paragraph": "Aside from multiplication and division concepts, this E-Paath also requires students to have strong language skills because these problems are essentially word problems. Teachers may need to provide extra support to students who have difficulties with language. They may need to explain the problems carefully and even provide physical demonstrations in the classroom to clarify. In addition, students should be allowed to draw if that helps them keep track of the items. Since many Unitary Method problems deal with pricing and cost, teachers could invite a business person in the classroom or take students to the market in order to provide real world examples. ",
        "list": []
      },
      "np": {
        "paragraph": "भाग र गुणनको आधारभूत अवधारणाहरूको साथमा विद्यार्थीहरूलाई भाषाको राम्रो ज्ञान हुनुपर्दछ। किनकि ऐकिक नियममा शाब्‍दिक समस्‍याहरू हुने गर्छन्। शिक्षकले जटिल भाषालाई सहज गर्दै लैजानुपर्दछ। शाब्‍दिक समस्‍याहरू हल गर्नको लागि शिक्षकले भौतिक रूपमा उदाहरणहरू दिन सकिन्‍छ। विद्यार्थीहरूलाई वास्‍तविक जीवनसँग मेल गराउन नजिकको पसलमा लैजान वा पसलेलाई कक्षामा ल्‍याएर क्रियाकलाप गराउन सकिन्‍छ।",
        "list": []
      }
    },
    "evaluation_content": {
      "en": {
        "paragraph": " ",
        "list": ["", ""]
      },
      "np": {
        "paragraph": " ",
        "list": ["", ""]
      }
    }
  },
  "tqp": {
    "lesson_name": "Triangles, Angles and Polygons",
    "about_the_lesson_content": {
      "en": "Students will be able to identify different types of triangles according to their sides and angles. Similarly, they will also be able to identify different polygons based on the number of sides. In addition, students are taught how to construct a square or an equilateral triangle if one side is given. ",
      "np": "यस ई-पाठमा विद्यार्थीहरूले कोण र भुजाको आधारमा त्रिभुजका प्रकारहरूको पहिचान गर्ने अपेक्षा गरिन्छ। त्यसैगरी उनीहरूले भुजाहरूको सङ्‍ख्‍याको आधारमा बहुभुजहरूको नाम पनि चिन्‍न सक्‍नेछन्। साथै यहाँ, एउटा भुजा दिइएको अवस्‍थामा वर्ग र समबाहु त्रिभुजको रचना गर्न पनि सिकाइएको छ।"
    },
    "curricular_requirement_content": {
      "en": "Twelve periods have been allocated specifically for “Triangles, Quadrilaterals and Polygons” in Grade 6. ",
      "np": "यस पाठको लागि बाह्र घन्टी दिइएको छ।"
    },
    "prerequisites_content": {
      "paragraph": {
        "en": "Students should be familiar with basic mathematical shapes. The following Grade 4 E-Paath could be helpful. ",
        "np": "तल दिइएको ई-पाठ पढिसकेपछि यो ई-पाठ पढ्दा विद्यार्थीहरूलाई उपयोगी हुन्‍छ। "
      },
      "chapter_links": {
        "chapter_link_data1": {
          "grade": "4",
          "id": "cub",
          "breadcrumb_data": {
            "en": " Grade 4 ≻ Solid shapes",
            "np": " कक्षा ४ ≻ ठोस आकृतिहरू"
          }
        }
      }
    },
    "lesson_guidelines_content": {
      "en": {
        "paragraph": "The concepts introduced in this E-Paath are pretty straightforward. This lesson will also be highly useful to teachers because it provides helpful visuals and examples of different kinds of shapes. Teachers who lack mathematical tools can also use this E-Paath to teach students how to construct these shapes. However, students should be familiar with simpler geometrical ideas such as angles before being introduced to this E-Paath. ",
        "list": []
      },
      "np": {
        "paragraph": "यो ई-पाठ शिक्षक र विद्यार्थीहरूको लागि उपयोगी हुनसक्‍छ किनकि यहाँ विभिन्‍न आकारहरूलाई सचित्र एनिमेशनको माध्यमबाट बुझाउन खोजिएको छ। यहाँ ज्‍यामितीय उपकरणहरू बिना पनि सजिलै वर्ग र समबाहु त्रिभुजको रचना गर्न सिकाउन सकिन्‍छ। पाठमा दैनीक जीवनमा प्रयोग हुने वा देखेका आकारहरूको प्रयोग गरिएको हुनाले विद्यार्थीहरू सजिलै कोण र त्रिभुजसँग परिचित हुन्‍छन्। वर्ग र समबाहु त्रिभुजको रचना गर्न सिकाइएको हुनाले पाँचौ पृष्ठ बढि उपयोगी हुन सक्छ।",
        "list": []
      }
    },
    "related_activities_content": {
      "en": {
        "paragraph": "Even though this E-Paath supports teachers by providing visuals and definitions, students should get the opportunity to use pencils, paper and mathematical tools in order to construct triangles and squares. Concrete experiences are highly useful in order to practice new concepts. Apart from that, teachers could design fun games and quizzes inside the classroom to help students identify various shapes. ",
        "list": []
      },
      "np": {
        "paragraph": "यहाँ विद्यार्थीहरूले सिसाकलम, कापी र गणितीय उपकरणहरू प्रयोग गरेर वर्ग र समबाहु त्रिभुजको रचना गर्न सक्‍छन्। यो बाहेक शिक्षकहरूले विभिन्‍न आकारहरू सम्‍बन्‍धी रमाइला प्रश्‍नोत्‍तर र खेल खेलाउन सकिन्‍छ।",
        "list": []
      }
    },
    "evaluation_content": {
      "en": {
        "paragraph": " ",
        "list": ["", ""]
      },
      "np": {
        "paragraph": " ",
        "list": ["", ""]
      }
    }
  },
  "paa": {
    "lesson_name": "Perimeter and area ",
    "about_the_lesson_content": {
      "en": "In this E-Paath, students are taught how to measure the perimeter of a triangle. They are also taught how to measure the area of regular and irregular shapes. In addition, students are introduced to the formula used in finding out the area of squares and rectangles. ",
      "np": "यस ई-पाठमा विद्यार्थीहरूले नापद्वारा त्रिभुजको परिमिति निकाल्न सिक्‍नेछन्। साथै उनीहरूले नियमित तथा अनियमित आकारहरूको क्षेत्रफल पत्ता लगाउन पनि सिक्‍नेछन्। र अन्‍त्यमा उनीहरूले सुत्र प्रयोग गरेर आयत र वर्गको क्षेत्रफल निकाल्ने अपेक्षा गरिन्छ।"
    },
    "curricular_requirement_content": {
      "en": "Twelve periods have been allocated specifically for “Perimeter and Area” in Grade 6. ",
      "np": "परिमिति र क्षेत्रफल पाठको लागि बाह्र घन्टी दिइएको छ।"
    },
    "prerequisites_content": {
      "paragraph": {
        "en": "Students should go through the following E-Paath before being introduced to this lesson. They should also have a strong grasp of multiplication.",
        "np": "तल दिइएको ई-पाठ पढिसकेपछि यो पाठ पढ्दा विद्यार्थीहरूलाई उपयोगी हुन्‍छ। साथै उनीहरूलाई गुणनको भने राम्रो ज्ञान हुनुपर्दछ।"
      },
      "chapter_links": {
        "chapter_link_data1": {
          "grade": "5",
          "id": "are",
          "breadcrumb_data": {
            "en": " Grade 5 ≻ Area",
            "np": " कक्षा ५ ≻ क्षेत्रफल"
          }
        }
      }
    },
    "lesson_guidelines_content": {
      "en": {
        "paragraph": "Just like other Geometry E-Paaths, this lesson will also be highly useful to teachers because of the visuals and interactive features. Students will probably find it easier to understand the concepts of area and perimeter by looking at the diagrams. Towards the end, students will be able to construct a garden and calculate the individual items inside the garden, a potentially engaging and enjoyable activity. ",
        "list": []
      },
      "np": {
        "paragraph": "सचित्र एनिमेशन तथा अन्‍तरक्रियात्‍मक भएकाले अन्‍य ज्‍यामितीय ई-पाठ जस्‍तै यो ई-पाठ पनि शिक्षक र विद्यार्थीहरूको लागि निकै उपयोगी हुनसक्‍छ। चित्रहरूको कारणले विद्यार्थीहरूको लागि परिमिति र क्षेत्रफल बुझ्‍न सजिलो हुन सक्‍छ। अन्‍त्‍यमा उनीहरूले आँफै बगैँचाको निर्माण गर्न र त्यो बगैँचाको निर्माणको लागी चाहिने प्रत्येक सामग्रीहरूको परिमाण निकाल्‍न सिक्‍नेछन्।",
        "list": []
      }
    },
    "related_activities_content": {
      "en": {
        "paragraph": "Students may confuse the concepts of area and perimeter. That’s why they need additional practice. They may also make calculation errors while calculating the area and perimeter. If students have a strong numerical based (i.e., if they can automatically recall simple additional and multiplication facts), these exercises will not be very difficult for most. ",
        "list": []
      },
      "np": {
        "paragraph": "विद्यार्थीहरू परिमिति र क्षेत्रफलको अवधारणासँग झुक्‍किन सक्‍ने हुँदा उनीहरूलाई थप अभ्‍यासको आवश्‍यकता पर्दछ। उनीहरूले परिमिति र क्षेत्रफल हल गर्दा सामान्‍य त्रुटिहरू हुन सक्‍ने हुँदा जोड र गुणनका आधारभूत नियमहरूलाई ध्‍यान दिएर हल गर्नुपर्दछ। ",
        "list": []
      }
    },
    "evaluation_content": {
      "en": {
        "paragraph": " ",
        "list": ["", ""]
      },
      "np": {
        "paragraph": " ",
        "list": ["", ""]
      }
    }
  },
  "poi": {
    "lesson_name": "Properties of Inequality",
    "about_the_lesson_content": {
      "en": "Using the trichotomy property as a base, students use properties of inequalities to compare numbers in addition, subtraction, multiplication and division equations.  Students are introduced to various rules that deal with positive and negative numbers. ",
      "np": "यस ई-पाठमा विद्यार्थीलाई असमानताका अवधारणाहरूसँग परिचित गराइएको छ। साथै उनीहरू असमानताका चिह्‍नहरू प्रयोग गरेर सङ्‍ख्‍याहरूको तुलना गर्न तथा सङ्‍ख्‍या रेखामा व्‍यक्‍त गर्न पनि सक्षम हुने अपेक्षा गरिन्छ।  ट्रिकोटोमी नियम बुझ्‍न र प्रयोग गर्न, असमानताको आधारभूत नियमहरू बुझ्‍न र प्रयोग गर्न तथा साधारण असमानताहरू हल गर्न सक्षम हुने अपेक्षा गरिन्छ।  "
    },
    "curricular_requirement_content": {
      "en": "Ten periods have been allocated for problems related to Inequality. Since this E-Paath is a follow-up to the other E-Paath (Introduction to Inequality), teachers should plan their periods accordingly. ",
      "np": "असमानताका पाठको लागि दश घन्टी दिइएको छ। ई-पाठमा “असमानताको परिचय” र “असमानताको विशेषताहरू” दुई पाठहरू राखिएको हुँदा आफ्‍नो आवश्‍यकता अनुसार समय दिन सकिन्‍छ। "
    },
    "prerequisites_content": {
      "paragraph": {
        "en": "Just like Introduction to Inequality, this E-Paath relies on simple algebraic equations. It is recommended that teachers refer to the following lesson for review. ",
        "np": "यो ई-पाठ कक्षा ५ को “बीजीय समीकरण” र कक्षा ६ को “असमानताको परिचय” पाठहरूको समीक्षा पछि मात्रै सुरु गर्दा विद्यार्थीहरूलाई अझै रोचक र उपयोगी लाग्‍ने छ।"
      },
      "chapter_links": {
        "chapter_link_data1": {
          "grade": "5",
          "id": "ag5",
          "breadcrumb_data": {
            "en": " Grade 5 ≻ Algebraic Equations",
            "np": " कक्षा ५ ≻ बीजीय समीकरण"
          }
        }
      }
    },
    "lesson_guidelines_content": {
      "en": {
        "paragraph": "Once students are familiar with algebraic equations, they will be able to follow along nicely with the ideas introduced in this E-Paath. Students who are comfortable with numeracy will find the properties logical. But teachers should still take their time and perhaps break the E-Paath in two chunks so that students can practice the properties using other numbers and process the ideas. \n    The E-Paath uses simple numbers as examples. Students also have the opportunity to try out a few problems and interact with the lesson. The concept of negative numbers come up towards the end. If students are not familiar with negative numbers, teachers should take time to explain. ",
        "list": []
      },
      "np": {
        "paragraph": "कक्षा ६ को “असमानताको परिचय” पढिसकेपछि यो पाठ सुरु गर्न सकिन्‍छ। ई-पाठका विभिन्‍न पृष्‍ठमा ट्रिकोटोमी (Trichotomy) का नियमहरू, असमानताका नियमहरू तथा साधारण असमानताहरू हल गर्न सिकाइएको छ। पाठका विभिन्‍न भागमा ऋणात्‍मक सङ्ख्‍याहरूको पनि प्रयोग भएकोले विद्यार्थीहरूलाई बुझ्‍न कठिन हुन सक्‍छ। त्यसैले, शिक्षकले थप उदाहरणहरू दिएर अवधारणाहरू प्रष्‍ट बनाउन सकिन्‍छ।",
        "list": []
      }
    },
    "related_activities_content": {
      "en": {
        "paragraph": "Using the properties of inequality to compare numbers provides a strong foundation for students to tackle complex mathematical problems. Teachers should make sure that students clearly understand these properties and that they get enough practice. As shown in the chapter, students could also come up with their own numbers and work in pairs. ",
        "list": []
      },
      "np": {
        "paragraph": "सरल तरिकाले प्रस्‍तुत गरिएतापनि ई-पाठ अलि लामो भएकोले विद्यार्थीहरूलाई आवश्‍यक समय दिएर थप अभ्‍यास गराउन सकिन्‍छ। विद्यार्थीहरूले साधारण असमानता सम्‍बन्‍धी आँफै शाब्‍दिक समस्‍याहरू बनाएर हल गर्न सकिन्‍छ जसले उनीहरूलाई रचनात्‍मक हुन सहयोग पुग्‍छ। ",
        "list": []
      }
    },
    "evaluation_content": {
      "en": {
        "paragraph": " ",
        "list": ["", ""]
      },
      "np": {
        "paragraph": " ",
        "list": ["", ""]
      }
    }
  },
  "sym": {
    "lesson_name": "Symmetry",
    "about_the_lesson_content": {
      "en": "In this E-Paath, students are introduced to the concept of symmetry. They will be able to identify symmetrical figures and draw lines of symmetry on geometrical shapes and common objects. ",
      "np": "यस ई-पाठमा विद्यार्थीहरू सममितिको आधारभूत धारणाहरूसँग परिचित हुनेछन्। साथै उनीहरूले सममितीय आकृतिहरू पहिचान गर्न र दिइएको वस्‍तु तथा ज्यामितीय आकृतिहरूमा रेखीय सममिति कोर्न सक्‍ने अपेक्षा गरिन्छ।"
    },
    "curricular_requirement_content": {
      "en": "Six periods have been allocated specifically for “Symmetry” in Grade 6. ",
      "np": "सममिति पाठको लागि छ घन्टी दिइएको छ।"
    },
    "prerequisites_content": {
      "paragraph": {
        "en": "No prerequisites are needed for this E-Paath. ",
        "np": "यो सममिति सम्‍बन्‍धी आधारभूत धारणा भएकोले पाठ सुरु गर्नु अघि कुनै पूर्व आवश्‍यकता पर्दैन। "
      },
      "chapter_links": {}
    },
    "lesson_guidelines_content": {
      "en": {
        "paragraph": "Using an example of a butterfly and a virtual mirror, students are introduced to the concept of symmetry. Students are taught that some objects have more than one line of symmetry. They will also be able to identify axes of symmetry. This E-Paath will be highly useful to teachers to demonstrate these ideas. Students will also be able to interact with the lesson and practice new ideas with the help of a DIY. ",
        "list": []
      },
      "np": {
        "paragraph": "ई-पाठमा पुतलीको आकृतिमा ऐनाको प्रयोग गरेर सममिति सम्‍बन्‍धी आधारभूत धारणालाई सकेसम्‍म सरल बनाउने प्रयास गरिएको छ। यसबाट विद्यार्थीहरूले सममिति भनेको के हो भन्‍न सक्‍नेछन् साथै यहाँ सममितीय आकृति पहिचान गर्न पनि सिकाइएको छ। एउटै आकृतिमा विभिन्‍न तरिकाबाट ऐनाको प्रयोग गरेर आकृतिहरूमा कतिओटा रेखीय सममिति छ भनेर पहिचान गर्न सहज गरिएको छ। विद्यार्थीहरूले ई-पाठमा भएका “आफैँ गर” भागहरूबाट थप अभ्‍यास गर्ने अवसर पाउनेछन्।",
        "list": []
      }
    },
    "related_activities_content": {
      "en": {
        "paragraph": "Just like with any new concept, students’ understanding will deepen if they get hands-on experience with concrete objects. If possible, teachers should provide images on paper or bring objects in the classroom so that students can discuss lines and axes of symmetry. ",
        "list": []
      },
      "np": {
        "paragraph": "ई-पाठमा दिइएको पुतलीको उदाहरण जस्‍तै विद्यार्थीहरूलाई अन्‍य ठोस वस्‍तुहरूको रेखीय सममिति पत्‍ता लगाउन दिन सकिन्‍छ। साथै शिक्षकले कापीमा आकृतिहरू दिने तथा कक्षामा ठोस वस्‍तुहरू लिएर आउने तथा विद्यार्थीसँग तिनीहरूको रेखीय सममिति भए नभएको छलफल गर्न सकिन्‍छ।",
        "list": []
      }
    },
    "evaluation_content": {
      "en": {
        "paragraph": " ",
        "list": ["", ""]
      },
      "np": {
        "paragraph": " ",
        "list": ["", ""]
      }
    }
  },
  "tns": {
    "lesson_name": "The Number System",
    "about_the_lesson_content": {
      "en": "In this E-Paath, students are introduced to the concept of natural numbers, whole numbers, integers, and rational numbers. They are also introduced with the representation of number system in number line.",
      "np": "यो ई-पाठमा प्राकृतिक सङ्ख्याहरू, पूर्ण सङ्ख्याहरू, पूर्णाङ्‍कहरू र आनुपातिक सङ्ख्याहरूको परिचय दिनुका साथै सङ्ख्या प्रणालीलाई सङ्ख्या रेखामा प्रस्‍तुत गर्न पनि सिकाइएको छ।"
    },
    "curricular_requirement_content": {
      "en": " Six periods have been allocated for “The Number System” in Grade 6.",
      "np": "यो पाठको लागि छ घन्टी दिइएको छ।"
    },
    "prerequisites_content": {
      "paragraph": {
        "en": "No prerequisites are needed for this E-Paath other than a familiarity with sets. To that end, teachers might want to refer to the following E-Paath and remind students regarding the basic notions of sets. ",
        "np": "यो सङ्ख्या प्रणालीको आधारभूत धारणा भएकोले पाठ सुरु गर्नुअघि कुनै पूर्व आवश्‍यकता पर्दैन तर समूह र समूह सङ्‍केतहरू भने थाहा भएको हुनुपर्दछ। यसको लागि तलको ई-पाठको समीक्षा पछि यो ई-पाठ सुरु गर्दा विद्यार्थीहरूलाई बुझ्‍न सजिलो हुन्‍छ। "
      },
      "chapter_links": {
        "chapter_link_data1": {
          "grade": "5",
          "id": "st5",
          "breadcrumb_data": {
            "en": " Grade 5 ≻ Sets",
            "np": " कक्षा ५ ≻ समूह"
          }
        }
      }
    },
    "lesson_guidelines_content": {
      "en": {
        "paragraph": "This E-Paath is a straightforward introduction to the number system. It uses several examples to introduce mathematical terms and concepts related to the topic. The section on fractions may be the most useful to teachers because the lesson uses visuals to demonstrate how to plot fractions on a number line. Students will also be able to understand the relation between natural numbers, whole numbers, rational numbers and integers. ",
        "list": []
      },
      "np": {
        "paragraph": "यो पाठमा सरल ढङ्‍गले सबै एकाइहरूको व्‍याख्‍या गरिएको छ साथै धेरै भन्‍दा धेरै उदाहरण दिएर एक-अर्काको सम्‍बन्‍ध देखाइएको छ। सबै सङ्‍ख्‍याहरूलाई सङ्ख्या रेखामा प्रस्‍तुत गरिएकाले यो पाठ असमानता पाठको लागि पनि निकै उपयोगी हुन्‍छ। भिन्‍नलाई सङ्ख्या रेखामा प्रस्‍तुत गरिएकाले विद्यार्थीहरूको लागि रोचक र उपयोगी हुन सक्‍छ।",
        "list": []
      }
    },
    "related_activities_content": {
      "en": {
        "paragraph": "This E-Paath is more of an introduction to the different sets of numbers within the number system. If students understand these terms carefully, it will help them with more advanced mathematical concepts later in life. To provide practice, teachers could quiz students using these terms and also use these terms in word problems to clarify the interrelationships between various numbers. ",
        "list": []
      },
      "np": {
        "paragraph": "यो ई-पाठ कक्षा ६ को असमानताको परिचय, असमानताको विशेषताहरू, रूढ खण्‍डीकरण लगायतका पाठहरूको लागि आधारभूत अवधारणा भएकोले शिक्षकले थप अभ्‍यासको लागि विभिन्‍न क्रियाकलापहरू गराउन सकिन्‍छ।  ",
        "list": []
      }
    },
    "evaluation_content": {
      "en": {
        "paragraph": " ",
        "list": ["", ""]
      },
      "np": {
        "paragraph": " ",
        "list": ["", ""]
      }
    }
  },
  "prf": {
    "lesson_name": "Prime Factorization",
    "about_the_lesson_content": {
      "en": "\"Prime Factorization\" is finding which prime numbers multiply together to make the original number. This lesson teaches the concepts of factors and multiples. In addition, it also teaches the concept of prime factorization of composite numbers up to three digits. ",
      "np": "कुनै पनि संयुक्‍त सङ्ख्‍यालाई रूढ सङ्‍ख्‍याहरूको गुणनफलका रूपमा अभिव्‍यक्‍त गर्न सकिन्‍छ। यसरी संयुक्‍त सङ्ख्‍यालाई खण्‍डीकरण गरी रूढ सङ्‍ख्‍याहरूको गुणनफलका रूपमा लेख्‍ने प्रक्रियालाई रूढ खण्‍डीकरण भनिन्‍छ। यो ई-पाठमा रूढ र संयुक्‍त सङ्‍ख्‍या छुट्‍याउन तथा गुणनखण्‍ड र अपवर्त्‍यहरू निकाल्‍न सिकाइएको छ। साथै रूढ खण्‍डीकरण विधिबाट रूढ गुणनखण्‍डहरू निकाल्‍न पनि सिकाइएको छ।"
    },
    "curricular_requirement_content": {
      "en": "Six periods have been allocated for “Prime Factorization” in Grade 6.",
      "np": "यो पाठको लागि छ घन्टी दिइएको छ।"
    },
    "prerequisites_content": {
      "paragraph": {
        "en": "Students should be very familiar with multiplication and division. Teachers could also refer to the following Grade 4 chapter for review.  ",
        "np": "विद्यार्थीहरूले गुणन र भाग जानेको हुनुपर्दछ। साथै तलको ई-पाठको समीक्षा पछि यो ई-पाठ सुरु गर्दा विद्यार्थीहरूलाई बुझ्‍न सजिलो हुन्‍छ। "
      },
      "chapter_links": {
        "chapter_link_data1": {
          "grade": "4",
          "id": "pac",
          "breadcrumb_data": {
            "en": " Grade 4 ≻ Prime and Composite Numbers",
            "np": " कक्षा ४ ≻ रूढ र संयुक्त सङ्ख्याहरू"
          }
        }
      }
    },
    "lesson_guidelines_content": {
      "en": {
        "paragraph": "This E-Paath teaches students that if two numbers are multiplied together to get a bigger number, the smaller numbers are called factors. For example, the factors of 6 are 1, 2, 3 and 6. In the same way, 6 is considered to be a multiple of 2 and 3. Sections 6 onwards, students can  learn prime factorization by “Factor Tree method” and “Repeated Division method”. Those sections use more visuals and interactive features that allow students to practice these concepts.  Students can also practice and learn from DIY.  ",
        "list": []
      },
      "np": {
        "paragraph": "कुनै पनि सङ्‍ख्‍याका गुणनखण्‍ड भनेको त्‍यो सङ्‍ख्‍यालाई निःशेष भाग जाने सङ्‍ख्‍याहरू हुन्। उदाहरणको लागि ६ लाई १, २, ३ र ६ ले निःशेष भाग जान्‍छ त्यसैले ६ को गुणनखण्‍डहरू १, २, ३ र ६ हुन्। यहाँ ६ भने १, २, ३ र ६ को अपवर्त्‍य हो। यहाँ विद्यार्थीहरूले गुणनखण्‍ड वृक्ष र बारम्बार भाग तरिकाबट रूढ खण्‍डीकरण गर्न सिक्‍नेछन्। साथै अन्‍तरक्रियात्‍मक ‘आफैँ गर’ बाट विद्यार्थीहरूले थप अभ्‍यास गर्न सक्‍नेछन्।",
        "list": []
      }
    },
    "related_activities_content": {
      "en": {
        "paragraph": "In a way, this chapter revisits the  terms ‘factors’ and ‘multiples’ and introduces students to the terms ‘prime factorization’. Just like other Grade 6 chapters, knowing these terms and concepts will be useful to students later on and especially while solving more complex math problems. Teachers can ask students to write numbers from 1 to 100 and follow the activity of section 5 where students can find prime & composite numbers from 1 to 100.",
        "list": []
      },
      "np": {
        "paragraph": "यो ई-पाठमा भएका अपवर्त्‍य र गुणनखण्‍ड तथा रूढ खण्‍डीकरण गणितमा पछिसम्‍म प्रयोग भइरहने हुँदा यसलाई रोचक क्रियाकलापको माध्‍यमबाट जोड्‍न सकिन्‍छ। पृष्‍ठ ५ को क्रियाकलापलाई कापी र कलमको सहयोगमा भौतिक रूपमा गर्न सकिन्‍छ। ",
        "list": []
      }
    },
    "evaluation_content": {
      "en": {
        "paragraph": " ",
        "list": ["", ""]
      },
      "np": {
        "paragraph": " ",
        "list": ["", ""]
      }
    }
  }
}
