<?xml version="1.0" encoding="utf-8"?>
<!-- Generator: Adobe Illustrator 15.0.0, SVG Export Plug-In . SVG Version: 6.00 Build 0)  -->
<!DOCTYPE svg PUBLIC "-//W3C//DTD SVG 1.1//EN" "http://www.w3.org/Graphics/SVG/1.1/DTD/svg11.dtd">
<svg version="1.1" id="Layer_1" xmlns="http://www.w3.org/2000/svg" xmlns:xlink="http://www.w3.org/1999/xlink" x="0px" y="0px"
	 width="400px" height="400px" viewBox="0 0 400 400" enable-background="new 0 0 400 400" xml:space="preserve">
<g>
	<g>
		<radialGradient id="SVGID_1_" cx="380.5908" cy="110.0073" r="29.9138" gradientUnits="userSpaceOnUse">
			<stop  offset="0" style="stop-color:#B2B2B2"/>
			<stop  offset="1" style="stop-color:#666666"/>
		</radialGradient>
		<path fill="url(#SVGID_1_)" d="M350.677,110.008c0,16.476,13.437,29.913,29.913,29.913c3.791,0,7.416-0.718,10.76-2.014
			c-6.229-19.173-15.267-37.077-26.643-53.22C356.292,89.991,350.677,99.362,350.677,110.008z"/>
		<radialGradient id="SVGID_2_" cx="380.5908" cy="169.835" r="29.9135" gradientUnits="userSpaceOnUse">
			<stop  offset="0" style="stop-color:#B2B2B2"/>
			<stop  offset="1" style="stop-color:#666666"/>
		</radialGradient>
		<path fill="url(#SVGID_2_)" d="M350.677,169.835c0,16.476,13.437,29.914,29.913,29.914c7.846,0,15.001-3.053,20.346-8.025
			c-0.674-17.028-3.473-33.508-8.144-49.183c-3.731-1.677-7.858-2.619-12.202-2.619
			C364.113,139.921,350.677,153.359,350.677,169.835z"/>
		<radialGradient id="SVGID_3_" cx="380.5908" cy="229.6621" r="29.9135" gradientUnits="userSpaceOnUse">
			<stop  offset="0" style="stop-color:#B2B2B2"/>
			<stop  offset="1" style="stop-color:#666666"/>
		</radialGradient>
		<path fill="url(#SVGID_3_)" d="M350.677,229.662c0,16.477,13.437,29.914,29.913,29.914c4.344,0,8.471-0.941,12.202-2.618
			c4.671-15.675,7.47-32.155,8.144-49.185c-5.345-4.973-12.5-8.024-20.346-8.024C364.113,199.749,350.677,213.187,350.677,229.662z"
			/>
		<radialGradient id="SVGID_4_" cx="380.5908" cy="289.4902" r="29.9129" gradientUnits="userSpaceOnUse">
			<stop  offset="0" style="stop-color:#B2B2B2"/>
			<stop  offset="1" style="stop-color:#666666"/>
		</radialGradient>
		<path fill="url(#SVGID_4_)" d="M350.677,289.49c0,10.646,5.615,20.017,14.03,25.32c11.376-16.143,20.414-34.047,26.643-53.22
			c-3.344-1.296-6.969-2.015-10.76-2.015C364.113,259.576,350.677,273.014,350.677,289.49z"/>
		<radialGradient id="SVGID_5_" cx="320.7627" cy="50.1812" r="29.9136" gradientUnits="userSpaceOnUse">
			<stop  offset="0" style="stop-color:#B2B2B2"/>
			<stop  offset="1" style="stop-color:#666666"/>
		</radialGradient>
		<path fill="url(#SVGID_5_)" d="M301.914,26.987c-6.743,5.493-11.064,13.854-11.064,23.193c0,16.476,13.438,29.914,29.914,29.914
			c11.688,0,21.838-6.765,26.756-16.576C334.223,49.235,318.865,36.899,301.914,26.987z"/>
		<radialGradient id="SVGID_6_" cx="320.7637" cy="110.0078" r="29.9133" gradientUnits="userSpaceOnUse">
			<stop  offset="0" style="stop-color:#B2B2B2"/>
			<stop  offset="1" style="stop-color:#666666"/>
		</radialGradient>
		<path fill="url(#SVGID_6_)" d="M320.764,80.094c-16.476,0-29.914,13.438-29.914,29.914c0,16.476,13.438,29.913,29.914,29.913
			c16.475,0,29.913-13.438,29.913-29.913C350.677,93.532,337.238,80.094,320.764,80.094z"/>
		<radialGradient id="SVGID_7_" cx="320.7637" cy="169.835" r="29.9136" gradientUnits="userSpaceOnUse">
			<stop  offset="0" style="stop-color:#B2B2B2"/>
			<stop  offset="1" style="stop-color:#666666"/>
		</radialGradient>
		<path fill="url(#SVGID_7_)" d="M320.764,139.921c-16.476,0-29.914,13.438-29.914,29.914c0,16.476,13.438,29.914,29.914,29.914
			c16.475,0,29.913-13.438,29.913-29.914C350.677,153.359,337.238,139.921,320.764,139.921z"/>
		<radialGradient id="SVGID_8_" cx="320.7637" cy="229.6621" r="29.9136" gradientUnits="userSpaceOnUse">
			<stop  offset="0" style="stop-color:#B2B2B2"/>
			<stop  offset="1" style="stop-color:#666666"/>
		</radialGradient>
		<path fill="url(#SVGID_8_)" d="M320.764,199.749c-16.476,0-29.914,13.438-29.914,29.913c0,16.477,13.438,29.914,29.914,29.914
			c16.475,0,29.913-13.438,29.913-29.914C350.677,213.187,337.238,199.749,320.764,199.749z"/>
		<radialGradient id="SVGID_9_" cx="320.7637" cy="289.4902" r="29.9131" gradientUnits="userSpaceOnUse">
			<stop  offset="0" style="stop-color:#B2B2B2"/>
			<stop  offset="1" style="stop-color:#666666"/>
		</radialGradient>
		<path fill="url(#SVGID_9_)" d="M320.764,259.576c-16.476,0-29.914,13.438-29.914,29.914c0,16.476,13.438,29.913,29.914,29.913
			c16.475,0,29.913-13.438,29.913-29.913C350.677,273.014,337.238,259.576,320.764,259.576z"/>
		<radialGradient id="SVGID_10_" cx="320.7627" cy="349.3164" r="29.9147" gradientUnits="userSpaceOnUse">
			<stop  offset="0" style="stop-color:#B2B2B2"/>
			<stop  offset="1" style="stop-color:#666666"/>
		</radialGradient>
		<path fill="url(#SVGID_10_)" d="M320.764,319.403c-16.476,0-29.914,13.438-29.914,29.914c0,9.341,4.321,17.701,11.064,23.194
			c16.951-9.913,32.309-22.248,45.605-36.532C342.602,326.168,332.449,319.403,320.764,319.403z"/>
		<radialGradient id="SVGID_11_" cx="260.9365" cy="-9.6475" r="29.9145" gradientUnits="userSpaceOnUse">
			<stop  offset="0" style="stop-color:#B2B2B2"/>
			<stop  offset="1" style="stop-color:#666666"/>
		</radialGradient>
		<path fill="url(#SVGID_11_)" d="M260.937,20.267c6.265,0,12.087-1.946,16.901-5.26C263.814,9.177,248.985,4.9,233.564,2.383
			C238.211,12.896,248.738,20.267,260.937,20.267z"/>
		<radialGradient id="SVGID_12_" cx="260.9365" cy="50.1807" r="29.9133" gradientUnits="userSpaceOnUse">
			<stop  offset="0" style="stop-color:#B2B2B2"/>
			<stop  offset="1" style="stop-color:#666666"/>
		</radialGradient>
		<path fill="url(#SVGID_12_)" d="M260.937,20.267c-16.476,0-29.913,13.438-29.913,29.914s13.438,29.914,29.913,29.914
			s29.913-13.438,29.913-29.914S277.412,20.267,260.937,20.267z"/>
		<radialGradient id="SVGID_13_" cx="260.9365" cy="110.0078" r="29.9133" gradientUnits="userSpaceOnUse">
			<stop  offset="0" style="stop-color:#B2B2B2"/>
			<stop  offset="1" style="stop-color:#666666"/>
		</radialGradient>
		<path fill="url(#SVGID_13_)" d="M260.937,80.094c-16.476,0-29.913,13.438-29.913,29.914c0,16.476,13.438,29.913,29.913,29.913
			s29.913-13.438,29.913-29.913C290.85,93.532,277.412,80.094,260.937,80.094z"/>
		<radialGradient id="SVGID_14_" cx="260.9365" cy="169.835" r="29.9136" gradientUnits="userSpaceOnUse">
			<stop  offset="0" style="stop-color:#B2B2B2"/>
			<stop  offset="1" style="stop-color:#666666"/>
		</radialGradient>
		<path fill="url(#SVGID_14_)" d="M260.937,139.921c-16.476,0-29.913,13.438-29.913,29.914c0,16.476,13.438,29.914,29.913,29.914
			s29.913-13.438,29.913-29.914C290.85,153.359,277.412,139.921,260.937,139.921z"/>
		<radialGradient id="SVGID_15_" cx="260.9365" cy="229.6621" r="29.9136" gradientUnits="userSpaceOnUse">
			<stop  offset="0" style="stop-color:#B2B2B2"/>
			<stop  offset="1" style="stop-color:#666666"/>
		</radialGradient>
		<path fill="url(#SVGID_15_)" d="M260.937,199.749c-16.476,0-29.913,13.438-29.913,29.913c0,16.477,13.438,29.914,29.913,29.914
			s29.913-13.438,29.913-29.914C290.85,213.187,277.412,199.749,260.937,199.749z"/>
		<radialGradient id="SVGID_16_" cx="260.9365" cy="289.4902" r="29.9131" gradientUnits="userSpaceOnUse">
			<stop  offset="0" style="stop-color:#B2B2B2"/>
			<stop  offset="1" style="stop-color:#666666"/>
		</radialGradient>
		<path fill="url(#SVGID_16_)" d="M260.937,259.576c-16.476,0-29.913,13.438-29.913,29.914c0,16.476,13.438,29.913,29.913,29.913
			s29.913-13.438,29.913-29.913C290.85,273.014,277.412,259.576,260.937,259.576z"/>
		<radialGradient id="SVGID_17_" cx="260.9365" cy="349.3164" r="29.9136" gradientUnits="userSpaceOnUse">
			<stop  offset="0" style="stop-color:#B2B2B2"/>
			<stop  offset="1" style="stop-color:#666666"/>
		</radialGradient>
		<path fill="url(#SVGID_17_)" d="M260.937,319.403c-16.476,0-29.913,13.438-29.913,29.914s13.438,29.913,29.913,29.913
			s29.913-13.438,29.913-29.913S277.412,319.403,260.937,319.403z"/>
		<radialGradient id="SVGID_18_" cx="260.9365" cy="409.1445" r="29.9144" gradientUnits="userSpaceOnUse">
			<stop  offset="0" style="stop-color:#B2B2B2"/>
			<stop  offset="1" style="stop-color:#666666"/>
		</radialGradient>
		<path fill="url(#SVGID_18_)" d="M233.564,397.113c15.421-2.516,30.25-6.793,44.273-12.623c-4.815-3.313-10.637-5.26-16.901-5.26
			C248.738,379.23,238.211,386.601,233.564,397.113z"/>
		<radialGradient id="SVGID_19_" cx="201.1094" cy="-9.6465" r="29.9136" gradientUnits="userSpaceOnUse">
			<stop  offset="0" style="stop-color:#B2B2B2"/>
			<stop  offset="1" style="stop-color:#666666"/>
		</radialGradient>
		<path fill="url(#SVGID_19_)" d="M201.109,20.267c12.477,0,23.204-7.708,27.681-18.603c-9.05-1.253-18.286-1.915-27.681-1.915
			c-9.394,0-18.631,0.662-27.681,1.915C177.905,12.56,188.634,20.267,201.109,20.267z"/>
		<radialGradient id="SVGID_20_" cx="201.1094" cy="50.1807" r="29.9138" gradientUnits="userSpaceOnUse">
			<stop  offset="0" style="stop-color:#B2B2B2"/>
			<stop  offset="1" style="stop-color:#666666"/>
		</radialGradient>
		<path fill="url(#SVGID_20_)" d="M201.109,80.094c16.477,0,29.914-13.438,29.914-29.914s-13.438-29.914-29.914-29.914
			c-16.476,0-29.913,13.438-29.913,29.914S184.634,80.094,201.109,80.094z"/>
		<radialGradient id="SVGID_21_" cx="201.1094" cy="110.0078" r="29.9138" gradientUnits="userSpaceOnUse">
			<stop  offset="0" style="stop-color:#B2B2B2"/>
			<stop  offset="1" style="stop-color:#666666"/>
		</radialGradient>
		<path fill="url(#SVGID_21_)" d="M201.109,80.094c-16.476,0-29.913,13.438-29.913,29.914c0,16.476,13.438,29.913,29.913,29.913
			c16.477,0,29.914-13.438,29.914-29.913C231.023,93.532,217.586,80.094,201.109,80.094z"/>
		<radialGradient id="SVGID_22_" cx="201.1094" cy="169.835" r="29.9141" gradientUnits="userSpaceOnUse">
			<stop  offset="0" style="stop-color:#B2B2B2"/>
			<stop  offset="1" style="stop-color:#666666"/>
		</radialGradient>
		<path fill="url(#SVGID_22_)" d="M201.109,139.921c-16.476,0-29.913,13.438-29.913,29.914c0,16.476,13.438,29.914,29.913,29.914
			c16.477,0,29.914-13.438,29.914-29.914C231.023,153.359,217.586,139.921,201.109,139.921z"/>
		<radialGradient id="SVGID_23_" cx="201.1094" cy="229.6621" r="29.9141" gradientUnits="userSpaceOnUse">
			<stop  offset="0" style="stop-color:#B2B2B2"/>
			<stop  offset="1" style="stop-color:#666666"/>
		</radialGradient>
		<path fill="url(#SVGID_23_)" d="M201.109,199.749c-16.476,0-29.913,13.438-29.913,29.913c0,16.477,13.438,29.914,29.913,29.914
			c16.477,0,29.914-13.438,29.914-29.914C231.023,213.187,217.586,199.749,201.109,199.749z"/>
		<radialGradient id="SVGID_24_" cx="201.1094" cy="289.4902" r="29.9136" gradientUnits="userSpaceOnUse">
			<stop  offset="0" style="stop-color:#B2B2B2"/>
			<stop  offset="1" style="stop-color:#666666"/>
		</radialGradient>
		<path fill="url(#SVGID_24_)" d="M201.109,259.576c-16.476,0-29.913,13.438-29.913,29.914c0,16.476,13.438,29.913,29.913,29.913
			c16.477,0,29.914-13.438,29.914-29.913C231.023,273.014,217.586,259.576,201.109,259.576z"/>
		<radialGradient id="SVGID_25_" cx="201.1094" cy="349.3164" r="29.9141" gradientUnits="userSpaceOnUse">
			<stop  offset="0" style="stop-color:#B2B2B2"/>
			<stop  offset="1" style="stop-color:#666666"/>
		</radialGradient>
		<path fill="url(#SVGID_25_)" d="M201.109,319.403c-16.476,0-29.913,13.438-29.913,29.914s13.438,29.913,29.913,29.913
			c16.477,0,29.914-13.438,29.914-29.913S217.586,319.403,201.109,319.403z"/>
		<radialGradient id="SVGID_26_" cx="201.1094" cy="409.1445" r="29.9136" gradientUnits="userSpaceOnUse">
			<stop  offset="0" style="stop-color:#B2B2B2"/>
			<stop  offset="1" style="stop-color:#666666"/>
		</radialGradient>
		<path fill="url(#SVGID_26_)" d="M201.109,379.23c-12.476,0-23.204,7.708-27.681,18.603c9.05,1.254,18.287,1.916,27.681,1.916
			c9.395,0,18.631-0.662,27.681-1.916C224.313,386.938,213.586,379.23,201.109,379.23z"/>
		<radialGradient id="SVGID_27_" cx="141.2827" cy="-9.6475" r="29.9141" gradientUnits="userSpaceOnUse">
			<stop  offset="0" style="stop-color:#B2B2B2"/>
			<stop  offset="1" style="stop-color:#666666"/>
		</radialGradient>
		<path fill="url(#SVGID_27_)" d="M168.655,2.383c-15.422,2.517-30.25,6.793-44.273,12.624c4.813,3.313,10.637,5.26,16.9,5.26
			C153.481,20.267,164.008,12.896,168.655,2.383z"/>
		<radialGradient id="SVGID_28_" cx="141.2827" cy="50.1807" r="29.9136" gradientUnits="userSpaceOnUse">
			<stop  offset="0" style="stop-color:#B2B2B2"/>
			<stop  offset="1" style="stop-color:#666666"/>
		</radialGradient>
		<path fill="url(#SVGID_28_)" d="M141.283,80.094c16.476,0,29.914-13.438,29.914-29.914s-13.438-29.914-29.914-29.914
			s-29.914,13.438-29.914,29.914S124.807,80.094,141.283,80.094z"/>
		<radialGradient id="SVGID_29_" cx="141.2827" cy="110.0078" r="29.9136" gradientUnits="userSpaceOnUse">
			<stop  offset="0" style="stop-color:#B2B2B2"/>
			<stop  offset="1" style="stop-color:#666666"/>
		</radialGradient>
		<path fill="url(#SVGID_29_)" d="M141.283,139.921c16.476,0,29.914-13.438,29.914-29.913c0-16.476-13.438-29.914-29.914-29.914
			s-29.914,13.438-29.914,29.914C111.369,126.484,124.807,139.921,141.283,139.921z"/>
		<radialGradient id="SVGID_30_" cx="141.2827" cy="169.835" r="29.9138" gradientUnits="userSpaceOnUse">
			<stop  offset="0" style="stop-color:#B2B2B2"/>
			<stop  offset="1" style="stop-color:#666666"/>
		</radialGradient>
		<path fill="url(#SVGID_30_)" d="M141.283,199.749c16.476,0,29.914-13.438,29.914-29.914c0-16.476-13.438-29.914-29.914-29.914
			s-29.914,13.438-29.914,29.914C111.369,186.311,124.807,199.749,141.283,199.749z"/>
		<radialGradient id="SVGID_31_" cx="141.2827" cy="229.6621" r="29.9138" gradientUnits="userSpaceOnUse">
			<stop  offset="0" style="stop-color:#B2B2B2"/>
			<stop  offset="1" style="stop-color:#666666"/>
		</radialGradient>
		<path fill="url(#SVGID_31_)" d="M141.283,259.576c16.476,0,29.914-13.438,29.914-29.914c0-16.476-13.438-29.913-29.914-29.913
			s-29.914,13.438-29.914,29.913C111.369,246.139,124.807,259.576,141.283,259.576z"/>
		<radialGradient id="SVGID_32_" cx="141.2827" cy="289.4902" r="29.9133" gradientUnits="userSpaceOnUse">
			<stop  offset="0" style="stop-color:#B2B2B2"/>
			<stop  offset="1" style="stop-color:#666666"/>
		</radialGradient>
		<path fill="url(#SVGID_32_)" d="M141.283,319.403c16.476,0,29.914-13.438,29.914-29.913c0-16.477-13.438-29.914-29.914-29.914
			s-29.914,13.438-29.914,29.914C111.369,305.966,124.807,319.403,141.283,319.403z"/>
		<radialGradient id="SVGID_33_" cx="141.2827" cy="349.3164" r="29.9138" gradientUnits="userSpaceOnUse">
			<stop  offset="0" style="stop-color:#B2B2B2"/>
			<stop  offset="1" style="stop-color:#666666"/>
		</radialGradient>
		<path fill="url(#SVGID_33_)" d="M141.283,319.403c-16.476,0-29.914,13.438-29.914,29.914s13.438,29.913,29.914,29.913
			s29.914-13.438,29.914-29.913S157.758,319.403,141.283,319.403z"/>
		<radialGradient id="SVGID_34_" cx="141.2827" cy="409.1445" r="29.9134" gradientUnits="userSpaceOnUse">
			<stop  offset="0" style="stop-color:#B2B2B2"/>
			<stop  offset="1" style="stop-color:#666666"/>
		</radialGradient>
		<path fill="url(#SVGID_34_)" d="M141.283,379.23c-6.264,0-12.086,1.947-16.9,5.26c14.023,5.83,28.851,10.107,44.272,12.623
			C164.008,386.601,153.481,379.23,141.283,379.23z"/>
		<radialGradient id="SVGID_35_" cx="81.4556" cy="50.1812" r="29.9133" gradientUnits="userSpaceOnUse">
			<stop  offset="0" style="stop-color:#B2B2B2"/>
			<stop  offset="1" style="stop-color:#666666"/>
		</radialGradient>
		<path fill="url(#SVGID_35_)" d="M81.456,80.094c16.476,0,29.914-13.438,29.914-29.914c0-9.34-4.321-17.701-11.063-23.193
			c-16.952,9.912-32.31,22.248-45.606,36.531C59.618,73.329,69.769,80.094,81.456,80.094z"/>
		<radialGradient id="SVGID_36_" cx="81.4561" cy="110.0078" r="29.9133" gradientUnits="userSpaceOnUse">
			<stop  offset="0" style="stop-color:#B2B2B2"/>
			<stop  offset="1" style="stop-color:#666666"/>
		</radialGradient>
		<path fill="url(#SVGID_36_)" d="M81.456,139.921c16.476,0,29.914-13.438,29.914-29.913c0-16.476-13.438-29.914-29.914-29.914
			c-16.476,0-29.913,13.438-29.913,29.914C51.543,126.484,64.98,139.921,81.456,139.921z"/>
		<radialGradient id="SVGID_37_" cx="81.4561" cy="169.835" r="29.9136" gradientUnits="userSpaceOnUse">
			<stop  offset="0" style="stop-color:#B2B2B2"/>
			<stop  offset="1" style="stop-color:#666666"/>
		</radialGradient>
		<path fill="url(#SVGID_37_)" d="M81.456,199.749c16.476,0,29.914-13.438,29.914-29.914c0-16.476-13.438-29.914-29.914-29.914
			c-16.476,0-29.913,13.438-29.913,29.914C51.543,186.311,64.98,199.749,81.456,199.749z"/>
		<radialGradient id="SVGID_38_" cx="81.4561" cy="229.6621" r="29.9136" gradientUnits="userSpaceOnUse">
			<stop  offset="0" style="stop-color:#B2B2B2"/>
			<stop  offset="1" style="stop-color:#666666"/>
		</radialGradient>
		<path fill="url(#SVGID_38_)" d="M81.456,259.576c16.476,0,29.914-13.438,29.914-29.914c0-16.476-13.438-29.913-29.914-29.913
			c-16.476,0-29.913,13.438-29.913,29.913C51.543,246.139,64.98,259.576,81.456,259.576z"/>
		<radialGradient id="SVGID_39_" cx="81.4561" cy="289.4902" r="29.9131" gradientUnits="userSpaceOnUse">
			<stop  offset="0" style="stop-color:#B2B2B2"/>
			<stop  offset="1" style="stop-color:#666666"/>
		</radialGradient>
		<path fill="url(#SVGID_39_)" d="M81.456,319.403c16.476,0,29.914-13.438,29.914-29.913c0-16.477-13.438-29.914-29.914-29.914
			c-16.476,0-29.913,13.438-29.913,29.914C51.543,305.966,64.98,319.403,81.456,319.403z"/>
		<radialGradient id="SVGID_40_" cx="81.4556" cy="349.3164" r="29.9143" gradientUnits="userSpaceOnUse">
			<stop  offset="0" style="stop-color:#B2B2B2"/>
			<stop  offset="1" style="stop-color:#666666"/>
		</radialGradient>
		<path fill="url(#SVGID_40_)" d="M111.369,349.317c0-16.476-13.438-29.914-29.914-29.914c-11.686,0-21.838,6.765-26.756,16.576
			c13.296,14.284,28.655,26.619,45.607,36.532C107.048,367.019,111.369,358.658,111.369,349.317z"/>
		<radialGradient id="SVGID_41_" cx="21.6294" cy="110.0073" r="29.9138" gradientUnits="userSpaceOnUse">
			<stop  offset="0" style="stop-color:#B2B2B2"/>
			<stop  offset="1" style="stop-color:#666666"/>
		</radialGradient>
		<path fill="url(#SVGID_41_)" d="M51.543,110.008c0-10.646-5.616-20.018-14.031-25.321c-11.375,16.144-20.414,34.047-26.642,53.22
			c3.342,1.295,6.968,2.014,10.759,2.014C38.104,139.921,51.543,126.484,51.543,110.008z"/>
		<radialGradient id="SVGID_42_" cx="21.6289" cy="169.835" r="29.9141" gradientUnits="userSpaceOnUse">
			<stop  offset="0" style="stop-color:#B2B2B2"/>
			<stop  offset="1" style="stop-color:#666666"/>
		</radialGradient>
		<path fill="url(#SVGID_42_)" d="M51.543,169.835c0-16.476-13.438-29.914-29.914-29.914c-4.343,0-8.471,0.942-12.202,2.619
			c-4.672,15.675-7.472,32.155-8.144,49.183c5.345,4.973,12.499,8.025,20.345,8.025C38.104,199.749,51.543,186.311,51.543,169.835z"
			/>
		<radialGradient id="SVGID_43_" cx="21.6289" cy="229.6621" r="29.9141" gradientUnits="userSpaceOnUse">
			<stop  offset="0" style="stop-color:#B2B2B2"/>
			<stop  offset="1" style="stop-color:#666666"/>
		</radialGradient>
		<path fill="url(#SVGID_43_)" d="M51.543,229.662c0-16.476-13.438-29.913-29.914-29.913c-7.847,0-15,3.052-20.345,8.024
			c0.672,17.029,3.472,33.51,8.144,49.185c3.73,1.677,7.858,2.618,12.202,2.618C38.104,259.576,51.543,246.139,51.543,229.662z"/>
		<radialGradient id="SVGID_44_" cx="21.6294" cy="289.4902" r="29.9132" gradientUnits="userSpaceOnUse">
			<stop  offset="0" style="stop-color:#B2B2B2"/>
			<stop  offset="1" style="stop-color:#666666"/>
		</radialGradient>
		<path fill="url(#SVGID_44_)" d="M51.543,289.49c0-16.477-13.438-29.914-29.914-29.914c-3.791,0-7.417,0.719-10.759,2.015
			c6.228,19.173,15.267,37.077,26.642,53.22C45.927,309.507,51.543,300.137,51.543,289.49z"/>
	</g>
	<circle fill="none" stroke="#58595B" stroke-width="3.2721" stroke-miterlimit="10" cx="201.283" cy="199.749" r="200"/>
</g>
</svg>
