selector,english_word,engmeaning,nepali_word,nepmeaning,image
meet,meet,"touch, join",,भेट्नु,
curve,curve,a line which moves away from being straight,वक्र,घुमौरो रेखा,
move away,move away,,,टाढा सार्नु,
made,made,,,बन्नु,
come close,come close,,,नजिक आउनु,
keep,keep,,,राख्नु,
formed,form,,,बन्नु,
identify,identify,know who or what,,ठम्याउनु वा चिन्‍नु,
start,start,begin,,सुरु गर्नु,
figures,figure,,आकृति,,
roof,roof,top of a house,छानो,घरको माथिल्लो भाग,
points,point,a very small dot on a surface,बिन्दु,कुनै सतहमा रहेको एक्दम सानो गोलाकार चिह्‍न,
