<?xml version="1.0" encoding="utf-8"?>
<!-- Generator: Adobe Illustrator 15.0.0, SVG Export Plug-In . SVG Version: 6.00 Build 0)  -->
<!DOCTYPE svg PUBLIC "-//W3C//DTD SVG 1.1//EN" "http://www.w3.org/Graphics/SVG/1.1/DTD/svg11.dtd">
<svg version="1.1" id="Layer_1" xmlns="http://www.w3.org/2000/svg" xmlns:xlink="http://www.w3.org/1999/xlink" x="0px" y="0px"
	 width="960.18px" height="580.18px" viewBox="0 0 960.18 580.18" enable-background="new 0 0 960.18 580.18" xml:space="preserve">
<!-- <ellipse fill="#69B32E" cx="440.9" cy="524.617" rx="182.068" ry="28.574"/> -->
<path id="fulcrum" fill="#FCC02C" d="M385.223,521.267c0,0,49.467-96.436,55.677-96.436s55.678,96.436,55.678,96.436H385.223z"/>

<!-- plank -->
<g id="plank">
	<polyline fill="#EECDE3" points="846.91,380.801 35.428,380.801 25.9,417.418 855.899,417.418 	"/>
	<polyline fill="#D88CBB" points="855.899,417.418 25.9,417.418 25.9,425.379 855.899,425.379 	"/>
	<!-- <animateTransform attributeName="transform"
	  attributeType="XML"
	  type="translate"
	  from="0 0"
	  to="0 70"
	  dur="10s"
	  begin="bookshow.end"
	  repeatCount="indefinite"/> -->

</g>

<!-- effort arrow -->
<polygon opacity="0" fill="#69B32E" points="151.458,317.631 151.458,212.819 122.222,212.819 122.222,317.631 101.014,317.631 136.84,379.684 
	172.667,317.631 "/>
<!-- <text transform="matrix(1 0 0 1 57.335 263.626)" fill="#010202" font-family="'MyriadPro-Regular'" font-size="24">Force</text> -->
<!-- <text transform="matrix(1 0 0 1 316.8159 467.4863)" fill="#010202" font-family="'MyriadPro-Regular'" font-size="24">Fulcrum</text> -->

<!-- book -->
<g opacity="0">
	<polygon fill-rule="evenodd" clip-rule="evenodd" fill="#F7F2E7" points="775.004,411.925 880.963,364.778 880.916,340.161 
		775.07,388.568 775.004,411.925 	"/>
	<polygon fill-rule="evenodd" clip-rule="evenodd" fill="#D7CEBA" points="775.057,394.229 844.732,363.602 847.627,362.328 
		880.93,347.657 880.92,342.073 775.074,388.227 775.057,394.229 	"/>
	<polygon fill-rule="evenodd" clip-rule="evenodd" fill="#F9CD6C" points="776.336,415.606 892.15,363.639 880.957,361.453 
		880.963,364.778 775.332,411.778 776.336,415.606 	"/>
	<polygon fill-rule="evenodd" clip-rule="evenodd" fill="#FCC02C" points="618.137,333.033 717.596,300.908 892.443,335.052 
		777.256,385.388 618.137,333.033 	"/>
	<polygon fill-rule="evenodd" clip-rule="evenodd" fill="#D37112" points="618.395,332.944 612.254,335.059 776.684,385.606 
		782.369,383.152 618.395,332.944 	"/>
	<path fill-rule="evenodd" clip-rule="evenodd" fill="#F9CD6C" d="M612.256,335.059c-2.885,0.809-3.41,2.403-3.41,4.247v17.793
		c0,1.886,0.268,4.258,2.064,4.847l165.695,54.41c-1.156-1.067-1.432-2.315-1.602-3.931l0.066-23.856
		c0.004-1.104-0.004-2.518,1.613-2.962L612.256,335.059L612.256,335.059z"/>
	<polygon fill="#FFCC04" points="613.07,334.779 777.279,385.394 775.977,385.92 611.537,335.296 613.07,334.779 	"/>
	
		<path fill-rule="evenodd" clip-rule="evenodd" fill="#9C1915" stroke="#9C1915" stroke-width="0.2839" stroke-miterlimit="2.4142" d="
		M892.443,335.052l-0.072,2.029l-113.736,49.57c-1.797,0.784-2.123,1.566-2.201,3.123l0.006,23.951c0,1.208,0.582,1.503,1.324,1.181
		l114.387-51.268v1.768l-113.596,50.532c-2.707,1.203-3.561-0.241-3.551-3.514l0.066-23.856c0.004-1.104-0.008-2.518,1.613-2.962
		l0.533-0.23l0.039,0.012l4.992-2.184l0.121-0.052l0,0L892.443,335.052L892.443,335.052z"/>
</g>
</svg>
