<?xml version="1.0" encoding="utf-8"?>
<!-- Generator: Adobe Illustrator 15.0.0, SVG Export Plug-In . SVG Version: 6.00 Build 0)  -->
<!DOCTYPE svg PUBLIC "-//W3C//DTD SVG 1.1//EN" "http://www.w3.org/Graphics/SVG/1.1/DTD/svg11.dtd">
<svg version="1.1" id="metal" xmlns="http://www.w3.org/2000/svg" xmlns:xlink="http://www.w3.org/1999/xlink" x="0px" y="0px"
	 width="982px" height="581px" viewBox="0 0 982 581" enable-background="new 0 0 982 581" xml:space="preserve">

<g><!--metal starts-->
	 
<g class="metal">
	<rect x="87.035" y="129.447" fill="#DADFA1" width="50.191" height="50.179"/>
	<text transform="matrix(1.0003 0 0 1 97.9824 163.8955)" fill="#231F20" font-family="'Calibri-Bold'" font-size="26.5879">Be</text>
	<text transform="matrix(1.0003 0 0 1 99.3574 174.3965)" fill="#231F20" font-family="'Calibri-Bold'" font-size="6.3864">Beryl­lium</text>
	<g>
		<g>
			<text transform="matrix(1.0003 0 0 1 108.4316 141.3574)" fill="#231F20" font-family="'Calibri-Bold'" font-size="14.5974">4</text>
		</g>
	</g>
</g>


<g class="metal">
	<rect x="87.035" y="181.449" fill="#DADFA1" width="50.191" height="50.182"/>
	<text transform="matrix(1.0003 0 0 1 94.2031 215.8984)" fill="#231F20" font-family="'Calibri-Bold'" font-size="26.5879">Mg</text>
	<text transform="matrix(1.0003 0 0 1 96.4941 226.4004)" fill="#231F20" font-family="'Calibri-Bold'" font-size="6.3864">Magne­sium</text>
	<g>
		<g>
			<text transform="matrix(1.0003 0 0 1 104.7314 193.3604)" fill="#231F20" font-family="'Calibri-Bold'" font-size="14.5974">12</text>
		</g>
	</g>
</g>
<g class="metal">
	<g>
		<rect x="659.214" y="181.449" fill="#DADFA1" width="50.192" height="50.182"/>
		<text transform="matrix(1.0003 0 0 1 672.9873 216.9209)" fill="#231F20" font-family="'Calibri-Bold'" font-size="26.5879">Al</text>
		<text transform="matrix(1.0003 0 0 1 669.623 227.4238)" fill="#231F20" font-family="'Calibri-Bold'" font-size="6.3864">Alumin­ium</text>
	</g>
	<g>
		<g>
			<text transform="matrix(1.0003 0 0 1 676.9111 193.3604)" fill="#231F20" font-family="'Calibri-Bold'" font-size="14.5974">13</text>
		</g>
	</g>
</g>



<g class="metal">
	<rect x="87.035" y="233.454" fill="#DADFA1" width="50.191" height="50.181"/>
	<text transform="matrix(1.0003 0 0 1 98.5273 267.9014)" fill="#231F20" font-family="'Calibri-Bold'" font-size="26.5879">Ca</text>
	<text transform="matrix(1.0003 0 0 1 101.585 278.4043)" fill="#231F20" font-family="'Calibri-Bold'" font-size="6.3864">Cal­cium</text>
	<g>
		<g>
			<text transform="matrix(1.0003 0 0 1 104.7314 245.3643)" fill="#231F20" font-family="'Calibri-Bold'" font-size="14.5974">20</text>
		</g>
	</g>
</g>
<g class="metal">
	<g>
		<rect x="139.052" y="233.454" fill="#DADFA1" width="50.192" height="50.181"/>
		<text transform="matrix(1.0003 0 0 1 152.2949 267.9014)" fill="#231F20" font-family="'Calibri-Bold'" font-size="26.5879">Sc</text>
		<text transform="matrix(1.0003 0 0 1 151.1377 278.4043)" fill="#231F20" font-family="'Calibri-Bold'" font-size="6.3864">Scan­dium</text>
	</g>
	<g>
		<g>
			<text transform="matrix(1.0003 0 0 1 156.748 245.3643)" fill="#231F20" font-family="'Calibri-Bold'" font-size="14.5974">21</text>
		</g>
	</g>
</g>
<g class="metal">
	<g>
		<rect x="191.068" y="233.454" fill="#DADFA1" width="50.19" height="50.181"/>
		<text transform="matrix(1.0003 0 0 1 206.3135 267.9014)" fill="#231F20" font-family="'Calibri-Bold'" font-size="26.5879">Ti</text>
		<text transform="matrix(1.0003 0 0 1 204.2432 278.4043)" fill="#231F20" font-family="'Calibri-Bold'" font-size="6.3864">Tita­nium</text>
	</g>
	<g>
		<g>
			<text transform="matrix(1.0003 0 0 1 208.7646 245.3643)" fill="#231F20" font-family="'Calibri-Bold'" font-size="14.5974">22</text>
		</g>
	</g>
</g>
<g class="metal">
	<g>
		<rect x="243.085" y="233.454" fill="#DADFA1" width="50.19" height="50.181"/>
		<text transform="matrix(1.0003 0 0 1 260.3145 267.9014)" fill="#231F20" font-family="'Calibri-Bold'" font-size="26.5879">V</text>
		<text transform="matrix(1.0003 0 0 1 254.5527 278.4043)" fill="#231F20" font-family="'Calibri-Bold'" font-size="6.3864">Vana­dium</text>
	</g>
	<g>
		<g>
			<text transform="matrix(1.0003 0 0 1 260.7803 245.3643)" fill="#231F20" font-family="'Calibri-Bold'" font-size="14.5974">23</text>
		</g>
	</g>
</g>
<g class="metal">
	<g>
		<rect x="295.102" y="233.454" fill="#DADFA1" width="50.19" height="50.181"/>
		<text transform="matrix(1.0003 0 0 1 308.4297 267.9014)" fill="#231F20" font-family="'Calibri-Bold'" font-size="26.5879">Cr</text>
		<text transform="matrix(1.0003 0 0 1 306.1846 278.4043)" fill="#231F20" font-family="'Calibri-Bold'" font-size="6.3864">Chrom­ium</text>
	</g>
	<g>
		<g>
			<text transform="matrix(1.0003 0 0 1 312.7969 245.3643)" fill="#231F20" font-family="'Calibri-Bold'" font-size="14.5974">24</text>
		</g>
	</g>
</g>
<g class="metal">
	<g>
		<rect x="347.117" y="233.454" fill="#DADFA1" width="50.194" height="50.181"/>
		<text transform="matrix(1.0003 0 0 1 353.4541 267.9014)" fill="#231F20" font-family="'Calibri-Bold'" font-size="26.5879">Mn</text>
		<text transform="matrix(1.0003 0 0 1 356.7744 278.4043)" fill="#231F20" font-family="'Calibri-Bold'" font-size="6.3864">Manga­nese</text>
	</g>
	<g>
		<g>
			<text transform="matrix(1.0003 0 0 1 364.8125 245.3643)" fill="#231F20" font-family="'Calibri-Bold'" font-size="14.5974">25</text>
		</g>
	</g>
</g>
<g class="metal">
	<g>
		<rect x="399.134" y="233.454" fill="#DADFA1" width="50.191" height="50.181"/>
		<text transform="matrix(1.0003 0 0 1 411.4297 267.9014)" fill="#231F20" font-family="'Calibri-Bold'" font-size="26.5879">Fe</text>
		<text transform="matrix(1.0003 0 0 1 418.75 278.4043)" fill="#231F20" font-family="'Calibri-Bold'" font-size="6.3864">Iron</text>
	</g>
	<g>
		<g>
			<text transform="matrix(1.0003 0 0 1 416.8301 245.3643)" fill="#231F20" font-family="'Calibri-Bold'" font-size="14.5974">26</text>
		</g>
	</g>
</g>
<g class="metal">
	<g>
		<rect x="451.15" y="233.454" fill="#DADFA1" width="50.191" height="50.181"/>
		<text transform="matrix(1.0003 0 0 1 462.0566 267.9014)" fill="#231F20" font-family="'Calibri-Bold'" font-size="26.5879">Co</text>
		<text transform="matrix(1.0003 0 0 1 467.5947 278.4043)" fill="#231F20" font-family="'Calibri-Bold'" font-size="6.3864">Cobalt</text>
	</g>
	<g>
		<g>
			<text transform="matrix(1.0003 0 0 1 468.8447 245.3643)" fill="#231F20" font-family="'Calibri-Bold'" font-size="14.5974">27</text>
		</g>
	</g>
</g>
<g class="metal">
	<g>
		<rect x="503.167" y="233.454" fill="#DADFA1" width="50.189" height="50.181"/>
		<text transform="matrix(1.0003 0 0 1 516.2354 267.9014)" fill="#231F20" font-family="'Calibri-Bold'" font-size="26.5879">Ni</text>
		<text transform="matrix(1.0003 0 0 1 520.0518 278.4043)" fill="#231F20" font-family="'Calibri-Bold'" font-size="6.3864">Nickel</text>
	</g>
	<g>
		<g>
			<text transform="matrix(1.0003 0 0 1 520.8613 245.3643)" fill="#231F20" font-family="'Calibri-Bold'" font-size="14.5974">28</text>
		</g>
	</g>
</g>
<g class="metal">
	<g>
		<rect x="555.184" y="233.454" fill="#DADFA1" width="50.193" height="50.181"/>
		<text transform="matrix(1.0003 0 0 1 566.1025 267.9014)" fill="#231F20" font-family="'Calibri-Bold'" font-size="26.5879">Cu</text>
		<text transform="matrix(1.0003 0 0 1 570.6377 278.4043)" fill="#231F20" font-family="'Calibri-Bold'" font-size="6.3864">Copper</text>
	</g>
	<g>
		<g>
			<text transform="matrix(1.0003 0 0 1 572.8779 245.3643)" fill="#231F20" font-family="'Calibri-Bold'" font-size="14.5974">29</text>
		</g>
	</g>
</g>
<g class="metal">
	<g>
		<rect x="607.199" y="233.454" fill="#DADFA1" width="50.191" height="50.181"/>
		<text transform="matrix(1.0003 0 0 1 618.8018 267.9014)" fill="#231F20" font-family="'Calibri-Bold'" font-size="26.5879">Zn</text>
		<text transform="matrix(1.0003 0 0 1 626.873 278.4043)" fill="#231F20" font-family="'Calibri-Bold'" font-size="6.3864">Zinc</text>
	</g>
	<g>
		<g>
			<text transform="matrix(1.0003 0 0 1 624.8945 245.3643)" fill="#231F20" font-family="'Calibri-Bold'" font-size="14.5974">30</text>
		</g>
	</g>
</g>
<g class="metal">
	<g>
		<rect x="659.214" y="233.454" fill="#DADFA1" width="50.192" height="50.181"/>
		<text transform="matrix(1.0003 0 0 1 669.2725 268.9238)" fill="#231F20" font-family="'Calibri-Bold'" font-size="26.5879">Ga</text>
		<text transform="matrix(1.0003 0 0 1 673.9736 279.4268)" fill="#231F20" font-family="'Calibri-Bold'" font-size="6.3864">Gallium</text>
	</g>
	<g>
		<g>
			<text transform="matrix(1.0003 0 0 1 676.9111 245.3643)" fill="#231F20" font-family="'Calibri-Bold'" font-size="14.5974">31</text>
		</g>
	</g>
</g>





<g class="metal">
	<rect x="87.035" y="285.457" fill="#DADFA1" width="50.191" height="50.179"/>
	<text transform="matrix(1.0003 0 0 1 101.1172 319.9043)" fill="#231F20" font-family="'Calibri-Bold'" font-size="26.5879">Sr</text>
	<text transform="matrix(1.0003 0 0 1 98.7051 330.4082)" fill="#231F20" font-family="'Calibri-Bold'" font-size="6.3864">Stront­ium</text>
	<g>
		<g>
			<text transform="matrix(1.0003 0 0 1 104.7314 297.3691)" fill="#231F20" font-family="'Calibri-Bold'" font-size="14.5974">38</text>
		</g>
	</g>
</g>
<g class="metal">
	<g>
		<rect x="139.052" y="285.457" fill="#DADFA1" width="50.192" height="50.179"/>
		<text transform="matrix(1.0003 0 0 1 157.2373 319.9043)" fill="#231F20" font-family="'Calibri-Bold'" font-size="26.5879">Y</text>
		<text transform="matrix(1.0003 0 0 1 154.0986 330.4082)" fill="#231F20" font-family="'Calibri-Bold'" font-size="6.3864">Yttrium</text>
	</g>
	<g>
		<g>
			<text transform="matrix(1.0003 0 0 1 156.748 297.3691)" fill="#231F20" font-family="'Calibri-Bold'" font-size="14.5974">39</text>
		</g>
	</g>
</g>
<g class="metal">
	<g>
		<rect x="191.068" y="285.457" fill="#DADFA1" width="50.19" height="50.179"/>
		<text transform="matrix(1.0003 0 0 1 205.0801 319.9043)" fill="#231F20" font-family="'Calibri-Bold'" font-size="26.5879">Zr</text>
		<text transform="matrix(1.0003 0 0 1 202.793 330.4082)" fill="#231F20" font-family="'Calibri-Bold'" font-size="6.3864">Zirco­nium</text>
	</g>
	<g>
		<g>
			<text transform="matrix(1.0003 0 0 1 208.7646 297.3691)" fill="#231F20" font-family="'Calibri-Bold'" font-size="14.5974">40</text>
		</g>
	</g>
</g>
<g class="metal">
	<g>
		<rect x="243.085" y="285.457" fill="#DADFA1" width="50.19" height="50.179"/>
		<text transform="matrix(1.0003 0 0 1 252.2822 319.9043)" fill="#231F20" font-family="'Calibri-Bold'" font-size="26.5879">Nb</text>
		<text transform="matrix(1.0003 0 0 1 256.7041 330.4082)" fill="#231F20" font-family="'Calibri-Bold'" font-size="6.3864">Nio­bium</text>
	</g>
	<g>
		<g>
			<text transform="matrix(1.0003 0 0 1 260.7803 297.3691)" fill="#231F20" font-family="'Calibri-Bold'" font-size="14.5974">41</text>
		</g>
	</g>
</g>
<g class="metal">
	<g>
		<rect x="295.102" y="285.457" fill="#DADFA1" width="50.19" height="50.179"/>
		<text transform="matrix(1.0003 0 0 1 301.4238 319.9043)" fill="#231F20" font-family="'Calibri-Bold'" font-size="26.5879">Mo</text>
		<text transform="matrix(1.0003 0 0 1 302.2686 330.4082)" fill="#231F20" font-family="'Calibri-Bold'" font-size="6.3864">Molyb­denum</text>
	</g>
	<g>
		<g>
			<text transform="matrix(1.0003 0 0 1 312.7969 297.3691)" fill="#231F20" font-family="'Calibri-Bold'" font-size="14.5974">42</text>
		</g>
	</g>
</g>
<g class="metal">
	<g>
		<rect x="347.117" y="285.457" fill="#DADFA1" width="50.194" height="50.179"/>
		<text transform="matrix(1.0003 0 0 1 360.0645 319.9043)" fill="#231F20" font-family="'Calibri-Bold'" font-size="26.5879">Tc</text>
		<text transform="matrix(1.0003 0 0 1 356.4082 330.4082)" fill="#231F20" font-family="'Calibri-Bold'" font-size="6.3864">Tech­netium</text>
	</g>
	<g>
		<g>
			<text transform="matrix(1.0003 0 0 1 364.8125 297.3691)" fill="#231F20" font-family="'Calibri-Bold'" font-size="14.5974">43</text>
		</g>
	</g>
</g>
<g class="metal">
	<g>
		<rect x="399.134" y="285.457" fill="#DADFA1" width="50.191" height="50.179"/>
		<text transform="matrix(1.0003 0 0 1 409.6055 319.9043)" fill="#231F20" font-family="'Calibri-Bold'" font-size="26.5879">Ru</text>
		<text transform="matrix(1.0003 0 0 1 409.418 330.4082)" fill="#231F20" font-family="'Calibri-Bold'" font-size="6.3864">Ruthe­nium</text>
	</g>
	<g>
		<g>
			<text transform="matrix(1.0003 0 0 1 416.8301 297.3691)" fill="#231F20" font-family="'Calibri-Bold'" font-size="14.5974">44</text>
		</g>
	</g>
</g>
<g class="metal">
	<g>
		<rect x="451.15" y="285.457" fill="#DADFA1" width="50.191" height="50.179"/>
		<text transform="matrix(1.0003 0 0 1 461.6211 319.9043)" fill="#231F20" font-family="'Calibri-Bold'" font-size="26.5879">Rh</text>
		<text transform="matrix(1.0003 0 0 1 464.1455 330.4082)" fill="#231F20" font-family="'Calibri-Bold'" font-size="6.3864">Rho­dium</text>
	</g>
	<g>
		<g>
			<text transform="matrix(1.0003 0 0 1 468.8447 297.3691)" fill="#231F20" font-family="'Calibri-Bold'" font-size="14.5974">45</text>
		</g>
	</g>
</g>
<g class="metal">
	<g>
		<rect x="503.167" y="285.457" fill="#DADFA1" width="50.189" height="50.179"/>
		<text transform="matrix(1.0003 0 0 1 514.0469 319.9043)" fill="#231F20" font-family="'Calibri-Bold'" font-size="26.5879">Pd</text>
		<text transform="matrix(1.0003 0 0 1 514.9688 330.4082)" fill="#231F20" font-family="'Calibri-Bold'" font-size="6.3864">Pallad­ium</text>
	</g>
	<g>
		<g>
			<text transform="matrix(1.0003 0 0 1 520.8613 297.3691)" fill="#231F20" font-family="'Calibri-Bold'" font-size="14.5974">46</text>
		</g>
	</g>
</g>
<g class="metal">
	<g>
		<rect x="555.184" y="285.457" fill="#DADFA1" width="50.193" height="50.179"/>
		<text transform="matrix(1.0003 0 0 1 565.915 319.9043)" fill="#231F20" font-family="'Calibri-Bold'" font-size="26.5879">Ag</text>
		<text transform="matrix(1.0003 0 0 1 572.8857 330.4082)" fill="#231F20" font-family="'Calibri-Bold'" font-size="6.3864">Silver</text>
	</g>
	<g>
		<g>
			<text transform="matrix(1.0003 0 0 1 572.8779 297.3691)" fill="#231F20" font-family="'Calibri-Bold'" font-size="14.5974">47</text>
		</g>
	</g>
</g>
<g class="metal">
	<g>
		<rect x="607.199" y="285.457" fill="#DADFA1" width="50.191" height="50.179"/>
		<text transform="matrix(1.0003 0 0 1 618.1201 319.9043)" fill="#231F20" font-family="'Calibri-Bold'" font-size="26.5879">Cd</text>
		<text transform="matrix(1.0003 0 0 1 619.5596 330.4082)" fill="#231F20" font-family="'Calibri-Bold'" font-size="6.3864">Cad­mium</text>
	</g>
	<g>
		<g>
			<text transform="matrix(1.0003 0 0 1 624.8945 297.3691)" fill="#231F20" font-family="'Calibri-Bold'" font-size="14.5974">48</text>
		</g>
	</g>
</g>
<g class="metal">
	<g>
		<rect x="659.214" y="285.457" fill="#DADFA1" width="50.192" height="50.179"/>
		<text transform="matrix(1.0003 0 0 1 673.6299 320.9268)" fill="#231F20" font-family="'Calibri-Bold'" font-size="26.5879">In</text>
		<text transform="matrix(1.0003 0 0 1 674.874 331.4307)" fill="#231F20" font-family="'Calibri-Bold'" font-size="6.3864">Indium</text>
	</g>
	<g>
		<g>
			<text transform="matrix(1.0003 0 0 1 676.9111 297.3691)" fill="#231F20" font-family="'Calibri-Bold'" font-size="14.5974">49</text>
		</g>
	</g>
</g>
<g class="metal">
	<g>
		<rect x="711.233" y="285.457" fill="#DADFA1" width="50.189" height="50.179"/>
		<text transform="matrix(1.0003 0 0 1 722.9053 320.9268)" fill="#231F20" font-family="'Calibri-Bold'" font-size="26.5879">Sn</text>
		<text transform="matrix(1.0003 0 0 1 732.1875 331.4307)" fill="#231F20" font-family="'Calibri-Bold'" font-size="6.3864">Tin</text>
	</g>
	<g>
		<g>
			<text transform="matrix(1.0003 0 0 1 728.9287 297.3691)" fill="#231F20" font-family="'Calibri-Bold'" font-size="14.5974">50</text>
		</g>
	</g>
</g>




<g class="metal">
	<rect x="87.035" y="337.461" fill="#DADFA1" width="50.191" height="50.178"/>
	<text transform="matrix(1.0003 0 0 1 98.1123 371.7178)" fill="#231F20" font-family="'Calibri-Bold'" font-size="26.5879">Ba</text>
	<text transform="matrix(1.0003 0 0 1 102.4707 382.4111)" fill="#231F20" font-family="'Calibri-Bold'" font-size="6.3864">Barium</text>
	<g>
		<g>
			<text transform="matrix(1.0003 0 0 1 104.7314 349.3721)" fill="#231F20" font-family="'Calibri-Bold'" font-size="14.5974">56</text>
		</g>
	</g>
</g>
<g class="metal">
	<g>
		<rect x="139.052" y="462.792" fill="#DADFA1" width="50.192" height="50.18"/>
		<text transform="matrix(1.0003 0 0 1 151.959 498.2617)" fill="#231F20" font-family="'Calibri-Bold'" font-size="26.5879">La</text>
		<text transform="matrix(1.0003 0 0 1 149.0205 508.7656)" fill="#231F20" font-family="'Calibri-Bold'" font-size="6.3864">Lan­thanum</text>
	</g>
	<g>
		<g>
			<text transform="matrix(1.0003 0 0 1 156.748 474.7041)" fill="#231F20" font-family="'Calibri-Bold'" font-size="14.5974">57</text>
		</g>
	</g>
</g>
<g class="metal">
	<g>
		<rect x="139.052" y="337.461" fill="#DADFA1" width="50.192" height="50.178"/>
		<text transform="matrix(1.0003 0 0 1 147.4375 354.0723)" fill="#231F20" font-family="'Calibri-Bold'" font-size="14.3166">57-71</text>
	</g>
	<text transform="matrix(1.0003 0 0 1 149.3662 370.4941)" fill="#231F20" font-family="'Calibri-Bold'" font-size="10.9481">La-Lu</text>
	<text transform="matrix(1.0003 0 0 1 140.5986 381.1777)" fill="#231F20" font-family="'Calibri-Bold'" font-size="8.9028">Lanthanide</text>
</g>
<g class="metal">
	<g>
		<rect x="191.068" y="462.792" fill="#DADFA1" width="50.19" height="50.18"/>
		<text transform="matrix(1.0003 0 0 1 202.4307 498.2617)" fill="#231F20" font-family="'Calibri-Bold'" font-size="26.5879">Ce</text>
		<text transform="matrix(1.0003 0 0 1 206.5723 508.7656)" fill="#231F20" font-family="'Calibri-Bold'" font-size="6.3864">Cerium</text>
	</g>
	<g>
		<g>
			<text transform="matrix(1.0003 0 0 1 208.7646 474.7041)" fill="#231F20" font-family="'Calibri-Bold'" font-size="14.5974">58</text>
		</g>
	</g>
</g>
<g class="metal">
	<g>
		<rect x="243.085" y="462.792" fill="#DADFA1" width="50.19" height="50.18"/>
		<text transform="matrix(1.0003 0 0 1 256.374 498.2617)" fill="#231F20" font-family="'Calibri-Bold'" font-size="26.5879">Pr</text>
		<text transform="matrix(1.0003 0 0 1 248.1865 508.7656)" fill="#231F20" font-family="'Calibri-Bold'" font-size="6.3864">Praseo­dymium</text>
	</g>
	<g>
		<g>
			<text transform="matrix(1.0003 0 0 1 260.7803 474.7041)" fill="#231F20" font-family="'Calibri-Bold'" font-size="14.5974">59</text>
		</g>
	</g>
</g>
<g class="metal">
	<g>
		<rect x="295.102" y="462.792" fill="#DADFA1" width="50.19" height="50.18"/>
		<text transform="matrix(1.0003 0 0 1 304.2998 498.2617)" fill="#231F20" font-family="'Calibri-Bold'" font-size="26.5879">Nd</text>
		<text transform="matrix(1.0003 0 0 1 303.7852 508.7656)" fill="#231F20" font-family="'Calibri-Bold'" font-size="6.3864">Neo­dymium</text>
	</g>
	<g>
		<g>
			<text transform="matrix(1.0003 0 0 1 312.7969 474.7041)" fill="#231F20" font-family="'Calibri-Bold'" font-size="14.5974">60</text>
		</g>
	</g>
</g>
<g class="metal">
	<g>
		<rect x="347.117" y="462.792" fill="#DADFA1" width="50.194" height="50.18"/>
		<text transform="matrix(1.0003 0 0 1 354.3174 498.2617)" fill="#231F20" font-family="'Calibri-Bold'" font-size="26.5879">Pm</text>
		<text transform="matrix(1.0003 0 0 1 355.4766 508.7656)" fill="#231F20" font-family="'Calibri-Bold'" font-size="6.3864">Prome­thium</text>
	</g>
	<g>
		<g>
			<text transform="matrix(1.0003 0 0 1 364.8125 474.7041)" fill="#231F20" font-family="'Calibri-Bold'" font-size="14.5974">61</text>
		</g>
	</g>
</g>
<g class="metal">
	<g>
		<rect x="399.134" y="462.792" fill="#DADFA1" width="50.191" height="50.18"/>
		<text transform="matrix(1.0003 0 0 1 407.125 498.2617)" fill="#231F20" font-family="'Calibri-Bold'" font-size="26.5879">Sm</text>
		<text transform="matrix(1.0003 0 0 1 410.6758 508.7656)" fill="#231F20" font-family="'Calibri-Bold'" font-size="6.3864">Sama­rium</text>
	</g>
	<g>
		<g>
			<text transform="matrix(1.0003 0 0 1 416.8301 474.7041)" fill="#231F20" font-family="'Calibri-Bold'" font-size="14.5974">62</text>
		</g>
	</g>
</g>
<g class="metal">
	<g>
		<rect x="451.15" y="462.792" fill="#DADFA1" width="50.191" height="50.18"/>
		<text transform="matrix(1.0003 0 0 1 462.6211 498.2617)" fill="#231F20" font-family="'Calibri-Bold'" font-size="26.5879">Eu</text>
		<text transform="matrix(1.0003 0 0 1 463.25 508.7656)" fill="#231F20" font-family="'Calibri-Bold'" font-size="6.3864">Europ­ium</text>
	</g>
	<g>
		<g>
			<text transform="matrix(1.0003 0 0 1 468.8457 474.7041)" fill="#231F20" font-family="'Calibri-Bold'" font-size="14.5974">63</text>
		</g>
	</g>
</g>
<g class="metal">
	<g>
		<rect x="503.167" y="462.792" fill="#DADFA1" width="50.189" height="50.18"/>
		<text transform="matrix(1.0003 0 0 1 512.6504 498.2617)" fill="#231F20" font-family="'Calibri-Bold'" font-size="26.5879">Gd</text>
		<text transform="matrix(1.0003 0 0 1 512.7793 508.7656)" fill="#231F20" font-family="'Calibri-Bold'" font-size="6.3864">Gadolin­ium</text>
	</g>
	<g>
		<g>
			<text transform="matrix(1.0003 0 0 1 520.8613 474.7041)" fill="#231F20" font-family="'Calibri-Bold'" font-size="14.5974">64</text>
		</g>
	</g>
</g>
<g class="metal">
	<g>
		<rect x="555.184" y="462.792" fill="#DADFA1" width="50.193" height="50.18"/>
		<text transform="matrix(1.0003 0 0 1 566.5576 498.2617)" fill="#231F20" font-family="'Calibri-Bold'" font-size="26.5879">Tb</text>
		<text transform="matrix(1.0003 0 0 1 569.082 508.7656)" fill="#231F20" font-family="'Calibri-Bold'" font-size="6.3864">Ter­bium</text>
	</g>
	<g>
		<g>
			<text transform="matrix(1.0003 0 0 1 572.8789 474.7041)" fill="#231F20" font-family="'Calibri-Bold'" font-size="14.5974">65</text>
		</g>
	</g>
</g>
<g class="metal">
	<g>
		<rect x="607.199" y="462.792" fill="#DADFA1" width="50.191" height="50.18"/>
		<text transform="matrix(1.0003 0 0 1 617.6143 498.2617)" fill="#231F20" font-family="'Calibri-Bold'" font-size="26.5879">Dy</text>
		<text transform="matrix(1.0003 0 0 1 616.4971 508.7656)" fill="#231F20" font-family="'Calibri-Bold'" font-size="6.3864">Dyspro­sium</text>
	</g>
	<g>
		<g>
			<text transform="matrix(1.0003 0 0 1 624.8936 474.7041)" fill="#231F20" font-family="'Calibri-Bold'" font-size="14.5974">66</text>
		</g>
	</g>
</g>
<g class="metal">
	<g>
		<rect x="659.214" y="462.792" fill="#DADFA1" width="50.192" height="50.18"/>
		<text transform="matrix(1.0003 0 0 1 668.7725 498.2617)" fill="#231F20" font-family="'Calibri-Bold'" font-size="26.5879">Ho</text>
		<text transform="matrix(1.0003 0 0 1 672.0391 508.7656)" fill="#231F20" font-family="'Calibri-Bold'" font-size="6.3864">Hol­mium</text>
	</g>
	<g>
		<g>
			<text transform="matrix(1.0003 0 0 1 676.9111 474.7041)" fill="#231F20" font-family="'Calibri-Bold'" font-size="14.5974">67</text>
		</g>
	</g>
</g>
<g class="metal">
	<g>
		<rect x="711.233" y="462.792" fill="#DADFA1" width="50.189" height="50.18"/>
		<text transform="matrix(1.0003 0 0 1 725.1143 498.2617)" fill="#231F20" font-family="'Calibri-Bold'" font-size="26.5879">Er</text>
		<text transform="matrix(1.0003 0 0 1 726.7637 508.7656)" fill="#231F20" font-family="'Calibri-Bold'" font-size="6.3864">Erbium</text>
	</g>
	<g>
		<g>
			<text transform="matrix(1.0003 0 0 1 728.9268 474.7041)" fill="#231F20" font-family="'Calibri-Bold'" font-size="14.5974">68</text>
		</g>
	</g>
</g>
<g class="metal">
	<g>
		<rect x="763.248" y="462.792" fill="#DADFA1" width="50.194" height="50.18"/>
		<text transform="matrix(1.0003 0 0 1 770.9414 498.2617)" fill="#231F20" font-family="'Calibri-Bold'" font-size="26.5879">Tm</text>
		<text transform="matrix(1.0003 0 0 1 777.3926 508.7656)" fill="#231F20" font-family="'Calibri-Bold'" font-size="6.3864">Thulium</text>
	</g>
	<g>
		<g>
			<text transform="matrix(1.0003 0 0 1 780.9443 474.7041)" fill="#231F20" font-family="'Calibri-Bold'" font-size="14.5974">69</text>
		</g>
	</g>
</g>
<g class="metal">
	<g>
		<rect x="815.266" y="462.792" fill="#DADFA1" width="50.19" height="50.18"/>
		<text transform="matrix(1.0003 0 0 1 826.3154 498.2617)" fill="#231F20" font-family="'Calibri-Bold'" font-size="26.5879">Yb</text>
		<text transform="matrix(1.0003 0 0 1 826.9902 508.7656)" fill="#231F20" font-family="'Calibri-Bold'" font-size="6.3864">Ytter­bium</text>
	</g>
	<g>
		<g>
			<text transform="matrix(1.0003 0 0 1 832.96 474.7041)" fill="#231F20" font-family="'Calibri-Bold'" font-size="14.5974">70</text>
		</g>
	</g>
</g>
<g class="metal">
	<g>
		<rect x="867.281" y="462.792" fill="#DADFA1" width="50.191" height="50.18"/>
		<text transform="matrix(1.0003 0 0 1 879.6172 498.2617)" fill="#231F20" font-family="'Calibri-Bold'" font-size="26.5879">Lu</text>
		<text transform="matrix(1.0003 0 0 1 880.3545 508.7656)" fill="#231F20" font-family="'Calibri-Bold'" font-size="6.3864">Lute­tium</text>
	</g>
	<g>
		<g>
			<text transform="matrix(1.0003 0 0 1 884.9775 474.7041)" fill="#231F20" font-family="'Calibri-Bold'" font-size="14.5974">71</text>
		</g>
	</g>
</g>
<g class="metal">
	<g>
		<rect x="191.068" y="337.461" fill="#DADFA1" width="50.19" height="50.178"/>
		<text transform="matrix(1.0003 0 0 1 203.5674 371.9092)" fill="#231F20" font-family="'Calibri-Bold'" font-size="26.5879">Hf</text>
		<text transform="matrix(1.0003 0 0 1 204.6904 382.4111)" fill="#231F20" font-family="'Calibri-Bold'" font-size="6.3864">Haf­nium</text>
	</g>
	<g>
		<g>
			<text transform="matrix(1.0003 0 0 1 208.7646 349.3721)" fill="#231F20" font-family="'Calibri-Bold'" font-size="14.5974">72</text>
		</g>
	</g>
</g>
<g class="metal">
	<g>
		<rect x="243.085" y="337.461" fill="#DADFA1" width="50.19" height="50.178"/>
		<text transform="matrix(1.0003 0 0 1 255.0303 371.9092)" fill="#231F20" font-family="'Calibri-Bold'" font-size="26.5879">Ta</text>
		<text transform="matrix(1.0003 0 0 1 255.4658 382.4111)" fill="#231F20" font-family="'Calibri-Bold'" font-size="6.3864">Tanta­lum</text>
	</g>
	<g>
		<g>
			<text transform="matrix(1.0003 0 0 1 260.7803 349.3721)" fill="#231F20" font-family="'Calibri-Bold'" font-size="14.5974">73</text>
		</g>
	</g>
</g>
<g class="metal">
	<g>
		<rect x="295.102" y="337.461" fill="#DADFA1" width="50.19" height="50.178"/>
		<text transform="matrix(1.0003 0 0 1 308.1445 371.9092)" fill="#231F20" font-family="'Calibri-Bold'" font-size="26.5879">W</text>
		<text transform="matrix(1.0003 0 0 1 307.9092 382.4111)" fill="#231F20" font-family="'Calibri-Bold'" font-size="6.3864">Tung­sten</text>
	</g>
	<g>
		<g>
			<text transform="matrix(1.0003 0 0 1 312.7969 349.3721)" fill="#231F20" font-family="'Calibri-Bold'" font-size="14.5974">74</text>
		</g>
	</g>
</g>
<g class="metal">
	<g>
		<rect x="347.117" y="337.461" fill="#DADFA1" width="50.194" height="50.178"/>
		<text transform="matrix(1.0003 0 0 1 358.0322 371.9092)" fill="#231F20" font-family="'Calibri-Bold'" font-size="26.5879">Re</text>
		<text transform="matrix(1.0003 0 0 1 360.2227 382.4111)" fill="#231F20" font-family="'Calibri-Bold'" font-size="6.3864">Rhe­nium</text>
	</g>
	<g>
		<g>
			<text transform="matrix(1.0003 0 0 1 364.8125 349.3721)" fill="#231F20" font-family="'Calibri-Bold'" font-size="14.5974">75</text>
		</g>
	</g>
</g>
<g class="metal">
	<g>
		<rect x="399.134" y="337.461" fill="#DADFA1" width="50.191" height="50.178"/>
		<text transform="matrix(1.0003 0 0 1 409.9307 371.9092)" fill="#231F20" font-family="'Calibri-Bold'" font-size="26.5879">Os</text>
		<text transform="matrix(1.0003 0 0 1 413.04 382.4111)" fill="#231F20" font-family="'Calibri-Bold'" font-size="6.3864">Os­mium</text>
	</g>
	<g>
		<g>
			<text transform="matrix(1.0003 0 0 1 416.8301 349.3721)" fill="#231F20" font-family="'Calibri-Bold'" font-size="14.5974">76</text>
		</g>
	</g>
</g>
<g class="metal">
	<g>
		<rect x="451.15" y="337.461" fill="#DADFA1" width="50.191" height="50.178"/>
		<text transform="matrix(1.0003 0 0 1 467.9717 371.9092)" fill="#231F20" font-family="'Calibri-Bold'" font-size="26.5879">Ir</text>
		<text transform="matrix(1.0003 0 0 1 466.6035 382.4111)" fill="#231F20" font-family="'Calibri-Bold'" font-size="6.3864">Iridium</text>
	</g>
	<g>
		<g>
			<text transform="matrix(1.0003 0 0 1 468.8447 349.3721)" fill="#231F20" font-family="'Calibri-Bold'" font-size="14.5974">77</text>
		</g>
	</g>
</g>
<g class="metal">
	<g>
		<rect x="503.167" y="337.461" fill="#DADFA1" width="50.189" height="50.178"/>
		<text transform="matrix(1.0003 0 0 1 516.5742 371.9092)" fill="#231F20" font-family="'Calibri-Bold'" font-size="26.5879">Pt</text>
		<text transform="matrix(1.0003 0 0 1 516.2451 382.4111)" fill="#231F20" font-family="'Calibri-Bold'" font-size="6.3864">Plat­inum</text>
	</g>
	<g>
		<g>
			<text transform="matrix(1.0003 0 0 1 520.8613 349.3721)" fill="#231F20" font-family="'Calibri-Bold'" font-size="14.5974">78</text>
		</g>
	</g>
</g>
<g class="metal">
	<g>
		<rect x="555.184" y="337.461" fill="#DADFA1" width="50.193" height="50.178"/>
		<text transform="matrix(1.0003 0 0 1 565.083 371.9092)" fill="#231F20" font-family="'Calibri-Bold'" font-size="26.5879">Au</text>
		<text transform="matrix(1.0003 0 0 1 573.9678 382.4111)" fill="#231F20" font-family="'Calibri-Bold'" font-size="6.3864">Gold</text>
	</g>
	<g>
		<g>
			<text transform="matrix(1.0003 0 0 1 572.8779 349.3721)" fill="#231F20" font-family="'Calibri-Bold'" font-size="14.5974">79</text>
		</g>
	</g>
</g>
<g class="metal">
	<g>
		<rect x="607.199" y="337.461" fill="#DADFA1" width="50.191" height="50.178"/>
		<text transform="matrix(1.0003 0 0 1 617.5986 371.9092)" fill="#231F20" font-family="'Calibri-Bold'" font-size="26.5879">Hg</text>
		<text transform="matrix(1.0003 0 0 1 621.002 382.4111)" fill="#231F20" font-family="'Calibri-Bold'" font-size="6.3864">Mer­cury</text>
	</g>
	<g>
		<g>
			<text transform="matrix(1.0003 0 0 1 624.8945 349.3721)" fill="#231F20" font-family="'Calibri-Bold'" font-size="14.5974">80</text>
		</g>
	</g>
</g>
<g class="metal">
	<g>
		<rect x="659.214" y="337.461" fill="#DADFA1" width="50.192" height="50.178"/>
		<text transform="matrix(1.0003 0 0 1 674.46 372.9316)" fill="#231F20" font-family="'Calibri-Bold'" font-size="26.5879">Tl</text>
		<text transform="matrix(1.0003 0 0 1 672.7129 383.4336)" fill="#231F20" font-family="'Calibri-Bold'" font-size="6.3864">Thallium</text>
	</g>
	<g>
		<g>
			<text transform="matrix(1.0003 0 0 1 676.9111 349.3721)" fill="#231F20" font-family="'Calibri-Bold'" font-size="14.5974">81</text>
		</g>
	</g>
</g>
<g class="metal">
	<g>
		<rect x="711.233" y="337.461" fill="#DADFA1" width="50.189" height="50.178"/>
		<text transform="matrix(1.0003 0 0 1 722.1133 372.9316)" fill="#231F20" font-family="'Calibri-Bold'" font-size="26.5879">Pb</text>
		<text transform="matrix(1.0003 0 0 1 730.0186 383.4336)" fill="#231F20" font-family="'Calibri-Bold'" font-size="6.3864">Lead</text>
	</g>
	<g>
		<g>
			<text transform="matrix(1.0003 0 0 1 728.9287 349.3721)" fill="#231F20" font-family="'Calibri-Bold'" font-size="14.5974">82</text>
		</g>
	</g>
</g>
<g class="metal">
	<g>
		<rect x="763.248" y="337.461" fill="#DADFA1" width="50.194" height="50.178"/>
		<text transform="matrix(1.0003 0 0 1 777.6221 372.9316)" fill="#231F20" font-family="'Calibri-Bold'" font-size="26.5879">Bi</text>
		<text transform="matrix(1.0003 0 0 1 777.3008 383.4336)" fill="#231F20" font-family="'Calibri-Bold'" font-size="6.3864">Bis­muth</text>
	</g>
	<g>
		<g>
			<text transform="matrix(1.0003 0 0 1 780.9443 349.3721)" fill="#231F20" font-family="'Calibri-Bold'" font-size="14.5974">83</text>
		</g>
	</g>
</g>














<g class="metal">
	<g>
		<g>
			<rect x="35.02" y="129.447" fill="#DADFA1" width="50.191" height="50.179"/>
			<text transform="matrix(1.0003 0 0 1 51.2236 163.8955)" fill="#231F20" font-family="'Calibri-Bold'" font-size="26.5879">Li</text>
			<g>
				<g>
					<text transform="matrix(1.0003 0 0 1 56.4141 141.3574)" fill="#231F20" font-family="'Calibri-Bold'" font-size="14.5974">3</text>
				</g>
			</g>
		</g>
		<text transform="matrix(1.0003 0 0 1 50.001 174.3965)" fill="#231F20" font-family="'Calibri-Bold'" font-size="6.3864">Lith­ium</text>
	</g>
	<g>
		<rect x="35.02" y="181.449" fill="#DADFA1" width="50.191" height="50.182"/>
		<text transform="matrix(1.0003 0 0 1 44.79 215.8984)" fill="#231F20" font-family="'Calibri-Bold'" font-size="26.5879">Na</text>
		<text transform="matrix(1.0003 0 0 1 50.0166 226.4004)" fill="#231F20" font-family="'Calibri-Bold'" font-size="6.3864">So­dium</text>
		<g>
			<g>
				<text transform="matrix(1.0003 0 0 1 52.7129 193.3604)" fill="#231F20" font-family="'Calibri-Bold'" font-size="14.5974">11</text>
			</g>
		</g>
	</g>
	<g>
		<rect x="35.02" y="233.454" fill="#DADFA1" width="50.191" height="50.181"/>
		<text transform="matrix(1.0003 0 0 1 52.8408 267.9014)" fill="#231F20" font-family="'Calibri-Bold'" font-size="26.5879">K</text>
		<text transform="matrix(1.0003 0 0 1 46.3086 278.4043)" fill="#231F20" font-family="'Calibri-Bold'" font-size="6.3864">Potas­sium</text>
		<g>
			<g>
				<text transform="matrix(1.0003 0 0 1 52.7129 245.3643)" fill="#231F20" font-family="'Calibri-Bold'" font-size="14.5974">19</text>
			</g>
		</g>
	</g>
	<g>
		<rect x="35.02" y="285.457" fill="#DADFA1" width="50.191" height="50.179"/>
		<text transform="matrix(1.0003 0 0 1 45.4912 319.9043)" fill="#231F20" font-family="'Calibri-Bold'" font-size="26.5879">Rb</text>
		<text transform="matrix(1.0003 0 0 1 47.2314 330.4082)" fill="#231F20" font-family="'Calibri-Bold'" font-size="6.3864">Rubid­ium</text>
		<g>
			<g>
				<text transform="matrix(1.0003 0 0 1 52.7129 297.3691)" fill="#231F20" font-family="'Calibri-Bold'" font-size="14.5974">37</text>
			</g>
		</g>
	</g>
	<g>
		<rect x="35.02" y="337.461" fill="#DADFA1" width="50.191" height="50.178"/>
		<text transform="matrix(1.0003 0 0 1 47.7695 371.9092)" fill="#231F20" font-family="'Calibri-Bold'" font-size="26.5879">Cs</text>
		<text transform="matrix(1.0003 0 0 1 48.8076 382.4111)" fill="#231F20" font-family="'Calibri-Bold'" font-size="6.3864">Cae­sium</text>
		<g>
			<g>
				<text transform="matrix(1.0003 0 0 1 52.7129 349.3721)" fill="#231F20" font-family="'Calibri-Bold'" font-size="14.5974">55</text>
			</g>
		</g>
	</g>
	<g>
		<rect x="35.02" y="389.465" fill="#DADFA1" width="50.191" height="50.179"/>
		<text transform="matrix(1.0003 0 0 1 49.2822 423.9121)" fill="#231F20" font-family="'Calibri-Bold'" font-size="26.5879">Fr</text>
		<text transform="matrix(1.0003 0 0 1 47.7285 434.4141)" fill="#231F20" font-family="'Calibri-Bold'" font-size="6.3864">Fran­cium</text>
		<g>
			<g>
				<text transform="matrix(1.0003 0 0 1 52.7129 401.373)" fill="#231F20" font-family="'Calibri-Bold'" font-size="14.5974">87</text>
			</g>
		</g>
	</g>
</g>
<g class="metal">
	<rect x="87.035" y="389.465" fill="#DADFA1" width="50.191" height="50.179"/>
	<text transform="matrix(1.0003 0 0 1 98.0791 423.9121)" fill="#231F20" font-family="'Calibri-Bold'" font-size="26.5879">Ra</text>
	<text transform="matrix(1.0003 0 0 1 101.8848 434.4141)" fill="#231F20" font-family="'Calibri-Bold'" font-size="6.3864">Ra­dium</text>
	<g>
		<g>
			<text transform="matrix(1.0003 0 0 1 104.7314 401.373)" fill="#231F20" font-family="'Calibri-Bold'" font-size="14.5974">88</text>
		</g>
	</g>
</g>
<g class="metal">
	<g>
		<rect x="139.052" y="389.465" fill="#DADFA1" width="50.192" height="50.179"/>
		<text transform="matrix(1.0003 0 0 1 143.8066 406.0762)" fill="#231F20" font-family="'Calibri-Bold'" font-size="14.3166">89-103</text>
	</g>
	<text transform="matrix(1.0003 0 0 1 148.7451 421.0244)" fill="#231F20" font-family="'Calibri-Bold'" font-size="10.9481">Ac-Lr</text>
	<text transform="matrix(1.0003 0 0 1 145.0098 431.708)" fill="#231F20" font-family="'Calibri-Bold'" font-size="8.9028">Actinide</text>
</g>
<g class="metal">
	<g>
		<rect x="139.052" y="514.796" fill="#DADFA1" width="50.192" height="50.178"/>
		<text transform="matrix(1.0003 0 0 1 150.5234 550.2676)" fill="#231F20" font-family="'Calibri-Bold'" font-size="26.5879">Ac</text>
		<text transform="matrix(1.0003 0 0 1 152.1348 560.7686)" fill="#231F20" font-family="'Calibri-Bold'" font-size="6.3864">Actin­ium</text>
	</g>
	<g>
		<g>
			<text transform="matrix(1.0003 0 0 1 156.748 526.7061)" fill="#231F20" font-family="'Calibri-Bold'" font-size="14.5974">89</text>
		</g>
	</g>
</g>
<g class="metal">
	<g>
		<rect x="191.068" y="514.796" fill="#DADFA1" width="50.19" height="50.178"/>
		<text transform="matrix(1.0003 0 0 1 202.4434 550.2676)" fill="#231F20" font-family="'Calibri-Bold'" font-size="26.5879">Th</text>
		<text transform="matrix(1.0003 0 0 1 204.8594 560.7686)" fill="#231F20" font-family="'Calibri-Bold'" font-size="6.3864">Thor­ium</text>
	</g>
	<g>
		<g>
			<text transform="matrix(1.0003 0 0 1 208.7646 526.7061)" fill="#231F20" font-family="'Calibri-Bold'" font-size="14.5974">90</text>
		</g>
	</g>
</g>
<g class="metal">
	<g>
		<rect x="243.085" y="514.796" fill="#DADFA1" width="50.19" height="50.178"/>
		<text transform="matrix(1.0003 0 0 1 254.5361 550.2676)" fill="#231F20" font-family="'Calibri-Bold'" font-size="26.5879">Pa</text>
		<text transform="matrix(1.0003 0 0 1 250.8652 560.7686)" fill="#231F20" font-family="'Calibri-Bold'" font-size="6.3864">Protac­tinium</text>
	</g>
	<g>
		<g>
			<text transform="matrix(1.0003 0 0 1 260.7803 526.7061)" fill="#231F20" font-family="'Calibri-Bold'" font-size="14.5974">91</text>
		</g>
	</g>
</g>
<g class="metal">
	<g>
		<rect x="295.102" y="514.796" fill="#DADFA1" width="50.19" height="50.178"/>
		<text transform="matrix(1.0003 0 0 1 311.5137 550.2676)" fill="#231F20" font-family="'Calibri-Bold'" font-size="26.5879">U</text>
		<text transform="matrix(1.0003 0 0 1 308.5273 560.7686)" fill="#231F20" font-family="'Calibri-Bold'" font-size="6.3864">Ura­nium</text>
	</g>
	<g>
		<g>
			<text transform="matrix(1.0003 0 0 1 312.7969 526.7061)" fill="#231F20" font-family="'Calibri-Bold'" font-size="14.5974">92</text>
		</g>
	</g>
</g>
<g class="metal">
	<g>
		<rect x="347.117" y="514.796" fill="#DADFA1" width="50.194" height="50.178"/>
		<text transform="matrix(1.0003 0 0 1 356.3174 550.2676)" fill="#231F20" font-family="'Calibri-Bold'" font-size="26.5879">Np</text>
		<text transform="matrix(1.0003 0 0 1 357.0947 560.7686)" fill="#231F20" font-family="'Calibri-Bold'" font-size="6.3864">Neptu­nium</text>
	</g>
	<g>
		<g>
			<text transform="matrix(1.0003 0 0 1 364.8125 526.7061)" fill="#231F20" font-family="'Calibri-Bold'" font-size="14.5974">93</text>
		</g>
	</g>
</g>
<g class="metal">
	<g>
		<rect x="399.134" y="514.796" fill="#DADFA1" width="50.191" height="50.178"/>
		<text transform="matrix(1.0003 0 0 1 410.0146 550.2676)" fill="#231F20" font-family="'Calibri-Bold'" font-size="26.5879">Pu</text>
		<text transform="matrix(1.0003 0 0 1 410.335 560.7686)" fill="#231F20" font-family="'Calibri-Bold'" font-size="6.3864">Pluto­nium</text>
	</g>
	<g>
		<g>
			<text transform="matrix(1.0003 0 0 1 416.8301 526.7061)" fill="#231F20" font-family="'Calibri-Bold'" font-size="14.5974">94</text>
		</g>
	</g>
</g>
<g class="metal">
	<g>
		<rect x="451.15" y="514.796" fill="#DADFA1" width="50.191" height="50.178"/>
		<text transform="matrix(1.0003 0 0 1 457.3682 550.2676)" fill="#231F20" font-family="'Calibri-Bold'" font-size="26.5879">Am</text>
		<text transform="matrix(1.0003 0 0 1 461.6895 560.7686)" fill="#231F20" font-family="'Calibri-Bold'" font-size="6.3864">Ameri­cium</text>
	</g>
	<g>
		<g>
			<text transform="matrix(1.0003 0 0 1 468.8457 526.7061)" fill="#231F20" font-family="'Calibri-Bold'" font-size="14.5974">95</text>
		</g>
	</g>
</g>
<g class="metal">
	<g>
		<rect x="503.167" y="514.796" fill="#DADFA1" width="50.189" height="50.178"/>
		<text transform="matrix(1.0003 0 0 1 510.4063 550.2676)" fill="#231F20" font-family="'Calibri-Bold'" font-size="26.5879">Cm</text>
		<text transform="matrix(1.0003 0 0 1 518.5645 560.7686)" fill="#231F20" font-family="'Calibri-Bold'" font-size="6.3864">Curium</text>
	</g>
	<g>
		<g>
			<text transform="matrix(1.0003 0 0 1 520.8613 526.7061)" fill="#231F20" font-family="'Calibri-Bold'" font-size="14.5974">96</text>
		</g>
	</g>
</g>
<g class="metal">
	<g>
		<rect x="555.184" y="514.796" fill="#DADFA1" width="50.193" height="50.178"/>
		<text transform="matrix(1.0003 0 0 1 566.4404 550.2676)" fill="#231F20" font-family="'Calibri-Bold'" font-size="26.5879">Bk</text>
		<text transform="matrix(1.0003 0 0 1 566.6621 560.7686)" fill="#231F20" font-family="'Calibri-Bold'" font-size="6.3864">Berkel­ium</text>
	</g>
	<g>
		<g>
			<text transform="matrix(1.0003 0 0 1 572.8789 526.7061)" fill="#231F20" font-family="'Calibri-Bold'" font-size="14.5974">97</text>
		</g>
	</g>
</g>
<g class="metal">
	<g>
		<rect x="607.199" y="514.796" fill="#DADFA1" width="50.191" height="50.178"/>
		<text transform="matrix(1.0003 0 0 1 621.0488 550.2676)" fill="#231F20" font-family="'Calibri-Bold'" font-size="26.5879">Cf</text>
		<text transform="matrix(1.0003 0 0 1 616.7246 560.7686)" fill="#231F20" font-family="'Calibri-Bold'" font-size="6.3864">Califor­nium</text>
	</g>
	<g>
		<g>
			<text transform="matrix(1.0003 0 0 1 624.8936 526.7061)" fill="#231F20" font-family="'Calibri-Bold'" font-size="14.5974">98</text>
		</g>
	</g>
</g>
<g class="metal">
	<g>
		<rect x="711.233" y="514.796" fill="#DADFA1" width="50.189" height="50.178"/>
		<text transform="matrix(1.0003 0 0 1 719.4063 550.2676)" fill="#231F20" font-family="'Calibri-Bold'" font-size="26.5879">Fm</text>
		<text transform="matrix(1.0003 0 0 1 724.3643 560.7686)" fill="#231F20" font-family="'Calibri-Bold'" font-size="6.3864">Fer­mium</text>
	</g>
	<g>
		<g>
			<text transform="matrix(1.0003 0 0 1 725.2266 526.7061)" fill="#231F20" font-family="'Calibri-Bold'" font-size="14.5974">100</text>
		</g>
	</g>
</g>
<g class="metal">
	<g>
		<rect x="659.214" y="514.796" fill="#DADFA1" width="50.192" height="50.178"/>
		<text transform="matrix(1.0003 0 0 1 672.5195 550.2676)" fill="#231F20" font-family="'Calibri-Bold'" font-size="26.5879">Es</text>
		<text transform="matrix(1.0003 0 0 1 668.6104 560.7686)" fill="#231F20" font-family="'Calibri-Bold'" font-size="6.3864">Einstei­nium</text>
	</g>
	<g>
		<g>
			<text transform="matrix(1.0003 0 0 1 676.9111 526.7061)" fill="#231F20" font-family="'Calibri-Bold'" font-size="14.5974">99</text>
		</g>
	</g>
</g>
<g class="metal">
	<g>
		<rect x="763.248" y="514.796" fill="#DADFA1" width="50.194" height="50.178"/>
		<text transform="matrix(1.0003 0 0 1 769.584 550.2676)" fill="#231F20" font-family="'Calibri-Bold'" font-size="26.5879">Md</text>
		<text transform="matrix(1.0003 0 0 1 769.8477 560.7686)" fill="#231F20" font-family="'Calibri-Bold'" font-size="6.3864">Mende­levium</text>
	</g>
	<g>
		<g>
			<text transform="matrix(1.0003 0 0 1 777.2432 526.7061)" fill="#231F20" font-family="'Calibri-Bold'" font-size="14.5974">101</text>
		</g>
	</g>
</g>
<g class="metal">
	<g>
		<rect x="815.266" y="514.796" fill="#DADFA1" width="50.19" height="50.178"/>
		<text transform="matrix(1.0003 0 0 1 824.4512 550.2676)" fill="#231F20" font-family="'Calibri-Bold'" font-size="26.5879">No</text>
		<text transform="matrix(1.0003 0 0 1 827.2754 560.7686)" fill="#231F20" font-family="'Calibri-Bold'" font-size="6.3864">Nobel­ium</text>
	</g>
	<g>
		<g>
			<text transform="matrix(1.0003 0 0 1 829.2607 526.7061)" fill="#231F20" font-family="'Calibri-Bold'" font-size="14.5974">102</text>
		</g>
	</g>
</g>
<g class="metal">
	<g>
		<rect x="867.281" y="514.796" fill="#DADFA1" width="50.191" height="50.178"/>
		<text transform="matrix(1.0003 0 0 1 882.0264 550.2676)" fill="#231F20" font-family="'Calibri-Bold'" font-size="26.5879">Lr</text>
		<text transform="matrix(1.0003 0 0 1 876.1191 560.7686)" fill="#231F20" font-family="'Calibri-Bold'" font-size="6.3864">Lawren­cium</text>
	</g>
	<g>
		<g>
			<text transform="matrix(1.0003 0 0 1 881.2764 526.7061)" fill="#231F20" font-family="'Calibri-Bold'" font-size="14.5974">103</text>
		</g>
	</g>
</g>
<g class="metal">
	<g>
		<rect x="191.068" y="389.465" fill="#DADFA1" width="50.19" height="50.179"/>
		<text transform="matrix(1.0003 0 0 1 204.4688 423.9121)" fill="#231F20" font-family="'Calibri-Bold'" font-size="26.5879">Rf</text>
		<text transform="matrix(1.0003 0 0 1 196.3535 434.4141)" fill="#231F20" font-family="'Calibri-Bold'" font-size="6.3864">Ruther­fordium</text>
	</g>
	<g>
		<g>
			<text transform="matrix(1.0003 0 0 1 205.0635 401.373)" fill="#231F20" font-family="'Calibri-Bold'" font-size="14.5974">104</text>
		</g>
	</g>
</g>
<g class="metal">
	<g>
		<rect x="243.085" y="389.465" fill="#DADFA1" width="50.19" height="50.179"/>
		<text transform="matrix(1.0003 0 0 1 252.6602 423.9121)" fill="#231F20" font-family="'Calibri-Bold'" font-size="26.5879">Db</text>
		<text transform="matrix(1.0003 0 0 1 255.8682 434.4141)" fill="#231F20" font-family="'Calibri-Bold'" font-size="6.3864">Dub­nium</text>
	</g>
	<g>
		<g>
			<text transform="matrix(1.0003 0 0 1 257.0801 401.373)" fill="#231F20" font-family="'Calibri-Bold'" font-size="14.5974">105</text>
		</g>
	</g>
</g>
<g class="metal">
	<g>
		<rect x="295.102" y="389.465" fill="#DADFA1" width="50.19" height="50.179"/>
		<text transform="matrix(1.0003 0 0 1 307.6035 423.9121)" fill="#231F20" font-family="'Calibri-Bold'" font-size="26.5879">Sg</text>
		<text transform="matrix(1.0003 0 0 1 304.2646 434.4141)" fill="#231F20" font-family="'Calibri-Bold'" font-size="6.3864">Sea­borgium</text>
	</g>
	<g>
		<g>
			<text transform="matrix(1.0003 0 0 1 309.0967 401.373)" fill="#231F20" font-family="'Calibri-Bold'" font-size="14.5974">106</text>
		</g>
	</g>
</g>
<g class="metal">
	<g>
		<rect x="347.117" y="389.465" fill="#DADFA1" width="50.194" height="50.179"/>
		<text transform="matrix(1.0003 0 0 1 357.6221 423.9121)" fill="#231F20" font-family="'Calibri-Bold'" font-size="26.5879">Bh</text>
		<text transform="matrix(1.0003 0 0 1 360.6992 434.4141)" fill="#231F20" font-family="'Calibri-Bold'" font-size="6.3864">Bohr­ium</text>
	</g>
	<g>
		<g>
			<text transform="matrix(1.0003 0 0 1 361.1123 401.373)" fill="#231F20" font-family="'Calibri-Bold'" font-size="14.5974">107</text>
		</g>
	</g>
</g>
<g class="metal">
	<g>
		<rect x="399.134" y="389.465" fill="#DADFA1" width="50.191" height="50.179"/>
		<text transform="matrix(1.0003 0 0 1 410.5352 423.9121)" fill="#231F20" font-family="'Calibri-Bold'" font-size="26.5879">Hs</text>
		<text transform="matrix(1.0003 0 0 1 412.9326 434.4141)" fill="#231F20" font-family="'Calibri-Bold'" font-size="6.3864">Has­sium</text>
	</g>
	<g>
		<g>
			<text transform="matrix(1.0003 0 0 1 413.1299 401.373)" fill="#231F20" font-family="'Calibri-Bold'" font-size="14.5974">108</text>
		</g>
	</g>
</g>
<g class="metal">
	<g>
		<rect x="451.15" y="389.465" fill="#DADFA1" width="50.191" height="50.179"/>
		<text transform="matrix(1.0003 0 0 1 460.0117 423.9121)" fill="#231F20" font-family="'Calibri-Bold'" font-size="26.5879">Mt</text>
		<text transform="matrix(1.0003 0 0 1 460.3389 434.4141)" fill="#231F20" font-family="'Calibri-Bold'" font-size="6.3864">Meit­nerium</text>
	</g>
	<g>
		<g>
			<text transform="matrix(1.0003 0 0 1 465.1445 401.373)" fill="#231F20" font-family="'Calibri-Bold'" font-size="14.5974">109</text>
		</g>
	</g>
</g>
<g class="metal">
	<g>
		<rect x="503.167" y="389.465" fill="#DADFA1" width="50.189" height="50.179"/>
		<text transform="matrix(1.0003 0 0 1 514.5732 423.9121)" fill="#231F20" font-family="'Calibri-Bold'" font-size="26.5879">Ds</text>
		<text transform="matrix(1.0003 0 0 1 509.0234 434.4141)" fill="#231F20" font-family="'Calibri-Bold'" font-size="6.3864">Darm­stadtium</text>
	</g>
	<g>
		<g>
			<text transform="matrix(1.0003 0 0 1 517.1602 401.373)" fill="#231F20" font-family="'Calibri-Bold'" font-size="14.5974">110</text>
		</g>
	</g>
</g>
<g class="metal">
	<g>
		<rect x="555.184" y="389.465" fill="#DADFA1" width="50.193" height="50.179"/>
		<text transform="matrix(1.0003 0 0 1 566.4863 423.9121)" fill="#231F20" font-family="'Calibri-Bold'" font-size="26.5879">Rg</text>
		<text transform="matrix(1.0003 0 0 1 562.3398 434.4141)" fill="#231F20" font-family="'Calibri-Bold'" font-size="6.3864">Roent­genium</text>
	</g>
	<g>
		<g>
			<text transform="matrix(1.0003 0 0 1 569.1777 401.373)" fill="#231F20" font-family="'Calibri-Bold'" font-size="14.5974">111</text>
		</g>
	</g>
</g>
<g class="metal">
	<g>
		<rect x="607.199" y="389.465" fill="#DADFA1" width="50.191" height="50.179"/>
		<text transform="matrix(1.0003 0 0 1 618.1201 423.9121)" fill="#231F20" font-family="'Calibri-Bold'" font-size="26.5879">Cn</text>
		<text transform="matrix(1.0003 0 0 1 615.4375 434.4141)" fill="#231F20" font-family="'Calibri-Bold'" font-size="6.3864">Coper­nicium</text>
	</g>
	<g>
		<g>
			<text transform="matrix(1.0003 0 0 1 621.1953 401.373)" fill="#231F20" font-family="'Calibri-Bold'" font-size="14.5974">112</text>
		</g>
	</g>
</g>
<g class="metal">
	<g>
		<rect x="659.214" y="389.465" fill="#DADFA1" width="50.192" height="50.179"/>
		<text transform="matrix(1.0003 0 0 1 663.8838 424.9346)" fill="#231F20" font-family="'Calibri-Bold'" font-size="26.5879">Uut</text>
		<text transform="matrix(1.0003 0 0 1 669.6846 435.4365)" fill="#231F20" font-family="'Calibri-Bold'" font-size="6.3864">Unun­trium</text>
	</g>
	<g>
		<g>
			<text transform="matrix(1.0003 0 0 1 673.2109 401.373)" fill="#231F20" font-family="'Calibri-Bold'" font-size="14.5974">113</text>
		</g>
	</g>
</g>
<g class="metal">
	<g>
		<rect x="711.233" y="389.465" fill="#DADFA1" width="50.189" height="50.179"/>
		<text transform="matrix(1.0003 0 0 1 726.9561 424.9346)" fill="#231F20" font-family="'Calibri-Bold'" font-size="26.5879">Fl</text>
		<text transform="matrix(1.0003 0 0 1 722.9482 435.4365)" fill="#231F20" font-family="'Calibri-Bold'" font-size="6.3864">Flerov­ium</text>
	</g>
	<g>
		<g>
			<text transform="matrix(1.0003 0 0 1 725.2275 401.373)" fill="#231F20" font-family="'Calibri-Bold'" font-size="14.5974">114</text>
		</g>
	</g>
</g>
<g class="metal">
	<g>
		<rect x="763.248" y="389.465" fill="#DADFA1" width="50.194" height="50.179"/>
		<text transform="matrix(1.0003 0 0 1 765.3896 424.9346)" fill="#231F20" font-family="'Calibri-Bold'" font-size="26.5879">Uup</text>
		<text transform="matrix(1.0003 0 0 1 769.8389 435.4365)" fill="#231F20" font-family="'Calibri-Bold'" font-size="6.3864">Unun­pentium</text>
	</g>
	<g>
		<g>
			<text transform="matrix(1.0003 0 0 1 777.2432 401.373)" fill="#231F20" font-family="'Calibri-Bold'" font-size="14.5974">115</text>
		</g>
	</g>
</g>
<g class="metal">
	<g>
		<rect x="815.266" y="389.465" fill="#DADFA1" width="50.19" height="50.179"/>
		<text transform="matrix(1.0003 0 0 1 828.4443 424.9346)" fill="#231F20" font-family="'Calibri-Bold'" font-size="26.5879">Lv</text>
		<text transform="matrix(1.0003 0 0 1 823.3633 435.4365)" fill="#231F20" font-family="'Calibri-Bold'" font-size="6.3864">Liver­morium</text>
	</g>
	<g>
		<g>
			<text transform="matrix(1.0003 0 0 1 829.2607 401.373)" fill="#231F20" font-family="'Calibri-Bold'" font-size="14.5974">116</text>
		</g>
	</g>
</g>


</g><!--metal ends-->




<!--non metals starts-->

<g>

	<g class="nonmetal">
		<g>
			<rect x="34.88" y="77.444" fill="#FFA87D" width="50.193" height="50.179"/>
			<text transform="matrix(1.0003 0 0 1 51.5859 112.3633)" fill="#231F20" font-family="'Calibri-Bold'" font-size="26.5879">H</text>
			<g>
				<g>
					<text transform="matrix(1.0003 0 0 1 56.2744 89.3555)" fill="#231F20" font-family="'Calibri-Bold'" font-size="14.5974">1</text>
				</g>
			</g>
		</g>
		<text transform="matrix(1.0003 0 0 1 47.0439 121.0391)" fill="#231F20" font-family="'Calibri-Bold'" font-size="6.3864">Hydro­gen</text>
	</g>
	<g class="nonmetal">
		<g>
			<rect x="919.3" y="77.444" fill="#FFA87D" width="50.188" height="50.179"/>
			<text transform="matrix(1.0003 0 0 1 929.3096 111.8916)" fill="#231F20" font-family="'Calibri-Bold'" font-size="26.5879">He</text>
			<text transform="matrix(1.0003 0 0 1 934.8281 122.3945)" fill="#231F20" font-family="'Calibri-Bold'" font-size="6.3864">Helium</text>
		</g>
		<g>
			<g>
				<text transform="matrix(1.0003 0 0 1 940.6934 89.3555)" fill="#231F20" font-family="'Calibri-Bold'" font-size="14.5974">2</text>
			</g>
		</g>
	</g>
	<g class="nonmetal">
		<g>
			<rect x="711.233" y="129.447" fill="#FFA87D" width="50.189" height="50.179"/>
			<text transform="matrix(1.0003 0 0 1 729.2881 163.8955)" fill="#231F20" font-family="'Calibri-Bold'" font-size="26.5879">C</text>
			<text transform="matrix(1.0003 0 0 1 726.7197 174.3965)" fill="#231F20" font-family="'Calibri-Bold'" font-size="6.3864">Carbon</text>
		</g>
		<g>
			<g>
				<text transform="matrix(1.0003 0 0 1 732.6279 141.3574)" fill="#231F20" font-family="'Calibri-Bold'" font-size="14.5974">6</text>
			</g>
		</g>
	</g>
	<g class="nonmetal">
		<g>
			<rect x="763.248" y="129.447" fill="#FFA87D" width="50.194" height="50.179"/>
			<text transform="matrix(1.0003 0 0 1 779.583 163.8955)" fill="#231F20" font-family="'Calibri-Bold'" font-size="26.5879">N</text>
			<text transform="matrix(1.0003 0 0 1 776.5977 174.3965)" fill="#231F20" font-family="'Calibri-Bold'" font-size="6.3864">Nitro­gen</text>
		</g>
		<g>
			<g>
				<text transform="matrix(1.0003 0 0 1 784.6436 141.3574)" fill="#231F20" font-family="'Calibri-Bold'" font-size="14.5974">7</text>
			</g>
		</g>
	</g>
	<g class="nonmetal">
		<g>
			<rect x="815.266" y="129.447" fill="#FFA87D" width="50.19" height="50.179"/>
			<text transform="matrix(1.0003 0 0 1 831.3662 163.8955)" fill="#231F20" font-family="'Calibri-Bold'" font-size="26.5879">O</text>
			<text transform="matrix(1.0003 0 0 1 830.3232 174.3965)" fill="#231F20" font-family="'Calibri-Bold'" font-size="6.3864">Oxy­gen</text>
		</g>
		<g>
			<g>
				<text transform="matrix(1.0003 0 0 1 836.6602 141.3574)" fill="#231F20" font-family="'Calibri-Bold'" font-size="14.5974">8</text>
			</g>
		</g>
	</g>
	<g class="nonmetal">
		<g>
			<rect x="867.281" y="129.447" fill="#FFA87D" width="50.191" height="50.179"/>
			<text transform="matrix(1.0003 0 0 1 886.2725 163.8955)" fill="#231F20" font-family="'Calibri-Bold'" font-size="26.5879">F</text>
			<text transform="matrix(1.0003 0 0 1 881.3936 174.3965)" fill="#231F20" font-family="'Calibri-Bold'" font-size="6.3864">Fluor­ine</text>
		</g>
		<g>
			<g>
				<text transform="matrix(1.0003 0 0 1 888.6777 141.3574)" fill="#231F20" font-family="'Calibri-Bold'" font-size="14.5974">9</text>
			</g>
		</g>
	</g>
	<g class="nonmetal">
		<g>
			<rect x="919.3" y="129.447" fill="#FFA87D" width="50.188" height="50.179"/>
			<text transform="matrix(1.0003 0 0 1 928.9395 163.8955)" fill="#231F20" font-family="'Calibri-Bold'" font-size="26.5879">Ne</text>
			<text transform="matrix(1.0003 0 0 1 937.1895 174.3965)" fill="#231F20" font-family="'Calibri-Bold'" font-size="6.3864">Neon</text>
		</g>
		<g>
			<g>
				<text transform="matrix(1.0003 0 0 1 936.9932 141.3574)" fill="#231F20" font-family="'Calibri-Bold'" font-size="14.5974">10</text>
			</g>
		</g>
	</g>
	<g class="nonmetal">
		<g>
			<rect x="763.248" y="181.449" fill="#FFA87D" width="50.194" height="50.182"/>
			<text transform="matrix(1.0003 0 0 1 781.2646 215.8984)" fill="#231F20" font-family="'Calibri-Bold'" font-size="26.5879">P</text>
			<text transform="matrix(1.0003 0 0 1 772.6094 226.4004)" fill="#231F20" font-family="'Calibri-Bold'" font-size="6.3864">Phos­phorus</text>
		</g>
		<g>
			<g>
				<text transform="matrix(1.0003 0 0 1 780.9443 193.3604)" fill="#231F20" font-family="'Calibri-Bold'" font-size="14.5974">15</text>
			</g>
		</g>
	</g>
	<g class="nonmetal">
		<g>
			<rect x="815.266" y="181.449" fill="#FFA87D" width="50.19" height="50.182"/>
			<text transform="matrix(1.0003 0 0 1 834.0742 215.8984)" fill="#231F20" font-family="'Calibri-Bold'" font-size="26.5879">S</text>
			<text transform="matrix(1.0003 0 0 1 832.4326 226.4004)" fill="#231F20" font-family="'Calibri-Bold'" font-size="6.3864">Sulfur</text>
		</g>
		<g>
			<g>
				<text transform="matrix(1.0003 0 0 1 832.96 193.3604)" fill="#231F20" font-family="'Calibri-Bold'" font-size="14.5974">16</text>
			</g>
		</g>
	</g>
	<g class="nonmetal">
		<g>
			<rect x="867.281" y="181.449" fill="#FFA87D" width="50.191" height="50.182"/>
			<text transform="matrix(1.0003 0 0 1 882.0723 215.8984)" fill="#231F20" font-family="'Calibri-Bold'" font-size="26.5879">Cl</text>
			<text transform="matrix(1.0003 0 0 1 881.1689 226.4004)" fill="#231F20" font-family="'Calibri-Bold'" font-size="6.3864">Chlor­ine</text>
		</g>
		<g>
			<g>
				<text transform="matrix(1.0003 0 0 1 884.9775 193.3604)" fill="#231F20" font-family="'Calibri-Bold'" font-size="14.5974">17</text>
			</g>
		</g>
	</g>
	<g class="nonmetal">
		<g>
			<rect x="919.3" y="181.449" fill="#FFA87D" width="50.188" height="50.182"/>
			<text transform="matrix(1.0003 0 0 1 931.6074 215.8984)" fill="#231F20" font-family="'Calibri-Bold'" font-size="26.5879">Ar</text>
			<text transform="matrix(1.0003 0 0 1 936.3164 226.4004)" fill="#231F20" font-family="'Calibri-Bold'" font-size="6.3864">Argon</text>
		</g>
		<g>
			<g>
				<text transform="matrix(1.0003 0 0 1 936.9932 193.3604)" fill="#231F20" font-family="'Calibri-Bold'" font-size="14.5974">18</text>
			</g>
		</g>
	</g>
	<g class="nonmetal">
		<g>
			<rect x="815.266" y="233.454" fill="#FFA87D" width="50.19" height="50.181"/>
			<text transform="matrix(1.0003 0 0 1 827.3799 267.9014)" fill="#231F20" font-family="'Calibri-Bold'" font-size="26.5879">Se</text>
			<text transform="matrix(1.0003 0 0 1 827.9785 278.4043)" fill="#231F20" font-family="'Calibri-Bold'" font-size="6.3864">Sele­nium</text>
		</g>
		<g>
			<g>
				<text transform="matrix(1.0003 0 0 1 832.96 245.3643)" fill="#231F20" font-family="'Calibri-Bold'" font-size="14.5974">34</text>
			</g>
		</g>
	</g>
	<g class="nonmetal">
		<g>
			<rect x="867.281" y="233.454" fill="#FFA87D" width="50.191" height="50.181"/>
			<text transform="matrix(1.0003 0 0 1 880.1934 267.9014)" fill="#231F20" font-family="'Calibri-Bold'" font-size="26.5879">Br</text>
			<text transform="matrix(1.0003 0 0 1 880.9697 278.4043)" fill="#231F20" font-family="'Calibri-Bold'" font-size="6.3864">Bromine</text>
		</g>
		<g>
			<g>
				<text transform="matrix(1.0003 0 0 1 884.9775 245.3643)" fill="#231F20" font-family="'Calibri-Bold'" font-size="14.5974">35</text>
			</g>
		</g>
	</g>
	<g class="nonmetal">
		<g>
			<rect x="919.3" y="233.454" fill="#FFA87D" width="50.188" height="50.181"/>
			<text transform="matrix(1.0003 0 0 1 932.3936 267.9014)" fill="#231F20" font-family="'Calibri-Bold'" font-size="26.5879">Kr</text>
			<text transform="matrix(1.0003 0 0 1 933.6855 278.4043)" fill="#231F20" font-family="'Calibri-Bold'" font-size="6.3864">Kryp­ton</text>
		</g>
		<g>
			<g>
				<text transform="matrix(1.0003 0 0 1 936.9932 245.3643)" fill="#231F20" font-family="'Calibri-Bold'" font-size="14.5974">36</text>
			</g>
		</g>
	</g>
	<g class="nonmetal">
		<g>
			<rect x="867.281" y="285.457" fill="#FFA87D" width="50.191" height="50.179"/>
			<text transform="matrix(1.0003 0 0 1 888.8301 319.9043)" fill="#231F20" font-family="'Calibri-Bold'" font-size="26.5879">I</text>
			<text transform="matrix(1.0003 0 0 1 883.9268 330.4082)" fill="#231F20" font-family="'Calibri-Bold'" font-size="6.3864">Iodine</text>
		</g>
		<g>
			<g>
				<text transform="matrix(1.0003 0 0 1 884.9775 297.3691)" fill="#231F20" font-family="'Calibri-Bold'" font-size="14.5974">53</text>
			</g>
		</g>
	</g>
	<g class="nonmetal">
		<g>
			<rect x="919.3" y="285.457" fill="#FFA87D" width="50.188" height="50.179"/>
			<text transform="matrix(1.0003 0 0 1 930.373 319.9043)" fill="#231F20" font-family="'Calibri-Bold'" font-size="26.5879">Xe</text>
			<text transform="matrix(1.0003 0 0 1 935.8203 330.4082)" fill="#231F20" font-family="'Calibri-Bold'" font-size="6.3864">Xenon</text>
		</g>
		<g>
			<g>
				<text transform="matrix(1.0003 0 0 1 936.9932 297.3691)" fill="#231F20" font-family="'Calibri-Bold'" font-size="14.5974">54</text>
			</g>
		</g>
	</g>
	<g class="nonmetal">
		<g>
			<rect x="867.281" y="337.461" fill="#FFA87D" width="50.191" height="50.178"/>
			<text transform="matrix(1.0003 0 0 1 879.708 371.9092)" fill="#231F20" font-family="'Calibri-Bold'" font-size="26.5879">At</text>
			<text transform="matrix(1.0003 0 0 1 881.2314 382.4111)" fill="#231F20" font-family="'Calibri-Bold'" font-size="6.3864">Asta­tine</text>
		</g>
		<g>
			<g>
				<text transform="matrix(1.0003 0 0 1 884.9775 349.3721)" fill="#231F20" font-family="'Calibri-Bold'" font-size="14.5974">85</text>
			</g>
		</g>
	</g>
	<g class="nonmetal">
		<g>
			<rect x="919.3" y="337.461" fill="#FFA87D" width="50.188" height="50.178"/>
			<text transform="matrix(1.0003 0 0 1 929.7695 371.9092)" fill="#231F20" font-family="'Calibri-Bold'" font-size="26.5879">Rn</text>
			<text transform="matrix(1.0003 0 0 1 935.8125 382.4111)" fill="#231F20" font-family="'Calibri-Bold'" font-size="6.3864">Radon</text>
		</g>
		<g>
			<g>
				<text transform="matrix(1.0003 0 0 1 936.9932 349.3721)" fill="#231F20" font-family="'Calibri-Bold'" font-size="14.5974">86</text>
			</g>
		</g>
	</g>
	<g class="nonmetal">
		<g>
			<rect x="867.281" y="389.465" fill="#FFA87D" width="50.191" height="50.179"/>
			<text transform="matrix(1.0003 0 0 1 871.2539 423.9121)" fill="#231F20" font-family="'Calibri-Bold'" font-size="26.5879">Uus</text>
			<text transform="matrix(1.0003 0 0 1 874.3115 434.4141)" fill="#231F20" font-family="'Calibri-Bold'" font-size="6.3864">Unun­septium</text>
		</g>
		<g>
			<g>
				<text transform="matrix(1.0003 0 0 1 881.2764 401.373)" fill="#231F20" font-family="'Calibri-Bold'" font-size="14.5974">117</text>
			</g>
		</g>
	</g>
	<g class="nonmetal">
		<g>
			<rect x="919.3" y="389.465" fill="#FFA87D" width="50.188" height="50.179"/>
			<text transform="matrix(1.0003 0 0 1 921.4268 423.9121)" fill="#231F20" font-family="'Calibri-Bold'" font-size="26.5879">Uuo</text>
			<text transform="matrix(1.0003 0 0 1 927.8701 434.4141)" fill="#231F20" font-family="'Calibri-Bold'" font-size="6.3864">Unun­octium</text>
		</g>
		<g>
			<g>
				<text transform="matrix(1.0003 0 0 1 933.293 401.373)" fill="#231F20" font-family="'Calibri-Bold'" font-size="14.5974">118</text>
			</g>
		</g>
	</g>
</g>


<!--non metal ends-->





<g><!--main metalloids group-->


<!--metallooids boron1-->
<g class="metalloids">
	<g>
		<rect x="659.214" y="129.447" fill="#FFA87D" width="50.192" height="50.179"/>
		<text transform="matrix(1.0003 0 0 1 676.8564 164.918)" font-family="'Calibri-Bold'" font-size="26.5879">B</text>
		<text transform="matrix(1.0003 0 0 1 676.1768 175.4199)" font-family="'Calibri-Bold'" font-size="6.3864">Boron</text>
	</g>
	<g>
		<g>
			<text transform="matrix(1.0003 0 0 1 680.6113 141.3574)" font-family="'Calibri-Bold'" font-size="14.5974">5</text>
		</g>
	</g>
</g>


<g class="metalloids"><!--metaloid silicon2-->
	<g>
		<rect x="711.233" y="181.449" fill="#FFA87D" width="50.189" height="50.182"/>
		<text transform="matrix(1.0003 0 0 1 726.7754 216.9209)" fill="#231F20" font-family="'Calibri-Bold'" font-size="26.5879">Si</text>
		<text transform="matrix(1.0003 0 0 1 727.6367 227.4238)" fill="#231F20" font-family="'Calibri-Bold'" font-size="6.3864">Sili­con</text>
	</g>
	<g>
		<g>
			<text transform="matrix(1.0003 0 0 1 728.9287 193.3604)" fill="#231F20" font-family="'Calibri-Bold'" font-size="14.5974">14</text>
		</g>
	</g>
</g>



<g class="metalloids"><!--metalliods germanium3-->
	<g>
		<rect x="711.233" y="233.454" fill="#FFA87D" width="50.189" height="50.181"/>
		<text transform="matrix(1.0003 0 0 1 721.1602 268.9238)" fill="#231F20" font-family="'Calibri-Bold'" font-size="26.5879">Ge</text>
		<text transform="matrix(1.0003 0 0 1 720.5039 279.4268)" fill="#231F20" font-family="'Calibri-Bold'" font-size="6.3864">Germa­nium</text>
	</g>
	<g>
		<g>
			<text transform="matrix(1.0003 0 0 1 728.9287 245.3643)" fill="#231F20" font-family="'Calibri-Bold'" font-size="14.5974">32</text>
		</g>
	</g>
</g>


<!--metalloids Arsenic4-->

<g class="metalloids">

	<g>
		<rect x="763.248" y="233.454" fill="#FFA87D" width="50.194" height="50.181"/>
		<text transform="matrix(1.0003 0 0 1 774.9805 268.9238)" fill="#231F20" font-family="'Calibri-Bold'" font-size="26.5879">As</text>
		<text transform="matrix(1.0003 0 0 1 778.4951 279.4268)" fill="#231F20" font-family="'Calibri-Bold'" font-size="6.3864">Arsenic</text>
	</g>
	<g>
		<g>
			<text transform="matrix(1.0003 0 0 1 780.9443 245.3643)" fill="#231F20" font-family="'Calibri-Bold'" font-size="14.5974">33</text>
		</g>
	</g>
</g>


<!--metallooids polonium5-->
<g class="metalloids">
	<g>
		<rect x="815.266" y="337.461" fill="#FFA87D" width="50.19" height="50.178"/>
		<text transform="matrix(1.0003 0 0 1 826.1328 372.9316)" fill="#231F20" font-family="'Calibri-Bold'" font-size="26.5879">Po</text>
		<text transform="matrix(1.0003 0 0 1 827.5713 383.4336)" fill="#231F20" font-family="'Calibri-Bold'" font-size="6.3864">Polo­nium</text>
	</g>
	<g>
		<g>
			<text transform="matrix(1.0003 0 0 1 832.96 349.3721)" fill="#231F20" font-family="'Calibri-Bold'" font-size="14.5974">84</text>
		</g>
	</g>
</g>



<!--metalliods Antimony6-->
<g class="metalloids">
	<g>
		<rect x="763.248" y="285.457" fill="#FFA87D" width="50.194" height="50.179"/>
		<text transform="matrix(1.0003 0 0 1 774.9219 320.9268)" fill="#231F20" font-family="'Calibri-Bold'" font-size="26.5879">Sb</text>
		<text transform="matrix(1.0003 0 0 1 775.2227 331.4307)" fill="#231F20" font-family="'Calibri-Bold'" font-size="6.3864">Anti­mony</text>
	</g>
	<g>
		<g>
			<text transform="matrix(1.0003 0 0 1 780.9443 297.3691)" fill="#231F20" font-family="'Calibri-Bold'" font-size="14.5974">51</text>
		</g>
	</g>
</g>



<!--metalliods tellurium7-->
<g class="metalloids">
	<g>
		<rect x="815.266" y="285.457" fill="#FFA87D" width="50.19" height="50.179"/>
		<text transform="matrix(1.0003 0 0 1 827.082 320.9268)" fill="#231F20" font-family="'Calibri-Bold'" font-size="26.5879">Te</text>
		<text transform="matrix(1.0003 0 0 1 827.5957 331.4307)" fill="#231F20" font-family="'Calibri-Bold'" font-size="6.3864">Tellur­ium</text>
	</g>
	<g>
		<g>
			<text transform="matrix(1.0003 0 0 1 832.96 297.3691)" fill="#231F20" font-family="'Calibri-Bold'" font-size="14.5974">52</text>
		</g>
	</g>
</g>
<!--end-->




</g><!--end of metalloids group-->




<g>
	<text transform="matrix(1.0003 0 0 1 53.6201 74.1299)" fill="#6D6B6B" font-family="'ArialMT'" font-size="14.3166">IA</text>
</g>
<g>
	<text transform="matrix(1.0003 0 0 1 99.7061 124.9209)" fill="#6D6B6B" font-family="'ArialMT'" font-size="14.3166">IIA</text>
</g>
<g>
	<text transform="matrix(1.0003 0 0 1 152.6104 228.8857)" fill="#6D6B6B" font-family="'ArialMT'" font-size="14.3166">IIIB</text>
</g>
<g>
	<text transform="matrix(1.0003 0 0 1 206.0244 228.8857)" fill="#6D6B6B" font-family="'ArialMT'" font-size="14.3166">IVB</text>
</g>
<g>
	<text transform="matrix(1.0003 0 0 1 255.749 228.8857)" fill="#6D6B6B" font-family="'ArialMT'" font-size="14.3166">VB</text>
</g>
<g>
	<text transform="matrix(1.0003 0 0 1 308.7754 228.8857)" fill="#6D6B6B" font-family="'ArialMT'" font-size="14.3166">VIB</text>
</g>
<g>
	<text transform="matrix(1.0003 0 0 1 358.6045 228.8857)" fill="#6D6B6B" font-family="'ArialMT'" font-size="14.3166">VIIB</text>
</g>
<g>
	<text transform="matrix(1.0003 0 0 1 455.3232 213.0352)" fill="#6D6B6B" font-family="'ArialMT'" font-size="14.3166">VIIIB</text>
</g>
<g>
	<text transform="matrix(1.0003 0 0 1 623.4873 228.8857)" fill="#6D6B6B" font-family="'ArialMT'" font-size="14.3166">IIB</text>
</g>
<g>
	<text transform="matrix(1.0003 0 0 1 569.5303 228.8857)" fill="#6D6B6B" font-family="'ArialMT'" font-size="14.3166">IB</text>
</g>
<g>
	<text transform="matrix(1.0003 0 0 1 673.1533 125.6025)" fill="#6D6B6B" font-family="'ArialMT'" font-size="14.3166">IIIA</text>
</g>
<g>
	<text transform="matrix(1.0003 0 0 1 727.5918 125.6025)" fill="#6D6B6B" font-family="'ArialMT'" font-size="14.3166">IVA</text>
</g>
<g>
	<text transform="matrix(1.0003 0 0 1 779.3594 125.6025)" fill="#6D6B6B" font-family="'ArialMT'" font-size="14.3166">VA</text>
</g>
<g>
	<text transform="matrix(1.0003 0 0 1 826.8086 125.6025)" fill="#6D6B6B" font-family="'ArialMT'" font-size="14.3166">VIA</text>
</g>
<g>
	<text transform="matrix(1.0003 0 0 1 873.917 125.6025)" fill="#6D6B6B" font-family="'ArialMT'" font-size="14.3166">VIIA</text>
</g>
<g>
	<text transform="matrix(1.0003 0 0 1 934.665 73.791)" fill="#6D6B6B" font-family="'ArialMT'" font-size="14.3166">VIIIA</text>
</g>
<polyline fill="none" stroke="#6D6B6B" stroke-width="1.0227" stroke-miterlimit="10" points="418.437,233.017 418.437,219.967 
	530.818,219.967 530.818,233.555 "/>
<text transform="matrix(1 0 0 1 11.7798 109.9678)" fill="#231F20" font-family="'Calibri-Bold'" font-size="24.706">1</text>
<text transform="matrix(1 0 0 1 11.7798 164.9678)" fill="#231F20" font-family="'Calibri-Bold'" font-size="24.706">2</text>
<text transform="matrix(1 0 0 1 11.7798 213.9678)" fill="#231F20" font-family="'Calibri-Bold'" font-size="24.706">3</text>
<text transform="matrix(1 0 0 1 11.7798 264.9678)" fill="#231F20" font-family="'Calibri-Bold'" font-size="24.706">4</text>
<text transform="matrix(1 0 0 1 11.7798 311.9678)" fill="#231F20" font-family="'Calibri-Bold'" font-size="24.706">5</text>
<text transform="matrix(1 0 0 1 11.7798 361.9678)" fill="#231F20" font-family="'Calibri-Bold'" font-size="24.706">6</text>
<text transform="matrix(1 0 0 1 11.7798 415.9678)" fill="#231F20" font-family="'Calibri-Bold'" font-size="24.706">7</text>
</svg>
