<?xml version="1.0" encoding="utf-8"?>
<!-- Generator: Adobe Illustrator 15.0.0, SVG Export Plug-In . SVG Version: 6.00 Build 0)  -->
<!DOCTYPE svg PUBLIC "-//W3C//DTD SVG 1.1//EN" "http://www.w3.org/Graphics/SVG/1.1/DTD/svg11.dtd">
<svg version="1.1" id="Layer_2" xmlns="http://www.w3.org/2000/svg" xmlns:xlink="http://www.w3.org/1999/xlink" x="0px" y="0px"
	 width="1354.145px" height="206.611px" viewBox="0 0 1354.145 206.611" enable-background="new 0 0 1354.145 206.611"
	 xml:space="preserve">
<g>
	<g>

			<line fill="none" stroke="#0C98A7" stroke-width="6" stroke-linejoin="round" x1="28.655" y1="106.314" x2="1325.489" y2="106.314"/>
		<g>
			<polygon fill="#0C98A7" points="42.136,124.09 34.584,106.314 42.136,88.539 0,106.314 			"/>
		</g>
		<g>
			<polygon fill="#0C98A7" points="1312.007,124.09 1319.559,106.314 1312.007,88.539 1354.145,106.314 			"/>
		</g>
	</g>
</g>
<line fill="none" stroke="#0C98A7" stroke-width="4.9035" stroke-linejoin="round" stroke-miterlimit="8" x1="72.313" y1="50.891" x2="72.313" y2="161.738"/>
<line fill="none" stroke="#0C98A7" stroke-width="4.9035" stroke-linejoin="round" stroke-miterlimit="8" x1="1282.737" y1="50.891" x2="1282.737" y2="161.738"/>
<line fill="none" stroke="#0C98A7" stroke-width="4.9035" stroke-linejoin="round" stroke-miterlimit="8" x1="677.525" y1="50.891" x2="677.525" y2="161.738"/>
<line fill="none" stroke="#0C98A7" stroke-width="4.9035" stroke-linejoin="round" stroke-miterlimit="8" x1="374.919" y1="50.891" x2="374.919" y2="161.738"/>
<line fill="none" stroke="#0C98A7" stroke-width="4.9035" stroke-linejoin="round" stroke-miterlimit="8" x1="980.131" y1="50.891" x2="980.131" y2="161.738"/>
<line fill="none" stroke="#0C98A7" stroke-width="3.269" stroke-linejoin="round" stroke-miterlimit="8" x1="110.138" y1="74.264" x2="110.138" y2="138.365"/>
<line fill="none" stroke="#0C98A7" stroke-width="3.269" stroke-linejoin="round" stroke-miterlimit="8" x1="185.79" y1="74.264" x2="185.79" y2="138.365"/>
<line fill="none" stroke="#0C98A7" stroke-width="3.269" stroke-linejoin="round" stroke-miterlimit="8" x1="147.964" y1="74.264" x2="147.964" y2="138.365"/>
<line fill="none" stroke="#0C98A7" stroke-width="3.269" stroke-linejoin="round" stroke-miterlimit="8" x1="337.093" y1="74.264" x2="337.093" y2="138.365"/>
<line fill="none" stroke="#0C98A7" stroke-width="3.269" stroke-linejoin="round" stroke-miterlimit="8" x1="299.267" y1="74.264" x2="299.267" y2="138.365"/>
<line fill="none" stroke="#0C98A7" stroke-width="3.269" stroke-linejoin="round" stroke-miterlimit="8" x1="261.442" y1="74.264" x2="261.442" y2="138.365"/>
<line fill="none" stroke="#0C98A7" stroke-width="3.269" stroke-linejoin="round" stroke-miterlimit="8" x1="223.615" y1="74.264" x2="223.615" y2="138.365"/>
<line fill="none" stroke="#0C98A7" stroke-width="3.269" stroke-linejoin="round" stroke-miterlimit="8" x1="412.742" y1="74.264" x2="412.742" y2="138.365"/>
<line fill="none" stroke="#0C98A7" stroke-width="3.269" stroke-linejoin="round" stroke-miterlimit="8" x1="488.396" y1="74.264" x2="488.396" y2="138.365"/>
<line fill="none" stroke="#0C98A7" stroke-width="3.269" stroke-linejoin="round" stroke-miterlimit="8" x1="450.57" y1="74.264" x2="450.57" y2="138.365"/>
<line fill="none" stroke="#0C98A7" stroke-width="3.269" stroke-linejoin="round" stroke-miterlimit="8" x1="639.698" y1="74.264" x2="639.698" y2="138.365"/>
<line fill="none" stroke="#0C98A7" stroke-width="3.269" stroke-linejoin="round" stroke-miterlimit="8" x1="601.871" y1="74.264" x2="601.871" y2="138.365"/>
<line fill="none" stroke="#0C98A7" stroke-width="3.269" stroke-linejoin="round" stroke-miterlimit="8" x1="564.048" y1="74.264" x2="564.048" y2="138.365"/>
<line fill="none" stroke="#0C98A7" stroke-width="3.269" stroke-linejoin="round" stroke-miterlimit="8" x1="526.222" y1="74.264" x2="526.222" y2="138.365"/>
<line fill="none" stroke="#0C98A7" stroke-width="3.269" stroke-linejoin="round" stroke-miterlimit="8" x1="753.176" y1="74.264" x2="753.176" y2="138.365"/>
<line fill="none" stroke="#0C98A7" stroke-width="3.269" stroke-linejoin="round" stroke-miterlimit="8" x1="715.351" y1="74.264" x2="715.351" y2="138.365"/>
<line fill="none" stroke="#0C98A7" stroke-width="3.269" stroke-linejoin="round" stroke-miterlimit="8" x1="904.479" y1="74.264" x2="904.479" y2="138.365"/>
<line fill="none" stroke="#0C98A7" stroke-width="3.269" stroke-linejoin="round" stroke-miterlimit="8" x1="866.654" y1="74.264" x2="866.654" y2="138.365"/>
<line fill="none" stroke="#0C98A7" stroke-width="3.269" stroke-linejoin="round" stroke-miterlimit="8" x1="828.825" y1="74.264" x2="828.825" y2="138.365"/>
<line fill="none" stroke="#0C98A7" stroke-width="3.269" stroke-linejoin="round" stroke-miterlimit="8" x1="791.002" y1="74.264" x2="791.002" y2="138.365"/>
<line fill="none" stroke="#0C98A7" stroke-width="3.269" stroke-linejoin="round" stroke-miterlimit="8" x1="1017.955" y1="74.264" x2="1017.955" y2="138.365"/>
<line fill="none" stroke="#0C98A7" stroke-width="3.269" stroke-linejoin="round" stroke-miterlimit="8" x1="1093.608" y1="74.264" x2="1093.608" y2="138.365"/>
<line fill="none" stroke="#0C98A7" stroke-width="3.269" stroke-linejoin="round" stroke-miterlimit="8" x1="1055.781" y1="74.264" x2="1055.781" y2="138.365"/>
<line fill="none" stroke="#0C98A7" stroke-width="3.269" stroke-linejoin="round" stroke-miterlimit="8" x1="1244.908" y1="74.264" x2="1244.908" y2="138.365"/>
<line fill="none" stroke="#0C98A7" stroke-width="3.269" stroke-linejoin="round" stroke-miterlimit="8" x1="1207.084" y1="74.264" x2="1207.084" y2="138.365"/>
<line fill="none" stroke="#0C98A7" stroke-width="3.269" stroke-linejoin="round" stroke-miterlimit="8" x1="1169.259" y1="74.264" x2="1169.259" y2="138.365"/>
<line fill="none" stroke="#0C98A7" stroke-width="3.269" stroke-linejoin="round" stroke-miterlimit="8" x1="1131.434" y1="74.264" x2="1131.434" y2="138.365"/>
<line fill="none" stroke="#0C98A7" stroke-width="3.269" stroke-linejoin="round" stroke-miterlimit="8" x1="942.305" y1="74.264" x2="942.305" y2="138.365"/>
<text transform="matrix(1 0 0 1 48.7732 198.3357)" fill="#0C98A7" font-family="'ArialRoundedMTBold'" font-size="39.228">-2</text>
<text transform="matrix(1 0 0 1 351.2112 198.3357)" fill="#0C98A7" font-family="'ArialRoundedMTBold'" font-size="39.228">-1</text>
<text transform="matrix(1 0 0 1 665.6096 198.3357)" fill="#0C98A7" font-family="'ArialRoundedMTBold'" font-size="39.228">0</text>
<text transform="matrix(1 0 0 1 969.4768 198.3357)" fill="#0C98A7" font-family="'ArialRoundedMTBold'" font-size="39.228">1</text>
<text transform="matrix(1 0 0 1 1273.2522 198.3357)" fill="#0C98A7" font-family="'ArialRoundedMTBold'" font-size="39.228">2</text>
<path id="circle01" display="none" fill="#EF5385" d="M253.556,104.322L253.556,104.322c0-4.921,4.181-8.911,9.339-8.911
	c2.479,0,4.854,0.938,6.606,2.61c1.751,1.672,2.732,3.938,2.732,6.301c0,4.923-4.181,8.913-9.341,8.913
	C257.737,113.235,253.556,109.245,253.556,104.322z"/>
<path id="circle02" display="none" fill="#EF5385" d="M404.15,105.841L404.15,105.841c0-4.921,4.181-8.907,9.339-8.907
	c2.479,0,4.854,0.938,6.605,2.606c1.751,1.672,2.732,3.938,2.732,6.301c0,4.927-4.182,8.913-9.341,8.913
	C408.328,114.754,404.15,110.764,404.15,105.841z"/>
<path id="circle03" display="none" fill="#EF5385" d="M783.065,105.841L783.065,105.841c0-4.921,4.183-8.907,9.339-8.907
	c2.479,0,4.854,0.938,6.605,2.606c1.753,1.672,2.733,3.938,2.733,6.301c0,4.927-4.183,8.913-9.343,8.913
	C787.244,114.754,783.065,110.764,783.065,105.841z"/>
<path id="circle04" display="none" fill="#EF5385" d="M858.268,105.841L858.268,105.841c0-4.921,4.182-8.907,9.34-8.907
	c2.479,0,4.854,0.938,6.605,2.606c1.751,1.672,2.732,3.938,2.732,6.301c0,4.927-4.182,8.913-9.342,8.913
	C862.448,114.754,858.268,110.764,858.268,105.841z"/>
<g id="l01" display="none">
	<g>
		<path fill="none" stroke="#231F20" stroke-width="1.7812" stroke-linejoin="round" d="M639.881,103.769
			c0-56.824-8.426-102.895-18.814-102.895c-9.749,0-17.768,40.563-18.717,92.519"/>
		<g>
			<polygon fill="#231F20" points="595.776,88.402 602.484,91.249 609.295,88.628 602.255,103.769 			"/>
		</g>
	</g>
</g>
<g id="l01a" display="none">
	<g>
		<path fill="none" stroke="#231F20" stroke-width="1.7812" stroke-linejoin="round" d="M676.881,103.769
			c0-56.824-8.426-102.895-18.814-102.895c-9.749,0-17.768,40.563-18.717,92.519"/>
		<g>
			<polygon fill="#231F20" points="632.776,88.402 639.484,91.249 646.295,88.628 639.255,103.769 			"/>
		</g>
	</g>
</g>
<g id="l02" display="none">
	<g>
		<path fill="none" stroke="#231F20" stroke-width="1.7631" stroke-linejoin="round" d="M602.364,103.769
			c0-56.824-8.252-102.895-18.432-102.895c-9.56,0-17.418,40.618-18.34,92.621"/>
		<g>
			<polygon fill="#231F20" points="559.081,88.561 565.724,91.376 572.464,88.78 565.5,103.769 			"/>
		</g>
	</g>
</g>
<g id="l03" display="none">
	<g display="inline">
		<path fill="none" stroke="#231F20" stroke-width="1.7905" stroke-linejoin="round" d="M565.612,103.769
			c0-56.824-8.513-102.895-19.01-102.895c-9.848,0-17.948,40.535-18.913,92.461"/>
		<g>
			<polygon fill="#231F20" points="521.081,88.32 527.824,91.184 534.672,88.55 527.592,103.769 			"/>
		</g>
	</g>
</g>
<g id="l04" display="none">
	<g display="inline">
		<path fill="none" stroke="#231F20" stroke-width="1.8081" stroke-linejoin="round" d="M527.703,103.769
			c0-56.824-8.679-102.895-19.386-102.895c-10.042,0-18.301,40.535-19.285,92.461"/>
		<g>
			<polygon fill="#231F20" points="482.298,88.32 489.175,91.184 496.156,88.55 488.935,103.769 			"/>
		</g>
	</g>
</g>
<g id="l05" display="none">
	<g display="inline">
		<path fill="none" stroke="#231F20" stroke-width="1.8081" stroke-linejoin="round" d="M490.028,103.769
			c0-56.824-8.679-102.895-19.386-102.895c-10.042,0-18.301,40.535-19.285,92.461"/>
		<g>
			<polygon fill="#231F20" points="444.618,88.32 451.495,91.184 458.479,88.55 451.259,103.769 			"/>
		</g>
	</g>
</g>
<g id="l06_1_" display="none">
	<g display="inline">
		<path fill="none" stroke="#231F20" stroke-width="1.8081" stroke-linejoin="round" d="M451.172,103.769
			c0-56.824-8.68-102.895-19.387-102.895c-10.042,0-18.301,40.535-19.285,92.461"/>
		<g>
			<polygon fill="#231F20" points="405.765,88.32 412.643,91.184 419.621,88.55 412.403,103.769 			"/>
		</g>
	</g>
</g>
<g id="l07" display="none">
	<g display="inline">
		<path fill="none" stroke="#231F20" stroke-width="1.8081" stroke-linejoin="round" d="M412.994,103.769
			c0-56.824-8.679-102.895-19.386-102.895c-10.042,0-18.301,40.535-19.284,92.461"/>
		<g>
			<polygon fill="#231F20" points="367.589,88.32 374.465,91.184 381.447,88.55 374.227,103.769 			"/>
		</g>
	</g>
</g>
<g id="l08" display="none">
	<g display="inline">
		<path fill="none" stroke="#231F20" stroke-width="1.779" stroke-linejoin="round" d="M374.252,103.769
			c0-56.824-8.403-102.895-18.77-102.895c-9.729,0-17.734,40.622-18.675,92.629"/>
		<g>
			<polygon fill="#231F20" points="330.177,88.572 336.946,91.385 343.813,88.791 336.718,103.769 			"/>
		</g>
	</g>
</g>
<g id="l09" display="none">
	<g display="inline">
		<path fill="none" stroke="#231F20" stroke-width="1.779" stroke-linejoin="round" d="M336.798,103.769
			c0-56.824-8.403-102.895-18.771-102.895c-9.73,0-17.733,40.622-18.674,92.629"/>
		<g>
			<polygon fill="#231F20" points="292.724,88.572 299.492,91.385 306.359,88.791 299.265,103.769 			"/>
		</g>
	</g>
</g>
<g id="l10" display="none">
	<g display="inline">
		<path fill="none" stroke="#231F20" stroke-width="1.779" stroke-linejoin="round" d="M299.667,103.769
			c0-56.824-8.403-102.895-18.77-102.895c-9.73,0-17.734,40.622-18.676,92.629"/>
		<g>
			<polygon fill="#231F20" points="255.593,88.572 262.361,91.385 269.228,88.791 262.134,103.769 			"/>
		</g>
	</g>
</g>
<g id="r01" display="none">
	<g display="inline">
		<path fill="none" stroke="#231F20" stroke-width="1.7409" stroke-linejoin="round" d="M641.011,103.769
			c0-56.824,8.045-102.895,17.973-102.895c9.321,0,16.982,40.618,17.883,92.621"/>
		<g>
			<polygon fill="#231F20" points="670.166,88.779 676.738,91.376 683.214,88.561 676.953,103.769 			"/>
		</g>
	</g>
</g>
<g id="r01_1_" display="none">
	<g display="inline">
		<path fill="none" stroke="#231F20" stroke-width="1.7745" stroke-linejoin="round" d="M677.242,103.769
			c0-56.824,8.358-102.895,18.674-102.895c9.686,0,17.646,40.618,18.58,92.621"/>
		<g>
			<polygon fill="#231F20" points="707.535,88.779 714.364,91.376 721.093,88.561 714.589,103.769 			"/>
		</g>
	</g>
</g>
<g id="r02" display="none">
	<g display="inline">
		<path fill="none" stroke="#231F20" stroke-width="1.7716" stroke-linejoin="round" d="M715.951,103.769
			c0-56.824,8.33-102.895,18.61-102.895c9.649,0,17.586,40.618,18.521,92.621"/>
		<g>
			<polygon fill="#231F20" points="746.142,88.779 752.946,91.376 759.652,88.561 753.172,103.769 			"/>
		</g>
	</g>
</g>
<g id="r03" display="none">
	<g display="inline">
		<path fill="none" stroke="#231F20" stroke-width="1.747" stroke-linejoin="round" d="M754.438,103.769
			c0-56.824,8.104-102.895,18.1-102.895c9.375,0,17.085,40.535,18.004,92.461"/>
		<g>
			<polygon fill="#231F20" points="783.891,88.55 790.406,91.184 796.826,88.32 790.631,103.769 			"/>
		</g>
	</g>
</g>
<g id="r04" display="none">
	<g display="inline">
		<path fill="none" stroke="#231F20" stroke-width="1.7839" stroke-linejoin="round" d="M790.734,103.769
			c0-56.824,8.448-102.895,18.872-102.895c9.774,0,17.813,40.535,18.773,92.461"/>
		<g>
			<polygon fill="#231F20" points="821.445,88.55 828.24,91.184 834.934,88.32 828.472,103.769 			"/>
		</g>
	</g>
</g>
<g id="r05" display="none">
	<g display="inline">
		<path fill="none" stroke="#231F20" stroke-width="1.7966" stroke-linejoin="round" d="M828.694,103.769
			c0-56.824,8.57-102.895,19.139-102.895c9.91,0,18.063,40.507,19.041,92.407"/>
		<g>
			<polygon fill="#231F20" points="859.873,88.474 866.733,91.119 873.487,88.24 866.97,103.769 			"/>
		</g>
	</g>
</g>
<g id="ar1" display="none">
	<text transform="matrix(1 0 0 1 784.3459 160.989)" display="inline" font-family="'MyriadPro-Regular'" font-size="26">3</text>
	<text transform="matrix(1 0 0 1 784.3459 187.989)" display="inline" font-family="'MyriadPro-Regular'" font-size="26">8</text>

		<line display="inline" fill="none" stroke="#000000" stroke-width="1.7387" stroke-miterlimit="10" x1="777.105" y1="165.949" x2="804.923" y2="165.949"/>
</g>
<g id="ar2" display="none">
	<text transform="matrix(1 0 0 1 401.3538 160.989)" display="inline" font-family="'MyriadPro-Regular'" font-size="26">-7</text>
	<text transform="matrix(1 0 0 1 405.3455 187.989)" display="inline" font-family="'MyriadPro-Regular'" font-size="26">8</text>

		<line display="inline" fill="none" stroke="#000000" stroke-width="1.7387" stroke-miterlimit="10" x1="398.105" y1="165.949" x2="425.923" y2="165.949"/>
</g>
<g id="ar3" display="none">
	<text transform="matrix(1 0 0 1 264.7571 160.989)" display="inline" font-family="'MyriadPro-Regular'" font-size="26">3</text>
	<text transform="matrix(1 0 0 1 238.3645 173.7166)" display="inline" font-family="'MyriadPro-Regular'" font-size="26">-1</text>
	<text transform="matrix(1 0 0 1 264.7571 187.989)" display="inline" font-family="'MyriadPro-Regular'" font-size="26">8</text>

		<line display="inline" fill="none" stroke="#000000" stroke-width="1.7387" stroke-miterlimit="10" x1="257.517" y1="165.949" x2="285.334" y2="165.949"/>
</g>
<g id="ar4" display="none">
	<text transform="matrix(1 0 0 1 859.1018 160.989)" display="inline" font-family="'MyriadPro-Regular'" font-size="26">5</text>
	<text transform="matrix(1 0 0 1 859.1018 187.989)" display="inline" font-family="'MyriadPro-Regular'" font-size="26">8</text>

		<line display="inline" fill="none" stroke="#000000" stroke-width="1.7387" stroke-miterlimit="10" x1="851.862" y1="165.949" x2="879.68" y2="165.949"/>
</g>
</svg>
