<?xml version="1.0" encoding="utf-8"?>
<!-- Generator: Adobe Illustrator 15.0.0, SVG Export Plug-In . SVG Version: 6.00 Build 0)  -->
<!DOCTYPE svg PUBLIC "-//W3C//DTD SVG 1.1//EN" "http://www.w3.org/Graphics/SVG/1.1/DTD/svg11.dtd">
<svg version="1.1" id="svg" xmlns="http://www.w3.org/2000/svg" xmlns:xlink="http://www.w3.org/1999/xlink" x="0px" y="0px"
	 width="1440.18px" height="870.18px" viewBox="0 0 1440.18 870.18" enable-background="new 0 0 1440.18 870.18"
	 xml:space="preserve">
<g id="blue_1_" class="rational option cli1">
	<path id="blue" fill="#839FFF" stroke="#FFFFFF" stroke-width="3.5" stroke-linejoin="round" stroke-miterlimit="8" d="
		M13.594,435.09L13.594,435.09c0-207.738,316.312-376.143,706.496-376.143c390.187,0,706.497,168.404,706.497,376.143
		c0,207.737-316.312,376.145-706.497,376.145C329.904,811.233,13.594,642.827,13.594,435.09z"/>
</g>
<g id="pink_1_" class="integer option cli2">
	<path id="pink" fill="#FC9DCB" stroke="#FFFFFF" stroke-width="3.5" stroke-linejoin="round" stroke-miterlimit="8" d="
		M65.914,435.09L65.914,435.09c0-144.128,235.805-260.962,526.685-260.962s526.686,116.834,526.686,260.962
		c0,144.124-235.808,260.961-526.686,260.961C301.72,696.051,65.914,579.214,65.914,435.09z"/>
</g>
<g id="orange_1_" class="wholenum option cli3">
	<path id="orange" fill="#E06666" stroke="#FFFFFF" stroke-width="3.5" stroke-linejoin="round" stroke-miterlimit="8" d="
		M224.144,435.09L224.144,435.09c0-112.594,154.02-203.868,344.012-203.868c189.99,0,344.012,91.274,344.012,203.868
		c0,112.593-154.021,203.868-344.012,203.868C378.163,638.958,224.144,547.683,224.144,435.09z"/>
</g>
<g id="yellow_1_" class="natnum option">
	<path id="yellow" class="cli4" fill="#F6B26B" stroke="#FFFFFF" stroke-width="3.5" stroke-linejoin="round" stroke-miterlimit="8" d="
		M297.796,435.09L297.796,435.09c0-66.037,91.579-119.573,204.547-119.573S706.89,369.053,706.89,435.09
		c0,66.038-91.579,119.572-204.547,119.572S297.796,501.128,297.796,435.09z"/>
</g>
<g id="_x31_" class = "natnum option ">
	<text transform="matrix(1 0 0 1 416.7549 386.8809)" fill="#FFFFFF" font-family="'ArialMT'" font-size="56">1</text>
</g>
<g id="_x35_" class='natnum option'>
	<text transform="matrix(1 0 0 1 443.8252 452.0557)" fill="#FFFFFF" font-family="'ArialMT'" font-size="56">5</text>
</g>
<g id="_x32_50" class='natnum option'>
	<text transform="matrix(1 0 0 1 398.6445 520.2178)" fill="#FFFFFF" font-family="'ArialMT'" font-size="56">250</text>
</g>
<g id="_x32_" class='natnum option'>
	<text transform="matrix(1 0 0 1 552.1064 385.8779)" fill="#FFFFFF" font-family="'ArialMT'" font-size="56">2</text>
</g>
<g id="_x31_0"  class='natnum option '>
	<text transform="matrix(1 0 0 1 563.605 451.0527)" fill="#FFFFFF" font-family="'ArialMT'" font-size="56">10</text>
</g>
<g id="_x30_" class="wholenum option">
	<text transform="matrix(1 0 0 1 790.7266 442.0244)" fill="#FFFFFF" font-family="'ArialMT'" font-size="56">0</text>
</g>
<g id="_x2D_1" class="integer option">
	<text transform="matrix(1 0 0 1 963.877 354.7969)" fill="#FFFFFF" font-family="'ArialMT'" font-size="56">-1</text>
</g>
<g id="_x31__x2F_3_1_"  >
	<g id="_x31__x2F_3" class="rational option">
		<text transform="matrix(1 0 0 1 1058.1465 227.8867)" fill="#FFFFFF" font-family="'ArialMT'" font-size="56">1</text>
		<text transform="matrix(1 0 0 1 1089.293 207.8867)" font-family="'ArialMT'" font-size="56"> </text>
		<text transform="matrix(1 0 0 1 1058.1465 295.0869)" fill="#FFFFFF" font-family="'ArialMT'" font-size="56">3</text>
		<g>
			<path fill="#FFFFFF" d="M1047.409,244.028v-3.555h52.621v3.555H1047.409z"/>
		</g>
	</g>
</g>
<g id="_x2D_5_x2F_3_1_">
	<g id="_x2D_5_x2F_3" class="rational option">
		<text transform="matrix(1 0 0 1 1169.1035 293.8828)" fill="#FFFFFF" font-family="'ArialMT'" font-size="56">-5 </text>
		<text transform="matrix(1 0 0 1 1178.4277 361.083)" fill="#FFFFFF" font-family="'ArialMT'" font-size="56">3</text>
		<g>
			<path fill="#FFFFFF" d="M1167.689,310.024v-3.555h52.619v3.555H1167.689z"/>
		</g>
	</g>
</g>
<g id="_x2D_3_x2F_4_1_">
	<g id="_x2D_3_x2F_4" class="rational option">
		<text transform="matrix(1 0 0 1 1279.832 370.3809)" fill="#FFFFFF" font-family="'ArialMT'" font-size="56">-3 </text>
		<text transform="matrix(1 0 0 1 1289.1563 437.5811)" fill="#FFFFFF" font-family="'ArialMT'" font-size="56">4</text>
		<g>
			<path fill="#FFFFFF" d="M1278.418,386.521v-3.555h52.621v3.555H1278.418z"/>
		</g>
	</g>
</g>
<g id="_x36__x2F_11_1_">
	<g id="_x36__x2F_11" class="rational option">
		<text transform="matrix(1 0 0 1 1193.1602 468.876)" fill="#FFFFFF" font-family="'ArialMT'" font-size="56">6 </text>
		<text transform="matrix(1 0 0 1 1177.5879 536.0752)" fill="#FFFFFF" font-family="'ArialMT'" font-size="56">11</text>
		<g>
			<path fill="#FFFFFF" d="M1182.422,485.017v-3.555h52.621v3.555H1182.422z"/>
		</g>
	</g>
</g>
<g id="_x37__x2F_10_1_">
	<g id="_x37__x2F_10" class="rational option">
		<text transform="matrix(1 0 0 1 1118.1641 618.8682)" fill="#FFFFFF" font-family="'ArialMT'" font-size="56">7 </text>
		<text transform="matrix(1 0 0 1 1102.5918 686.0674)" fill="#FFFFFF" font-family="'ArialMT'" font-size="56">10</text>
		<g>
			<path fill="#FFFFFF" d="M1107.426,635.009v-3.555h52.621v3.555H1107.426z"/>
		</g>
	</g>
</g>
<g id="_x2D_4" class="integer option">
	<text transform="matrix(1 0 0 1 947.8359 498.1514)" fill="#FFFFFF" font-family="'ArialMT'" font-size="56">-4</text>
</g>
<g id="_x2D_22" class="integer option">
	<text transform="matrix(1 0 0 1 1024.5156 454.0713)" fill="#FFFFFF" font-family="'ArialMT'" font-size="56">-22</text>
</g>
<g id="_x32_2"  class='natnum option'>
	<text transform="matrix(1 0 0 1 549.5684 519.2139)" fill="#FFFFFF" font-family="'ArialMT'" font-size="56">22</text>
</g>
</svg>
