selector,english_word,engmeaning,nepali_word,nepmeaning,image
प्रजनन,,,प्रजनन,उत्पादन गर्नु,
हरितकण,,,हरितकण,पातमा भएको हरियो रङ,
प्रकाश संशलेषण,,,प्रकाश संशलेषण,बिरुवाले खाना बनाउने प्रक्रिया,
खावाँ,,,खावाँ,"स्तम्भ, खम्बा; खम्बा हालेर आधार दिनु",
खनिज पदार्थलाई,,,खनिज पदार्थलाई,खनिज पदार्थ,
कार्बनडाइअक्साइड,,,कार्बनडाइअक्साइड,बिरुवाले खाना बनाउन प्रयोग गर्ने ग्यास,
