<?xml version="1.0" encoding="utf-8"?>
<!-- Generator: Adobe Illustrator 15.0.0, SVG Export Plug-In . SVG Version: 6.00 Build 0)  -->
<!DOCTYPE svg PUBLIC "-//W3C//DTD SVG 1.1//EN" "http://www.w3.org/Graphics/SVG/1.1/DTD/svg11.dtd">
<svg version="1.1" id="Layer_1" xmlns="http://www.w3.org/2000/svg" xmlns:xlink="http://www.w3.org/1999/xlink" x="0px" y="0px"
	 width="947.028px" height="821.609px" viewBox="0 0 947.028 821.609" enable-background="new 0 0 947.028 821.609"
	 xml:space="preserve">
<g>
	<path fill="#FFFFFF" d="M514.381,821.609c-70.938-0.001-139.57-14.229-203.994-42.287
		c-66.17-28.819-126.269-71.573-178.627-127.072c-9.348-9.841-18.725-19.243-27.791-28.337
		C54.108,573.91,7.014,526.678,0.79,436.452l-0.022-0.356C-2.848,372.822,6.244,325.68,29.38,287.738
		c22.245-36.48,57.434-65.383,114.096-93.714c30.481-15.24,47.08-43.324,66.301-75.842c25.25-42.72,53.871-91.137,119.57-110.283
		C346.692,2.657,371.533,0,403.19,0c66.251,0,147.949,11.344,218.542,30.346c62.89,16.928,146.724,48.14,188.974,100.706
		c60.816,75.664,143.155,233.371,135.87,347.167c-7.535,127.738-77.319,236.546-182.179,284.081
		c-81.376,39.355-165.492,59.31-250.01,59.31C514.383,821.609,514.386,821.609,514.381,821.609z"/>
</g>
<g>
	<path fill="#517335" d="M722.124,688.327l-0.347,0.156l-0.342,0.166c-68.515,33.186-139.059,50.014-209.66,50.014
		c-0.004,0-0.002,0-0.006,0c-58.567,0-115.198-11.731-168.32-34.868c-54.882-23.903-104.882-59.526-148.61-105.879
		c-9.359-9.852-18.383-18.9-27.108-27.651c-33.001-33.096-59.133-59.306-71.983-97.051c15.596,60.292,56.007,93.864,100.3,144.154
		c140.206,160.311,339.297,190.558,518.761,96.793c67.858-33.057,113.502-99.293,132.929-175.686
		C827.105,606.465,782.229,661.183,722.124,688.327z"/>
</g>
<g>
	<path fill="#ADD252" d="M825.371,322.301c-21.611-50.57-51.668-102.104-80.403-137.855
		c-23.383-29.093-75.746-55.743-147.442-75.042c-60.631-16.32-133.374-26.458-189.841-26.458c-32.847,0-47.87,3.493-52.805,4.995
		l-0.351,0.104c-40.049,11.626-58.143,42.239-79.094,77.685c-19.702,33.333-42.034,71.115-85.515,92.856
		c-42.965,21.482-68.796,42.001-83.754,66.533c-15.569,25.534-21.308,58.216-18.597,105.957c1.101,15.771,3.905,29.592,8.177,42.138
		c12.851,37.745,38.982,63.955,71.983,97.051c8.726,8.751,17.749,17.8,27.108,27.651c43.729,46.353,93.729,81.976,148.61,105.879
		c53.122,23.137,109.753,34.868,168.32,34.868c0.004,0,0.002,0,0.006,0c70.602,0,141.146-16.828,209.66-50.014l0.342-0.166
		l0.347-0.156c60.104-27.144,104.981-81.861,125.612-149.852c6.519-21.479,10.623-44.278,12.016-67.957l0.011-0.161
		C862.205,432.494,849.991,379.914,825.371,322.301z"/>
</g>
</svg>
