<?xml version="1.0" encoding="utf-8"?>
<!-- Generator: Adobe Illustrator 15.0.0, SVG Export Plug-In . SVG Version: 6.00 Build 0)  -->
<!DOCTYPE svg PUBLIC "-//W3C//DTD SVG 1.1//EN" "http://www.w3.org/Graphics/SVG/1.1/DTD/svg11.dtd">
<svg version="1.1" id="Layer_1" xmlns="http://www.w3.org/2000/svg" xmlns:xlink="http://www.w3.org/1999/xlink" x="0px" y="0px"
	 width="787.5px" height="468.5px" viewBox="0 0 787.5 468.5" enable-background="new 0 0 787.5 468.5" xml:space="preserve">

	 <!-- axon -->
<path opacity="0" fill="#AFA3CF" stroke="#000000" stroke-width="0.8" d="M677.859,212.152c0,0-4.582,1.372-5.346-0.975
	c-1.457-4.479-0.11-8.59-0.11-8.59s0.533-16.378-7.265-22.185c-6.827-5.083-10.086-6.623-15.771-0.064
	c-5.396,6.221-6.043,11.657-12.285,10.281l-5.752-2.606c0,0-0.93-3.695,0.42-7.421c1.636-4.513,5.718-9.622,7.25-15.363
	c2.796-10.481,8.572-39.776,5.598-49.532c-2.976-9.755-8.508-9.604-15.508-6.843c-6.999,2.76-7.529,6.686-11.474,5.881
	c-3.944-0.806-6.3-6.17-5.326-7.91s12.301-2.338,11.324-4.205c-0.978-1.866-3.379-7.783-8.808-9.86
	c-5.43-2.076-12.497-3.748-7.237-7.483c5.261-3.735,15.395-12.563,14.932-7.813c-0.466,4.751-4.092,8.081,3.758,12.745
	c7.851,4.664,14.577,12.742,22.975,6.544c8.399-6.197,10.536-10.801,8.859-14.554c-1.676-3.753-0.937-8.527-2.379-9.248
	c-1.442-0.72-3.119-4.476,3.264-4.413c6.385,0.062,6.513,1.715,6.92,6.954c0.405,5.238,1.847,5.958,7,4.451
	c5.155-1.507,16.142-2.914,15.317,0.757c-0.827,3.67-2.816,6.597-6.68,6.896c-3.86,0.299-10.966-1.925-15.566,3.147
	c-4.601,5.07-11.492,9.211-7.938,37.229c2.396-1.295,24.66-14.667,37.318-26.743c12.657-12.075,23.027-21.478,23.065-28.138
	c0.039-6.66-2.718-6.446-2.019-8.165c0.699-1.718,1.144-3.138,5.237-4.01c4.093-0.873,4.536-5.9,7.103-4.989
	c2.568,0.912,7.848,1.055,5.114,5.151s-3.114,6.343-3.283,7.744c-0.17,1.4-1.06,4.243,1.698,4.029
	c2.758-0.213-4.259,9.484-7.397,11.945c-3.139,2.462-0.442,5.029,7.171-0.554c7.611-5.583,12.362-5.117,11.283-1.15
	c-1.081,3.965-2.076,5.43-6.869,8.02s-7.145,4.437-12.575,5.967c-5.431,1.529-5.05,2.888-12.576,5.967
	c-7.527,3.079-20.441,15.449-32.169,21.628c-11.726,6.18-17.154,11.314-19.251,16.469c-2.097,5.157-10.428,19.392-7.521,21.109
	c2.908,1.717,12.855,4.832,15.549,0.185s7.141-11.649,14.393-18.313c7.254-6.662,13.128-9.614,16.837-11.843
	c3.711-2.229,2.567-2.694,3.16-5.791c0.591-3.099,2.158-7.935,5.065-6.218c2.907,1.716,5.92,4.811,5.56,7.336
	c-0.357,2.523,2.274,4.264,3.353,0.297c1.08-3.969,7.588-13.073,10.154-12.16c2.567,0.91,5.137,9.033,3.06,10.858
	s-3.986,5.856-8.122,6.176c-4.135,0.32-7.293,2.507-11.578,4.503c-4.284,1.995-2.479,7.402,0.914,4.645
	c3.394-2.76,10.901-2.509,9.164,0.123c-1.739,2.63,0.639,4.667-4.325,5.051c-4.964,0.385-11.729,2.572-14.994,3.379
	c-3.267,0.808-6.341,4.099-7.126,4.713s-1.461,2.608,2.949,2.269c4.411-0.342,24.373-0.501,29.252,1.618
	c4.879,2.12,14.596,5.805,23.994,8.962c9.397,3.156,14.914,6.338,20.918,8.646c6.004,2.309,12.218,0.165,8.084,4.09
	c-5.94,5.638-1.951,3.479-15.889-0.99c-13.937-4.468-33.283-10.74-31.948-7.791c1.337,2.949,12.433,6.527,16.468,15.647
	c4.033,9.12,4.252,19.089,6.822,27.211c2.568,8.123,1.256,12.662,5.605,15.1s3.647,0.548,11.814,2.136
	c8.169,1.588,9.931,2.839,6.835,5.854c-4.608,4.486-6.827,8.572-12.109,4.818c-5.284-3.751-6.281-5.894-10.675-8.881
	c-4.391-2.988-7.172-6.659-8.659-11.537c-1.487-4.877-0.449-9.396-1.297-9.607c-0.849-0.212-4.706,10.904-8.438,12.858
	c-3.731,1.953-2.181,7.658-8.208,5.074c-6.024-2.585-4.115-6.617,1.462-9.822c5.576-3.205,9.604-4.905,9.326-12.095
	c-0.279-7.19,5.657-12.919-8.156-22.946s-28.878-18.294-38.38-19.223c-9.502-0.93-18.983,2.024-14.25,5.819
	c4.731,3.795,14.662,13.843,15.068,19.083c0.405,5.239,3.615,15.844,0.156,16.354c-3.364,0.496-5.495,0.704-7.215-3.602
	c-1.719-4.306-0.666-15.76-3.912-18.282c-3.245-2.523-4.584-5.473-5.303-4.029c-0.722,1.444-1.37,18.137,0.497,20.766
	C680.105,205.32,680.893,211.917,677.859,212.152z">
	<!-- <animate id="axionshow" attributeName="opacity" from="0" to="1" begin="dendrideshow.end" dur="1s" fill="freeze"/> -->
</path>

	<!-- dendride -->
<g opacity="0">
	<path fill="#AFA3CF" stroke="#000000" stroke-width="0.8" d="M230.226,332.499c0,0,21.295,3.32,22.401,2.766
		c1.107-0.554-48.951-8.851-49.781-32.912c0,0-4.702-12.166,43.696-29.314c0,0,3.873-4.978-0.275-10.785
		c0,0-59.462-8.296-48.676-61.95c0,0,10.509-34.292,13.274-42.313c2.767-8.021,32.081-21.295,34.018-23.231
		c0,0,3.598-5.81-6.083-4.702c0-0.553,9.956-23.509,8.297-23.231c-1.659,0.276-23.786,34.847-29.594,29.039
		s11.341-68.311,11.341-70.247c0-1.936-7.192,6.361-7.192,6.361s-4.978,26.55-10.509,24.338c-5.53-2.212-5.255-3.872-5.255-3.872
		s1.937,10.508,1.937,13.551s-1.107,41.207-7.467,57.248c-6.361,16.042-8.299,34.293-11.894,34.018
		c-3.594-0.275-13.829-10.784-12.445-24.337c1.384-13.552,14.937-28.211,19.638-39.549c4.701-11.339,4.701-9.68,5.53-15.487
		c0.83-5.808,3.042-5.808,3.042-5.808s-3.595,3.042-4.701-4.979c-1.107-8.02-2.767-8.849-2.767-8.849l-3.041,4.424
		c0,0-1.383,29.039-8.85,32.635c0-3.319,0-14.104-1.106-16.594c-1.107-2.489-4.98-2.212-6.086-2.212
		c-1.104,0-3.594-2.214-3.594-2.214s-3.043-0.275-2.214,6.362c0.83,6.638,4.428,38.164,0.555,39.271s-2.489-6.083-3.596-9.402
		c-1.107-3.318-5.254-1.661-5.531-0.554c-0.276,1.106-7.191,11.338-1.937,23.231c5.256,11.893,16.869,29.593,17.977,36.783
		c1.106,7.189,4.148,37.334-9.127,31.804c-13.275-5.531-44.25-26.273-44.25-60.29c0-34.018,38.995-53.653,38.995-53.653l-6.083,0.83
		l-6.638,2.765v-8.85c0,0-17.424,27.378-21.849,22.954c-4.426-4.424,1.382-15.21,4.7-18.528
		c3.319-3.319,24.891-25.721,24.891-26.827c0-1.107-12.168,8.85-13.827,8.02c-1.66-0.83-2.487-10.231,0.277-15.486
		c2.764-5.256,4.424-10.786,4.424-10.786S142,91.337,140.065,95.208s-10.23,25.998-18.252,25.168
		c-8.021-0.83-10.233-9.403-10.233-9.403s4.977,60.568-0.277,61.674c-5.253,1.104-14.38-28.764-11.891-53.377
		c2.489-24.614,13.275-51.44,13.275-51.44l-11.063,15.486l-1.937-25.996c0,0-1.106,0.832-4.148,6.915
		c-3.041,6.083-0.002,48.397-4.426,52.546s-10.51,19.635-11.615,7.467s-1.935-27.655,0.555-38.44
		c2.488-10.786,3.316-20.191,4.424-22.956c1.106-2.765,0-5.808,0-5.808l-3.871,3.873l-3.319-10.511c0,0-3.596,6.916-3.596,9.681
		s-1.382,11.062-3.871,8.02c-2.489-3.041-9.127-11.893-9.127-11.893s1.659,6.085,2.489,6.915c0.83,0.829,5.53,38.72,2.489,40.932
		c-3.042,2.212-17.977-19.637-18.806-17.701c-0.83,1.937,6.36,19.358,9.679,23.784c3.319,4.426,32.082,42.866,34.294,48.675
		c2.213,5.808,2.767,6.639-2.488,7.191c-5.256,0.553-8.021,3.87-16.317-2.214c-8.297-6.083-12.999-11.337-17.147-18.528
		s-27.38-33.466-30.698-40.379c-3.319-6.913-0.828-34.293-1.935-35.952c-1.107-1.659-4.148,1.104-4.148,1.935s0,4.703,0,4.703
		s-4.979-2.489-6.086-3.596c-1.106-1.107-1.106,4.148-1.106,4.148s2.768-3.319,3.873,7.467s3.319,14.382,0.553,14.382
		s-5.53,1.382-5.53,1.382s34.846,34.848,33.739,42.314s-5.53,3.041-10.786,2.489c-5.255-0.553-13.276-3.044-12.722-1.107
		c0.554,1.937,3.872,7.468,7.744,8.297c3.871,0.83,11.891,2.489,14.657,3.596c2.766,1.107,18.807,16.596,24.615,17.701
		c5.808,1.104,16.594,2.21,20.742,3.594s32.633,42.039,35.399,54.484c2.766,12.445,5.806,34.292-2.767,35.952
		c-8.572,1.659-17.699-11.339-22.124-15.487c-4.426-4.148,1.659,14.935,1.659,14.935l-1.659,0.277c0,0-26.827-12.445-34.294-11.894
		c-7.468,0.553-8.021,4.701-8.021,4.701s7.743,1.659,11.339,2.767c3.596,1.106,23.785,9.958,16.318,10.233
		c-7.468,0.275-18.254,3.04-24.338,3.594c-6.085,0.555-22.955-1.937-24.613-20.742c-1.66-18.806-0.279-56.973,0.275-60.567
		c0.554-3.594,0.554-3.594,0.554-3.594s-4.148,16.594-7.468,12.168c-3.318-4.426-2.213-9.126-2.213-9.126s-3.596-1.66-3.596,0.829
		s-6.638,46.188-3.042,63.61c3.596,17.424,5.254,31.804,8.02,32.081c2.767,0.277-8.297,3.871-8.297,3.871s5.532-0.553,12.17-2.212
		s17.7-6.915,20.742-6.915s8.572-0.827,5.254,5.533c-3.319,6.36-15.763,21.849-18.528,26.55c-2.767,4.701-1.66,8.85,2.212,6.36
		c3.871-2.489,12.169-10.786,16.87-17.424c4.701-6.637,14.934-19.081,23.507-21.295c8.574-2.213,25.721-5.809,34.847,7.743
		c9.127,13.552,0.832,25.72-6.083,27.657c-6.915,1.936-25.722,7.465-39.55,12.997c-13.827,5.532-54.758,20.741-57.246,25.443
		c-2.489,4.703-0.555,4.15,6.083,2.214s24.062-10.787,25.168-10.511c1.106,0.277-0.83,5.532-6.638,15.489
		c-5.808,9.955-14.935,30.421-14.935,30.421s4.703-3.319,6.915-8.297c2.212-4.979,9.126-15.487,9.126-15.487
		s-3.597,15.485,1.105,11.892c4.702-3.595,12.721-14.382,14.935-22.401c2.213-8.021,21.851-27.38,17.978-18.807
		c-3.873,8.574-16.318,40.932-13.829,41.484s6.914-5.809,7.744-2.766s6.913,16.871,5.531,11.063
		c-1.383-5.808,1.659-16.039,1.936-22.953c0.277-6.915,11.339-25.168,16.317-30.146c4.978-4.979,28.486-11.34,34.294-5.255
		s7.744,23.232-8.02,39.55c-15.765,16.316-31.53,32.91-31.53,32.91s10.788-5.533,15.489-9.404s16.594-14.658,14.104-6.637
		s-7.469,17.425-7.192,18.807c0.277,1.383,3.595-0.275,6.638-2.488c3.044-2.214,5.808,2.764,7.745,6.083
		c1.936,3.318,5.531,2.214,4.425-3.872c-1.106-6.084-0.829-18.529,1.659-25.997c2.489-7.467,9.68-23.785,12.168-19.912
		c2.49,3.873,4.15,22.401,5.256,25.167c1.105,2.767,3.318,1.105,3.041-3.596c-0.276-4.701-7.191-52.545-3.596-56.142
		c3.596-3.596,27.104-3.318,29.039,0c1.937,3.319,12.723,28.764,13.553,36.784c0.829,8.02-1.381,21.569-1.105,25.995
		s2.766,2.489,3.318-2.212s-1.382-20.744,3.319-19.359c4.701,1.383,13.273,11.891,21.847,21.571
		c8.574,9.681,9.682,13.829,9.682,12.999c0-0.829-4.426-10.232-6.085-14.381s-1.937-8.852,1.659-8.574s14.935-0.555,17.424,0
		c2.488,0.555,4.702-1.936-1.383-4.424c-6.085-2.489-46.738-28.485-49.781-42.314s0.277-18.528,8.297-14.104
		s28.208,18.528,36.781,23.784c8.574,5.255,13,4.978,13.83,4.978c0.829,0-12.445-9.128-14.105-11.893
		C229.673,335.265,230.226,332.499,230.226,332.499z"/>
	<path fill="#5B9974" stroke="#000000" stroke-linejoin="round" d="M174.029,283.855c-5.162-8.279-19.021-17.396-25.762-8.354
		c-5.848,7.841,4.521,18.959,14.091,27.299c10.324,9.009,15.464,4.617,15.464,4.617s5.009-3.315,3.408-9.791
		C179.629,291.138,174.029,283.855,174.029,283.855z"/>
	<animate id="dendrideshow" attributeName="opacity" from="0" to="1" begin="1s" dur="1s" fill="freeze"/>
</g>

<!-- labels -->
<!-- dendride -->
<line opacity="0" fill="none" stroke="#231F20" stroke-width="1.5" x1="121.351" y1="119.686" x2="121.351" y2="15.314">
	<animate id="dendridelabel" attributeName="opacity" from="0" to="1" begin="dendrideshow.end+2.3s" dur="1s" fill="freeze"/>
</line>
<!-- axon terminal -->
<!-- <line fill="none" stroke="#231F20" stroke-width="1.5" x1="752.318" y1="168.727" x2="752.318" y2="15.314"/> -->
<!-- nucleus -->
<!-- <line fill="none" stroke="#231F20" stroke-width="1.5" x1="166.562" y1="455.596" x2="166.562" y2="289.516"/> -->

<!-- sheath -->
<!-- <line fill="none" stroke="#231F20" stroke-width="1.5" x1="469.953" y1="455.596" x2="469.953" y2="327.777"/> -->

<!-- cellbody -->
<!-- <line opacity="0" fill="none" stroke="#231F20" stroke-width="1.5" x1="209.21" y1="244.876" x2="292.708" y2="167.058">
	<animate id="cellbodylabel" attributeName="opacity" from="0" to="1" begin="dendrideshow.end" dur="1s" fill="freeze"/>
</line> -->
<!-- axon -->
<line opacity="0" fill="none" stroke="#231F20" stroke-width="1.5" x1="294.708" y1="385.596" x2="242.708" y2="274.048">
	<animate id="axonlabel" attributeName="opacity" from="0" to="1" begin="dendrideshow.end+2.3s" dur="1s" fill="freeze"/>
</line>

<!-- myelin sheath -->
<g opacity="0">
	<path fill="#AFA3CF" stroke="#000000" stroke-width="0.8" d="M250.051,261.196c-1.603,0.534,81.726,26.879,91.077,28.748
		c9.353,1.871,70.268,16.299,90.574,14.963c20.306-1.338,74.542-6.947,87.366-12.826c12.824-5.88,60.113-35.536,64.123-44.62
		l6.147-6.414l4.542,13.092c0,0-2.938,0.533-8.816,6.145c-5.879,5.612-55.309,37.94-72.141,44.086
		c-16.832,6.145-81.489,12.559-98.856,9.886c-17.366-2.672-86.3-17.099-98.857-20.841c-12.557-3.741-70-19.771-70-19.771"/>
	<path fill="#F9D566" stroke="#000000" d="M272.462,293.414c16.832,8.017,46.57,11.906,55.118-2.79
		c7.81-13.427-22.653-25.429-47.904-30.875c-27.251-5.879-34.466,4.274-34.466,4.274s-6.68,7.48,1.87,15.229
		S272.462,293.414,272.462,293.414z"/>
	<path fill="#F9D566" stroke="#000000" d="M364.244,318.569c17.429,6.619,47.425,6.918,51.168-9.666
		c3.248-14.389-22.225-19.862-47.834-23.238c-27.641-3.643-32.885,5.827-32.885,5.827s-6.049,7.999,3.102,15.027
		C346.947,313.547,364.244,318.569,364.244,318.569z"/>
	<path fill="#F9D566" stroke="#000000" d="M460.543,326.796c18.474,2.512,49.491-4.903,49.39-21.905
		c-0.09-14.75-27.866-13.398-53.577-10.899c-27.749,2.696-30.718,13.106-30.718,13.106s-4.085,9.159,6.419,13.938
		C442.559,325.813,460.543,326.796,460.543,326.796z"/>
	<path fill="#F9D566" stroke="#000000" stroke-width="0.9577" d="M612.572,191.285c0,0,12.064-17.141,24.637-4.383
		c12.573,12.759,1.525,22.168,1.525,22.168s-29.207,42.275-35.049,45.368c-5.844,3.093-11.812-1.678-15.749-5.673
		c-3.938-3.994-6.603-6.959-3.301-13.918C587.937,227.887,612.572,191.285,612.572,191.285z"/>
	<path fill="#F9D566" stroke="#000000" d="M558.68,258.948c0,0,16.162-9.815,22.183,5.228c6.017,15.042-6.564,18.84-6.564,18.84
		s-39.413,24.403-45.399,24.858c-5.986,0.453-9.299-5.623-11.184-10.332c-1.884-4.711-3.067-8.114,2.157-12.673
		C525.1,280.31,558.68,258.948,558.68,258.948z"/>
	<path fill="#E68B60" stroke="#C8743B" stroke-width="2.4891" d="M272.639,276.903c3.9,1.118,10.526-0.071,9.796-4.952
		c-0.634-4.232-6.851-4.716-12.027-4.549c-5.586,0.179-5.763,3.1-5.763,3.1s-0.455,2.541,1.9,4.136
		C268.905,276.235,272.639,276.903,272.639,276.903z"/>
	<path fill="#E68B60" stroke="#C8743B" stroke-width="2.4891" d="M370.961,310.3c3.9,1.118,10.527-0.071,9.796-4.952
		c-0.634-4.232-6.85-4.716-12.026-4.549c-5.586,0.179-5.763,3.1-5.763,3.1s-0.456,2.541,1.9,4.136
		C367.228,309.632,370.961,310.3,370.961,310.3z"/>
	<path fill="#E68B60" stroke="#C8743B" stroke-width="2.4891" d="M470.48,317.623c4.041,0.352,10.317-2.084,8.666-6.735
		c-1.433-4.033-7.626-3.316-12.676-2.161c-5.447,1.242-5.063,4.145-5.063,4.145s0.039,2.582,2.658,3.695
		C466.688,317.683,470.48,317.623,470.48,317.623z"/>
	<path fill="#E68B60" stroke="#C8743B" stroke-width="2.4891" d="M553.752,284.346c3.618-1.836,7.66-7.219,3.801-10.296
		c-3.346-2.668-8.227,1.212-11.905,4.859c-3.968,3.934-2.108,6.193-2.108,6.193s1.397,2.172,4.209,1.734
		C550.564,286.399,553.752,284.346,553.752,284.346z"/>
	<path fill="#E68B60" stroke="#C8743B" stroke-width="2.4891" d="M613.967,222.192c2.875-2.865,5.055-9.233,0.434-10.967
		c-4.006-1.504-7.45,3.694-9.82,8.301c-2.559,4.967-0.091,6.541-0.091,6.541s1.999,1.633,4.539,0.348
		C611.57,225.131,613.967,222.192,613.967,222.192z"/>

	<!-- <animate id="sheathshow" attributeName="opacity" from="0" to="1" begin="dendrideshow.end" dur="1s" fill="freeze"/> -->

</g>
</svg>
