<?xml version="1.0" encoding="utf-8"?>
<!-- Generator: Adobe Illustrator 15.0.0, SVG Export Plug-In . SVG Version: 6.00 Build 0)  -->
<!DOCTYPE svg PUBLIC "-//W3C//DTD SVG 1.1//EN" "http://www.w3.org/Graphics/SVG/1.1/DTD/svg11.dtd">
<svg version="1.1" id="Layer_1" xmlns="http://www.w3.org/2000/svg" xmlns:xlink="http://www.w3.org/1999/xlink" x="0px" y="0px"
	 width="501px" height="701px" viewBox="0 0 501 701" enable-background="new 0 0 501 701" xml:space="preserve">
<g id="fill">
	<path id="path0" fill="#000000" d="M41.733,109.756L250.42,316.349l189.156-192.531l42.609,39.406L290.03,355.943
		c6.406,2.141,19.391,14.406,38.984,36.813c19.578,22.406,30.438,37.172,32.578,44.281c7.125,23.484,10.688,44.469,10.688,62.953
		c0,19.922-7.672,39.313-23.016,58.156c-15.344,18.859-32.641,29.344-51.891,31.469c-12.844,1.438-23.188,2.141-31.031,2.141
		c-39.938,0-69.188-16.719-87.734-50.172c-13.563-24.906-20.328-50.531-20.328-76.875c0-20.641,5.328-42.703,15.984-66.203
		c3.563-7.813,13.516-20.625,29.859-38.422c9.938-10.672,17.766-17.797,23.453-21.359L19.451,129.912L41.733,109.756z
		 M265.78,374.443l-23.063,27.188c-14.516,16.344-23.578,27.703-27.203,34.094c-10.156,18.469-15.234,35.172-15.234,50.078
		c0,31.969,15.781,47.953,47.344,47.953c13.625,0,27.078-3.906,40.359-11.75c13.266-7.844,20.969-17.813,23.125-29.938
		s3.234-20.328,3.234-24.609c0-24.938-7.922-47.75-23.734-68.422C285.561,392.631,277.28,384.427,265.78,374.443z"/>
</g>
<g id="gr" display="none">
<path id="path1" fill="none" stroke="#000000" stroke-width="30.1605" stroke-linejoin="round" stroke-miterlimit="10" d="
	M35.702,121.636c0,0,242.451,240.443,270.516,269.131c29.386,30.039,87.253,174.501-33.594,174.501s-125.617-146.287-15.901-227.381
	s200.35-193.989,200.35-193.989"/>
</g>
</svg>
