<?xml version="1.0" encoding="utf-8"?>
<!-- Generator: Adobe Illustrator 15.0.0, SVG Export Plug-In . SVG Version: 6.00 Build 0)  -->
<!DOCTYPE svg PUBLIC "-//W3C//DTD SVG 1.1//EN" "http://www.w3.org/Graphics/SVG/1.1/DTD/svg11.dtd">
<svg version="1.1" id="Layer_1" xmlns="http://www.w3.org/2000/svg" xmlns:xlink="http://www.w3.org/1999/xlink" x="0px" y="0px"
	 width="1440.18px" height="870.18px" viewBox="0 0 1440.18 870.18" enable-background="new 0 0 1440.18 870.18"
	 xml:space="preserve">
<path id="path1" fill="none" stroke="#595959" stroke-width="8" stroke-linejoin="round" stroke-miterlimit="8" d="M238.525,228.599
	c0,0-199.769,6.352-199.769,202.656c0,174.783,200.923,188.222,200.923,188.222"/>
<g id="pencil">
	<path fill="#961AA3" d="M1406.951,43.696v-23.97c0-2.335-1.91-4.245-4.246-4.245h-32.85c-2.336,0-4.246,1.91-4.246,4.245v23.97"/>
	<path fill="#FBCB94" d="M1399.719,239.775c-0.488,0.001-0.982,0.002-1.496,0.005h-0.082c-0.738,0.004-1.502,0.009-2.277,0.015
		h-0.02h-0.064c-1.216,0.011-2.469,0.023-3.742,0.041c-0.104,0.001-0.199,0.002-0.301,0.003c-0.203,0.003-0.41,0.007-0.613,0.01
		c-1.104,0.016-2.217,0.033-3.336,0.054l-0.152,0.002c-0.166,0.003-0.332,0.007-0.498,0.01c-0.439,0.009-0.889,0.017-1.332,0.025
		c-0.146,0.003-0.301,0.006-0.451,0.009c-0.201,0.004-0.396,0.009-0.602,0.014c-0.453,0.009-0.904,0.02-1.354,0.029
		c-0.229,0.005-0.461,0.009-0.688,0.015l-0.238,0.006c-1.762,0.042-3.479,0.088-5.117,0.136l-0.096,0.003
		c-0.465,0.014-0.926,0.028-1.375,0.042c-0.092,0.003-0.178,0.006-0.268,0.009c-1.97,0.064-3.777,0.133-5.345,0.204l-0.123,0.005
		c-0.104,0.005-0.214,0.01-0.313,0.014c-0.455,0.022-0.867,0.042-1.256,0.063l-0.039,0.002l-0.141,0.008
		c-0.293,0.016-0.57,0.032-0.825,0.048l-0.166,0.01l-0.214,0.015c-0.182,0.012-0.35,0.024-0.505,0.035l-0.142,0.01l-0.103,0.009
		c-0.14,0.011-0.265,0.022-0.377,0.032l-0.172,0.015l-0.069,0.009c-0.107,0.011-0.193,0.021-0.275,0.032l-0.125,0.015l-0.028,0.005
		l-0.043,0.007l-0.168,0.035l-0.021,0.006l-0.018,0.003l-0.046,0.036c7.587,25.712,15.175,51.423,22.761,77.135
		c6.582-25.988,13.164-51.974,19.746-77.961C1407.646,239.855,1404.948,239.769,1399.719,239.775z"/>
	<path fill="#979595" d="M1389.959,304.356c-0.086,0-0.176,0-0.268,0.001c-0.139,0-0.275,0.001-0.418,0.002
		c-0.121,0.001-0.244,0.002-0.369,0.003c-0.117,0.002-0.234,0.003-0.354,0.004c-0.114,0.002-0.232,0.003-0.354,0.006
		c-0.121,0.002-0.244,0.004-0.367,0.006c-0.133,0.002-0.268,0.005-0.4,0.008c-0.154,0.003-0.313,0.007-0.467,0.01
		c-0.235,0.007-0.471,0.012-0.697,0.019l-0.207,0.007c-0.143,0.004-0.275,0.009-0.413,0.013c-0.106,0.004-0.231,0.007-0.339,0.011
		c-0.186,0.008-0.354,0.015-0.516,0.021l-0.068,0.003l-0.219,0.011l-0.199,0.011l-0.148,0.012l-0.041,0.003l-0.023,0.002
		l-0.051,0.004l-0.082,0.01l-0.006,0.001l-0.01,0.002l-0.035,0.007l-0.011,0.006c1.327,4.471,2.655,8.942,3.983,13.413
		c1.152-4.52,2.308-9.039,3.459-13.558C1391.346,304.37,1390.873,304.355,1389.959,304.356z"/>
	<path fill="#F05A28" d="M1386.332,73.235v168.081c0,0-4.867,4.813-10.621,4.813c-6.783,0-10.619-4.813-10.619-4.813V73.235
		H1386.332z"/>
	<path fill="#EC1C24" d="M1407.574,73.235V240.53c0,0-5.021,6.927-10.619,6.927c-7.523,0-10.623-6.042-10.623-6.042V73.235H1407.574
		z"/>
	<rect x="1365.104" y="48.892" fill="#E3B313" width="42.551" height="15.082"/>
	<rect x="1365.104" y="38.757" fill="#E3B313" width="42.551" height="6.88"/>
	<rect x="1365.104" y="66.888" fill="#E3B313" width="42.551" height="6.88"/>
	<polygon fill="#C19310" points="1409.248,47.398 1363.453,47.398 1365.104,45.636 1407.651,45.636 	"/>
	<polygon fill="#9B720B" points="1409.248,47.398 1363.453,47.398 1365.104,48.99 1407.651,48.99 	"/>
	<polygon fill="#C19310" points="1409.248,65.469 1363.453,65.469 1365.104,63.707 1407.651,63.707 	"/>
	<polygon fill="#9B720B" points="1409.248,65.469 1363.453,65.469 1365.104,67.061 1407.651,67.061 	"/>
</g>
<path id="path2" display="none" fill="none" stroke="#595959" stroke-width="8" stroke-linejoin="round" stroke-miterlimit="8" d="
	M489.528,229.039c0,0,199.222,7.763,199.222,193.996c0,184.68-199.998,194.804-199.998,194.804"/>
<path id="path3" display="none" fill="none" stroke="#595959" stroke-width="8" stroke-linejoin="round" stroke-miterlimit="8" d="
	M937.823,423.273c0,0-0.591,186.83,202.63,196.592c0,0,190.621,3.222,202.63-196.592c0,0,6.709-197.265-202.63-197.265
	C1140.454,226.011,948.979,215.643,937.823,423.273z"/>
</svg>
