<?xml version="1.0" encoding="utf-8"?>
<!-- Generator: Adobe Illustrator 15.0.0, SVG Export Plug-In . SVG Version: 6.00 Build 0)  -->
<!DOCTYPE svg PUBLIC "-//W3C//DTD SVG 1.1//EN" "http://www.w3.org/Graphics/SVG/1.1/DTD/svg11.dtd">
<svg version="1.1" id="Layer_1" xmlns="http://www.w3.org/2000/svg" xmlns:xlink="http://www.w3.org/1999/xlink" x="0px" y="0px"
	 width="450.139px" height="450.137px" viewBox="0 0 450.139 450.137" enable-background="new 0 0 450.139 450.137"
	 xml:space="preserve">
<!-- <path id="path1" fill="#C43F65" display="none" d="M225.068,396.989c-98.071,0-177.858-77.123-177.858-171.921
	c0-94.796,79.787-171.919,177.858-171.919c47.488,0,92.137,17.867,125.721,50.31c33.623,32.473,52.14,75.661,52.14,121.61
	C402.928,319.865,323.141,396.989,225.068,396.989z M225.068,60.348c-94.101,0-170.658,73.893-170.658,164.719
	c0,90.828,76.557,164.722,170.658,164.722c94.103,0,170.661-73.895,170.661-164.722c0-43.978-17.735-85.327-49.941-116.431
	C313.552,77.497,270.681,60.348,225.068,60.348z"/> -->
<path id="path1" fill="none"  stroke="#231F20" stroke-width="7.2" stroke-linejoin="round" stroke-miterlimit="8" d="M50.81,225.068
	L50.81,225.068c0-92.961,78.018-168.319,174.258-168.319c46.219,0,90.543,17.732,123.22,49.299
	c32.684,31.565,51.041,74.38,51.041,119.021c0,92.96-78.02,168.322-174.261,168.322C128.828,393.389,50.81,318.029,50.81,225.068z"
	/>
	<circle id="circle" display="none" fill="#595959" cx="217.695" cy="56.041" r="10.666"/>
	<!-- <circle id="circle01" display="none" fill="#595959" cx="217.695" cy="56.041" r="10.666"/> -->
</svg>
