<?xml version="1.0" encoding="utf-8"?>
<!-- Generator: Adobe Illustrator 15.0.0, SVG Export Plug-In . SVG Version: 6.00 Build 0)  -->
<!DOCTYPE svg PUBLIC "-//W3C//DTD SVG 1.1//EN" "http://www.w3.org/Graphics/SVG/1.1/DTD/svg11.dtd">
<svg version="1.1" id="Layer_1" xmlns="http://www.w3.org/2000/svg" xmlns:xlink="http://www.w3.org/1999/xlink" x="0px" y="0px"
	 width="1440.18px" height="870.18px" viewBox="0 0 1440.18 870.18" enable-background="new 0 0 1440.18 870.18"
	 xml:space="preserve">

<g id="gr" display="none">
<line id="path1" fill="none" stroke="#231F20" stroke-width="10" stroke-miterlimit="10" x1="310.727" y1="169.597" x2="310.727" y2="725.048"/>
<circle id="circle4" fill="#231F20" cx="310.727" cy="155.535" r="14.486"/>
<circle id="circle3" fill="#231F20" cx="310.727" cy="738.794" r="14.486"/>
<!-- <line id="path2" fill="none" stroke="#231F20" stroke-width="10" stroke-miterlimit="10" x1="773.245" y1="701.771" x2="994.455" y2="192.269"/>
<circle id="circle2" fill="#231F20" cx="767.645" cy="714.669" r="14.486"/>
<circle id="circle1" fill="#231F20" cx="999.929" cy="179.66" r="14.486"/> -->
</g>
</svg>
