<?xml version="1.0" encoding="utf-8"?>
<!-- Generator: Adobe Illustrator 15.0.0, SVG Export Plug-In . SVG Version: 6.00 Build 0)  -->
<!DOCTYPE svg PUBLIC "-//W3C//DTD SVG 1.1//EN" "http://www.w3.org/Graphics/SVG/1.1/DTD/svg11.dtd">
<svg version="1.1" id="Layer_1" xmlns="http://www.w3.org/2000/svg" xmlns:xlink="http://www.w3.org/1999/xlink" x="0px" y="0px"
	 width="28.973px" height="612.23px" viewBox="0 0 28.973 612.23" enable-background="new 0 0 28.973 612.23" xml:space="preserve">
<rect id="path0" x="9.486" y="28.548" fill="#000000" width="10" height="555.45"/>

	<circle id="circle" display="none" fill="#231F20" cx="14.486" cy="14.486" r="14.486"/>
	<circle id="circle01" display="none" fill="#231F20" cx="14.486" cy="597.745" r="14.486"/>

<g id="gr" display="none">
<line id="path1" fill="none" stroke="#231F20" stroke-width="10" stroke-miterlimit="10" x1="14.486" y1="28.548" x2="14.486" y2="583.999"/>
</g>
</svg>
