{
  "wtg": {
    "lesson_name": "weight",
    "about_the_lesson_content": {
      "en": "Weight is the heaviness of an object. In this E-Paath, students will be introduced to the basic concept of weights. Through visuals and interactive activities, students will test the weight of various objects. They will also be familiar with standard weight measuring tools.  ",
      "np": "वस्तुको भारीपन नै तौल हो। यो ई-पाठले तौल सम्‍बन्धी आधारभूत अवधारणालाई विद्यार्थीहरू माझ परिचित बनाउँछ। अन्तरक्रियात्मक क्रियाकलापको माध्यमबाट विद्यार्थीहरूले विभिन्‍न वस्तुहरूको तौल परिक्षण गर्छन् साथै तौल नाप्‍ने प्रामाणिक (प्रचलित) उपकरणहरूसँग परिचित हुनेछन्।"
    },
    "curricular_requirement_content": {
      "en": "Ten periods have been allocated for weights. About 5% of the final exam questions will be based on weights. ",
      "np": "यो पाठको लागि दश घन्टी दिइएको छ। अन्‍तिम परीक्षामा प्रश्‍नहरूको लगभग 5% तौलमा आधारित हुनेछ।"
    },
    "prerequisites_content": {
      "paragraph": {
        "en": "Students should have a good sense of numbers so that they do not have trouble working with standard weight measuring tools. Teachers can use the following two chapters for review. ",
        "np": "विद्यार्थीहरूलाई सङ्‍ख्‍याको राम्रो ज्ञान हुनुपर्छ जसकारण उनीहरूलाई तौल नाप्‍ने प्रचलित उपकरणहरूसँग काम गर्दा कुनै समस्या नहोस्। शिक्षकहरूले निम्‍न दुई ई-पाठहरू समीक्षाको लागि प्रयोग गर्नु उपयोगी हुन्छ।  "
      },
      "chapter_links": {
        "chapter_link_data1": {
          "grade": "2",
          "id": "con",
          "breadcrumb_data": {
            "en": "Grade 2 > Comparison of Numbers",
            "np": " कक्षा २  ➔ सङ्ख्याहरूको तुलना "
          }
        },
        "chapter_link_data2": {
          "grade": "2",
          "id": "pvl",
          "breadcrumb_data": {
            "en": "Grade 2 > Place Value of 3-digit numbers",
            "np": " कक्षा २  ➔ तीन अङ्‌कले बनेका सङ्ख्याहरूको स्थानमान "
          }
        }
      }
    },
    "lesson_guidelines_content": {
      "en": {
        "paragraph": "At least five days should be allocated for the E-Paath lesson. ",
        "list": [
          "Day 1: Students could go through the first three sections as an introduction to the topic. ",
          "Day 2: Section 4 (standard weight measuring tools): Teachers should take their time since the concept may be tricky for some students. ",
          "Day 3: Sections 5 and 6 (practical examples): It might be easier for students to make practical connections to these sections. ",
          "Days 4, 5 and onwards: It is highly recommended that teachers provide more practical experiences to students such as a field trip to a local store so that students can witness how shopkeepers use weights. "
        ]
      },
      "np": {
        "paragraph": "यो ई-पाठ को लागि कम्तिमा पाँच दिन छुट्टाईएको छ।",
        "list": [
          "दिन 1: भागहरू 1, 2 र 3: विद्यार्थीहरू तौलसँग परिचित हुन, पहिलो दिनमा सुरुका 3 भागहरू अध्ययन गर्न सक्छन्।",
          "दिन 2: भाग 4 (तौल नाप्‍ने प्रचलित उपकरणहरू): केही विद्यार्थीहरूको लागि यो अवधारणा केहि कठिन हुन सक्ने हुदा शिक्षकहरूले पर्याप्त समय दिनु पर्छ।",
          "दिन 3: भागहरू 5 र 6 (व्यावहारिक/प्रयोगात्मक उदाहरणहरू): व्यावहारिक उदाहरणहरूले गर्दा विद्यार्थीहरूलाई अवधारणा बुझ्‍न झनै सजिलो हुन्छ। छ।",
          "दिनहरू 4, 5 र त्यसपछि: विद्यार्थीहरूलाई स्थानीय पसल वा भण्डारको अनिवार्य भ्रमण गराउनु पर्दछ ताकि विद्यार्थीहरूले सामानको तौल कसरी नाप्दछन् भन्‍ने व्यावहारिक ज्ञानहरू प्रत्यक्ष हासिल गर्न सकुन्।"
        ]
      }
    },
    "related_activities_content": {
      "en": {
        "paragraph": "",
        "list": [
          "If a field trip to a local store is difficult, teachers could bring examples of standard weight measuring tools in the classroom as well as a beam balance to demonstrate how weights are used. ",
          "If possible, students could practice weighing objects in the classroom."
        ]
      },
      "np": {
        "paragraph": "",
        "list": [
          "यदि स्थानीय पसल वा भण्डारको भ्रमण गर्न कठिन छ भने, शिक्षिकले तराजु लगायत तौल नाप्‍ने प्रचलित उपकरणहरू कक्षामा लिएर आउनु साथै तौल को नाप कसरी लिईन्छ भनेर देखाउन सकिन्छ।",
          "यदि सम्भव भएमा, विद्यार्थीहरूले कक्षामा वस्तुहरूको तौल नाप्‍ने अभ्यास गर्न सक्छन्।"
        ]
      }
    },
    "evaluation_content": {
      "en": {
        "paragraph": " ",
        "list": ["", ""]
      },
      "np": {
        "paragraph": " ",
        "list": ["", ""]
      }
    }
  },
  "fra": {
    "lesson_name": "fractions",
    "about_the_lesson_content": {
      "en": "A fraction represents a part of a whole or any number of equal parts. In this E-Paath lesson, students will be introduced to the most basic fractions. Students will be able to identify these fractions and also shade visual representations of fractions in an interactive way.  ",
      "np": "भिन्‍न भनेको सिङ्‍गो वस्‍तुको कुनै एक वा एक भन्‍दा धेरै बराबर भागहरू हो। यो ई-पाठमा विद्यार्थीहरू भिन्‍नको आधारभूत धारणाहरुसँग परिचित हुन्छन्। विद्यार्थीहरूले भिन्‍न पहिचान गर्न र अन्तरक्रियात्मक तरिकाले त्यसलाई छाया पार्न सक्छन्।"
    },
    "curricular_requirement_content": {
      "en": "Five periods have been allocated for fractions. ",
      "np": "यो पाठ को लागि पाँच घन्टी दिइएको छ। अन्‍तिम परीक्षामा प्रश्‍नहरूको लगभग 3% भिन्‍नमा आधारित हुनेछ।"
    },
    "prerequisites_content": {
      "paragraph": {
        "en": "Students should have a good sense of numbers so that they do not have trouble working with standard weight measuring tools. Teachers can use the following two chapters for review. ",
        "np": "विद्यार्थीहरूलाई सङ्‍ख्‍याको राम्रो ज्ञान हुनुपर्छ जसकारण उनीहरूलाई तौल नाप्‍ने प्रचलित उपकरणहरूसँग काम गर्दा कुनै समस्या नहोस्। शिक्षकहरूले निम्‍न दुई ई-पाठहरू समीक्षाको लागि प्रयोग गर्नु उपयोगी हुन्छ।  "
      },
      "chapter_links": {
        "chapter_link_data1": {
          "grade": "1",
          "id": "nmb",
          "breadcrumb_data": {
            "en": " Grade 1 ≻ Numbers from 1 to 5 ",
            "np": " कक्षा १ ≻ १ देखि ५ सम्मका सङ्ख्याहरू "
          }
        }
      }
    },
    "lesson_guidelines_content": {
      "en": {
        "paragraph": "At least two days should be allocated for the E-Paath lesson. ",
        "list": [
          "The first two sections uses a circle to introduce basic fractions such as ½ and ⅓. These visuals will support students’ understanding. Teachers could also provide more examples on the board. Sections 3, 4 and 5 are related to everyday objects.",
          "For students who need more practice, teachers could use textbook or worksheets."
        ]
      },
      "np": {
        "paragraph": "यो ई-पाठ को लागि कम्तिमा दुई दिन छुट्टाईएको छ।",
        "list": [
          "दिन 1: भागहरु 1 र 2: विद्यार्थीहरूले सुरुका 2 भागहरू अध्ययन गरिसकेपछि, शिक्षकहरूले पाटीमा थप उदाहरणहरू दिन सक्छन्।",
          "दिन 2: भागहरु 3, 4 र 5: (दैनिक प्रयोग हुने वस्तुहरूसँगको सम्बन्ध र भिन्‍नमा ब्यक्त गर्ने तरीका) हरेक विद्यार्थीहरूले भिन्‍नको अवधारणा नबुझेसम्म, शिक्षकहरूले थप उदाहरणहरू दिन सक्छन्। विद्यार्थीहरूले पनि आ-आफ्नो कापिमा भिन्‍नहरूलाई छाया पार्न सक्छन्।"
        ]
      }
    },
    "related_activities_content": {
      "en": {
        "paragraph": "",
        "list": [
          "Students can copy diagrams from the board and use color-pencils to shade fractions.",
          "Students can practice problems from the textbook for homework. ",
          "Teachers can provide additional fraction problems for students to practice in class or at home.  "
        ]
      },
      "np": {
        "paragraph": "",
        "list": [
          "विद्यार्थीहरूले पाटीबाट चित्र सार्न र रंगीन सिसाकलम प्रयोग गरी भिन्‍नलाई छाया पार्न सक्छन्।",
          "विद्यार्थीहरूले गृहकार्यको लागि किताबबाट अभ्यास गर्न सक्छन्।",
          "शिक्षकहरूले कक्षा वा घरमा अभ्यास गर्न भिन्‍न सम्बन्धी थप समस्याहरू दिन सक्छन्।"
        ]
      }
    },
    "evaluation_content": {
      "en": {
        "paragraph": " ",
        "list": ["", ""]
      },
      "np": {
        "paragraph": " ",
        "list": ["", ""]
      }
    }
  },
  "mrl": {
    "lesson_name": "Multiplication as Repeated Addition",
    "about_the_lesson_content": {
      "en": "Towards the middle of Grade 2, most students should have a good grasp of basic addition. Multiplication should be introduced only after students demonstrate mastery over addition, both in terms of concept, number sense and accuracy. That is why teachers are recommended to use this E-Paath to introduce multiplication because it relies on the concept of addition, or “Multiplication as Repeated Addition.” ",
      "np": "कक्षा २ को बिच सत्रमा विद्यार्थीहरूले सरल जोड सम्‍बन्‍धी धारणाहरू जानेको हुनुपर्दछ। यस ई-पाठमा विद्यार्थीहरूले गुणनलाई दोहोरिएको जोडको रूपमा व्‍यक्‍त गर्न सिकाइएको छ।"
    },
    "curricular_requirement_content": {
      "en": "Teachers should allocate about twelve periods in total for multiplication. About 6% of the final exam questions will be based on multiplication. But keep in mind that E-Paath has more than chapter on multiplication. For this concept - Multiplication as Repeated Addition - teachers should allocate about three periods in total. ",
      "np": "कक्षा २ को “गुणन” को लागि १२ घन्टी दिइएको भएतापनि गणितको अति आवश्‍यक क्रिया भएकोले विद्यार्थीहरूको आवश्यकता अनुसार समय दिएर सिकाउन सकिनेछ। "
    },
    "prerequisites_content": {
      "paragraph": {
        "en": "Students should have mastery over one and two digit addition before being introduced to multiplication. Please make sure that the following two E-Paaths have been covered before teaching multiplication. ",
        "np": "यो पाठ सुरु गर्नु अघि विद्यार्थीहरूले दुई अङ्‍किय सङ्‍ख्‍याहरूको जोड गर्न जानेको हुनुपर्दछ। तल दिइएका ई-पाठहरूको समीक्षा गर्नु उपयोगी हुन्छ। "
      },
      "chapter_links": {
        "chapter_link_data1": {
          "grade": "1",
          "id": "adt",
          "breadcrumb_data": {
            "en": " Grade 1 ≻ Basic Addition",
            "np": " कक्षा १ ≻ सरल जोड                             "
          }
        },
        "chapter_link_data2": {
          "grade": "2",
          "id": "add",
          "breadcrumb_data": {
            "en": " Grade 2 ≻ Addition",
            "np": " कक्षा २ ≻ जोड"
          }
        }
      }
    },
    "lesson_guidelines_content": {
      "en": {
        "paragraph": "At least three teaching hours should be allocated for this E-Paath lesson. ",
        "list": [
          "Day 1 (Sections 1 and 2): To build a strong foundation, Section 1 introduces multiplication by using visuals to help students count, then skip-count and then links these ideas to multiplication as repeated addition. Teachers should provide similar examples on the board for practice. Section 2 is a DIY. ",
          "Day 2: (Sections 3 and 4): For more practice, these sections use bigger numbers to teach the same concept. ",
          "Day 3: Section 5 is more interactive. Students can match numbers with visuals using trial and error."
        ]
      },
      "np": {
        "paragraph": "यो ई-पाठलाई कम्तिमा तीन घन्टी छुट्‍याउनु पर्दछ। ",
        "list": [
          "दिन १: (पृष्‍ठहरू १ र २); ई-पाठको पहिलो पृष्‍ठमा एनिमेशनको प्रयोग गरी गुणनलाई दोहोरिएको जोडको रूपमा व्‍यक्‍त गर्न सिकाइएको छ। शिक्षकले पाठको जस्तै उदाहरण दिएर थप अभ्‍यास गराउनु पर्दछ। पृष्‍ठ २ मा आँफै गर दिइएको छ।",
          "दिन २: (पृष्‍ठहरू ३ र ४); यो पृष्‍ठमा ठुलो सङ्ख्‍याहरूको प्रयोग बाट त्यहि धारणाको थप अभ्‍यास गराइएको छ।",
          "दिन ३: पृष्‍ठ ५  अझैँ अन्‍तरक्रियात्‍मक भएकोले दिइएको चित्र अनुसार विद्यार्थीहरूले सही सङ्‍ख्‍या अनुमान गर्न सक्‍छन्।"
        ]
      }
    },
    "related_activities_content": {
      "en": {
        "paragraph": "",
        "list": [
          "Since this E-Paath uses language, some students might struggle. Hence, visuals are used as support. A lot of practice with both language, visuals as well as hands-on work will help students master the concept. Teachers could also provide examples from the classroom such as separating students into groups to practice skip counting and relating the activity with number sentences on the board. ",
          "Students could come up with their own word problems that requires repeated addition. Partners can solve each other’s problems.  "
        ]
      },
      "np": {
        "paragraph": "",
        "list": [
          "भाषामा कमजोर देखिएका विद्यार्थीहरूसँग शिक्षकले कुराकानी, छलफल र प्रश्‍नोत्‍तरको माध्‍यमबाट विद्यार्थीहरूले पाठको आशय बुझेका छन् वा छैनन् पत्ता लगाउन सकिन्‍छ। उनीहरूलाई विभिन्‍न चित्रहरूको माध्‍यमबाट बुझाउन सकिन्‍छ।",
          "ई-पाठको जस्‍तै विद्यार्थीहरूलाई आफ्‍नै शाब्‍दिक समस्‍या बनाउन लगाएर समूहमा छलफल गर्न तथा एक अर्कोको समस्‍या हल गर्न लगाउन सकिन्‍छ।"
        ]
      }
    },
    "evaluation_content": {
      "en": {
        "paragraph": " ",
        "list": ["", ""]
      },
      "np": {
        "paragraph": " ",
        "list": ["", ""]
      }
    }
  },
  "set": {
    "lesson_name": "Sets",
    "about_the_lesson_content": {
      "en": "A collection of distinct objects is referred as a set in mathematics. This concept helps students think about patterns and membership. ",
      "np": "विभिन्‍न वस्‍तुहरूको सङ्‍ग्रहलाई समूह भनिन्‍छ। समूहको शिक्षणले विद्यार्थीहरूलाई वस्‍तुको ढाँचा र सदस्‍यता बुझ्‍न सजिलो हुन्‍छ। "
    },
    "curricular_requirement_content": {
      "en": "Eight periods have been allocated for Sets. About 4% of the final exam questions will be based on this topic. ",
      "np": "यो पाठबाट ४% जति प्रश्‍नहरू अन्तिम परिक्षामा समेटिएको हुन्छ। "
    },
    "prerequisites_content": {
      "paragraph": {
        "en": "The introduction to sets can be a relatively easy concept. It can be playful and fun for students. No major prerequisite is needed other than grade-level language functions. ",
        "np": "यो समूहको सामान्‍य परिचयात्‍मक पाठ भएकोले पाठ सुरु गर्नु अघि कुनै पूर्व आवश्‍यकता पर्दैन। तर कक्षा २ को स्‍तर अनुसार सामान्‍य भाषाको ज्ञान भने हुनुपर्छ।"
      },
      "chapter_links": {}
    },
    "lesson_guidelines_content": {
      "en": {
        "paragraph": "At least three days should be allocated for this E-Paath lesson. ",
        "list": [
          "Day 1: (Sections 1): This section provides an introduction. If there is time, teachers should provide more examples.",
          "Day 2: (Section 2, DIY): This interactive DIY will support students’ emerging understanding. ",
          "Day 3: This section introduces sets of numbers, which can be more difficult for Grade 2 students. "
        ]
      },
      "np": {
        "paragraph": "\"यो ई-पाठ को लागि कम्तिमा तीन दिन छुट्टाईएको छ।",
        "list": [
          "ई-पाठको पहिलो पृष्‍ठमा दैनिक जीवनमा प्रयोग हुने सामानहरू लाई समूह बनाएर देखाएको छ। ",
          "विद्यार्थीहरूले दोस्रो पृष्‍ठमा भएको अन्‍तरक्रियात्‍मक “आफैँ गर” बाट उस्‍तै वस्‍तुलाई एउटै समूहमा राख्‍न सिक्‍छन्।",
          "तेस्रो पृष्‍ठमा सङ्‍ख्‍याहरूको समूह बनाउन सिकाइएको छ।"
        ]
      }
    },
    "related_activities_content": {
      "en": {
        "paragraph": "",
        "list": [
          "A movement activity goes well with this concept. A playful activity could be designed. For example, teachers can ask students to form groups based on “A set of boys”, “A set of girls,” or “A set of students whose name starts with P”, etc. ",
          "Teachers could bring a variety of objects - stationary, stones, fruits and vegetables - and ask students to form sets. "
        ]
      },
      "np": {
        "paragraph": "",
        "list": [
          "कक्षा २ का विद्यार्थीहरू खेल्‍दै पढ्‍दै गर्ने प्रकृतिका हुने भएकोले समूह सम्‍बन्‍धी खेल खेलाएर पाठलाई अझै रोचक बनाउन सकिन्‍छ। उदाहरणको लागि, विद्यार्थीहरूलाई “केटाहरूको समूह”, “केटीहरूको समूह”,  “क बाट नाम सुरु हुने विद्यार्थीहरूको समूह” सोध्‍न सकिन्‍छ। ",
          "शिक्षकले विभिन्‍न वस्‍तुहरू जस्‍तै फलफूलहरू, तरकारीहरू, ढुङ्‍गाहरू ल्‍याएर समूह बनाउन लगाउन सकिन्‍छ।"
        ]
      }
    },
    "evaluation_content": {
      "en": {
        "paragraph": " ",
        "list": ["", ""]
      },
      "np": {
        "paragraph": " ",
        "list": ["", ""]
      }
    }
  },
  "bgh": {
    "lesson_name": "Bar Graph",
    "about_the_lesson_content": {
      "en": " A bar graph is a display of data on a graph using bars of different heights. In this E-Paath, students are shown how to construct a bar graph. They are also introduced to the various parts of a bar graph. Also included are situations where bar graphs are used to solve problems.  ",
      "np": "तथ्‍याङ्‍कलाई एकै झलकमा धेरै जानकारीहरू अर्थपूर्ण तरिकाले सहजै बुझ्‍न सक्‍ने गरी प्रस्‍तुत गर्नुपर्दा स्‍तम्‍भचित्र बनाएर प्रस्‍तुत गरिन्‍छ। यो ई-पाठमा विद्यार्थीहरूलाई स्‍तम्‍भचित्रको रचना गर्न सिकाइएको छ। साथै स्‍तम्‍भचित्रको प्रयोगबाट समस्‍या हल गर्न पनि सिकाइएको छ।"
    },
    "curricular_requirement_content": {
      "en": "Ten periods have been allocated for Statistics. About 5% of the final exam questions will be based on this topic. For Grade 2, the curriculum has identified “Bar Graphs” as a primary concept within this topic. ",
      "np": "कक्षा २ को “स्‍तम्‍भचित्र” को लागि १० घन्टी दिइएको छ। यसको पाठ्‍यभार ५% दिइएको छ।"
    },
    "prerequisites_content": {
      "paragraph": {
        "en": "Class 1 students have been introduced to Pictographs. This Grade 2 E-Paath builds on that concept. Teachers could refer to the Grade 1 E-Paath for review.  ",
        "np": "यो पाठ सुरु गर्नु अघि विद्यार्थीहरूले तल दिइएको कक्षा १ को ई-पाठ “चित्रग्राफ” को समीक्षा गर्नु उपयोगी हुन्छ।"
      },
      "chapter_links": {
        "chapter_link_data1": {
          "grade": "1",
          "id": "den",
          "breadcrumb_data": {
            "en": " Grade 1 ≻ Pictograph",
            "np": " कक्षा १ ≻ चित्रग्राफ"
          }
        }
      }
    },
    "lesson_guidelines_content": {
      "en": {
        "paragraph": "The E-Paath starts with an introduction to the various parts of a bar graph. Students are then asked to look at a bar graph and extract relevant information. Then, through interactive design, students are asked to create a bar graph in a step-by-step way. Towards the end, there is another, more advanced DIY. ",
        "list": []
      },
      "np": {
        "paragraph": "स्‍तम्‍भचित्रका विभिन्‍न भागहरूको परिचयबाट यो ई-पाठ सुरु गरिएको छ। त्यसपछि सरल स्‍तम्‍भचित्र पढ्न र त्‍यसबाट जानकारी प्राप्‍त गर्न सिकाइएको छ। साथै यहाँ विद्यार्थीहरूलाई अन्‍तरक्रियात्‍मक तरिकाबाट स्‍तम्‍भचित्र बनाउन लगाइएको छ।",
        "list": []
      }
    },
    "related_activities_content": {
      "en": {
        "paragraph": "",
        "list": [
          "Teachers could provide graph paper where students can be instructed to draw bar graphs based on simple data. ",
          "Students can work in partnerships to create and solve problems which include bar graphs. "
        ]
      },
      "np": {
        "paragraph": "",
        "list": [
          "विद्यार्थीहरूले ग्राफमा सामान्‍य तथ्‍याङ्‍कलाई स्‍तम्‍भचित्रमा प्रस्तुत गर्न सक्‍छन्।",
          "विद्यार्थीहरू समूहमा छलफल गर्दै स्‍तम्‍भचित्र सम्‍बन्‍धी प्रश्‍नहरू बनाएर हल गर्न सक्‍छन्।"
        ]
      }
    },
    "evaluation_content": {
      "en": {
        "paragraph": " ",
        "list": ["", ""]
      },
      "np": {
        "paragraph": " ",
        "list": ["", ""]
      }
    }
  },
  "bdv": {
    "lesson_name": "Basic Division",
    "about_the_lesson_content": {
      "en": "Students are expected to read and understand word problems that include division. DIYs, visuals and interactive approaches have been used to provide more practice. Symbols associated with division are also included in the E-Paath. ",
      "np": "यस ई-पाठमा विद्यार्थीहरूले विभाजक चिह्‍नको प्रयोग तथा सरल भाग सम्‍बन्‍धी व्‍यावहारिक समस्‍याहरू पढ्‍ने र बुझ्‍ने अपेक्षा गरिएको छ। यसको धारणा स्पष्ट पार्न विषयवस्तुलाई सचित्र एनिमेशनको माध्यमबाट बुझाउन खोजिएको छ। "
    },
    "curricular_requirement_content": {
      "en": "About twelve periods have been allocated to division. ",
      "np": "कक्षा २ को “सरल भाग” को लागि १२ घन्टी दिइएको छ। "
    },
    "prerequisites_content": {
      "paragraph": {
        "en": "Students were introduced to the concept of division in the following Grade 1 E-Paath. Teachers could go over the ideas for review, either with or without E-Paath. ",
        "np": "विद्यार्थीहरूलाई तल दिइएको ई-पाठमा सरल भाग सम्‍बन्‍धी सामान्‍य धारणाहरू सिकाइएको छ। शिक्षकले उक्‍त पाठको माध्‍यमबाट वा आफैँ मौखिक रूपमा सरल भाग सम्‍बन्‍धी सामान्‍य धारणाहरू वर्णन तथा छलफल गर्नु पर्दछ।"
      },
      "chapter_links": {
        "chapter_link_data1": {
          "grade": "1",
          "id": "div",
          "breadcrumb_data": {
            "en": " Grade 1 ≻ Basic Division",
            "np": "१ कक्षा  ≻ सरल भाग"
          }
        }
      }
    },
    "lesson_guidelines_content": {
      "en": {
        "paragraph": "Only after students have been introduced to the concept of division should they go through this E-Paath. The first word problem asks students to divide 12 cups equally on 4 trays. Through animation, students get a demonstration of ‘division’ where one cup is placed on each tray, then 2 and so on. Teachers should conduct discussions with students to make sure they understand the problem before asking them to solve it. Furthermore, if teachers can also physically demonstrate the problem by getting actual cups and trays, that will be even more helpful to students, especially to those who struggle with language. Division symbols and terms are also introduced in this E-Paath. In the DIY students are asked to divide 15 erasers equally among 5 friends. ",
        "list": []
      },
      "np": {
        "paragraph": "सरल भाग सम्‍बन्‍धी सामान्‍य धारणाहरूको वर्णन तथा छलफल पछि यो ई-पाठ सुरु गर्न सकिन्‍छ। पहिलो व्‍यावहारिक समस्‍याको रूपमा विद्यार्थीहरूलाई १२ ओटा गिलासहरूलाई ४ ओटा थालीमा बराबर भाग लगाऊ। सचित्र एनिमेशनको माध्यमबाट भाग सम्‍बन्‍धी धारणाहरू बुझाउन खोजिएको छ। शिक्षकले कुराकानी, छलफल र प्रश्‍नोत्‍तरको माध्‍यमबाट विद्यार्थीहरूले पाठको आशय बुझेका छन् वा छैनन् पत्ता लगाउन सकिन्‍छ। “आफैँ गर” पृष्‍ठहरूले पाठमा रोचकता थप्‍नुको साथै विद्यार्थीहरूलाई प्रयाप्‍त अभ्‍यास गर्न सहयोग पुग्‍छ।",
        "list": []
      }
    },
    "related_activities_content": {
      "en": {
        "paragraph": "",
        "list": [
          "Students should be encouraged to come up with their own division word problems, either using the same numbers used in the E-Paath or different ones. ",
          "Students should also be allowed to draw pictures while solving problems. Struggling students may need concrete experiences - such as counting real objects and separating them into equal groups- so that they understand the concepts clearly.  "
        ]
      },
      "np": {
        "paragraph": "",
        "list": [
          "ई-पाठमा जस्‍तै विद्यार्थीहरूलाई आफैँ व्‍यावहारिक समस्‍याहरू बनाएर कुराकानी, छलफल, प्रश्‍नोत्‍तर अभिनय तथा भूमिका निर्वाह, खेलजस्‍ता विद्यार्थीकेन्‍द्रित क्रियाकलाप गराउन सकिन्‍छ।",
          "विद्यार्थीहरूले ठोस वस्‍तुको प्रयोग गरेर गन्‍ति गर्दै समस्‍याहरू हल गर्न सक्‍छन्। "
        ]
      }
    },
    "evaluation_content": {
      "en": {
        "paragraph": " ",
        "list": ["", ""]
      },
      "np": {
        "paragraph": " ",
        "list": ["", ""]
      }
    }
  },
  "mwp": {
    "lesson_name": "Simple Multiplication Word Problems",
    "about_the_lesson_content": {
      "en": "Students are expected to read and understand word problems that include multiplication. DIYs and interactive approaches provide more practice to students with multiplication concepts, especially with the concept of ‘multiplication as repeated addition’. ",
      "np": "यस ई-पाठमा विद्यार्थीहरूले गुणनसँग सम्‍बन्‍धित शाब्‍दिक समस्‍याहरू पढ्‍न र बुझ्‍न सक्‍ने अपेक्षा गरिएको छ। “आफैँ गर” को माध्‍यमबाट अन्‍तरक्रियात्‍मक तरिकाले गुणनका समस्‍याहरू अभ्‍यास गर्न सक्‍नेछन्।"
    },
    "curricular_requirement_content": {
      "en": "About twelve periods have been allocated to multiplication.",
      "np": "कक्षा २ को “गुणन” को लागि १२ घन्टी दिइएको भएतापनि गणितको अति आवश्‍यक क्रिया भएकोले विद्यार्थीहरूको आवश्यकता अनुसार समय दिएर सिकाउन सकिनेछ। "
    },
    "prerequisites_content": {
      "paragraph": {
        "en": "Before this E-Paath, teachers should introduce students to the following E-Paath.  ",
        "np": "विद्यार्थीहरूले गुणन सम्‍बन्‍धी कक्षा २ का सबै ई-पाठहरू पढिसकेको हुनुपर्दछ। उनीहरूले तल दिइएको ई-पाठको समीक्षा गर्न सक्छन्।"
      },
      "chapter_links": {
        "chapter_link_data1": {
          "grade": "2",
          "id": "mrl",
          "breadcrumb_data": {
            "en": " Grade 2 ≻ Multiplication as Repeated Addition",
            "np": " कक्षा २ ≻ गुणन र जोडको सम्‍बन्‍ध"
          }
        }
      }
    },
    "lesson_guidelines_content": {
      "en": {
        "paragraph": "Only after students have been introduced to the concept of ‘multiplication as repeated addition’ should they go through this E-Paath. Teachers should also present each problem carefully and conduct discussions with students to make sure they understand each problem before asking them to solve it. Some students may struggle with the language, in which case teachers should explain and provide support. Key words and phrases such as “each”, “in total”, etc.,  should be carefully explained. ",
        "list": []
      },
      "np": {
        "paragraph": "सुरुमा शिक्षकले गुणनलाई दोहोरिएको जोडको रूपमा व्‍यक्‍त गर्ने तरिका पुनः दोहोर्‍याउनु पर्दछ। शिक्षकले कुराकानी, छलफल र प्रश्‍नोत्‍तरको माध्‍यमबाट विद्यार्थीहरूले प्रश्‍नको आशय बुझेका छन् वा छैनन् पत्ता लगाउन सकिन्‍छ। भाषामा कमजोर देखिएका विद्यार्थीहरूलाई विशेष निगरानी राख्‍दै बुझाउँदै जानु पर्दछ। “प्रत्येक”, “जम्‍मा” “हरेक” जस्‍ता शब्‍दहरूको राम्रोसँग व्‍याख्‍या गर्नुपर्दछ।",
        "list": []
      }
    },
    "related_activities_content": {
      "en": {
        "paragraph": "",
        "list": [
          "Students should be encouraged to come up with their own multiplication word problems, either using the same numbers in the E-Paath or different ones. ",
          "Students should also be allowed to draw pictures while solving problems. Struggling students may need concrete experiences - such as counting real objects and separating them into parts- so that they understand the concepts clearly."
        ]
      },
      "np": {
        "paragraph": "",
        "list": [
          "ई-पाठको जस्‍तै विद्यार्थीहरूलाई आफ्‍नै शाब्‍दिक समस्‍याहरू बनाउन प्रोत्साहन गर्नु पर्दछ। साथै समूहमा छलफल गर्न तथा एक अर्कोको समस्‍या हल गर्न लगाउन सकिन्‍छ।",
          "विद्यार्थीहरूलाई समस्‍या हल गर्ने क्रममा चित्र बनाउन तथा ठोस वस्‍तुहरू प्रयोग गरेर समस्‍या हल गर्न प्रोत्‍साहन गर्न सकिन्‍छ।"
        ]
      }
    },
    "evaluation_content": {
      "en": {
        "paragraph": " ",
        "list": ["", ""]
      },
      "np": {
        "paragraph": " ",
        "list": ["", ""]
      }
    }
  },
  "con": {
    "lesson_name": "Comparison of Numbers",
    "about_the_lesson_content": {
      "en": "This E-Paath is designed to help students understand that numbers have different values and some numbers are greater than others.  ",
      "np": "सङ्ख्याहरूको मान फरक-फरक हुन्‍छ। कुनै एक सङ्ख्या अर्को सङ्ख्या भन्‍दा ठुलो हुन सक्‍छ। त्यसैले यो ई-पाठले दिइएका सङ्ख्याहरू (बढीमा दुई अङ्‌किय) को तुलना गरी सबैभन्‍दा ठुलो सङ्ख्या पत्ता लगाउन सिकाउनेछ।"
    },
    "curricular_requirement_content": {
      "en": "To help students’ sense of numeracy, 45 periods have been allocated for Grade 2 under the topic “Knowledge of Numbers”. ",
      "np": "कक्षा २ को “सङ्‍ख्‍याको ज्ञान” को लागि ४५ घन्टी दिइएको छ। “सङ्‍ख्‍याको ज्ञान” भित्र समान पाठ्‍यभारका जम्‍मा ५ ओटा पाठहरू दिइएका छन्। त्यसैले “सङ्ख्याहरूको तुलना” पाठको लागि विद्यार्थीहरूको आवश्यकता अनुसार समय दिएर सिकाउन सकिनेछ। "
    },
    "prerequisites_content": {
      "paragraph": {
        "en": "Students should be able to recognize the first nine digits before being introduced to their values. If they are familiar with the order of numbers, it’ll be easier for them to compare the numbers. The following two E-Paaths will be good for review. ",
        "np": "यो पाठ सुरु गर्नु अघि विद्यार्थीहरूले पहिलो नौ अङ्‍कहरू चिनेको हुनुपर्दछ। यदि उनीहरू सङ्‍ख्‍याको क्रमसँग परिचित छन् भने अझै उपयोगी हुन्‍छ। तल दिइएको कक्षा १ को ई-पाठ “सङ्ख्याहरूको क्रम” को समीक्षा गर्नु उपयोगी हुन्छ।"
      },
      "chapter_links": {
        "chapter_link_data1": {
          "grade": "1",
          "id": "nmb",
          "breadcrumb_data": {
            "en": " Grade 1 ≻ Numbers (1 - 5)",
            "np": "कक्षा १ ≻ १ देखि ५ सम्मका सङ्ख्याहरू"
          }
        },
        "chapter_link_data2": {
          "grade": "2",
          "id": "odn",
          "breadcrumb_data": {
            "en": " Grade 2 ≻ Order of Numbers",
            "np": " कक्षा २ ≻ सङ्ख्याहरूको क्रम"
          }
        }
      }
    },
    "lesson_guidelines_content": {
      "en": {
        "paragraph": "Once students recognize digits and are familiar to their order, they should understand that numbers are used to indicate different values. This E-Paath helps them with that concept. In the first section, single digit numbers are compared. In the second section, comparison is made between double digit numbers.\n\nGrade 2 students are also expected to recognize the three basic symbols used to compare numbers - greater than (>), less than (<) and equals to (=). But this E-Paath does not introduce these symbols. ",
        "list": []
      },
      "np": {
        "paragraph": "विद्यार्थीहरू अङ्‍कहरू र सङ्‍ख्‍याको क्रमसँग परिचित भइसकेपछि उनीहरूलाई विभिन्‍न मान जनाउन सङ्‍ख्‍याको प्रयोग हुन्‍छ भनेर बुझाउन सकिन्‍छ। ई-पाठको पहिलो पृष्‍ठमा एक अङ्‌किय सङ्‍ख्‍या र दोस्रो पृष्‍ठमा दुई अङ्‌किय सङ्‍ख्‍याहरूको तुलना गरिएको छ। कक्षा २ का विद्यार्थीहरूले असमानताका चिह्‍नहरू भन्‍दा सानो (<), भन्‍दा ठुलो (>) र बराबर (=) चिह्‍नहरू चिन्‍ने अपेक्षा गरिन्‍छ। तर ई-पाठमा भने यी चिह्‍नहरू परिचित गराइएको छैन।",
        "list": []
      }
    },
    "related_activities_content": {
      "en": {
        "paragraph": "",
        "list": [
          "Once students are able to compare numbers based on their values, teachers could introduce the three symbols mentioned above. "
        ]
      },
      "np": {
        "paragraph": "",
        "list": [
          "विद्यार्थीहरूले सङ्‍ख्‍याहरूको तुलना गर्न सक्षम भएपछि माथि उल्‍लेख गरिएका असमानताका चिह्‍नहरूसँग परिचित गराउन सकिन्‍छ।"
        ]
      }
    },
    "evaluation_content": {
      "en": {
        "paragraph": " ",
        "list": ["", ""]
      },
      "np": {
        "paragraph": " ",
        "list": ["", ""]
      }
    }
  },
  "add": {
    "lesson_name": "Addition",
    "about_the_lesson_content": {
      "en": " This E-Paath introduces addition as the process of “counting on” to find the new total. Addition problems are presented in the form of word problems. The plus sign is also introduced. ",
      "np": "यो ई-पाठमा गन्‍ति गर्दै जोड गर्न सिकाइएको छ। शाब्‍दिक समस्‍याबाट जोडका प्रश्‍नहरू दिइएका छन्। साथै यो पाठमा जोड चिह्‍न (+) लाई पनि परिचित गराइएको छ।"
    },
    "curricular_requirement_content": {
      "en": "Twelve periods have been allocated for addition in Grade 2. ",
      "np": "कक्षा २ को “जोड” को लागि १२ घन्टी दिइएको छ। "
    },
    "prerequisites_content": {
      "paragraph": {
        "en": "Students should have a good number sense before being introduced to addition. They should have mastery over the order of numbers. To review these concepts, the following two E-Paaths might be helpful. ",
        "np": "यो पाठ सुरु गर्नु अघि विद्यार्थीहरूले सङ्‍ख्‍याहरू राम्रोसँग चिनेको हुनुपर्दछ। साथै सङ्ख्याहरूको क्रमको राम्रो ज्ञान हुनुपर्छ। तल दिइएका ई-पाठहरूको समीक्षा गरेपछि यो पाठ सुरु गर्दा उपयोगी हुन्छ।"
      },
      "chapter_links": {
        "chapter_link_data1": {
          "grade": "1",
          "id": "nmb",
          "breadcrumb_data": {
            "en": " Grade 1 ≻ Numbers (1 - 5)",
            "np": "कक्षा १ ≻ १ देखि ५ सम्मका सङ्ख्याहरू"
          }
        },
        "chapter_link_data2": {
          "grade": "2",
          "id": "odn",
          "breadcrumb_data": {
            "en": " Grade 2 ≻ Order of Numbers",
            "np": " कक्षा २ ≻ सङ्ख्याहरूको क्रम"
          }
        }
      }
    },
    "lesson_guidelines_content": {
      "en": {
        "paragraph": "The E-Paath opens in a child-friendly way with two friends talking. Then students are introduced to the concept of ‘addition as counting on’. Visuals and interactive DIYs will help students’ emergent number sense.\n\nBut Grade 2 will need a lot more practice with addition. ",
        "list": []
      },
      "np": {
        "paragraph": "यस ई-पाठलाई बालमैत्री बनाइएको छ। दुई जना साथीको कुराकानीबाट पाठ सुरु भएको छ।विद्यार्थीहरूलाई गन्‍ति गर्दै जोड गर्न सिकाइएको छ। अन्‍तरक्रियात्‍मक “आफैँ गर” ले पाठलाई रोचक बनाउनुको साथै थप अभ्‍यासको लागि पनि सहयोग गर्छ। ",
        "list": []
      }
    },
    "related_activities_content": {
      "en": {
        "paragraph": "",
        "list": [
          "Since this E-Paath involves word problems, students may struggle with the language. To help them, teachers should explain the problems and also encourage students to explain their understanding in their own way. Students may also use different strategies to solve the same problem, which is okay at this level. ",
          "Teachers should encourage students to come up with their own word problems. They could work in partnerships and solve each other’s problems. ",
          "Teachers should also allow students to draw objects if that helps them count or understand addition.",
          "Furthermore, students need practice with counting and adding using concrete objects. "
        ]
      },
      "np": {
        "paragraph": "",
        "list": [
          "ई-पाठमा शाब्‍दिक समस्‍याहरू पनि भएकोले विद्यार्थीहरूले सबै भाषा राम्रोसँग नबुझ्‍न सक्‍छन्। त्यसैले शिक्षकले थप व्‍याख्‍या गर्ने तथा विद्यार्थीहरूले बुझेका कुरा उनीहरूकै भाषामा छलफल गर्न सकिन्‍छ।",
          "ई-पाठको जस्‍तै विद्यार्थीहरूलाई आफ्‍नै शाब्‍दिक समस्‍या बनाउन लगाएर समूहमा छलफल गर्न तथा एक अर्कोको समस्‍या हल गर्न लगाउन सकिन्‍छ।",
          "यदि जोड तथा गन्‍ति गर्न सहयोग पुग्‍छ भने, विद्यार्थीहरूलाई चित्र बनाउन प्रोत्‍साहन गर्न सकिन्‍छ।",
          "थप अभ्‍यासको लागि विद्यार्थीहरूले ठोस वस्‍तुको प्रयोग गरेर गन्‍ति गर्दै जोड गर्न सक्‍छन्। "
        ]
      }
    },
    "evaluation_content": {
      "en": {
        "paragraph": " ",
        "list": ["", ""]
      },
      "np": {
        "paragraph": " ",
        "list": ["", ""]
      }
    }
  },
  "odn": {
    "lesson_name": "Order of Numbers",
    "about_the_lesson_content": {
      "en": " This E-Paath is designed more as an activity so that students can remember and practice the order of numbers.  ",
      "np": "यो ई-पाठ विशेष गरी क्रियाकलापमा बढी केन्‍द्रित छ जसले गर्दा विद्यार्थीहरूलाई अभ्‍यास गर्न र महत्त्वपूर्ण कुरा सम्‍झन सहयोग पुग्‍छ।"
    },
    "curricular_requirement_content": {
      "en": "To help students’ sense of numeracy, 45 periods have been allocated for Grade 2 under the topic “Knowledge of Numbers”. ",
      "np": "कक्षा २ को “सङ्‍ख्‍याको ज्ञान” को लागि ४५ घन्टी दिइएको छ। “सङ्‍ख्‍याको ज्ञान” भित्र समान पाठ्‍यभारका जम्‍मा ५ ओटा पाठहरू दिइएका छन्। त्यसैले “सङ्ख्याहरूको क्रम” पाठको लागि विद्यार्थीहरूको आवश्यकता अनुसार समय दिएर सिकाउन सकिनेछ। "
    },
    "prerequisites_content": {
      "paragraph": {
        "en": "Students should be able to recognize the first nine digits before being introduced to its order. The following E-Paath from Grade 1 could be used for review. ",
        "np": "यो पाठ सुरु गर्नु अघि विद्यार्थीहरूले पहिलो नौ अङ्‍कहरू चिनेको हुनुपर्दछ। तल दिइएको कक्षा १ को ई-पाठ “सङ्ख्याहरूको क्रम” को समीक्षा गर्नु उपयोगी हुन्छ।"
      },
      "chapter_links": {
        "chapter_link_data1": {
          "grade": "1",
          "id": "nmb",
          "breadcrumb_data": {
            "en": " Grade 1 ≻ Numbers (1 - 5)",
            "np": "कक्षा १ ≻ १ देखि ५ सम्मका सङ्ख्याहरू"
          }
        }
      }
    },
    "lesson_guidelines_content": {
      "en": {
        "paragraph": "This activity is designed as a jigsaw puzzle. Students are expected to put numbers in its correct order by clicking on individual grids. To help struggling students, teacher could sit with individual students and take notes. They  must be encouraged to recall the numbers before using the ‘hints’.",
        "list": []
      },
      "np": {
        "paragraph": "यो ई-पाठमा रोचक पहेलीको क्रियाकलाप दिइएको छ। विद्यार्थीहरूले सङ्‍ख्‍यामा क्‍लिक गरेर सङ्ख्याहरूको सहि क्रम मिलाउने अपेक्षा गरिएको छ। कुनै विद्यार्थीलाई कठिन लागेमा शिक्षकले सँगै बसेर सिकाउन सकिन्‍छ। शिक्षकले सिकाउनु पूर्व पहिलो नौ अङ्‍कहरू सम्‍झाउनुपर्छ।",
        "list": []
      }
    },
    "related_activities_content": {
      "en": {
        "paragraph": "",
        "list": [
          "Teachers can assess students by having them recite the order of numbers individually and as a chant in a whole group. "
        ]
      },
      "np": {
        "paragraph": "",
        "list": [
          "विद्यार्थीहरूलाई १ देखि ९९ सम्‍मका सङ्‍ख्याहरू दिई छलफल गराई बढ्‍दो क्रममा भन्‍न र लेख्‍न लगाउन सकिन्‍छ।"
        ]
      }
    },
    "evaluation_content": {
      "en": {
        "paragraph": " ",
        "list": ["", ""]
      },
      "np": {
        "paragraph": " ",
        "list": ["", ""]
      }
    }
  },
  "mlt": {
    "lesson_name": "Multiplication of 2 digit numbers",
    "about_the_lesson_content": {
      "en": "In this E-Paath, students are taught two different strategies that they can use to multiply 2 digit numbers. The first strategy is repeated addition and the second strategy is the traditional method of first multiplying the ones and then the tens. ",
      "np": "यस ई-पाठमा विद्यार्थीहरूले दुई अङ्‌क भएका सङ्‍ख्‍याहरूको गुणन गर्न सिक्‍नेछन्। यहाँ गुणनलाई दोहोरिएको जोडको रूपमा व्‍यक्‍त गर्ने तथा सुरुमा एकको स्थानमा र त्यसपछि दशको स्थान गुणन गर्ने तरिका गरी दुई फरक तरिकाहरू सिकाइनेछ।"
    },
    "curricular_requirement_content": {
      "en": "About twelve periods should be allocated to Multiplication for Grade 2.",
      "np": "कक्षा २ को “गुणन” को लागि १२ घन्टी दिइएको भएतापनि गुणन गणितको अति आवश्‍यक क्रिया भएकोले विद्यार्थीहरूको आवश्यकता अनुसार समय दिएर सिकाउन सकिनेछ। "
    },
    "prerequisites_content": {
      "paragraph": {
        "en": "Students must be first introduced to the other Grade 2 E-Paath on multiplication (linked below) before being introduced to this one. The E-Paath linked below introduces the concept of multiplication as repeated addition. This E-Paath is more appropriate towards the end of Grade 2, after students are familiar with the idea. ",
        "np": "यो पाठ सुरु गर्नु अघि विद्यार्थीहरूले गुणन सम्‍बन्‍धी तल दिइएको ई-पाठको समीक्षा गर्नु उपयोगी हुन्छ। "
      },
      "chapter_links": {
        "chapter_link_data1": {
          "grade": "2",
          "id": "mrl",
          "breadcrumb_data": {
            "en": " Grade 2 ≻ Multiplication as Repeated Addition",
            "np": "कक्षा २ ≻ गुणन र जोडको सम्‍बन्‍ध"
          }
        }
      }
    },
    "lesson_guidelines_content": {
      "en": {
        "paragraph": "The concept of ‘multiplication as repeated addition’ provides a strong link and foundation for students. It would be helpful to students to go through this E-Paath only after they have had some practice with and discuss around multiplication problems. In this E-Paath, students are first introduced to the problem ‘11X5’. The lesson shows students how to solve the problem using visuals and a step-by-step explanation. Then students are shown the traditional method of multiplying a two digit number by a one digit number. ",
        "list": []
      },
      "np": {
        "paragraph": "गुणनलाई दोहोरिएको जोडको रूपमा व्‍यक्‍त गर्ने तरिकाबाट विद्यार्थीहरूले गुणनको धारणाहरू सहजै सिक्‍न सक्‍छन्। यहाँ सुरुमा ‘11 X 5’ को उदाहरणबाट गुणनको धारणाहरू सिकाउने प्रयास गरिएको छ। पहिलो पृष्ठमा गुणनलाई दोहोरिएको जोडको रूपमा व्‍यक्‍त गर्ने तरिकाबाट सिकाइएको छ भने दोस्रो पृष्ठमा सुरुमा एकको स्थानमा र त्यसपछि दशको स्थान गुणन गर्ने तरिकाबाट सिकाइएको छ। ",
        "list": []
      }
    },
    "related_activities_content": {
      "en": {
        "paragraph": "",
        "list": [
          "To help students’ developing sense of numbers, it is very important for teachers to discuss different strategies to solve the same problem. As a follow-up to this E-Paath, teachers could present different problems and ask students to solve each one using both methods. Students should also listen to their classmates’ explanations and try to understand them. This kind of practice will help their speaking and listening skills as well. "
        ]
      },
      "np": {
        "paragraph": "",
        "list": [
          "विद्यार्थीहरूलाई सङ्ख्‍याहरूको ज्ञान बढाउनको लागि तथा उनीहरूले पाठको आशय बुझेका छन् वा छैनन् पत्ता लगाउनको लागि कुराकानी, छलफल र प्रश्‍नोत्‍तर गर्न सकिन्‍छ। साथै उनीहरूलाई ई-पाठमा भएको जस्तै समस्याहरू दिएर दुवै तरिकाबाट हल गर्न लगाउन सकिन्‍छ। "
        ]
      }
    },
    "evaluation_content": {
      "en": {
        "paragraph": " ",
        "list": ["", ""]
      },
      "np": {
        "paragraph": " ",
        "list": ["", ""]
      }
    }
  },
  "mun": {
    "lesson_name": "Multiplication by 0 and 10",
    "about_the_lesson_content": {
      "en": " In this E-Paath, students will be able to learn and understand strategies that will help them multiply numbers by 0 and 10.  ",
      "np": "यस ई-पाठमा विद्यार्थीहरूले ० र १० ले विभिन्‍न सङ्‍ख्‍यालाई गुणन गर्न सिक्‍नेछन्। "
    },
    "curricular_requirement_content": {
      "en": "About twelve periods should be allocated to Multiplication for Grade 2.",
      "np": "कक्षा २ को “गुणन” को लागि १२ घन्टी दिइएको भएतापनि गणितको अति आवश्‍यक क्रिया भएकोले विद्यार्थीहरूको आवश्यकता अनुसार समय दिएर सिकाउन सकिनेछ। "
    },
    "prerequisites_content": {
      "paragraph": {
        "en": "Students must be introduced to the other E-Paath on multiplication (linked below) before being introduced to this one. The E-Paath linked below introduces the concept of multiplication as repeated addition. After that, this E-Paath can be used at any point that the teacher thinks is appropriate. ",
        "np": "यो पाठ सुरु गर्नु अघि विद्यार्थीहरूले गुणन सम्‍बन्‍धी तल दिइएको ई-पाठको समीक्षा गर्नु उपयोगी हुन्छ। "
      },
      "chapter_links": {
        "chapter_link_data1": {
          "grade": "2",
          "id": "mrl",
          "breadcrumb_data": {
            "en": " Grade 2 ≻ Multiplication as Repeated Addition",
            "np": " कक्षा २ ≻ गुणन र जोडको सम्‍बन्‍ध"
          }
        }
      }
    },
    "lesson_guidelines_content": {
      "en": {
        "paragraph": "This E-Paath uses visual demonstrations to explain why multiplying any number by 0 is always 0. This kind of presentation will be extremely useful to students who struggle with language. Similarly, students are also introduced to the multiples of 10. The DIYs reinforce the concepts introduced so that students can practice. ",
        "list": []
      },
      "np": {
        "paragraph": "यो ई-पाठमा सचित्र एनिमेशनको माध्‍यमबाट ० ले कुनै पनि सङ्‍ख्‍यालाई गुणन गर्दा किन ० नै हुन्‍छ भनेर बुझाइएको छ। साथै १० द्वारा विभिन्‍न सङ्‍ख्‍यालाई गरिएको गुणन प्रस्‍तुत गरिएको छ।",
        "list": []
      }
    },
    "related_activities_content": {
      "en": {
        "paragraph": "",
        "list": [
          "Students should be given regular opportunities to remember and practice new concepts. Teachers should present other problems that require students to multiply by 0 and 10. ",
          "Teachers should also regularly relate multiplication table practices with word problems so that students can make connections between mathematical ideas and their lives. "
        ]
      },
      "np": {
        "paragraph": "",
        "list": [
          "विद्यार्थीहरूलाई बारम्‍बार गुणनका अवधारणाहरू सम्‍झिने तथा अभ्‍यास गर्ने मौका सृजना गर्नुपर्दछ। ",
          "गुणन सम्‍बन्‍धी शाब्‍दिक समस्‍याहरू हल गर्दा सँधै गुणन तालिकाको प्रयोग गर्न लगाउनु पर्दछ।"
        ]
      }
    },
    "evaluation_content": {
      "en": {
        "paragraph": " ",
        "list": ["", ""]
      },
      "np": {
        "paragraph": " ",
        "list": ["", ""]
      }
    }
  },
  "mpl": {
    "lesson_name": "Multiplication Table",
    "about_the_lesson_content": {
      "en": "In this E-Paath, students will be able to read the multiplication table of 6, 7, 8, 9 and 10. ",
      "np": "यो ई-पाठमा विद्यार्थीहरूलाई ६, ७, ८, ९ र १० को गुणन तालिका पढ्‍न, भन्‍न र पूरा गर्न सिकाउन खोजिएको छ।"
    },
    "curricular_requirement_content": {
      "en": "About twelve periods should be allocated to Multiplication for Grade 2.",
      "np": "कक्षा २ को “गुणन” को लागि १२ घन्टी दिइएको भएतापनि गणितको अति आवश्‍यक क्रिया भएकोले विद्यार्थीहरूको आवश्यकता अनुसार समय दिएर सिकाउन सकिनेछ।"
    },
    "prerequisites_content": {
      "paragraph": {
        "en": "Students must be introduced to the other E-Paath on multiplication (linked below) before being introduced to this one. The E-Paath linked below introduces the concept of multiplication as repeated addition. This E-Paath is more appropriate towards the end of Grade 2, after students are familiar with the idea. ",
        "np": "यो पाठ सुरु गर्नु अघि विद्यार्थीहरूले तल दिइएको गुणनको ई-पाठ को समीक्षा गर्नु उपयोगी हुन्छ। जहाँ गुणन र जोडको सम्‍बन्‍ध देखाइएको छ।"
      },
      "chapter_links": {
        "chapter_link_data1": {
          "grade": "2",
          "id": "mrl",
          "breadcrumb_data": {
            "en": " Grade 2 ≻ Multiplication as Repeated Addition",
            "np": " कक्षा २ ≻ गुणन र जोडको सम्‍बन्‍ध"
          }
        }
      }
    },
    "lesson_guidelines_content": {
      "en": {
        "paragraph": "In this E-Paath, students are first introduced to the multiplication table of 6 in a step by step way, using visuals and relating them with math sentences. Students then have an option of learning the entire multiplication table of the other four numbers - 7, 8, 9 and 10. ",
        "list": []
      },
      "np": {
        "paragraph": "यो ई-पाठमा सुरुमा सचित्र एनिमेशनको माध्यमबाट क्रमैसँग ६ को गुणन तालिका बुझाउन खोजिएको छ। त्यसपछि विद्यार्थीहरूलाई ७, ८, ९ र १० को गुणन तालिका सिकाइएको छ।",
        "list": []
      }
    },
    "related_activities_content": {
      "en": {
        "paragraph": "",
        "list": [
          "To help students understand multiplication concept, as well as patterns in math, it’s really useful to have a whole-class practice with skip counting on a regular basis. For example, every other morning, teachers could establish a routine of choosing a number and skip counting. If it’s 7, students can take turns saying 7, 14, 21, 28, etc. ",
          "Teachers should also regularly relate multiplication table practices with word problems so that students can make connections between mathematical ideas and their lives. "
        ]
      },
      "np": {
        "paragraph": "",
        "list": [
          "विद्यार्थीहरूलाई गुणनका धारणाहरू बुझाउन विभिन्‍न क्रियाकलापहरू गर्न सकिन्‍छ। दैनिक रूपमा कुनै एक सङ्‍ख्‍या छानेर उक्‍त सङ्‍ख्‍याको पहाडाका सङ्‍ख्‍याहरू भन्‍न लगाउन सकिन्‍छ।",
          "शिक्षकले दैनिक रूपमा व्‍यावहारिक समस्‍याहरूसँग गुणनको सम्‍बन्‍ध देखाएर समस्‍या हल गर्न लगाउन सकिन्‍छ।"
        ]
      }
    },
    "evaluation_content": {
      "en": {
        "paragraph": " ",
        "list": ["", ""]
      },
      "np": {
        "paragraph": " ",
        "list": ["", ""]
      }
    }
  },
  "alg": {
    "lesson_name": "Algebra",
    "about_the_lesson_content": {
      "en": "In this E-Paath, students will be able to solve simple addition problems that have an addend and a sum but has another addend missing. They will be introduced to box notation and inspection method. ",
      "np": "यो ई-पाठमा विद्यार्थीहरू जोडका सामान्‍य समास्‍याहरू हल गर्न सक्षम हुन्‍छन् जसमा दुई सङ्‍ख्‍याको जोडफल र एउटा सङ्‍ख्‍या दिइएको हुन्‍छ तर अर्को सङ्‍ख्‍या दिइएको हुँदैन।"
    },
    "curricular_requirement_content": {
      "en": "About ten periods should be allocated to Algebra for Grade 2.",
      "np": "कक्षा २ को “बीजगणित” को लागि १० घन्टी दिइएको छ। "
    },
    "prerequisites_content": {
      "paragraph": {
        "en": "Students must be familiar with the order of numbers and with basic addition before being introduced to this E-Paath. They must demonstrate mastery over the following two E-Paaths first. Algebra can be introduced towards the end of Grade 2 only. ",
        "np": "गणितका आधारभूत क्रियाहरू मध्‍ये सामान्‍य जोड गर्न राम्रोसँग जानेको हुनुपर्दछ। कक्षा २ को सबै पाठहरू शिक्षण गरिसकेपछि मात्र यो पाठ पढाउनु उपयोगी हुन्‍छ। तल दिइएका ई-पाठहरूको समीक्षा गरेपछि यो पाठ सुरु गर्दा उपयोगी हुन्छ।"
      },
      "chapter_links": {
        "chapter_link_data1": {
          "grade": "2",
          "id": "add",
          "breadcrumb_data": {
            "en": " Grade 2 ≻  Addition",
            "np": " कक्षा २ ≻  जोड"
          }
        },
        "chapter_link_data2": {
          "grade": "2",
          "id": "odn",
          "breadcrumb_data": {
            "en": " Grade 2 ≻  Order of Numbers",
            "np": " कक्षा २ ≻  सङ्ख्याहरूको क्रम"
          }
        }
      }
    },
    "lesson_guidelines_content": {
      "en": {
        "paragraph": "This E-Paath uses visual demonstrations to support algebraic thinking. Addition sentences that have a sum but that do not have one of the addends are presented in various ways.  For example, 3+_ = 7. Students need to figure out the missing addend. Two different DIYs are included that will push students to try out new strategies and ways of thinking. Students should be allowed to count on their fingers or use their memory to solve problems. ",
        "list": []
      },
      "np": {
        "paragraph": "यस ई-पाठमा कक्षा २ का विद्यार्थीहरूको स्‍तर अनुसार विभिन्‍न क्रियाकलापहरू देखाइएको छ। यहाँ दुई सङ्‍ख्‍याको जोडफल र एउटा सङ्‍ख्‍या दिइएको छ तर अर्को सङ्‍ख्‍या दिइएको छैन उदाहरणको लागि, ३+ ? = ७, यहाँ विद्यार्थीहरूले थाहा नभएको सङ्‍ख्‍या पत्‍ता लगाउनु पर्नेछ। पाठमा दुई फरक “आफैँ गर” खण्डहरू राखिएका छन्। जसले विद्यार्थीहरूलाई फरक तरिकाले सोच्‍न र रणनितिहरू बनाउन सहयोग गर्नेछ।",
        "list": []
      }
    },
    "related_activities_content": {
      "en": {
        "paragraph": "",
        "list": [
          "Even though visuals highly support algebraic thinking, students will gain a deeper understanding if they get concrete, hands-on opportunities to solve algebra problems similar to the ones presented here. For example, teachers can introduce these problems in the form of a game using everyday objects such as pencils, marbles, erasers, etc. ",
          "Teachers should regularly present word problems (similar to the ones in this E-Paath) that pushes students to try out the inspection method. They could do so using concrete objects. For example, “I have 3 erasers. My friend gave me some. Now I have 10 erasers. How many erasers did my friend give me?” Students could also come up with similar problems, using their own objects. This kind of practice will also help with language skills and creative thinking. "
        ]
      },
      "np": {
        "paragraph": "",
        "list": [
          "ई-पाठको जस्‍तै समस्‍याहरूलाई ठोस वस्‍तुको प्रयोग गरेर हल गर्न सकिन्‍छ। उदाहरणको लागि पाठलाई रोचक बनाउन खेलको रूपमा प्रस्‍तुत गर्न सकिन्‍छ। गन्‍ति गर्नको लागि दैनिक जीवनमा प्रयोग हुने वस्तुहरू जस्‍तैः गुच्‍चा, सिसाकलम, ढुङ्‍गा आदि।",
          "शिक्षकले ई-पाठको जस्‍तै शाब्‍दिक समस्‍याहरू दिएर छलफल गराउन सकिन्‍छ जसले अवलोकन विधिको अभ्‍यास हुन्‍छ। विद्यार्थीहरूले ठोस वस्‍तुको प्रयोग बाट समस्‍या हल गर्न सक्‍छन्। उदाहरणको लागिः मसँग ३ ओटा सिसाकलम छ। साथीले मलाई केहि सिसाकलम दियो। अब मसँग १० ओटा सिसाकलम छ। साथीले मलाई कतिओटा सिसाकलम दिएको थियो? विद्यार्थीहरूले आ-आफ्‍नै प्रश्‍नहरू बनाएर साथीसँग छलफल गर्न सक्‍छन्। जसले उनीहरूको भाषा र सोच्‍ने क्षमताको विकास हुन्‍छ।"
        ]
      }
    },
    "evaluation_content": {
      "en": {
        "paragraph": " ",
        "list": ["", ""]
      },
      "np": {
        "paragraph": " ",
        "list": ["", ""]
      }
    }
  },
  "pvl": {
    "lesson_name": "Place value of three digit numbers",
    "about_the_lesson_content": {
      "en": " In this E-Paath, students will be introduced to the concept of place value. They will learn about the ones place, the tens place and the hundreds place.",
      "np": "यस ई-पाठमा विद्यार्थीहरूलाई सङ्ख्याहरूको स्थानमानको बारेमा जानकारीहरू दिइएको छ। उनीहरूले एक, दश र सय स्‍थान र स्‍थानमान पनि सिक्‍नेछन्।"
    },
    "curricular_requirement_content": {
      "en": "About 45 periods have been allocated to Numeracy for Grade 2. Students are expected to learn various components of Numeracy. Since place value of three digit numbers is one of the learning objectives, teachers should set aside their time accordingly. ",
      "np": "कक्षा २ को “सङ्‍ख्‍याको ज्ञान” को लागि ४५ घन्टी दिइएको छ। “सङ्‍ख्‍याको ज्ञान” भित्र समान पाठ्‍यभारका जम्‍मा ५ ओटा पाठहरू दिइएका छन्। त्यसैले “तीन अङ्‌कले बनेका सङ्ख्याहरूको स्थानमान” पाठको लागि विद्यार्थीहरूको आवश्यकता अनुसार समय दिएर सिकाउन सकिनेछ। "
    },
    "prerequisites_content": {
      "paragraph": {
        "en": " Students must be familiar with the order of numbers before being introduced to this E-Paath. ",
        "np": "यो पाठ सुरु गर्नु अघि विद्यार्थीहरूले” तल दिइएको कक्षा २ को ई-पाठ “सङ्ख्याहरूको क्रम” को समीक्षा गर्नु उपयोगी हुन्छ।"
      },
      "chapter_links": {
        "chapter_link_data1": {
          "grade": "2",
          "id": "odn",
          "breadcrumb_data": {
            "en": " Grade 2 ≻  Order of Numbers",
            "np": " कक्षा २ ≻  सङ्ख्याहरूको क्रम"
          }
        }
      }
    },
    "lesson_guidelines_content": {
      "en": {
        "paragraph": "This E-Paath uses objects and visuals to explain the concept of place value.  It starts with single digit numbers and moves through double digit and triple digits. The lesson uses bundles of ten apples and relates the idea with place value. ",
        "list": []
      },
      "np": {
        "paragraph": "यो ई-पाठमा स्थानमानको धारणाहरूको सचित्र व्‍याख्‍या गरिएको छ। एक अङ्‍कले बनेको सङ्‍ख्‍या बाट सुरु गरेर दुई अङ्‍कले बनेको सङ्‍ख्‍या हुँदै तीन अङ्‍कले बनेको सङ्‍ख्‍याको क्रमैसँग व्‍याख्‍या गरिएको छ। यहाँ स्‍याउको उदाहरणबाट पाठलाई थप रोचक बनाइएको छ।",
        "list": []
      }
    },
    "related_activities_content": {
      "en": {
        "paragraph": "",
        "list": [
          "As with many math concepts, primary school students learn best if they get hands-on experiences. Similar to the examples in this E-Paath, teachers could provide real objects to teach place value. For example, single twigs and then a bundle of ten twigs and a bundle of hundred. If students get to see and touch real objects, their learning will be deep and long-lasting. ",
          "Students should get regular opportunities to transfer the idea of place value to other math concepts such as addition, skip counting and subtraction. "
        ]
      },
      "np": {
        "paragraph": "",
        "list": [
          "विद्यार्थीहरूलाई एवाकस तथा स्‍थानमान पकेट चार्ट/तालिका प्रयोग गरी कुनै पनि तीन अङ्‍कले बनेका सङ्‍ख्‍याहरूको स्‍थानमान छलफल गराई चिन्‍न, भन्‍न र तालिकामा लेख्‍न लगाउन सकिन्‍छ।",
          "विद्यार्थीहरूलाई गणितका अन्‍य पाठहरू जस्‍तैः जोड, घटाउमा स्थानमानको प्रयोग गर्ने अवसर प्रदान गर्न सकिन्‍छ।"
        ]
      }
    },
    "evaluation_content": {
      "en": {
        "paragraph": " ",
        "list": ["", ""]
      },
      "np": {
        "paragraph": " ",
        "list": ["", ""]
      }
    }
  },
  "geo": {
    "lesson_name": "Geometric shapes",
    "about_the_lesson_content": {
      "en": "In this E-Paath, students will learn and identify triangles, rectangles and circles using shapes and objects. ",
      "np": "यो ई-पाठमा विद्यार्थीहरूले विभिन्‍न आकार र सामग्रीहरू प्रयोग गरी त्रिभुज, चतुर्भुज र वृत्तहरू चिन्‍न सिक्‍नेछन्।"
    },
    "curricular_requirement_content": {
      "en": "15 periods have been allocated to Geometry for Grade 2. ",
      "np": "कक्षा २ को “ज्‍यामिति” पाठको लागि १५ घन्टी दिइएको छ।"
    },
    "prerequisites_content": {
      "paragraph": {
        "en": " If Grade 1 lesson gets developed, they should refer to it. If not, no prerequisites.",
        "np": "यो आकारहरू सम्‍बन्‍धी सामान्‍य धारणाहरू भएकोले पढाउनु पूर्व कुनै पूर्व आवश्‍यकता पर्दैन।"
      },
      "chapter_links": {}
    },
    "lesson_guidelines_content": {
      "en": {
        "paragraph": "This E-Paath is a simple introduction to basic geometric shapes - triangles, circles and rectangles. Students will be able to identify these shapes. For practice, they will also be able to drag and drop similar shapes in order to match them. ",
        "list": []
      },
      "np": {
        "paragraph": "यस ई-पाठमा ज्‍यामितीय आकारहरूको सामान्‍य परिचय दिइएको छ। साथै यहाँ दैनिक जीवनमा प्रयोग हुने विभिन्‍न आकार र सामग्रीहरू प्रयोग गरी त्रिभुज, चतुर्भुज र वृत्तहरू चिन्‍न सिकाइएको छ। दोस्रो र तेस्रो पृष्‍ठमा दिइएका सामग्रीहरूलाई तानेर उस्तै आकारको नाङ्‍लोमा खसाल्‍न लगाइएको छ।",
        "list": []
      }
    },
    "related_activities_content": {
      "en": {
        "paragraph": "",
        "list": [
          "Along with this E-Paath, teachers should lead in-class discussions with \nstudents using examples of various shapes found inside the classroom, \npointing to the number of sides.",
          "Students should also draw these basic geometric shapes using rulers or even the sides of their books. "
        ]
      },
      "np": {
        "paragraph": "",
        "list": [
          "यो ई-पाठ सँगसँगै शिक्षकले कक्षामा कुराकानी र छलफल गर्दै कक्षाभित्र भएका विभिन्‍न आकारहरूको नाम सोध्‍न सकिन्‍छ।",
          "विद्यार्थीहरूलाई स्‍केल प्रयोग गरेर कापीमा ज्‍यामितीय आकारहरूको चित्र बनाउन लगाउन सकिन्‍छ।"
        ]
      }
    },
    "evaluation_content": {
      "en": {
        "paragraph": " ",
        "list": ["", ""]
      },
      "np": {
        "paragraph": " ",
        "list": ["", ""]
      }
    }
  },
  "sub": {
    "lesson_name": "Subtraction",
    "about_the_lesson_content": {
      "en": " Subtraction is the mathematical operation by ‘-’, of calculating the difference of two numbers or quantities. This E-Paath introduces basic subtraction of two-digit number from another two-digit number including borrowing of numbers in ones place.",
      "np": "दुई सङ्‍ख्‍या बिचको फरक पत्‍ता लगाउने प्रक्रियालाई घटाउ भनिन्‍छ। यो ई-पाठमा दुई अङ्‌कले बनेका सङ्ख्‍याबाट दुई अङ्‌कले बनेका सङ्‌ख्‍या घटाउन सिकाइएको छ।"
    },
    "curricular_requirement_content": {
      "en": " Twelve periods have been allocated for subtraction in Grade 2. ",
      "np": "कक्षा २ को “घटाउ” को लागि १२ घन्टी दिइएको छ। "
    },
    "prerequisites_content": {
      "paragraph": {
        "en": "Students should have a good number sense before being introduced to subtraction. Teachers could refer to the following E-Paath lessons as it gives base to the concept of subtraction.",
        "np": "यो पाठ सुरु गर्नु अघि विद्यार्थीहरूले सङ्‍ख्‍याहरू राम्रोसँग चिनेको हुनुपर्दछ। साथै सङ्ख्याहरूको क्रमको राम्रो ज्ञान हुनुपर्छ। तल दिइएका ई-पाठहरूको समीक्षा गरेपछि यो पाठ सुरु गर्दा उपयोगी हुन्छ।"
      },
      "chapter_links": {
        "chapter_link_data1": {
          "grade": "1",
          "id": "bst",
          "breadcrumb_data": {
            "en": " Grade 1 ≻ Basic Subtraction",
            "np": " कक्षा १ ≻ सरल घटाउ"
          }
        },
        "chapter_link_data2": {
          "grade": "2",
          "id": "pvl",
          "breadcrumb_data": {
            "en": " Grade 2 ≻ Place value of three digit numbers",
            "np": " कक्षा २ ≻ तीन अङ्‌कले बनेका सङ्ख्याहरूको स्थानमान                 "
          }
        },
        "chapter_link_data3": {
          "grade": "2",
          "id": "odn",
          "breadcrumb_data": {
            "en": " Grade 2 ≻ Order of Numbers",
            "np": " कक्षा २ ≻ सङ्ख्याहरूको क्रम"
          }
        }
      }
    },
    "lesson_guidelines_content": {
      "en": {
        "paragraph": "This E-Paath uses visual demonstrations to explain subtraction of two-digit number from another two-digit number including borrowing of numbers in ones place. Teachers should conduct discussions with students to make sure they understand the problem before asking them to solve it Interactive DIYs will help students’ emergent number sense.",
        "list": []
      },
      "np": {
        "paragraph": "यस ई-पाठमा दुई अङ्‌कले बनेका सङ्ख्‍याबाट दुई अङ्‌कले बनेका सङ्‌ख्‍या घटाउन सिकाइएको छ। यहाँ ‘एक’ को स्‍थानमा सापटी लिनुपर्ने समस्‍याहरू मात्र राखिएका छन्। जसलाई रोचक बनाउन विभिन्‍न क्रियाकलाप गराइएको छ। “आफैँ गर” खण्डमा जानु अघि विद्यार्थीहरूले बुझे नबुझेको छलफल गर्न सकिन्‍छ।",
        "list": []
      }
    },
    "related_activities_content": {
      "en": {
        "paragraph": "",
        "list": [
          "Since this E-Paath involves subtraction using blocks, students may struggle with the counting ones and tens of blocks. Teachers should explain to students that they will need to regroup to solve the problem by exchanging units of blocks.",
          "Teachers should explain why when subtracting two numbers, we work from right to left.",
          "Teachers could design math games that use these terms or the key concepts in order to engage students and make sure they understand. ",
          "Teachers can apply different strategies that can be used to figure out or remember the subtraction facts."
        ]
      },
      "np": {
        "paragraph": "",
        "list": [
          "ई-पाठमा ब्‍लक प्रयोग गरेर घटाउ सिकाइएको छ। विद्यार्थीहरू गन्‍ति गर्ने क्रममा एक र दश ब्‍लकमा झुक्‍किन सक्‍छन्। नबुझेका विद्यार्थीहरूलाई ब्‍लकको गन्‍ति गर्न सिकाउन सकिन्‍छ।",
          "दुई अङ्‌कले बनेका सङ्ख्‍याबाट दुई अङ्‌कले बनेका सङ्‌ख्‍या घटाउदा दायाँ बाट बायाँ आउन सिकाउनु पर्छ।",
          "थप अभ्‍यासको लागि विद्यार्थीहरूले ठोस वस्‍तुको प्रयोग गरेर गन्‍ति गर्दै घटाउ गर्न सक्‍छन्।",
          "शिक्षकले खेलको माध्‍यमबाट विद्यार्थीलाई सिकाउन सक्‍छन्।"
        ]
      }
    },
    "evaluation_content": {
      "en": {
        "paragraph": " ",
        "list": []
      },
      "np": {
        "paragraph": " ",
        "list": []
      }
    }
  }
}
