{
	"phy": {
		"lesson_name": "Personal hygiene",
		"about_the_lesson_content": {
			"en": "Cleanliness is very important to maintain a good health. This E-paath focuses on the neatness of various parts of the body. ",
			"np": "स्वस्थ जीवनको लागि शरीरको सफाइ अति आवश्यक हुन्छ। यस पाठमा विशेष गरी हाम्रो शरीरका विभिन्‍न भागहरूको सफाइबारे जानकारी दिइएको छ।"
		},
		"curricular_requirement_content": {
			"en": "“Personal hygiene” comes under “Environment”. The entire unit has been allocated 9 teaching hours. Out of this, this chapter is allocated 3 teaching hours. ",
			"np": "“शरीरको सफाइ” शीर्षकको पाठ “वातावरण” अन्तर्गत पर्ने भएकोले राष्ट्रिय पाठ्यक्रमले यसको लागि ९ घन्टी दिएको भएपनि यस पाठको लागि बढीमा ३ घन्टी दिन सकिनेछ।  "
		},
		"prerequisites_content": {
			"paragraph": {
				"en": "Teachers could refer to the following Grade 2 E-Paath because it talks about the concept of washing hands before and after the certain activities. ",
				"np": "कुनै काम गर्नुभन्दा अघि/पछि कसरी हात धुनुपर्छ भनेर कक्षा २ को यो पाठमा बताइएको हुँदा सन्दर्भ मिलाएर तलको पाठ पढ्न लगाउन सकिन्छ।"
			},
			"chapter_links": {
				"chapter_link_data1": {
					"grade": "2",
					"id": "hwa",
					"breadcrumb_data": {
						"en": "Grade 2 > Hand washing",
						"np": "कक्षा २ > हात धुने तरिका"
					}
				}
			}
		},
		"lesson_guidelines_content": {
			"en": {
				"paragraph": "This E-Paath helps students know the ways to keep the body parts clean. It also highlights the equipments that are used for the maintenance of clean body. Section 1 gives option to choose a character first. Then, one can drag and drop the names of the body parts in the correct boxes. This is a DIY to encourage the students to identify the names of the body parts. In Section 2, the body parts are focused and the related objects that help in cleanliness are stated as well. For example: hair must be kept clean and the objects like soap, water and comb help to do so. Similarly, we have such descriptions for teeth, nails, eyes, ears, nose, hands and feet. In the end, students can revisit each section by clicking on the body parts again of the given character. A summary page concludes section 2. ",
				"list": []
			},
			"np": {
				"paragraph": "यो पाठ पढेर विद्यार्थीले शरीरको सफाइ गर्ने सही तरिकाबारे जानकारी पाउने अपेक्षा गरिन्छ। साथै यसका लागि चाहिने सामग्रीका नाम र चित्रसहित व्याख्या गर्न लगाउन सकिनेछ। पहिलो सेक्सनमा उनीहरूले शरीरका विभिन्‍न भागका नामलाई तानेर सही बाकसमा राख्‍नेछन् भने दोस्रो सेक्सनमा सरसफाइका तरिका र सामग्रीका बारेमा विस्तृतमा जानकारी पाउनेछन्।  ",
				"list": []
			}
		},
		"related_activities_content": {
			"en": {
				"paragraph": "After the completion of the lesson, students can be asked to draw any five habits that s/he has as a part of the personal hygiene. It is necessary for them to draw the objects as well. Ask them not to repeat drawing the same organ. For example: if s/he has drawn washing hands with soap then s/he cannot draw using the towel after hand washing for another picture.",
				"list": []
			},
			"np": {
				"paragraph": "विद्यार्थीहरूलाई आफ्नो शरीर सफा राख्‍न तिमी के के गर्छौ? भनेर प्रश्‍न गर्न सकिन्छ। यसका साथै उनीहरूलाई शरीरको अङ्‍ग र त्यसलाई सफा गर्न चाहिने सामग्रीको चित्र बनाउन लगाई पालैपालो कक्षामा प्रस्तुत गर्दै व्याख्या गर्न लगाउन सकिनेछ।",
				"list": []
			}
		},
		"evaluation_content": {
			"en": {
				"paragraph": " ",
				"list": []
			},
			"np": {
				"paragraph": " ",
				"list": []
			}
		}
	},
	"hwa": {
		"lesson_name": "Hand washing",
		"about_the_lesson_content": {
			"en": "This E-Paath has been designed to help students understand the importance of washing hands before and after certain activities of our daily lives. The ways and objects that help to effectively wash hands are also given. ",
			"np": "कुनै काम गर्नुभन्दा अघि/पछि कसरी हात धुनुपर्छ भनेर हात सफा गर्ने सही तरिका र त्यसको महत्व विद्यार्थीहरूलाई बुझाउनको लागि यो पाठ बनाइएको हो। "
		},
		"curricular_requirement_content": {
			"en": "“Hand washing” comes under “Environment”. The entire unit has been allocated 9 teaching hours. Out of this, this chapter is allocated 3 teaching hours.",
			"np": "“हात धुने तरिका” शीर्षकको पाठ “वातावरण” अन्तर्गत पर्ने भएकोले राष्ट्रिय पाठ्यक्रमले यसको लागि ९ घन्टी दिएको भएपनि यस पाठको लागि बढीमा ३ घन्टी दिन सकिनेछ।"
		},
		"prerequisites_content": {
			"paragraph": {
				"en": "Students must know the names of the various organs of the body. They should be aware of the verbs that are used to indicate the activities we do. ",
				"np": "यो पाठ पढेर विद्यार्थीले शरीरको विभिन्‍न अङ्‍गहरूको नाम बताउन सके उपयोगी हुनेछ। साथै यस पाठमा गरिने क्रियाकलापसँग सम्बन्धित शब्दावलीहरूसँग विद्यार्थीहरूलाई परिचित गराउन सके पाठ अझै रोचक हुनेछ।"
			},
			"chapter_links": {}
		},
		"lesson_guidelines_content": {
			"en": {
				"paragraph": "This E-Paath is essential to encourage the healthy habit of hand washing. Section 1 talks about when the hands should be washed. For example: before eating, before cooking, after blowing nose, after using the toilet, after touching animals, etc. The right ways to wash hands are given in section 2. The systematic ways to wash hands using water and soap are presented. The proper ways to rub the fingers, thumbs, fingertips, and wrists are emphasized.",
				"list": []
			},
			"np": {
				"paragraph": "विद्यार्थीहरूलाई हात धुने जस्तो स्वस्थकर बानी बसाल्न यो पाठले उत्प्रेरित गर्न सक्छ। यसको पहिलो सेक्सनमा हात कतिबेला धुनुपर्छ भनेर बताइएको छ भने दोस्रो सेक्सनमा हात धुने सही तरिकाबारे एनिमेशनद्वारा प्रस्ट्‍याउन खोजिएको छ।",
				"list": []
			}
		},
		"related_activities_content": {
			"en": {
				"paragraph": "The teacher and the students can go out to practically learn the concept of handwashing. Students can be first placed into groups. The teacher can first demonstrate the ways to effectively wash hands and then ask each student to wash hands in a similar manner as well. The teacher can ask other teachers or senior students to show the concept to each group since s/he cannot be excessively handwashing. ",
				"list": []
			},
			"np": {
				"paragraph": "विद्यार्थीहरूलाई धारामा लगेर समूहमा बस्‍न लगाउन सकिन्छ। सबैलाई हात कासरी सही तरिकाले धुने भनेर शिक्षकले आफैँ गरेर देखाएपछि उनीहरूलाई पनि त्यसैगरी हात धुन लगाउन सकिनेछ।",
				"list": []
			}
		},
		"evaluation_content": {
			"en": {
				"paragraph": " ",
				"list": []
			},
			"np": {
				"paragraph": " ",
				"list": []
			}
		}
  },
	"dwa": {
		"lesson_name": "Domestic and wild animals",
		"about_the_lesson_content": {
			"en": "Animals live near people or in the jungle. They all have certain features and characteristics. This E-Paath has been designed to help students understand the features of the animals that are domestic and wild in nature. ",
			"np": "केही जनावरहरू मानिससँग र केही जङ्‍गलमा बस्छन्। तिनीहरू सबैका निश्‍चित गुणहरू हुन्छन्। यस पाठद्वारा घरपालुवा र जङ्‍गली जनावरहरू पहिचान गराउने चेष्टा गरिएको छ।"
		},
		"curricular_requirement_content": {
			"en": "“Domestic and wild animals” comes under “Living things” which is given 22 teaching hours. Two teaching hours can be given to this lesson.",
			"np": "“घरपालुवा र जङ्‍गली जनावरहरू” शीर्षकको पाठ “सजीव वस्तु” अन्तर्गत पर्ने भएकोले राष्ट्रिय पाठ्यक्रमले यसको लागि २८ घन्टी दिएको छ। यस पाठको लागि बढीमा २ घन्टी दिन सकिनेछ। "
		},
		"prerequisites_content": {
			"paragraph": {
				"en": "Teachers could refer to the following Grade 2 E-Paath because it gives the introduction to the characteristics of the animals.",
				"np": "विद्यार्थीहरूले कक्षा २ मा भएको तलको जनावरका गुणहरू शीर्षकको ई-पाठ पढिसकेपछि यो पाठ हेरेमा बढी प्रभावकारी हुनसक्ने अपेक्षा गरिन्छ। "
			},
			"chapter_links": {
				"chapter_link_data1": {
					"grade": "2",
					"id": "anm",
					"breadcrumb_data": {
						"en": "Grade 2 > Characteristics of animals",
						"np": "कक्षा २ > जनावरका गुणहरू"
					}
				}
			}
		},
		"lesson_guidelines_content": {
			"en": {
				"paragraph": "This E-Paath helps students know the differences between the domestic and wild animals. In section 1, firstly the domestic animals are focused which is followed by the wild animals. Suitable examples of each category have been given too. Section 2 focuses on a DIY where learners can click the pictures of the domestic and the wild animals.  Section 3 presents another DIY where students can pick an animal and color it. They should identify the animal by its name as well. ",
				"list": []
			},
			"np": {
				"paragraph": "यो पाठ पढेर विद्यार्थीहरूले घरपालुवा र जङ्‍गली जनावरहरू छुट्‍याउन सक्नेछन्। साथै तिनीहरूबीचको फरकसमेत बताउन सक्नेछन्। पहिलो सेक्सनमा घरपालुवा जनावर र दोस्रो सेक्सनमा जङ्‍गली जनावरका बारेमा जानकारी दिइएको छ। तेस्रो सेक्सनमा भने जनावर छानेर रङ भरी नाम समेत पत्ता लगाउनुपर्ने हुन्छ।",
				"list": []
			}
		},
		"related_activities_content": {
			"en": {
				"paragraph": "The teacher can draw a T chart on the board. On the left column, ‘Domestic Animals’ is written and on the other side “Wild Animals” is written. Students are asked to volunteer. The students will be asked to stand in a queue (in their respective groups; domestic or wild animals that are assigned by the teacher). Each student will come in front (one at a time) and draw an animal belonging to the respective category. Then the teacher can ask the rest of the students to come in front. Each member can be asked to write the name of the animal just below the picture itself. In the end, the teacher can discuss and verify the answers with the students. ",
				"list": []
			},
			"np": {
				"paragraph": "बोर्डमा धर्का तानेर एकातिर \"घरपालुवा जनावर\" र अर्कोतिर \"जङ्‍गली जनावर\" भनेर शिर्षक लेख्‍न सकिन्छ। अब पालैपालो १/१ जना विद्यार्थीलाई बोलाएर सही शीर्षकको तलपट्टि मिल्ने जनावरको चित्र बनाउन लगाउन सकिन्छ। अरू केही विद्यार्थीलाई बोलाएर चित्रका मुनि नाम लेख्‍न लगाउन सकिन्छ। अन्तमा शीर्षकअनुसार चित्र र नाम मिलेको छ/छैन भनेर पुन: विद्यार्थीहरूलाई नै सोध्दै नमिलेको आटउँमा सच्याईदिन सकिनेछ।",
				"list": []
			}
		},
		"evaluation_content": {
			"en": {
				"paragraph": " ",
				"list": []
			},
			"np": {
				"paragraph": " ",
				"list": []
			}
		}
  },

	"top": {
		"lesson_name": "Types of Plants",
		"about_the_lesson_content": {
			"en": "There are different types of plants around us. Some are big and some are small. They have different shapes and colors as well. The features and examples of trees, shrubs and herbs are discussed in this lesson. ",
			"np": "हाम्रो वरपर थुप्रै किसिमका बिरुवाहरू पाइन्छन्। तिनीहरू रङ र आकारमा फरक हुन्छन्। यो पाठमा रूख, बुट्‍यान र झारपातका विशेषता र उदाहरणसहित व्याख्या गरिएको छ।"
		},
		"curricular_requirement_content": {
			"en": "“Types of plants” comes under “Living things” which is given 22 teaching hours. Three teaching hours can be given to this lesson.",
			"np": "“विभिन्‍न किसिमका बिरुवाहरू” शीर्षकको पाठ “सजीव वस्तु” अन्तर्गत पर्ने भएकोले राष्ट्रिय पाठ्यक्रमले यसको लागि २२ घन्टी दिएको छ। यस पाठको लागि बढीमा ३ घन्टी दिन सकिनेछ। "
		},
		"prerequisites_content": {
			"paragraph": {
				"en": "Teachers could refer to the following Grade 1 E-Paath because it gives introduction to the different types of plants.",
				"np": "कक्षा १ मा भएको \"विभिन्‍न प्रकारका बिरुवाहरू\" शीर्षकको पाठ पढेर त्यसपछि यस पाठमा प्रवेश गर्न सके उपयोगी हुनेछ।"
			},
			"chapter_links": {
				"chapter_link_data1": {
					"grade": 1,
					"id": "top",
					"breadcrumb_data": {
						"en": "Grade 1 > Types of plants",
						"np": "कक्षा १ ➔ विभिन्‍न प्रकारका बिरुवाहरू   "
					}
				}
			}
		},
		"lesson_guidelines_content": {
			"en": {
				"paragraph": "This E-Paath helps students know the features of various plants found in the nature. Section 1 focuses on the characteristics and examples of trees, shrubs and herbs.  For example: after the features of herbs are given, the pictures of marigold, coriander and wheat are presented as well. A DIY is given in section 2 where students can drag and drop the plant in the respective category of plant.",
				"list": []
			},
			"np": {
				"paragraph": "यो ई-पाठमा हाम्रो वरिपरि पाइने विभिन्‍न प्रकारका बिरुवाहरूको विशेषताका बारेमा जानकारी दिइएको छ। पहिलो सेक्सनमा रूख, बुट्‍यान र झारपातका विशेषता र उदाहरण दिइएको छ। दोस्रो सेक्सनमा भने विद्यार्थीहरूले आफैँ चिनेर सही ठाउँमा तानेर राख्‍नुपर्ने हुन्छ।",
				"list": []
			}
		},
		"related_activities_content": {
			"en": {
				"paragraph": "The teacher can take the students outside on the garden to observe the nature, given there are trees and flowers there. If not, the teacher can take the permission from the school to take the students to a place or nursery where various plants have bloomed. If the students are practically shown the plants then they will understand them more. After the students come back, they can discuss what they saw and revise the characteristics of each type of plant as well. A big chart featuring drawings of the different types of plants can be collectively done by the students with the guidance of the teacher. ",
				"list": []
			},
			"np": {
				"paragraph": "विद्यार्थीहरूलाई कक्षाबाट बाहिर निकालेर नजिकैको बगैँचामा भएका विभिन्‍न प्रकारका बिरुवाहरूको अवलोकन गर्न लगाउन सकिनेछ। सम्भव भए कुनै नर्सरीको समेत भ्रमण गराउन सकिनेछ। कक्षामा फर्केर विद्यार्थीहरूले देखेका विभिन्‍न प्रकारका बिरुवाहरू र तिनका विशेषताका बारेमा छलफल गराउन सकिन्छ। शिक्षकको नेतृत्वमा सबै प्रकारका बिरुवाहरूको ठुलो र स्पष्ट हुने गरी चित्र बनाएर तिनीहरूका विशेषतामा पुन: अन्तर्क्रिया गराउन सकिन्छ।",
				"list": []
			}
		},
		"evaluation_content": {
			"en": {
				"paragraph": " ",
				"list": [
				]
			},
			"np": {
				"paragraph": " ",
				"list": [
				]
			}
		}
},

	"fap": {
		"lesson_name": "Foods from animals and plants",
		"about_the_lesson_content": {
			"en": "We get food from various animals and plants. There are many benefits that we get from them as well. This E-Paath discusses the various types of foods and the benefits we get from them. ",
			"np": "हामीले जनावर र बिरुवाबाट थुप्रै खानेकुरा पाउछौँ। तिनीहरूबाट अरूपनि धेरै फाइदाहरू लिन सकिन्छ। यो ई-पाठले विशेष गरी तिनीहरूबाट पाइने खानेकुरा लगायत अन्य फाइदाको बारेमा जानकारी दिने अपेक्षा गरिन्छ।"
		},
		"curricular_requirement_content": {
			"en": "“Foods from animals and plants” comes under “Living things” which is given 28 teaching hours. Two teaching hours can be given to this lesson.",
			"np": "“जनावर र बिरुवाबाट पाइने खानेकुरा” शीर्षकको पाठ “सजीव वस्तु” अन्तर्गत पर्ने भएकोले राष्ट्रिय पाठ्यक्रमले यसको लागि २८ घन्टी दिएको छ। यस पाठको लागि बढीमा २ घन्टी दिन सकिनेछ। "
		},
		"prerequisites_content": {
			"paragraph": {
				"en": "Teachers could refer to the following Grade 2 E-Paath because it gives introduction to the different food items from various plants and animals. ",
				"np": "जनावर र बिरुवाबाट पाइने खानेकुराबारे सामान्य जानकारी पाउनको लागि कक्षा २ को यो ई-पाठबारे जानकारी भएमा उपयोगी हुनेछ।"
			},
			"chapter_links": {
				"chapter_link_data1": {
					"grade": 2,
					"id": "fie",
					"breadcrumb_data": {
						"en": "Grade 2 > Foods I eat",
						"np": "कक्षा २ ➔ मेरो खानेकुरा   "
					}
				}
			}
		},
		"lesson_guidelines_content": {
			"en": {
				"paragraph": "This E-Paath helps students know more about the food that we get from the primary sources. In section 1, the learners can click the favorite foods and also drag and drop the food to its source. The DIY leads to the explanation that the given food are obtained from plants or animals. Section 2 features the food that we get from the plants. The food that we eat every day  from plants such as grains, rice, maize, etc. known as the staple food are highlighted. It is followed by fruits, leaves of plants, stems of some plants and the root. Section 3 features the food that we get from the animals. The food items that are discussed are the milk products, eggs and meat. In the fourth section, a DIY is given where learners can drag and drop the food items in the respective boxes. ",
				"list": []
			},
			"np": {
				"paragraph": "यो पाठले विद्यार्थीहरूलाई खानेकुराको सामान्य स्रोतको बारेमा जानकारी दिनेछ। पहिलो सेक्सनमा उनीहरूले आफूलाई मनपर्ने खानामा क्‍लिक गर्दै केही खानेकुरालाई त्यसको मुख्य स्रोत भएको ठाउँमा तानेर पनि राख्‍न पाउनेछन्। त्यसैगरी सेक्सन २ मा बिरुवाबाट पाइने खानाको बारेमा जानकारी राखिएको छ भने सेक्सन ३ मा जनावरबाट पाइने खानाको बारेमा पढ्न सकिनेछ। सेक्सन ४ मा भने स्रोत अनुसार खानालाई सही बाकसमा तानेर राख्‍नुपर्ने हुन्छ। अन्तमा विद्यार्थीहरूले अभ्यास गरी स्वमूल्याङ्‍कन गर्न सक्नेछन्। ",
				"list": []
			}
		},
		"related_activities_content": {
			"en": {
				"paragraph": "If students bring tiffin box from home, they can be asked to analyse their lunch by categorizing them into food that we get from plants and the food that we get from the animals. This can be done in the lunch break itself. Furthermore, the negative effects of eating junk foods can be highlighted as well. Each student can be given a certain name of a food product such as; cauliflower, cheese, corn, eggs, potato, etc. They can asked to prepare two lined presentation which could have these lines:\nHi I am egg!\nI come from the animals such as chicken.\n\nOR \n\nHello. I am cauliflower!\nI come from the plants. ",
				"list": []
			},
			"np": {
				"paragraph": "सम्भव भएसम्म विद्यार्थीहरूले घरबाट लिएर आएको खाजामा कुन कुन खानेकुरा कस्तो स्रोतबाट उपल्ब्ध हुन्छ भनेर छलफल गराउन सकिन्छ। यसका साथै बजारमा पाइने तैयारी खानेकुराबाट हुने बेफाइदाका बारेमा पनि छोटो जानकारी दिन सकिन्छ। यसबाहेक प्रत्येक विद्यार्थीलाई १/१ ओटा खानेकुराहरूको नाम दिएर उदाहरणमा दिएजस्तै गरी प्रस्तुति दिन लगाउन सकिन्छ:\nनमस्ते साथी, यो अण्डा हो!\nयो कुखुरा जस्तो जनावरबाट प्राप्‍त हुन्छ।\n\nअथवा \n\nनमस्ते साथी, यो काउली हो!\nयो बिरुवाबाट पाइने खानेकुरा हो।",
				"list": []
			}
		},
		"evaluation_content": {
			"en": {
				"paragraph": " ",
				"list": [
				]
			},
			"np": {
				"paragraph": " ",
				"list": [
				]
			}
		}
},

	"anh": {
		"lesson_name": "Animal's home",
		"about_the_lesson_content": {
			"en": "Animals have different kinds of habitats. Some live in den, some in water, some in nest, some in jungle, etc. This E-Paath discusses the habitats of the animals.",
			"np": "जनावरको वासस्‍थानहरू विभिन्‍न प्रकारका हुन्छन्। कोही गुफामा बस्छन्, कोही पानीमा बस्छन् भने कोही जङ्‍गलमा बस्छन्। यो पाठले जनावरको वासस्‍थानका बारेमा केही जानकारी दिनेछ।"
		},
		"curricular_requirement_content": {
			"en": "“Animal's Home” comes under “Living things” which is given 28 teaching hours. Two teaching hours can be given to this lesson.",
			"np": "“जनावरको वासस्‍थान” शीर्षकको पाठ “सजीव वस्तु” अन्तर्गत पर्ने भएकोले राष्ट्रिय पाठ्यक्रमले यसको लागि २८ घन्टी दिएको छ। यस पाठको लागि बढीमा २ घन्टी दिन सकिनेछ।"
		},
		"prerequisites_content": {
			"paragraph": {
				"en": "Teachers could refer to the following Grade 2 E-Paath because it gives introduction to the animal's home.",
				"np": "जनावरको वासस्‍थानबारे सामान्य जानकारी पाउनको लागि कक्षा २ को यो ई-पाठबारे जानकारी भएमा उपयोगी हुनेछ।"
			},
			"chapter_links": {
				"chapter_link_data1": {
					"grade": 2,
					"id": "dwa",
					"breadcrumb_data": {
						"en": "Grade 2 > Domestic and wild animals",
						"np": "कक्षा २ ➔ घरपालुवा र जङ्गली जनावर   "
					}
				}
			}
		},
		"lesson_guidelines_content": {
			"en": {
				"paragraph": "This E-Paath helps students know the homes of the animals. The first section features two boys playing and a house nearby. This leads to the point that human beings live in houses. In section 2, brief points are given regarding the various animals’ homes. For example: birds live in the nest, fish lives in water, cows live in sheds, tigers live in jungles, spiders live in webs, etc. In Section 3, a DIY is given where students get to click on the correct habitat of the animals. ",
				"list": []
			},
			"np": {
				"paragraph": "यो पाठले विद्यार्थीहरूलाई जनावरको वासस्‍थानका बारेमा केही जानकारी दिनेछ। पहिलो सेक्सनमा मानिसहरू घरमा बस्छन् भन्‍ने कुराबाट पाठ सुरू हुन्छ। दोस्रो सेक्सनमा छरा, माछा, गाई आदि जस्ता जनावरको बारेमा जानकारी दिइएको छ। तेस्रो सेक्सनमा विद्यार्थीहरूले सही उत्तरमा क्‍लिक गर्दै क्रियाकलाप पूरा गर्नेछन्।  ",
				"list": []
			}
		},
		"related_activities_content": {
			"en": {
				"paragraph": "Students can be shown flash cards that represent picture or text of the animals on one side. On the other side, picture or text of the respective habitat is given. For example: sparrow-nest, girl-house, snake-hole, whale-water, cow-shed, spider-web, etc. Teacher will show the card featuring the animal and will ask about its habitat. This can be played in the form of quiz, individually or in groups. The teacher must not limit the questions to what is given in the E-Paath. Other animals can be focused as well. ",
				"list": []
			},
			"np": {
				"paragraph": "चित्र/शब्दपत्तीको प्रयोग गरी विद्यार्थीहरूलाई जनावर र तिनका वासस्‍थानका बारेमा जानकारी दिन सकिन्छ। अब विद्यार्थीहरूलाई समूहमा विभाजन गरी कार्डमा भएका जनावरहरू कहाँ बस्छन्? भनेर हाजिर जवाफ प्रतियोगिता गराउन सकिन्छ। साथै ई-पाठमा भएका भन्दा धेरै प्रश्‍नहरू निर्माण गरी सोध्‍न सकिन्छ। ",
				"list": []
			}
		},
		"evaluation_content": {
			"en": {
				"paragraph": " ",
				"list": [
				]
			},
			"np": {
				"paragraph": " ",
				"list": [
				]
			}
		}
},

	"dan": {
		"lesson_name": "Day and Night",
		"about_the_lesson_content": {
			"en": "There are reasons behind the day and night. This E-Paath focuses on the concept of day and night with prime emphasis on its causes and features. ",
			"np": "दिन र रात हुनुको कारणलाई स्पष्ट बनाउनको लागि यो पाठमा केही क्रियाकलापहरु दिइएका छन्। साथै दिन र रातका विशेषताहरू पनि यहाँ बताइएको छ।"
		},
		"curricular_requirement_content": {
			"en": "“Day and Night” comes under “Earth and the Universe” which is given 15 teaching hours. Two teaching hours can be given to this lesson.",
			"np": "\"दिन र रात\" शीर्षकको पाठ  \"पृथ्वी र अन्तरिक्ष\" अन्तर्गत पर्दछ। यसको लागि पाठ्‍यक्रमले १५ घन्टी दिए तापनि यो ई-पाठ भने २ घन्टीमा पूरा गर्न सकिनेछ।"
		},
		"prerequisites_content": {
			"paragraph": {
				"en": "The students should know the generic terms related to nature such as the sun, moon, earth, sky, etc. ",
				"np": "विद्यार्थीहरू सूर्य, चन्द्रमा, पृथ्वी, आकाश जस्ता शब्दहरूसँग परिचित भए उपयोगी हुनेछ।"
			},
			"chapter_links": {}
		},
		"lesson_guidelines_content": {
			"en": {
				"paragraph": "This E-Paath helps students know the characteristics and reasons behind the day and night. Section 1 talks about what features indicate day and what indicates night. For example: when there is sun and the sunlight, everything around us is seen clearly which indicates daytime. On the other hand, when the sun doesn’t shine and there is darkness everywhere, it is called night. In the night time, moon can be seen in different shapes as well. Section 2 talks about what causes the day and night. An astronaut is shown as the narrator here. Section 3 presents an experiment where two kids show an experiment related to the day and night. ",
				"list": []
			},
			"np": {
				"paragraph": "विद्यार्थीहरूलाई यो पाठले दिन र रात कसरी हुन्छ भन्‍ने कुराको बारेमा विस्तृतमा जानकारी दिन्छ। पहिलो सेक्सनमा दिन र रात भनेर कसरी चिन्‍ने भनेर तिनका विशेषतालाई बताइएको छ। दोस्रो सेक्सनमा दिन र रात हुनुको वैज्ञानिक कारणबारे अन्तरिक्ष यात्री मार्फत् बताउन खोजिएको छ। तेस्रो सेक्सनमा भने विद्यार्थीहरूले घर वा कक्षाकोठामा नै सजिलै गर्न सकिने गरी सामान्य क्रियाकलाप देखाइएको छ।  ",
				"list": []
			}
		},
		"related_activities_content": {
			"en": {
				"paragraph": "If there are adequate materials, the teacher can show the experiment (presented in section 3) practically in the classroom. Students can also do it themselves. They can even draw  picture to help them understand the concept of day and night. The picture could look like the one given in section 2 (excluding the astronaut and speech bubble). The teacher should emphasize on encouraging the students to make the sun look bigger than the earth. The earth can have vertical line in the centre so that the day and night are shown exclusively. The students can shade the part that has night with pencil or light color pencil. If available, students can use colors or crayons to give yellow color to the sun and green and blue to the earth. The students must label the parts indicating the day and night. ",
				"list": []
			},
			"np": {
				"paragraph": "सम्भव भए सेक्सन ३ मा भएको क्रियाकलापलाई कक्षामा प्रस्तुत गर्न लगाउन सकिन्छ। यसका साथै विद्यार्थीहरूले दिन र रात छुट्‍याउने गरी चित्रसमेत बनाउन सक्नेछन्। यसो गर्दा उनीहरूलाई पृथ्वीको तुलनामा सूर्य अलिकति ठुलो बनाउन लगाउन सकिन्छ। पृथ्वीको बिचमा धर्का तानेर दिन र रातको भागमा फरक रङ पनि भर्न लगाउन सकिन्छ। सकिन्छ भने पानी र जमिन देखिने गरी चित्रमा भएको पृथ्वीको भागमा क्रमश: निलो र हरियो रङ भर्न लगाउन सकिन्छ।",
				"list": []
			}
		},
		"evaluation_content": {
			"en": {
				"paragraph": " ",
				"list": [
				]
			},
			"np": {
				"paragraph": " ",
				"list": [
				]
			}
		}
},

	"hal": {
		"lesson_name": "Heat and light",
		"about_the_lesson_content": {
			"en": "There are various uses of heat and light. This E-Paath focuses on the concept of heat and light with the emphasis on how to apply them in our daily lives. ",
			"np": "ताप र प्रकाशका थुप्रै प्रयोगहरू हुन्छन्। यस पाठले विशेष गरी ताप र प्रकाशलाई हाम्रो दैनिक जीवनमा कसरी उपयोग गर्न सकिन्छ भनेर बताउन खोजेको छ।  "
		},
		"curricular_requirement_content": {
			"en": "“Heat and Light” comes under “Substance and Energy” which is given twelve teaching hours. Two teaching hours can be given to this lesson. ",
			"np": "“ताप र प्रकाश” शीर्षकको पाठ “पदार्थ र शक्ति” अन्तर्गत पर्ने भएकोले राष्ट्रिय पाठ्यक्रमले यसको लागि १२ घन्टी दिएको छ। तर यस ई-पाठको लागि भने बढीमा २ घन्टी दिन सकिनेछ।"
		},
		"prerequisites_content": {
			"paragraph": {
				"en": "Teachers could refer to the E-Paath lesson “Weather” of Grade 1 as it talks about the concept of the days with and without sun (which is an integral source of heat and light).  ",
				"np": "शिक्षकले कक्षा १ को “मौसम” शिर्षकको पाठ हेर्न लगाई दिनको समयमा सूर्य हुँदा र राति नहुँदाको समयमा ताप र प्रकाशको प्रभावबारे छलफल गराउन सकिन्छ। "
			},
			"chapter_links": {
				"chapter_link_data1": {
					"grade": 1,
					"id": "wth",
					"breadcrumb_data": {
						"en": "Grade 1 > Weather",
						"np": "कक्षा १ ➔ मौसम   "
					}
				}
			}
		},
		"lesson_guidelines_content": {
			"en": {
				"paragraph": "The first section features various mediums of heat and light such as the sun. After detailed explanation of the sun, the other sources such as burning firewood, burning candle, electric bulb, torch light, electric heater and burning dung cakes are featured. The second section features the question if the plants need sunlight. Students can participate as well by placing the flower pot in a place full of sunlight or a dark room without sunlight. What happens to the flower pot is shown in the subsequent pages.",
				"list": []
			},
			"np": {
				"paragraph": "पहिलो सेक्सनमा सूर्यलगायत ताप र प्रकाशका विभिन्‍न स्रोतहरूका बारेमा जानकारी दिइएको छ। जस्तै: दाउरा, मैनबत्ती, हिटर आदि। त्यसैगरी दोस्रो सेक्सनमा भने बिरुवाको लागि समेत सूर्यको ताप र प्रकाशको आवश्यकता पर्दछ भनेर बुझाउनको लागि फूल रोपेको गमलालाई प्रकाश भएको र नभएको ठाउँमा राखेर प्रदर्शन गरिएको छ। ",
				"list": []
			}
		},
		"related_activities_content": {
			"en": {
				"paragraph": "The teacher can bring a flower pot and place it on the location where it receives sunlight. Students can be asked to observe the growth of the plants. They can be asked to observe the sources of heat and light at home, school and public places. Students can be asked to take notes of what they see and draw it in their notebooks. They can share their observation with the students and the teacher. ",
				"list": []
			},
			"np": {
				"paragraph": "विद्यार्थीहरूलाई फूल रोपेर १/१ ओटा गमलालाई प्रकाश भएको र नभएको ठाउँमा राख्‍न लगाई निरन्तर अवलोकन गर्न लगाउन सकिन्छ। साथै उनीहरूलाई घर वरपर पाइने कुनैपनि प्रकाश र तापका स्रोतहरूको सूची बनाउन लगाई कुनै एकको चित्र बनाउने काम पनि दिन सकिन्छ।    ",
				"list": []
			}
		},
		"evaluation_content": {
			"en": {
				"paragraph": " ",
				"list": [
				]
			},
			"np": {
				"paragraph": " ",
				"list": [
				]
			}
		}
},
	"anf": {
		"lesson_name": "Animal's food and modes of feeding",
		"about_the_lesson_content": {
			"en": "There are different types of animals and they eat different kinds of food. Not only that, but the way they eat is also different from each other. E.g. some animals chew their food, some animals just swallow while some animals suck. This chapter shows foods of different animals and their modes of feeding. It focuses on: chewing, swallowing, sucking and licking.",
			"np": "हाम्रो वरपर विभिन्‍न किसिमका जनावरहरू हुन्छन् भने ती जनावरले खाने खाना पनि फरक फरक नै हुन्छन्। त्यति मात्रै नभएर तिनीहरूको खाना खाने तरिका समेत भिन्‍न हुन्छ। कुनै जनावरले खानालाई चपाउँछन् भने कुनैले निल्छन्। यस पाठले सामान्यतया चपाउने, निल्ने, चुस्‍ने र चाट्ने तरिका अपनाएर खाना खाने जनावरहरू पहिचान गर्न सहयोग गर्छ।"
		},
		"curricular_requirement_content": {
			"en": "“Animal’s food and modes of eating” comes under “Living things”. The entire unit has been allocated 28 teaching hours. Out of this, this chapter is allocated 3 teaching hours. ",
			"np": "“जनावरको खाना र खाने तरीका” शीर्षकको पाठ “सजीव वस्तु” अन्तर्गत पर्ने भएकोले राष्ट्रिय पाठ्यक्रमले यसको लागि २८ घन्टी दिएको छ। यस पाठको लागि बढीमा ३ घन्टी दिन सकिनेछ।\""
		},
		"prerequisites_content": {
			"paragraph": {
				"en": "Teachers could refer to the “Domestic and Wild animals” chapter in Grade 2 E-Paath as it describes different types of animals. This will reinforce their knowledge of the animals and help understand their feeding concept better. ",
				"np": "विभिन्‍न किसिमका जनावरहरूका बारेमा जानकारी दिनको लागि शिक्षकले कक्षा २ को “घरपालुवा र जङ्गली जनावर” शिर्षकको पाठलाई सन्दर्भ सामग्रीको रूपमा प्रयोग गर्न सकिनेछ।"
			},
			"chapter_links": {
				"chapter_link_data1": {
					"grade": 2,
					"id": "dwa",
					"breadcrumb_data": {
						"en": "Grade 2 > Domestic and Wild animals",
						"np": "कक्षा २ ➔ घरपालुवा र जङ्गली जनावर   "
					}
				}
			}
		},
		"lesson_guidelines_content": {
			"en": {
				"paragraph": "Section 1 starts by asking the students to pick their favorite food. It then links this to the idea that animals also love food and they eat specific kinds of foods. Dogs love meat, elephants eat grasses and so on. \n\nTeachers can then ask the students how they eat or drink different food. E.g. they generally chew solid foods like: beaten rice, vegetables, fruits etc. They swallow liquids and little children suck milk. Teachers can then extend this concept to animals. Before beginning the chapter, they can ask the students to guess how the animals eat their food. They can give this an an assignment and in the next class, the teacher can write down the different eating modes on a chart. They can put the animals in those groups and start section 2 of the lesson. \n\nSection 2 shows the different modes of eating, namely: chew, lick, swallow and suck giving examples of different animals. In the next class, students can try the “Do It Yourself” and the exercises to test their knowledge.",
				"list": []
			},
			"np": {
				"paragraph": "सेक्सन १ मा विद्यार्थीहरूले आफूलाई मनपर्ने खानेकुरामा क्‍लिक गर्न पाउनेछन्। यस मार्फत् जनावरलाई पनि खाना मनपर्छ भन्दै कुकुरले मासु मनपराउँछ भने हात्तीले घाँस खान्छ भनेर बताइदिन सकिन्छ। विद्यार्थीहरूलाई पनि उनीहरूले कुन खानालाई कसरी खाने गरेका छौ? भनेर सोध्‍न सकिन्छ। जस्तै: ठोस खानालाई चपाएर, साना बच्‍चाले दुध चुसेर, तरल पदार्थ निलेर आदि। यसै प्रसङ्गमा मिल्ने गरी जनावरको खाना र तिनले खाने तरिका पनि फरक हुन सक्छ भनेर बताईदिन सकिन्छ। सेक्सन २ मा पुगेर सामान्यतया चपाउने, निल्ने, चुस्‍ने र चाट्ने तरिका अपनाएर खाना खाने जनावरहरू पहिचान गर्न लगाई यी तरिकाअनुसार खाना खाने जनावरको नामहरूको सूची तयार गर्न लगाउन सकिन्छ। यसका साथै पाठ र अभ्यासमा सोधिएका प्रश्‍नहरूको समेत समाधान गर्न लगाउँदै उनीहरूलाई स्वमूल्याङ्‍कन गराउन सकिन्छ।",
				"list": []
			}
		},
		"related_activities_content": {
			"en": {
				"paragraph": "",
				"list": [
					"Teachers can come up with more animals not mentioned in the textbook or E-Paath. E.g. crocodile or crow. They can ask the students to discuss what they eat and their modes of eating. Does a crow chew or swallow? The teacher can share the fact that crows don’t have teeth and hence cannot chew and so on. This will allow the students to think and explore.",
					"Teachers can draw on the blackboard or a chart the different modes of feeding. They can discuss with the students and put animals in different categories."
				]
			},
			"np": {
				"paragraph": "",
				"list": [
					"विद्यार्थीहरूलाई चिन्तन मनन र सोध खोज गर्न लगाउन पाठमा भएका भन्दा फरक जनावरहरूको खाने तरिका बारे प्रश्‍नोत्तर गराउन सकिन्छ। जस्तै: गोहीले के खान्छ? यसले चपाएर खान्छ कि निल्छ? आदि।",
					"बोर्डमा जनावरको खाने तरिकालाई ठूला र सफा अक्षरमा लेखेर छलफल गराई विभिन्‍न जनावरको नाम प्रत्येक शीर्षकमा मिल्ने गरी विद्यार्थीहरूलाई पालैपालो राख्‍न लगाउन सकिन्छ।"
				]
			}
		},
		"evaluation_content": {
			"en": {
				"paragraph": " ",
				"list": [
				]
			},
			"np": {
				"paragraph": " ",
				"list": [
				]
			}
		}
},

	"anm": {
		"lesson_name": "Characteristics of animals",
		"about_the_lesson_content": {
			"en": "This E-Paath explains the movement, growth, feeding, respiration, reproduction and sensation of animals through different animations. ",
			"np": "यस ई-पाठमा धेरैजसो जनावरहरूमा पाइने लक्षण जस्तै: चालमा आउनु, वृद्दि हुनु, खाना खानु, सास फेर्नु, सन्तान उत्पादन गर्नु, चेतना देखाउनु र निष्काशन क्रिया गर्नु आदिका बारेमा धारणा स्पष्ट पार्न विषयवस्तुलाई सचित्र एनिमेशनको माध्यमबाट बुझाउन खोजिएको छ। "
		},
		"curricular_requirement_content": {
			"en": "“Characteristics of animals” comes under “Living things” which is given 33 teaching hours. Two teaching hours can be given to this lesson.",
			"np": "सजीव वस्तुका लागि राष्ट्रिय पाठ्यक्रमले अनुमानित ३३ घन्टी दिएको भएपनि यो ई-पाठको लागि भने बढीमा २ घन्टी बराबरको समय दिनु उपयोगी हुन सक्छ।"
		},
		"prerequisites_content": {
			"paragraph": {
				"en": "Before getting started, the students are expected to have basic knowledge about the living things and their behaviours. If possible, they should take to observe any animal or bird and note down their activities they have seen. Later on, they can disscuss about it in the classroom.",
				"np": "यो पाठ पढाउनु पूर्व विद्यार्थीहरूसँग सजीव वस्तुका केही सामान्य लक्षणहरूबारे जानकारी हुनुपर्छ। सम्भव भए उनीहरूलाई कुनै जनावर वा चराको क्रियाकलाप अवलोकन गराएर कक्षामा छलफल गर्नु उपयोगी हुनेछ।  "
			},
			"chapter_links": {
				"chapter_link_data1": {
					"grade": 2,
					"id": "lan",
					"breadcrumb_data": {
						"en": "Grade 2 ≻ Living and non living things",
						"np": "कक्षा २ ≻ सजीव र निर्जीव वस्तुहरू"
					}
				}
			}
		},
		"lesson_guidelines_content": {
			"en": {
				"paragraph": "In this lesson, animals and birds that are found around us along with some examples are explained for the 2nd graders. ",
				"list": [
					"Section 1 starts by explaining characteristics of animals with sepecific behaviour shown by an elephant. The students could add information on the basis of animals they have seen in thier own settings.",
					"Section 2, 3, 4 and 5 have similar information about other animals, birds and humans. After learning them all, the students can also prepare for the presentation for other species.",
					"Finally, the learners can self evaluate their understanding by working on the exercise."
				]
			},
			"np": {
				"paragraph": "यस पाठमा कक्षा २ का विद्यार्थीहरूका लागि हाम्रा वरपर पाइने जनावर र चरा लगायत मानिसको समेत उदाहरण दिई उनीहरूले देखाउने क्रियाकलापलाई प्रस्ट्याउन खोजिएको छ। ",
				"list": [
					"ई-पाठको पृष्ठ १ मा भएको क्रियाकलापलाई राम्ररी अवलोकन गर्न लगाई आफ्नो परिवेशमा भएका जनावरको बारेमा वर्णन गर्न लगाउन सकिन्छ। ",
					"पृष्ठ २, ३, ४ र ५ मा भएका प्रत्येक जनावरको लक्षण पालैपालो हेर्दै तिनीहरूका बारेमा जानकारी लिन लगाई त्यस्तै किसिमका अरू जनावरहरूको बारेमा समूहमा प्रस्तुतीकरण दिन लगाउन सकिन्छ। ",
					"अन्तमा अभ्यासमा काम गर्न लगाई उनीहरूलाई स्वमूल्याङ्कन गर्न लगाउन सकिन्छ।"
				]
			}
		},
		"related_activities_content": {
			"en": {
				"paragraph": "In order to make teaching and learning activities more effective, following things could be done:",
				"list": [
					"The students can be asked to put hands near to their nose and try to feel breathing.",
					"Bird flies and car runs to show movement. But why are birds living things but not car? Try to explain about animals by adding examples seen in our everyday life.",
					"The students can be asked some questions by using flash cards. For examples: what characteristics of animals mean to move from one place to another? Expected answer is \"movement\". In this way, quiz can be done by dividing groups of the learners."
				]
			},
			"np": {
				"paragraph": "शिक्षण सिकाइ क्रियाकलापलाई अझै प्रभावकारी बनाउनको लागि निम्‍न बुँदाहरूमा पनि काम गर्न सकिन्छ।",
				"list": [
					"विद्यार्थीहरूलाई आफ्नो हत्केला नाक नजिकै राख्‍न लगाई सास फेरेको अनुभव गर्न लगाउन सकिन्छ।",
					"चाल देखाउनको लागि चरा उड्छ भने गाडी गुड्छ। तर किन चरा मात्रै सजीव वस्तु हो, गाडी होइन? यस्ता दैनिक जीवनका उदाहरणहरू दिँदै जनावरका गुणहरूलाई अझै प्रस्ट्याउन सकिन्छ।",
					"फ्ल्यास कार्डको प्रयोग गरी विद्यार्थीहरूलाई केही प्रश्‍न सोध्‍न सकिनेछ। जस्तै:- एक ठाउँबाट अर्को ठाउँमा सर्ने गुणलाई के भनिन्छ? अपेक्षित उत्तर - चाल। यसरी प्रश्‍नोेत्तर गर्दा हाजिर जवाफ प्रतियोगिता पनि गराउन सकिन्छ।"
				]
			}
		},
		"evaluation_content": {
			"en": {
				"paragraph": " ",
				"list": [
				]
			},
			"np": {
				"paragraph": " ",
				"list": [
				]
			}
		}
},
	"cos": {
		"lesson_name": "Colors of sunlight",
		"about_the_lesson_content": {
			"en": "This E-Paath shows that sunlight is made up of many colors.       ",
			"np": "यस ई-पाठमा सूर्यको प्रकाशमा विभिन्‍न रङहरू हुन्छन् भनेर प्रस्ट पार्न खोजिएको छ। "
		},
		"curricular_requirement_content": {
			"en": "“Colours of sunlight” comes under “Earth and the Universe” which is given twelve teaching hours. Two teaching hours can be given to this lesson.",
			"np": "\"पृथ्वी र अन्तरिक्ष\" खण्डको लागि राष्ट्रिय पाठ्यक्रमले अनुमानित १५ घन्टी दिएको भएपनि यस अन्तर्गत पर्ने \"सूर्यको प्रकाशका रङहरू\" शीर्षकको पाठका लागि भने बढीमा २ घन्टी बराबरको समय दिनु उपयोगी हुन सक्छ।"
		},
		"prerequisites_content": {
			"paragraph": {
				"en": "Before getting started, students can make a solution of soap and blow to make some bubbles. Let them observe colours seen on it and ask to note them down. Also, ask if they've seen rainbow in the sky. If their answer is yes, then let them tell all colours. If not, let them know what colours can be seen in the rainbow. Further discussion can be done on the similar questions. ",
				"np": "यो पाठ पढाउनु पूर्व विद्यार्थीहरूलाई साबुन र पानी घोलेर फोका बनाउन लगाई त्यसमा कुन कुन रङ देखिन्छ भनेर अवलोकन गराउँदै टिपोट गर्न लगाउन सकिन्छ। त्यसबाहेक विद्यार्थीहरूले इन्द्रेणी देखेका छन् कि? भनेर सोध्‍न सकिन्छ। देखेका भए इन्द्रेणी कस्तो हुन्छ? त्यसमा कुन कुन रङहरू देखिन्छन्? जस्ता प्रश्‍नहरूमा छलफल गराउन सकिन्छ।"
			},
			"chapter_links": {
			}
		},
		"lesson_guidelines_content": {
			"en": {
				"paragraph": "In this E-Paath, 2nd graders will learn about the fact that sunlight is made up of many colours. It tries to give a new approach to create a concept to show all seven colours in the sunlight.",
				"list": [
					"Section 1 is based on the conversation activity that explain content in a simple form.",
					"Section 2 and 3 gives ideas and helps learners to identify all seven colours of the sunlight.",
					"After learning section 4 and 5, same experiment can be repeated in the laboratory or classroom. ",
					"At the end, the students can work on the exercise and do self evaluation."
				]
			},
			"np": {
				"paragraph": "यस पाठमा कक्षा २ का विद्यार्थीहरूका लागि सूर्यको प्रकाशमा सात ओटा रङहरू हुन्छन् भनेर नयाँ अवधारणाको विकास गर्न खोजिएको छ।",
				"list": [
					"ई-पाठको पृष्ठ १ मा भएको क्रियाकलापलाई कुराकानी मार्फत् साधारण भाषामा बुझाउन खोजिएको छ।  ",
					"पृष्ठ २ र ३ मा भएका विषयवस्तुद्वारा सूर्यको प्रकाशमा भएका रङहरू चिन्‍न लगाउन सकिन्छ। ",
					"पृष्ठ ४ र ५ मा भएको क्रियाकलापलाई राम्ररी अवलोकन गर्न लगाई कक्षामा समेत यो प्रयोगलाई दोहोर्‍याउन सकिन्छ।",
					"अन्तमा अभ्यासमा काम गर्न लगाई उनीहरूलाई स्वमूल्याङ्कन गर्न लगाउन सकिन्छ।"
				]
			}
		},
		"related_activities_content": {
			"en": {
				"paragraph": "Following things can be done to make this lesson more effective:",
				"list": [
					"On providing different cryons or any colours, the students can make their own colourful rainbow.",
					"Same experiment of a Newton's disk in E-paath can be done practically by the students to demonstrate that sunlight has many colours."
				]
			},
			"np": {
				"paragraph": "शिक्षण सिकाइ क्रियाकलापलाई अझै प्रभावकारी बनाउनको लागि निम्न बुँदाहरूमा पनि काम गर्न सकिन्छ।",
				"list": [
					"विद्यार्थीहरूलाई विभिन्‍न किसिमका रङहरू उपलब्ध गराएर समूहमा इन्द्रेणी बनाई रङ भर्न लगाउन सकिन्छ।",
					"सूर्यको प्रकाशमा भएका रङहरू किन सेतो वा रङहिन जस्ता देखिन्छन् भनेर प्रदर्शन गर्नको लागि सबै विद्यार्थीहरूलाई रङ्गीन फिरफिरे बनाई घुमाएर अवलोकन गर्न सकिन्छ।"
				]
			}
		},
		"evaluation_content": {
			"en": {
				"paragraph": " ",
				"list": [
				]
			},
			"np": {
				"paragraph": " ",
				"list": [
				]
			}
		}
},
	"shd": {
		"lesson_name": "Shadow",
		"about_the_lesson_content": {
			"en": "This E-paath answers on what is shadow? when does an object form bigger and smaller shadows? What is the relation between light and shadow? It gives clear concept about a shadow. The students can observe relation of light and shadow, explain the causes behind different shapes and sizes of the shadow, extract conclusion from the experiment througn this lesson. ",
			"np": "यस ई-पाठमा छाया भनेको के हो? यो कसरी बन्छ? एउटै वस्तुको छाया कहिले ठुलो त कहिले सानो हुन सक्छ? प्रकाश र छायाको कस्तो सम्बन्ध हुन्छ? भन्‍ने जस्ता प्रश्‍नहरूमा आधारित भई छायाको अवधारणा दिन खोजिएको छ। यस पाठमा विद्यार्थीले प्रकाश र छायाको सम्बन्ध अवलोकन गर्ने, वस्तुहरूको छायाको आकार तथा साइजमा आउने फरकपनाको स्पष्टीकरण दिने, सामान्य प्रयोगहरू गर्ने र निष्कर्ष निकाल्ने सीपहरूको विकासमा जोड दिइएको छ। "
		},
		"curricular_requirement_content": {
			"en": "“Shadow” comes under “Earth and the Universe” which is given twelve teaching hours. Two teaching hours can be given to this lesson.",
			"np": "\"पृथ्वी र अन्तरिक्ष\" खण्डको लागि राष्ट्रिय पाठ्यक्रमले अनुमानित १५ घन्टी दिएको भएपनि यस अन्तर्गत पर्ने \"छाया\" शीर्षकको पाठका लागि भने बढीमा २ घन्टी बराबरको समय दिनु उपयोगी हुन सक्छ।"
		},
		"prerequisites_content": {
			"paragraph": {
				"en": "The students can create shadow by using candle or torch in a dark room (if possible) and observe it well before begin this lesson.",
				"np": "यो पाठ पढाउनु पूर्व विद्यार्थीहरूलाई छायाको अवधारणा दिनको लागि कुनै अँध्यारो (सम्भव भए) कोठामा मैनबत्ती बालेर वा टर्चलाइट बालेर वस्तुहरूको छाया बनाएर प्रदर्शन गराउनाले पाठ रोचक र सहज हुन सक्छ।"
			},
			"chapter_links": {
			}
		},
		"lesson_guidelines_content": {
			"en": {
				"paragraph": "This lesson gives a new concept for the 2nd graders regarding relation between shadow and light.",
				"list": [
					"Section 1 is based on the conversation activity that explain content in a simple form.",
					"Section 2 explains the causes behind the formation of shadow. While section 3 asks the students to identify shape of shadow formed by the given image. ",
					"Section 4 includes fun activity where the learners can create funny shadows with their own hands.",
					"At the end, the students can work on the exercise and do self evaluation."
				]
			},
			"np": {
				"paragraph": "यस पाठमा कक्षा २ का विद्यार्थीहरूका लागि प्रकाश र छायाको सम्बन्धबाट नयाँ अवधारणाको विकास गर्न खोजिएको छ।",
				"list": [
					"ई-पाठको पृष्ठ १ मा भएको क्रियाकलापलाई कुराकानी मार्फत् साधारण भाषामा बुझाउन खोजिएको छ।  ",
					"पृष्ठ २ मा छाया बन्‍नुको पछाडि के कारण हुन्छ? भनेर बुझाउन खोजिएको छ। त्यसैगरी पृष्ठ ३ मा भने दिइएको वस्तुले कस्तो छाया बनाउँछ भनेर विद्यार्थीलाई चिनेर क्‍लिक गर्न लगाउन सकिन्छ। ",
					"पृष्ठ ४ मा भएको क्रियाकलापलाई राम्ररी अवलोकन गर्न लगाई कक्षामा विद्यार्थीहरूलाई आफ्नो हातले छाया बनाउन लगाई यो प्रयोगलाई दोहोर्‍याउन सकिन्छ।",
					"अन्तमा अभ्यासमा काम गर्न लगाई उनीहरूलाई स्वमूल्याङ्कन गर्न लगाउन सकिन्छ।"
				]
			}
		},
		"related_activities_content": {
			"en": {
				"paragraph": "Following things can be done to make this lesson more effective:",
				"list": [
					"Students can be divided into smaller groups to create shadow of the provided objects. They can ask each other to identify object by looking into shadow.",
					"The students can explore the way they can make shadows either long or short or thin or thick through hands on activity."
				]
			},
			"np": {
				"paragraph": "शिक्षण सिकाइ क्रियाकलापलाई अझै प्रभावकारी बनाउनको लागि निम्न बुँदाहरूमा पनि काम गर्न सकिन्छ।",
				"list": [
					"विद्यार्थीहरूलाई विभिन्‍न किसिमका वस्तुहरू उपलब्ध गराएर समूहमा छाया बनाई त्यो कुन वस्तुको छाया हो? भनेर चिन्‍ने खेल खेलाउन सकिन्छ।",
					"प्रकाशमा भएका वस्तुहरूले कसरी लामो/छोटो वा सानो/ठुलो छाया बनाउँछन् भनेर प्रयोग गराउन सकिन्छ। "
				]
			}
		},
		"evaluation_content": {
			"en": {
				"paragraph": " ",
				"list": [
				]
			},
			"np": {
				"paragraph": " ",
				"list": [
				]
			}
		}
},
	"lan": {
		"lesson_name": "Living and nonliving things",
		"about_the_lesson_content": {
			"en": "This E-Paath has been designed to help students understand the features  of living and nonliving things. ",
			"np": "यस ई-पाठमा धेरैजसो सजीव प्राणीका लक्षणहरू (चाल, वृद्दि, खाना, सास फेर्नु, सन्‍तान उत्पादन, चेतना) आदिका बारेमा धारणा स्पष्ट पार्न विषयवस्तुलाई सचित्र एनिमेशनको माध्यमबाट बुझाउन खोजिएको छ।"
		},
		"curricular_requirement_content": {
			"en": "“Living and nonliving things” comes under “Living things” which is given 33 teaching hours. Two teaching hours can be given to this lesson.",
			"np": "सजीव वस्तुका लागि राष्ट्रिय पाठ्यक्रमले अनुमानित ३३ घन्टी दिएको भएपनि यो ई-पाठको लागि भने बढीमा २ घन्टी बराबरको समय दिनु उपयोगी हुन सक्छ।"
		},
		"prerequisites_content": {
			"paragraph": {
				"en": "Before getting started, the students are expected to have basic knowledge about the living things and their behaviours. If possible, they should take to observe any animal or bird and note down their activities they have seen. Later on, they can disscuss about it in the classroom.",
				"np": "यो पाठ पढाउनु पूर्व विद्यार्थीहरूसँग सजीव वस्तुका केही सामान्य लक्षणहरूबारे जानकारी हुनुपर्छ। सम्भव भए उनीहरूलाई कुनै जनावर वा चराको क्रियाकलाप अवलोकन गराएर कक्षामा छलफल गर्नु उपयोगी हुनेछ। "
			},
			"chapter_links": {
				"chapter_link_data1": {
					"grade": 2,
					"id": "anm",
					"breadcrumb_data": {
						"en": "Grade 2 > Characteristics of animals",
						"np": "कक्षा २ > जनावरका गुणहरू"
					}
				}
			}
		},
		"lesson_guidelines_content": {
			"en": {
				"paragraph": "This E-Paath helps students know the differences between the living and nonliving things. In section 1, the students are firstly asked to identify the living things from the given pictures of living and nonliving things. Then, it is followed by the description of the characteristics of living things. In section 2, features of the living things are given in order to analyse if a ‘cow’ is a living thing or not. It is followed by examples of other living things. Section 3 features nonliving things. The same features as shown in the section 2 are given to analyse if a ‘table’ is a living thing or not. It is followed by the examples of nonliving things. ",
				"list": []
			},
			"np": {
				"paragraph": "यो पाठ पढेर विद्यार्थीहरूले सामान्य रूपमा सजीव र निर्जीव वस्तुलाई छुट्‍याउन सक्नेछन्। पहिलो सेक्सनमा विद्यार्थीहरूले  दिइएका चित्रहरूबाट सजीव वस्तु मात्रै चिनेर क्‍लिक गर्नुपर्ने हुन्छ। यहाँ अन्तमा सजीव वस्तुका केही लक्षणहरूको बारेमा पनि बताइएको छ। दोस्रो सेक्सनमा गाईको उदाहरण लिँदै यसले देखाउने प्रत्येक लक्षणहरूको बारेमा बताउँदै गाई किन सजीव वस्तु हो भनेर देखाइएको छ। त्यसरी नै टेबललाई निर्जीव वस्तु हो भनेर चाहिँ तेस्रो सेक्सनमा देखाइएको छ।",
				"list": []
			}
		},
		"related_activities_content": {
			"en": {
				"paragraph": "Create a list of five names featuring living and nonliving things. For example: cake, fan, cat, boy and parrot. Create a different list for each group (depending on the number of students). Divide the students into groups. Ask them to categorize each one into living or nonliving thing. Encourage them to discuss the reasons why they have placed the thing in a particular category. For example: Parrot is a living thing because it eats, grows, moves, breathes, etc. After the group discussion, encourage each group to share some points in front of the class. Then, ask each student to draw a T chart in their notebooks. Ask them to write the names of living things on the left column and the names of nonliving things on the right column. Give them the freedom to illustrate if they want to. Upon the completion, ask them to share what they have written in front of class. ",
				"list": []
			},
			"np": {
				"paragraph": "प्रत्येक विद्यार्थीहरूलाई सजीव र निर्जीव नामहरू जस्तै: पानी, खरायो, किताब, रूख र सुगा दिएर पालैपालो उनीहरूलाई नामअनुसार आफूलाई सजीव र निर्जीव वस्तुमा छुट्‍याउन लगाउन सकिन्छ। आफू कुन समूहमा परेको हो? किन? भनेर उनीहरूलाई पालैपालो बयान गर्न उत्प्रेरित गर्न सकिन्छ। जस्तै: चरा सजीव वस्तु हो किनभने यसले चाल, वृद्दि, खाना, सास फेर्नु, सन्‍तान उत्पादन, चेतना आदि जस्ता लक्षणहरू देखाउँछ। विद्यार्थीहरूलाई कापीमा सजीव र निर्जीव नामहरू क्रमश: दायाँ र बायाँ लेख्‍न लगाउन सकिन्छ। साथै उनीहरूले चाहेमा चित्र बनाउन पनि दिन सकिन्छ। अन्तमा उनीहरूले गरेको कार्य कक्षामा प्रस्तुत गर्न लगाउन सके पाठ रोचक हुन सक्नेछ।",
				"list": []
			}
		},
		"evaluation_content": {
			"en": {
				"paragraph": " ",
				"list": []
			},
			"np": {
				"paragraph": " ",
				"list": []
			}
		}
	},
	"fie": {
		"lesson_name": "Foods I eat",
		"about_the_lesson_content": {
			"en": "This E-Paath focuses on the healthy ways of eating food. It also discusses the harmful effects of  eating food that are unclean and rotten. The lesson essentially helps to analyse one’s food habits and encourages healthy lifestyle. ",
			"np": "यो ई-पाठले स्वस्थ खानेकुराको बारेमा जानकारी दिनेछ। साथै फोहर र सडेगलेका खानेकुराले हुने हानिका बारेमा समेत यो पाठमा केही क्रियाकलाप राखिएका छन्। त्यसैले यस पाठमा हाम्रो खानेबानीका साथै स्वस्थकर खाना खाने जीवनशैलीको बारेमा पनि उत्प्रेरित गर्ने किसिमको क्रियाकलाप राखिएका छन्।"
		},
		"curricular_requirement_content": {
			"en": "“Foods I eat” comes under “Living things” which is given 28 teaching hours. Two teaching hours can be given to this lesson.",
			"np": "“मेरो खानेकुरा” शीर्षकको पाठ “सजीव वस्तु” अन्तर्गत पर्ने भएकोले राष्ट्रिय पाठ्यक्रमले यसको लागि २८ घन्टी दिएको छ। यस पाठको लागि बढीमा २ घन्टी दिन सकिनेछ। "
		},
		"prerequisites_content": {
			"paragraph": {
				"en": "The teacher can refer to the following chapter as it focuses on the various kinds of food and the respective sources. ",
				"np": "विभिन्‍न किसिमका खानेकुरा र तिनका स्रोतबारे सामान्य जानकारी पाउनको लागि कक्षा २ को यो ई-पाठबारे जानकारी भएमा उपयोगी हुनेछ।"
			},
			"chapter_links": {
				"chapter_link_data1": {
					"grade": 2,
					"id": "fap",
					"breadcrumb_data": {
						"en": "Grade 2 > Foods from animals and plants",
						"np": "कक्षा २ > जनावर र बिरुवाबाट पाइने खानेकुरा"
					}
				}
			}
		},
		"lesson_guidelines_content": {
			"en": {
				"paragraph": "This E-Paath focuses on encouraging students to reflect on the various kinds of food they eat and if they are maintaining hygienic precautions for food intake. Section 1 deals with analysis of what one eats from the food categories: fruits, milk products, grains, vegetables, and meat items. Section 2 shows conversation between two friends who are discussing the food they intake and the safety measures one should take before eating. Section 3 summarizes what has been learnt in the lesson; the necessity of  washing fruits and vegetables, boiling water and milk, covering the food items, etc. It also includes the side effects of excessive junk, stale and unclean food that are hazardous for health.",
				"list": []
			},
			"np": {
				"paragraph": "यस पाठले हरेक विद्यार्थीहरूलाई आफूले खाने गरेका खाना र अपनाउने गरेका सावधानीका बारेमा बताउनको लागि उत्प्रेरित गर्छ। यसको पहिलो सेक्सनमा खानेकुराको सबै समूहबाट आफूले खाने गरेका खानामा क्‍लिक गराउन सकिन्छ। दोस्रो सेक्सनमा खानेकुराको बारेमा आफूले जानेको कुराहरूबारे साथीहरूबीचको छलफललाई कुराकानी मार्फत् प्रस्तुत गरिएको छ।  तेस्रो सेक्सनमा भने कसरी खानालाई सुरक्षित राख्‍न सकिन्छ भनेर देखाउनुका साथै बजारमा पाइने तैयारी खानेकुराले हामीलाई पुर्‍याउने हानिका बारेमा उल्‍लेख गरिएको छ।",
				"list": []
			}
		},
		"related_activities_content": {
			"en": {
				"paragraph": "Teacher can ask students to draw small posters for the classroom. They can be assigned with topics such as ‘Drink Clean Water’, ‘Don’t Eat Junk Food’, ‘Wash Fruits before Eating’, ‘Boil Milk and Water’, ‘Don’t Eat State Food’, ‘Unclean Food Makes Us Unhealthy’, etc. Students can just creatively draw what they understand from the topic. Then can color as well. They must make sure to write the topic related to their drawings. After all the students complete their work, ask them to briefly talk about what they have drawn in front of the whole class. Teacher can decorate the classroom with their posters as well. Also, conduct an interactive session highlighting on students’ opinions regarding the healthy food habits they have inculcated after the completion of the lesson.",
				"list": []
			},
			"np": {
				"paragraph": "कक्षामा प्रदर्शन गर्न लगाउने गरी विद्यार्थीहरूलाई पोस्टर बनाउन लगाउन सकिन्छ। यसको लागि शिक्षकले केही शीर्षकहरू दिन सकिन्छ। जस्तै: \"सफा पानी पिऔँ, बजारिया खानेकुरा त्यागौँ, काँचो खानेकुरा पखालेर मात्रै खाऔँ, उमालेको पानी पिऔँ\" आदि। विद्यार्थीहरूले रचनात्मक रुपमा शीर्षकअनुसार चित्र बनाई रङ भर्न सक्नेछन्। अन्तमा उनीहरूले गरका कक्षा कार्यलाई सबैका अगाडि प्रस्तुत गर्न लगाउँदै आवश्यक छलफल गराउन सकिन्छ।  ",
				"list": []
			}
		},
		"evaluation_content": {
			"en": {
				"paragraph": " ",
				"list": []
			},
			"np": {
				"paragraph": " ",
				"list": []
			}
		}
	}
}
