selector,english_word,engmeaning,nepali_word,nepmeaning,image
cooker,cooker,pressure cooker,प्रेसर कुकर,,
Pea,pea,a round green seed which is eaten as a vegetable,केराउ,,
bowl,bowl,a round shaped container used to store food,कचौरा,,
focus,focus,to pay attention,ध्‍यान दिनु,,
setting,setting,the time and place of the surrounding in a story,कथाको परिवेश,,
track,track,to follow,पत्ता लाउनु,,
bounced,bounce,jump up and down,उफ्रनु,,
pawed,paw,to feel an object with the paw (animal's foot),,,
rolled,roll,move in a paricular direction by rotating,गुड्नु,,
mynah,mynah,a type of bird,मैना,,
pecked,peck,strike or bite something with a bird's beak,चुच्चोले ठुङ्नु,,
popped,pop,to appear suddenly,,अचानक देखा पर्नु,
slipped,slip,,चिप्लनु,,
swelled,swell,become larger or rounder in size,"सुन्‍निनु, फुल्नु",,
crown,crown,"parts of plants above the soil (leaves, stem, branches etc.)",,,
surprised,surprise,,छक्क पर्नु,,
sow,sow,to plant,बिरुवा रोप्‍नु,,
incredible,incredible,wonderful,,असाध्यै राम्रो,
