selector,english_word,engmeaning,nepali_word,nepmeaning,image
टालाटुली,टालाटुली,,,कपडाका स-साना टुक्रा,
जिउ,जिउ,,,शरीर,
सुत्त,सुत्त,,,सुहाउने गरी मिलेको,
बुलाकी,बुलाकी,,,नाकको प्वालहरू बीचको भागमा लगाउने गहना,
टिकी,टिकी,,,टीका,
चुलठी,चुलठी,,,कपालको मुठा,
गाजली,गाजली,,,गाजल लगाएको,
नमुना,नमुना,,,ढाँचा वा स्वरूप,
अभिवादन,अभिवादन,,,"मान्यजनहरूलाई गरिने आदर, सम्मान, ढोग, नमस्कार आदि",
सम्बोधन,सम्बोधन,,,"कुनै व्यक्तिलाई नाम, नाता, पद आदिले बोलाउने काम",
समापन,समापन,,,समाप्त हुने काम; अन्त्य,
हुलाक पोस्ट,हुलाक पोस्ट,,,चिठी खसाल्ने बाकस,
