<?xml version="1.0" encoding="utf-8"?>
<!DOCTYPE svg PUBLIC "-//W3C//DTD SVG 1.1//EN" "http://www.w3.org/Graphics/SVG/1.1/DTD/svg11.dtd">
<svg version="1.1" id="Layer_1" xmlns="http://www.w3.org/2000/svg" xmlns:xlink="http://www.w3.org/1999/xlink" x="0px" y="0px" width="100%" height="100%" viewBox="0 0 372.5 500.127" xml:space="preserve">

<text x="95" y="44" font-family="Arial" font-size="20">N</text>

<path fill="none" stroke="#FF0000" stroke-width="10" stroke-dasharray="446" stroke-dashoffset="446" d="M103.696,334.822 c39.212,0.269,70.78,32.273,70.512,71.484c-0.269,39.212-32.273,70.781-71.485,70.512c-39.211-0.269-70.78-32.273-70.512-71.484
 c0.003-0.367,0.009-0.734,0.017-1.102C33.081,365.532,64.853,334.555,103.696,334.822z">
	<animate id="degreecircleanimate" attributeType="XML" attributeName="stroke-dashoffset" from="446" to="410" dur="3s" begin="0s;degreecircleanimate.end+3s" fill="freeze"/>
</path>
<g transform="rotate(26 105 412)">		
	<line fill="none" stroke="#B2B2B2" stroke-width="5" stroke-dasharray="20" x1="103" y1="73" x2="103" y2="412"/>		
	<polygon fill="#B2B2B2" points="89.239,84.063 103.209,78.127 117.18,84.063 103.209,50.946"/>
</g>
<g id="rotateline">		
	<line fill="none" stroke="#B2B2B2" stroke-width="5" x1="103" y1="73" x2="103" y2="412"/>		
	<polygon fill="#B2B2B2" points="89.239,84.063 103.209,78.127 117.18,84.063 103.209,50.946"/>
	<animateTransform attributeName="transform" attributeType="XML" type="rotate" from="0 105 412" to="26 105 412" dur="3s" begin="0s;degreecircleanimate.end+3s" fill="freeze"/>
</g>
<g>		
	<line fill="#000000" stroke="#000000" stroke-width="5" x1="103" y1="73" x2="103" y2="412"/>		
	<polygon fill="#000000" points="89.239,84.063 103.209,78.127 117.18,84.063 103.209,50.946"/>
</g>
</svg>
