selector,english_word,engmeaning,nepali_word,nepmeaning,image
description,description,,वर्णन,,
participate,participate,,भाग लिनु,,
attended,attend,,भर्ना हुनु,,
founded,founded,स्‍थापित,पाउनु,कुनै व्‍यावसाय वा संस्‍था खोल्‍नु वा सुरु गर्नु,
banned,ban,,निषेध गर्नु ,,
playing music,playing music,,गीत बजाउनु,,
harsh,harsh,,कठोर,,
punishment,punishment,,सजाय,,
orders,order,,नियम,,
basic right,basic right,,आधारभूत अधिकार,,
blogging,blog,,,कुनै पनि व्यक्ति वा संस्थाले इन्टरनेट मा आफ्नो कुराहरु बाँड्न खोलेको वेबसाइट,
identity,identity,,पहिचान,,
threat,threat,,खतरा,,
masked,masked,,मुख छोपेको,,
gunman,gunman,,,बन्दुक भएको मानिस,
survived,survive,,बाँच्‍नु,,
remained,remain,,,कुनै अवस्‍थामा रहिरहनु,
critical condition,critical condition,,गम्भिर अवस्था,,
transported,transport,,सार्नु,,
treatment,treatment,,उपचार,,
recovery,recover,,निको हुनु,,
surgeries,surgery,,शल्यक्रिया,चिरफार गर्नु,
rehabilitation,rehabilitation,,स्वास्थ्यको पुन स्थापना गर्ने प्रकिया,,
discharged,discharge,,निकाल्नु,,
unfortunately,unfortunately,,दुर्भाग्यवश,,
considers,consider,,ठान्‍नु,,
target,target,,निशाना,,
advocate,advocate,supporter - A person who publicly supports a certain cause,"अधिवक्ता, समर्थक",,
fund,fund,,कोष,,
dedicated,dedicate,,समर्पण,,
access,access,,पहुँच ,,
pride,pride,,गर्व,,
countrymen,countrymen,,देशका मानिसहरु,,
achievement,achievement,,प्राप्ति,,
unparalleled,unparalleled,exceptional,,विशिष्ट प्रकारको वा गुणस्तरमा,
unequaled,unequaled,superior to all others in performance,,अरुभन्दा उत्कृष्ट,
struggle,struggle,,संघर्ष,,
commitment,commitment,,प्रतिबद्धता,,
passionate,passionate,,भावुक,,
Taliban,Taliban,,,एक ईस्‍लामिक राजनीतिक र सैन्‍य संघ जुन मुख्य रुपमा अफ्गानिस्तान र पाकिस्‍तानमा सक्रिय थियो,
released,release,,प्रकाशन हुनु,,
despite,despite,,भएता पनि,,
organization,organization,,संगठन,,
Nobel Peace Prize,Nobel Peace Prize,An award given every year for outstanding contribution to mankind,,हरेक वर्ष मानवजाति प्रति उत्कृष्ट योगदान दिएकालाई प्रदान गरिने एउटा पुरस्कार ,
take lead,take lead,,नेतृत्व लिनु,,
struggle,struggle,,संघर्ष,,
