selector,english_word,engmeaning,nepali_word,nepmeaning,image
sucking,suck,,,चुस्नु,
nectar,nectar,,,फूलको रस,
chewing,chew,,,चपाउनु,
produced,produce,,,उत्पादन गर्नु,
herbivorous,herbivorous,,,शाकाहारी,
trunk,trunk,,,हात्तीको सुँड,
Vulture,Vulture,,,गिद्द,
crocodile,crocodile,,,गोही,
carnivorous,carnivorous,,,मांशाहारी,
paws,paws,,,पन्जा,
omnivorous,omnivorous,,,सर्वाहारी,
