<?xml version="1.0" encoding="utf-8"?>
<!DOCTYPE svg PUBLIC "-//W3C//DTD SVG 1.1//EN" "http://www.w3.org/Graphics/SVG/1.1/DTD/svg11.dtd">
<svg version="1.1" id="Layer_1" xmlns="http://www.w3.org/2000/svg" xmlns:xlink="http://www.w3.org/1999/xlink" x="0px" y="0px" width="987.098px" height="261.864px" viewBox="-550 0 987.098 261.864" enable-background="new 0 0 987.098 261.864" xml:space="preserve">
	<animate  id="pan1" attributeName="viewBox" from="-550 0 987.098 261.864" to="550 0 987.098 261.864"  dur="2s" begin="anim1.end+2s" fill="freeze"/>
	<animate  id="pan2" attributeName="viewBox" from="550 21.101 987.098 241.864" to="0 0 987.098 261.864"  dur="1s" begin="anim2.end+2s" fill="freeze"/>
<g>
	<g>
		<g>
			
				<line fill="none" stroke="#231F20" stroke-width="2" stroke-miterlimit="10" x1="441.078" y1="104.851" x2="531.829" y2="104.851"/>
			<g>
				<polygon fill="#231F20" points="527.335,110.775 529.853,104.851 527.335,98.926 541.381,104.851 			"/>
			</g>
		</g>
	</g>
	<circle fill="none" stroke="#0095DA" stroke-width="1.3906" stroke-miterlimit="10" cx="97.209" cy="111.496" r="75.186"/>
	<circle fill="none" stroke="#0095DA" stroke-width="1.3906" stroke-miterlimit="10" cx="97.209" cy="111.496" r="58.858"/>
	<circle fill="none" stroke="#0095DA" stroke-width="1.3906" stroke-miterlimit="10" cx="97.153" cy="111.372" r="91.514"/>
	<g>
		<circle fill="#EC008C" stroke="#AF2E38" stroke-width="0.4393" stroke-miterlimit="10" cx="105.944" cy="19.838" r="6.327"/>
	</g>
	<g>
		<circle fill="#EC008C" stroke="#AF2E38" stroke-width="0.4393" stroke-miterlimit="10" cx="97.097" cy="201.975" r="6.328"/>
	</g>
	<g>
		<circle fill="#F8878B" stroke="#AF2E38" stroke-width="0.445" stroke-miterlimit="10" cx="123.977" cy="41.32" r="6.327"/>
	</g>
	<g>
		<path fill="#F8878B" stroke="#AF2E38" stroke-width="0.445" stroke-miterlimit="10" d="M69.401,49.23
			c-3.17,1.471-6.934,0.097-8.405-3.075c-1.472-3.167-0.096-6.932,3.074-8.402c3.167-1.472,6.931-0.099,8.403,3.073
			C73.945,43.993,72.571,47.757,69.401,49.23z"/>
	</g>
	<g>
		<circle fill="#F8878B" stroke="#AF2E38" stroke-width="0.445" stroke-miterlimit="10" cx="27.405" cy="84.917" r="6.328"/>
	</g>
	<g>
		<circle fill="#F8878B" stroke="#AF2E38" stroke-width="0.445" stroke-miterlimit="10" cx="70.732" cy="181.608" r="6.328"/>
	</g>
	<g>
		<circle fill="#F8878B" stroke="#AF2E38" stroke-width="0.445" stroke-miterlimit="10" cx="127.678" cy="180.214" r="6.327"/>
	</g>
	<g>
		<circle fill="#F8878B" stroke="#AF2E38" stroke-width="0.445" stroke-miterlimit="10" cx="167.424" cy="138.281" r="6.328"/>
	</g>
	<g>
		<circle fill="#FFFDE9" stroke="#F58220" stroke-width="1.1681" stroke-miterlimit="10" cx="97.153" cy="111.373" r="34.023"/>
	</g>
	<g>
		<circle fill="#F8878B" stroke="#AF2E38" stroke-width="0.445" stroke-miterlimit="10" cx="149.116" cy="88.237" r="6.327"/>
	</g>
	<g>
		<path fill="#F8878B" stroke="#AF2E38" stroke-width="0.445" stroke-miterlimit="10" d="M168.483,86.492
			c-3.17,1.472-6.932,0.097-8.404-3.074c-1.473-3.169-0.097-6.931,3.072-8.402c3.17-1.475,6.934-0.098,8.405,3.072
			C173.028,81.256,171.653,85.02,168.483,86.492z"/>
	</g>
	<g>
		<circle fill="#F8878B" stroke="#AF2E38" stroke-width="0.445" stroke-miterlimit="10" cx="29.04" cy="142.043" r="6.327"/>
	</g>
	<g>
		<circle fill="#F8878B" stroke="#AF2E38" stroke-width="0.445" stroke-miterlimit="10" cx="45.129" cy="134.834" r="6.327"/>
	</g>
	<circle fill="#FFFDE9" stroke="#F58220" stroke-width="1.4481" stroke-miterlimit="10" cx="333.767" cy="128.544" r="42.178"/>
	<circle fill="none" stroke="#0095DA" stroke-width="1.7239" stroke-miterlimit="10" cx="333.766" cy="128.545" r="93.205"/>
	<circle fill="none" stroke="#0095DA" stroke-width="1.7239" stroke-miterlimit="10" cx="333.767" cy="128.544" r="72.963"/>
	<g>
		<circle fill="#F8878B" stroke="#AF2E38" stroke-width="0.445" stroke-miterlimit="10" cx="334.142" cy="35.148" r="6.327"/>
	</g>
	<g>
		<circle fill="#F8878B" stroke="#AF2E38" stroke-width="0.445" stroke-miterlimit="10" cx="334.142" cy="58.433" r="6.327"/>
	</g>
	<g>
		<circle fill="#F8878B" stroke="#AF2E38" stroke-width="0.445" stroke-miterlimit="10" cx="334.142" cy="198.137" r="6.327"/>
	</g>
	<g>
		<circle fill="#FFFFFF" stroke="#EC008C" stroke-miterlimit="10" stroke-dasharray="1,1" cx="268.32" cy="193.211" r="6.327"/>
	</g>
	<g>
		<circle fill="#F8878B" stroke="#AF2E38" stroke-width="0.445" stroke-miterlimit="10" cx="241.007" cy="127.836" r="6.327"/>
	</g>
	<g>
		<circle fill="#FFFFFF" stroke="#EC008C" stroke-miterlimit="10" stroke-dasharray="1,1" cx="269.217" cy="62.91" r="6.327"/>
	</g>
	<g>
		<circle fill="#F8878B" stroke="#AF2E38" stroke-width="0.445" stroke-miterlimit="10" cx="399.516" cy="62.015" r="6.327"/>
	</g>
	<g>
		<circle fill="#F8878B" stroke="#AF2E38" stroke-width="0.445" stroke-miterlimit="10" cx="426.382" cy="128.732" r="6.327"/>
	</g>
	<g>
		<circle fill="#F8878B" stroke="#AF2E38" stroke-width="0.445" stroke-miterlimit="10" cx="399.516" cy="192.315" r="6.327"/>
	</g>
	<g>
		<circle fill="#F8878B" stroke="#AF2E38" stroke-width="0.445" stroke-miterlimit="10" cx="334.142" cy="221.421" r="6.327"/>
	</g>
	<circle fill="none" stroke="#0095DA" stroke-width="1.3906" stroke-miterlimit="10" cx="655.803" cy="111.496" r="75.186"/>
	<circle fill="none" stroke="#0095DA" stroke-width="1.3906" stroke-miterlimit="10" cx="655.803" cy="111.496" r="58.858"/>
	
	<g>
		<circle fill="#F8878B" stroke="#AF2E38" stroke-width="0.445" stroke-miterlimit="10" cx="682.57" cy="41.32" r="6.327"/>
	</g>
	<g>
		<path fill="#F8878B" stroke="#AF2E38" stroke-width="0.445" stroke-miterlimit="10" d="M627.995,49.23
			c-3.17,1.471-6.934,0.097-8.405-3.075c-1.472-3.167-0.096-6.932,3.074-8.402c3.167-1.472,6.931-0.099,8.403,3.073
			C632.539,43.993,631.165,47.757,627.995,49.23z"/>
	</g>
	<g>
		<circle fill="#F8878B" stroke="#AF2E38" stroke-width="0.445" stroke-miterlimit="10" cx="585.999" cy="84.917" r="6.328"/>
	</g>
	<g>
		<circle fill="#F8878B" stroke="#AF2E38" stroke-width="0.445" stroke-miterlimit="10" cx="629.326" cy="181.608" r="6.328"/>
	</g>
	<g>
		<circle fill="#F8878B" stroke="#AF2E38" stroke-width="0.445" stroke-miterlimit="10" cx="686.271" cy="180.214" r="6.327"/>
	</g>
	<g>
		<circle fill="#F8878B" stroke="#AF2E38" stroke-width="0.445" stroke-miterlimit="10" cx="726.018" cy="138.281" r="6.328"/>
	</g>
	<g>
		<circle fill="#FFFDE9" stroke="#F58220" stroke-width="1.1681" stroke-miterlimit="10" cx="655.747" cy="111.373" r="34.023"/>
	</g>
	<g>
		<circle fill="#F8878B" stroke="#AF2E38" stroke-width="0.445" stroke-miterlimit="10" cx="707.71" cy="88.237" r="6.327"/>
	</g>
	<g>
		<path fill="#F8878B" stroke="#AF2E38" stroke-width="0.445" stroke-miterlimit="10" d="M727.077,86.492
			c-3.17,1.472-6.932,0.097-8.404-3.074c-1.473-3.169-0.097-6.931,3.072-8.402c3.17-1.475,6.934-0.098,8.405,3.072
			C731.622,81.256,730.247,85.02,727.077,86.492z"/>
	</g>
	<g>
		<circle fill="#F8878B" stroke="#AF2E38" stroke-width="0.445" stroke-miterlimit="10" cx="587.634" cy="142.043" r="6.327"/>
	</g>
	<g>
		<circle fill="#F8878B" stroke="#AF2E38" stroke-width="0.445" stroke-miterlimit="10" cx="603.723" cy="134.834" r="6.327"/>
	</g>
	<circle fill="#FFFDE9" stroke="#F58220" stroke-width="1.4481" stroke-miterlimit="10" cx="881.36" cy="128.544" r="42.178"/>
	<circle fill="none" stroke="#0095DA" stroke-width="1.7239" stroke-miterlimit="10" cx="881.359" cy="128.545" r="93.205"/>
	<circle fill="none" stroke="#0095DA" stroke-width="1.7239" stroke-miterlimit="10" cx="881.36" cy="128.544" r="72.963"/>
	<g>
		<circle fill="#F8878B" stroke="#AF2E38" stroke-width="0.445" stroke-miterlimit="10" cx="881.735" cy="35.148" r="6.327"/>
	</g>
	<g>
		<circle fill="#F8878B" stroke="#AF2E38" stroke-width="0.445" stroke-miterlimit="10" cx="881.735" cy="58.433" r="6.327"/>
	</g>
	<g>
		<circle fill="#F8878B" stroke="#AF2E38" stroke-width="0.445" stroke-miterlimit="10" cx="881.735" cy="198.137" r="6.327"/>
	</g>
	<g>
		<circle fill="#F8878B" stroke="#AF2E38" stroke-width="0.445" stroke-miterlimit="10" cx="788.601" cy="127.836" r="6.327"/>
	</g>
	<g>
		<circle fill="#F8878B" stroke="#AF2E38" stroke-width="0.445" stroke-miterlimit="10" cx="947.109" cy="62.015" r="6.327"/>
	</g>
	<g>
		<circle fill="#F8878B" stroke="#AF2E38" stroke-width="0.445" stroke-miterlimit="10" cx="973.976" cy="128.732" r="6.327"/>
	</g>
	<g>
		<circle fill="#F8878B" stroke="#AF2E38" stroke-width="0.445" stroke-miterlimit="10" cx="947.109" cy="192.315" r="6.327"/>
	</g>
	<g>
		<circle fill="#F8878B" stroke="#AF2E38" stroke-width="0.445" stroke-miterlimit="10" cx="881.735" cy="221.421" r="6.327"/>
	</g>
</g>

<text transform="matrix(1 0 0 1 85.7246 254.5703)" fill="#231F20" font-family="'MyriadPro-Semibold'" font-size="25.8603">Mg</text>
<text transform="matrix(1 0 0 1 332.8828 254.5703)" fill="#231F20" font-family="'MyriadPro-Semibold'" font-size="25.8603">O</text>

<text transform="matrix(1 0 0 1 648.1973 254.5703)"><tspan x="0" y="0" fill="#231F20" font-family="'MyriadPro-Semibold'" font-size="25.8603">Mg</tspan>
	<tspan x="45" y="-9" fill="none" font-family="'MyriadPro-Semibold'" font-size="18">+2
		<animate attributeType="XML" attributeName="fill" from="none" to="#231F20" begin="pan1.end+2s" dur="1s" repeatCount="1" fill="freeze"/>
	</tspan>
</text>

<text transform="matrix(1 0 0 1 877.3057 254.5703)"><tspan x="0" y="0" fill="#231F20" font-family="'MyriadPro-Semibold'" font-size="25.8603">O</tspan>
	<tspan x="25" y="-9" fill="none" font-family="'MyriadPro-Semibold'" font-size="18">-2
		<animate attributeType="XML" attributeName="fill" from="none" to="#231F20" begin="pan1.end+2s" dur="1s" repeatCount="1" fill="freeze"/>
	</tspan>
</text>

<g>
	<path id="motionpath1" fill="none" stroke="#EC008C" stroke-width="1.5" stroke-dasharray="170" stroke-dashoffset="170" stroke-miterlimit="10" d="M111.923,15.803c0,0,92.915-15.28,152.728,42.493">
		<animate id="anim1" attributeType="XML" attributeName="stroke-dashoffset" from="170" to="0" begin="1s" dur="1s" repeatCount="1" fill="freeze"/>
	</path>
	
	<polygon transform="translate(-113,-16)" fill="#EC008C" points="109.408,20.448 110.706,15.801 108.261,11.634 119.279,14.685">
		<animateMotion begin="1s" dur="1s" repeatCount="1" rotate="auto" fill="freeze">
		           <mpath xlink:href="#motionpath1"/>
		</animateMotion>
	</polygon>
</g>
<g>
	<path id="motionpath2" fill="none" stroke="#EC008C" stroke-width="1.5" stroke-dasharray="180" stroke-dashoffset="180" stroke-miterlimit="10" d="M98.671,209.193c0,0,87.608,50.197,167.946-9.435">
		<animate id="anim1" attributeType="XML" attributeName="stroke-dashoffset" from="180" to="0" begin="1s" dur="1s" repeatCount="1" fill="freeze"/>
	</path>

	<polygon transform="translate(-101,-211)" fill="#EC008C" points="94.658,213.21 98.033,209.764 97.901,204.936 106.084,212.92">
		<animateMotion begin="1s" dur="1s" repeatCount="1" rotate="-50" fill="freeze">
		           <mpath xlink:href="#motionpath2"/>
		</animateMotion>
	</polygon>
</g>
<g opacity="1">
	<circle fill="none" stroke="#0095DA" stroke-width="1.3906" stroke-miterlimit="10" cx="655.747" cy="111.372" r="91.514"/>
	<circle fill="#F8878B" stroke="#AF2E38" stroke-width="0.445" stroke-miterlimit="10" cx="664.538" cy="19.838" r="6.327"/>
	<circle fill="#F8878B" stroke="#AF2E38" stroke-width="0.445" stroke-miterlimit="10" cx="655.69" cy="201.975" r="6.328"/>
	<animate attributeType="CSS" attributeName="opacity" from="1" to="0" begin="pan1.end+2s" dur="1s" repeatCount="1" fill="freeze"/>
</g>
<g opacity="0">
	<circle fill="#EC008C" stroke="#AF2E38" stroke-width="0.4393" stroke-miterlimit="10" cx="815.914" cy="193.211" r="6.327"/>
	<circle fill="#EC008C" stroke="#AF2E38" stroke-width="0.4393" stroke-miterlimit="10" cx="816.811" cy="62.91" r="6.327"/>
	<animate id="anim2" attributeType="CSS" attributeName="opacity" from="0" to="1" begin="pan1.end+2s" dur="1s" repeatCount="1" fill="freeze"/>
</g>
</svg>
