<?xml version="1.0" encoding="utf-8"?>
<!DOCTYPE svg PUBLIC "-//W3C//DTD SVG 1.1//EN" "http://www.w3.org/Graphics/SVG/1.1/DTD/svg11.dtd">
<svg version="1.1" id="Layer_1" xmlns="http://www.w3.org/2000/svg" xmlns:xlink="http://www.w3.org/1999/xlink" x="0px" y="0px"
width="1000px" height="1000px" viewBox="0 0 1000 1000" preserveAspectRatio="none" 
xml:space="preserve">
	<rect  x="2" y="2" width="996" height="996" fill="white" fill-opacity="0" stroke="#B4B3AF" stroke-width="2" />
	<g id="box-1" >
		<rect id="rect-1" x="0" y="0" width="100" height="100" fill="white" fill-opacity="0" stroke="#B4B3AF" stroke-width="2" />
		<polygon id="tri-1-a" points="0,0 100,0 0,100" opacity="0" />
		<polygon id="tri-1-b" points="0,100 100,100 100,0" opacity="0" />
	</g>
	<g id="box-2" >
		<rect id="rect-2" x="100" y="0" width="100" height="100" fill="white" fill-opacity="0" stroke="#B4B3AF" stroke-width="2" />
		<polygon id="tri-2-a" points="100,0 200,0 100,100" opacity="0" />
		<polygon id="tri-2-b" points="100,100 200,100 200,0" opacity="0" />
	</g>
	<g id="box-3" >
		<rect id="rect-3" x="200" y="0" width="100" height="100" fill="white" fill-opacity="0" stroke="#B4B3AF" stroke-width="2" />
		<polygon id="tri-3-a" points="200,0 300,0 200,100" opacity="0" />
		<polygon id="tri-3-b" points="200,100 300,100 300,0" opacity="0" />
	</g>
	<g id="box-4" >
		<rect id="rect-4" x="300" y="0" width="100" height="100" fill="white" fill-opacity="0" stroke="#B4B3AF" stroke-width="2" />
		<polygon id="tri-4-a" points="300,0 400,0 300,100" opacity="0" />
		<polygon id="tri-4-b" points="300,100 400,100 400,0" opacity="0" />
	</g>
	<g id="box-5" >
		<rect id="rect-5" x="400" y="0" width="100" height="100" fill="white" fill-opacity="0" stroke="#B4B3AF" stroke-width="2" />
		<polygon id="tri-5-a" points="400,0 500,0 400,100" opacity="0" />
		<polygon id="tri-5-b" points="400,100 500,100 500,0" opacity="0" />
	</g>
	<g id="box-6" >
		<rect id="rect-6" x="500" y="0" width="100" height="100" fill="white" fill-opacity="0" stroke="#B4B3AF" stroke-width="2" />
		<polygon id="tri-6-a" points="500,0 600,0 500,100" opacity="0" />
		<polygon id="tri-6-b" points="500,100 600,100 600,0" opacity="0" />
	</g>
	<g id="box-7" >
		<rect id="rect-7" x="600" y="0" width="100" height="100" fill="white" fill-opacity="0" stroke="#B4B3AF" stroke-width="2" />
		<polygon id="tri-7-a" points="600,0 700,0 600,100" opacity="0" />
		<polygon id="tri-7-b" points="600,100 700,100 700,0" opacity="0" />
	</g>
	<g id="box-8" >
		<rect id="rect-8" x="700" y="0" width="100" height="100" fill="white" fill-opacity="0" stroke="#B4B3AF" stroke-width="2" />
		<polygon id="tri-8-a" points="700,0 800,0 700,100" opacity="0" />
		<polygon id="tri-8-b" points="700,100 800,100 800,0" opacity="0" />
	</g>
	<g id="box-9" >
		<rect id="rect-9" x="800" y="0" width="100" height="100" fill="white" fill-opacity="0" stroke="#B4B3AF" stroke-width="2" />
		<polygon id="tri-9-a" points="800,0 900,0 800,100" opacity="0" />
		<polygon id="tri-9-b" points="800,100 900,100 900,0" opacity="0" />
	</g>
	<g id="box-10" >
		<rect id="rect-10" x="900" y="0" width="100" height="100" fill="white" fill-opacity="0" stroke="#B4B3AF" stroke-width="2" />
		<polygon id="tri-10-a" points="900,0 1000,0 900,100" opacity="0" />
		<polygon id="tri-10-b" points="900,100 1000,100 1000,0" opacity="0" />
	</g>
	<g id="box-11" >
		<rect id="rect-11" x="0" y="100" width="100" height="100" fill="white" fill-opacity="0" stroke="#B4B3AF" stroke-width="2" />
		<polygon id="tri-11-a" points="0,100 100,100 0,200" opacity="0" />
		<polygon id="tri-11-b" points="0,200 100,200 100,100" opacity="0" />
	</g>
	<g id="box-12" >
		<rect id="rect-12" x="100" y="100" width="100" height="100" fill="white" fill-opacity="0" stroke="#B4B3AF" stroke-width="2" />
		<polygon id="tri-12-a" points="100,100 200,100 100,200" opacity="0" />
		<polygon id="tri-12-b" points="100,200 200,200 200,100" opacity="0" />
	</g>
	<g id="box-13" >
		<rect id="rect-13" x="200" y="100" width="100" height="100" fill="white" fill-opacity="0" stroke="#B4B3AF" stroke-width="2" />
		<polygon id="tri-13-a" points="200,100 300,100 200,200" opacity="0" />
		<polygon id="tri-13-b" points="200,200 300,200 300,100" opacity="0" />
	</g>
	<g id="box-14" >
		<rect id="rect-14" x="300" y="100" width="100" height="100" fill="white" fill-opacity="0" stroke="#B4B3AF" stroke-width="2" />
		<polygon id="tri-14-a" points="300,100 400,100 300,200" opacity="0" />
		<polygon id="tri-14-b" points="300,200 400,200 400,100" opacity="0" />
	</g>
	<g id="box-15" >
		<rect id="rect-15" x="400" y="100" width="100" height="100" fill="white" fill-opacity="0" stroke="#B4B3AF" stroke-width="2" />
		<polygon id="tri-15-a" points="400,100 500,100 400,200" opacity="0" />
		<polygon id="tri-15-b" points="400,200 500,200 500,100" opacity="0" />
	</g>
	<g id="box-16" >
		<rect id="rect-16" x="500" y="100" width="100" height="100" fill="white" fill-opacity="0" stroke="#B4B3AF" stroke-width="2" />
		<polygon id="tri-16-a" points="500,100 600,100 500,200" opacity="0" />
		<polygon id="tri-16-b" points="500,200 600,200 600,100" opacity="0" />
	</g>
	<g id="box-17" >
		<rect id="rect-17" x="600" y="100" width="100" height="100" fill="white" fill-opacity="0" stroke="#B4B3AF" stroke-width="2" />
		<polygon id="tri-17-a" points="600,100 700,100 600,200" opacity="0" />
		<polygon id="tri-17-b" points="600,200 700,200 700,100" opacity="0" />
	</g>
	<g id="box-18" >
		<rect id="rect-18" x="700" y="100" width="100" height="100" fill="white" fill-opacity="0" stroke="#B4B3AF" stroke-width="2" />
		<polygon id="tri-18-a" points="700,100 800,100 700,200" opacity="0" />
		<polygon id="tri-18-b" points="700,200 800,200 800,100" opacity="0" />
	</g>
	<g id="box-19" >
		<rect id="rect-19" x="800" y="100" width="100" height="100" fill="white" fill-opacity="0" stroke="#B4B3AF" stroke-width="2" />
		<polygon id="tri-19-a" points="800,100 900,100 800,200" opacity="0" />
		<polygon id="tri-19-b" points="800,200 900,200 900,100" opacity="0" />
	</g>
	<g id="box-20" >
		<rect id="rect-20" x="900" y="100" width="100" height="100" fill="white" fill-opacity="0" stroke="#B4B3AF" stroke-width="2" />
		<polygon id="tri-20-a" points="900,100 1000,100 900,200" opacity="0" />
		<polygon id="tri-20-b" points="900,200 1000,200 1000,100" opacity="0" />
	</g>
	<g id="box-21" >
		<rect id="rect-21" x="0" y="200" width="100" height="100" fill="white" fill-opacity="0" stroke="#B4B3AF" stroke-width="2" />
		<polygon id="tri-21-a" points="0,200 100,200 0,300" opacity="0" />
		<polygon id="tri-21-b" points="0,300 100,300 100,200" opacity="0" />
	</g>
	<g id="box-22" >
		<rect id="rect-22" x="100" y="200" width="100" height="100" fill="white" fill-opacity="0" stroke="#B4B3AF" stroke-width="2" />
		<polygon id="tri-22-a" points="100,200 200,200 100,300" opacity="0" />
		<polygon id="tri-22-b" points="100,300 200,300 200,200" opacity="0" />
	</g>
	<g id="box-23" >
		<rect id="rect-23" x="200" y="200" width="100" height="100" fill="white" fill-opacity="0" stroke="#B4B3AF" stroke-width="2" />
		<polygon id="tri-23-a" points="200,200 300,200 200,300" opacity="0" />
		<polygon id="tri-23-b" points="200,300 300,300 300,200" opacity="0" />
	</g>
	<g id="box-24" >
		<rect id="rect-24" x="300" y="200" width="100" height="100" fill="white" fill-opacity="0" stroke="#B4B3AF" stroke-width="2" />
		<polygon id="tri-24-a" points="300,200 400,200 300,300" opacity="0" />
		<polygon id="tri-24-b" points="300,300 400,300 400,200" opacity="0" />
	</g>
	<g id="box-25" >
		<rect id="rect-25" x="400" y="200" width="100" height="100" fill="white" fill-opacity="0" stroke="#B4B3AF" stroke-width="2" />
		<polygon id="tri-25-a" points="400,200 500,200 400,300" opacity="0" />
		<polygon id="tri-25-b" points="400,300 500,300 500,200" opacity="0" />
	</g>
	<g id="box-26" >
		<rect id="rect-26" x="500" y="200" width="100" height="100" fill="white" fill-opacity="0" stroke="#B4B3AF" stroke-width="2" />
		<polygon id="tri-26-a" points="500,200 600,200 500,300" opacity="0" />
		<polygon id="tri-26-b" points="500,300 600,300 600,200" opacity="0" />
	</g>
	<g id="box-27" >
		<rect id="rect-27" x="600" y="200" width="100" height="100" fill="white" fill-opacity="0" stroke="#B4B3AF" stroke-width="2" />
		<polygon id="tri-27-a" points="600,200 700,200 600,300" opacity="0" />
		<polygon id="tri-27-b" points="600,300 700,300 700,200" opacity="0" />
	</g>
	<g id="box-28" >
		<rect id="rect-28" x="700" y="200" width="100" height="100" fill="white" fill-opacity="0" stroke="#B4B3AF" stroke-width="2" />
		<polygon id="tri-28-a" points="700,200 800,200 700,300" opacity="0" />
		<polygon id="tri-28-b" points="700,300 800,300 800,200" opacity="0" />
	</g>
	<g id="box-29" >
		<rect id="rect-29" x="800" y="200" width="100" height="100" fill="white" fill-opacity="0" stroke="#B4B3AF" stroke-width="2" />
		<polygon id="tri-29-a" points="800,200 900,200 800,300" opacity="0" />
		<polygon id="tri-29-b" points="800,300 900,300 900,200" opacity="0" />
	</g>
	<g id="box-30" >
		<rect id="rect-30" x="900" y="200" width="100" height="100" fill="white" fill-opacity="0" stroke="#B4B3AF" stroke-width="2" />
		<polygon id="tri-30-a" points="900,200 1000,200 900,300" opacity="0" />
		<polygon id="tri-30-b" points="900,300 1000,300 1000,200" opacity="0" />
	</g>
	<g id="box-31" >
		<rect id="rect-31" x="0" y="300" width="100" height="100" fill="white" fill-opacity="0" stroke="#B4B3AF" stroke-width="2" />
		<polygon id="tri-31-a" points="0,300 100,300 0,400" opacity="0" />
		<polygon id="tri-31-b" points="0,400 100,400 100,300" opacity="0" />
	</g>
	<g id="box-32" >
		<rect id="rect-32" x="100" y="300" width="100" height="100" fill="white" fill-opacity="0" stroke="#B4B3AF" stroke-width="2" />
		<polygon id="tri-32-a" points="100,300 200,300 100,400" opacity="0" />
		<polygon id="tri-32-b" points="100,400 200,400 200,300" opacity="0" />
	</g>
	<g id="box-33" >
		<rect id="rect-33" x="200" y="300" width="100" height="100" fill="white" fill-opacity="0" stroke="#B4B3AF" stroke-width="2" />
		<polygon id="tri-33-a" points="200,300 300,300 200,400" opacity="0" />
		<polygon id="tri-33-b" points="200,400 300,400 300,300" opacity="0" />
	</g>
	<g id="box-34" >
		<rect id="rect-34" x="300" y="300" width="100" height="100" fill="white" fill-opacity="0" stroke="#B4B3AF" stroke-width="2" />
		<polygon id="tri-34-a" points="300,300 400,300 300,400" opacity="0" />
		<polygon id="tri-34-b" points="300,400 400,400 400,300" opacity="0" />
	</g>
	<g id="box-35" >
		<rect id="rect-35" x="400" y="300" width="100" height="100" fill="white" fill-opacity="0" stroke="#B4B3AF" stroke-width="2" />
		<polygon id="tri-35-a" points="400,300 500,300 400,400" opacity="0" />
		<polygon id="tri-35-b" points="400,400 500,400 500,300" opacity="0" />
	</g>
	<g id="box-36" >
		<rect id="rect-36" x="500" y="300" width="100" height="100" fill="white" fill-opacity="0" stroke="#B4B3AF" stroke-width="2" />
		<polygon id="tri-36-a" points="500,300 600,300 500,400" opacity="0" />
		<polygon id="tri-36-b" points="500,400 600,400 600,300" opacity="0" />
	</g>
	<g id="box-37" >
		<rect id="rect-37" x="600" y="300" width="100" height="100" fill="white" fill-opacity="0" stroke="#B4B3AF" stroke-width="2" />
		<polygon id="tri-37-a" points="600,300 700,300 600,400" opacity="0" />
		<polygon id="tri-37-b" points="600,400 700,400 700,300" opacity="0" />
	</g>
	<g id="box-38" >
		<rect id="rect-38" x="700" y="300" width="100" height="100" fill="white" fill-opacity="0" stroke="#B4B3AF" stroke-width="2" />
		<polygon id="tri-38-a" points="700,300 800,300 700,400" opacity="0" />
		<polygon id="tri-38-b" points="700,400 800,400 800,300" opacity="0" />
	</g>
	<g id="box-39" >
		<rect id="rect-39" x="800" y="300" width="100" height="100" fill="white" fill-opacity="0" stroke="#B4B3AF" stroke-width="2" />
		<polygon id="tri-39-a" points="800,300 900,300 800,400" opacity="0" />
		<polygon id="tri-39-b" points="800,400 900,400 900,300" opacity="0" />
	</g>
	<g id="box-40" >
		<rect id="rect-40" x="900" y="300" width="100" height="100" fill="white" fill-opacity="0" stroke="#B4B3AF" stroke-width="2" />
		<polygon id="tri-40-a" points="900,300 1000,300 900,400" opacity="0" />
		<polygon id="tri-40-b" points="900,400 1000,400 1000,300" opacity="0" />
	</g>
	<g id="box-41" >
		<rect id="rect-41" x="0" y="400" width="100" height="100" fill="white" fill-opacity="0" stroke="#B4B3AF" stroke-width="2" />
		<polygon id="tri-41-a" points="0,400 100,400 0,500" opacity="0" />
		<polygon id="tri-41-b" points="0,500 100,500 100,400" opacity="0" />
	</g>
	<g id="box-42" >
		<rect id="rect-42" x="100" y="400" width="100" height="100" fill="white" fill-opacity="0" stroke="#B4B3AF" stroke-width="2" />
		<polygon id="tri-42-a" points="100,400 200,400 100,500" opacity="0" />
		<polygon id="tri-42-b" points="100,500 200,500 200,400" opacity="0" />
	</g>
	<g id="box-43" >
		<rect id="rect-43" x="200" y="400" width="100" height="100" fill="white" fill-opacity="0" stroke="#B4B3AF" stroke-width="2" />
		<polygon id="tri-43-a" points="200,400 300,400 200,500" opacity="0" />
		<polygon id="tri-43-b" points="200,500 300,500 300,400" opacity="0" />
	</g>
	<g id="box-44" >
		<rect id="rect-44" x="300" y="400" width="100" height="100" fill="white" fill-opacity="0" stroke="#B4B3AF" stroke-width="2" />
		<polygon id="tri-44-a" points="300,400 400,400 300,500" opacity="0" />
		<polygon id="tri-44-b" points="300,500 400,500 400,400" opacity="0" />
	</g>
	<g id="box-45" >
		<rect id="rect-45" x="400" y="400" width="100" height="100" fill="white" fill-opacity="0" stroke="#B4B3AF" stroke-width="2" />
		<polygon id="tri-45-a" points="400,400 500,400 400,500" opacity="0" />
		<polygon id="tri-45-b" points="400,500 500,500 500,400" opacity="0" />
	</g>
	<g id="box-46" >
		<rect id="rect-46" x="500" y="400" width="100" height="100" fill="white" fill-opacity="0" stroke="#B4B3AF" stroke-width="2" />
		<polygon id="tri-46-a" points="500,400 600,400 500,500" opacity="0" />
		<polygon id="tri-46-b" points="500,500 600,500 600,400" opacity="0" />
	</g>
	<g id="box-47" >
		<rect id="rect-47" x="600" y="400" width="100" height="100" fill="white" fill-opacity="0" stroke="#B4B3AF" stroke-width="2" />
		<polygon id="tri-47-a" points="600,400 700,400 600,500" opacity="0" />
		<polygon id="tri-47-b" points="600,500 700,500 700,400" opacity="0" />
	</g>
	<g id="box-48" >
		<rect id="rect-48" x="700" y="400" width="100" height="100" fill="white" fill-opacity="0" stroke="#B4B3AF" stroke-width="2" />
		<polygon id="tri-48-a" points="700,400 800,400 700,500" opacity="0" />
		<polygon id="tri-48-b" points="700,500 800,500 800,400" opacity="0" />
	</g>
	<g id="box-49" >
		<rect id="rect-49" x="800" y="400" width="100" height="100" fill="white" fill-opacity="0" stroke="#B4B3AF" stroke-width="2" />
		<polygon id="tri-49-a" points="800,400 900,400 800,500" opacity="0" />
		<polygon id="tri-49-b" points="800,500 900,500 900,400" opacity="0" />
	</g>
	<g id="box-50" >
		<rect id="rect-50" x="900" y="400" width="100" height="100" fill="white" fill-opacity="0" stroke="#B4B3AF" stroke-width="2" />
		<polygon id="tri-50-a" points="900,400 1000,400 900,500" opacity="0" />
		<polygon id="tri-50-b" points="900,500 1000,500 1000,400" opacity="0" />
	</g>
	<g id="box-51" >
		<rect id="rect-51" x="0" y="500" width="100" height="100" fill="white" fill-opacity="0" stroke="#B4B3AF" stroke-width="2" />
		<polygon id="tri-51-a" points="0,500 100,500 0,600" opacity="0" />
		<polygon id="tri-51-b" points="0,600 100,600 100,500" opacity="0" />
	</g>
	<g id="box-52" >
		<rect id="rect-52" x="100" y="500" width="100" height="100" fill="white" fill-opacity="0" stroke="#B4B3AF" stroke-width="2" />
		<polygon id="tri-52-a" points="100,500 200,500 100,600" opacity="0" />
		<polygon id="tri-52-b" points="100,600 200,600 200,500" opacity="0" />
	</g>
	<g id="box-53" >
		<rect id="rect-53" x="200" y="500" width="100" height="100" fill="white" fill-opacity="0" stroke="#B4B3AF" stroke-width="2" />
		<polygon id="tri-53-a" points="200,500 300,500 200,600" opacity="0" />
		<polygon id="tri-53-b" points="200,600 300,600 300,500" opacity="0" />
	</g>
	<g id="box-54" >
		<rect id="rect-54" x="300" y="500" width="100" height="100" fill="white" fill-opacity="0" stroke="#B4B3AF" stroke-width="2" />
		<polygon id="tri-54-a" points="300,500 400,500 300,600" opacity="0" />
		<polygon id="tri-54-b" points="300,600 400,600 400,500" opacity="0" />
	</g>
	<g id="box-55" >
		<rect id="rect-55" x="400" y="500" width="100" height="100" fill="white" fill-opacity="0" stroke="#B4B3AF" stroke-width="2" />
		<polygon id="tri-55-a" points="400,500 500,500 400,600" opacity="0" />
		<polygon id="tri-55-b" points="400,600 500,600 500,500" opacity="0" />
	</g>
	<g id="box-56" >
		<rect id="rect-56" x="500" y="500" width="100" height="100" fill="white" fill-opacity="0" stroke="#B4B3AF" stroke-width="2" />
		<polygon id="tri-56-a" points="500,500 600,500 500,600" opacity="0" />
		<polygon id="tri-56-b" points="500,600 600,600 600,500" opacity="0" />
	</g>
	<g id="box-57" >
		<rect id="rect-57" x="600" y="500" width="100" height="100" fill="white" fill-opacity="0" stroke="#B4B3AF" stroke-width="2" />
		<polygon id="tri-57-a" points="600,500 700,500 600,600" opacity="0" />
		<polygon id="tri-57-b" points="600,600 700,600 700,500" opacity="0" />
	</g>
	<g id="box-58" >
		<rect id="rect-58" x="700" y="500" width="100" height="100" fill="white" fill-opacity="0" stroke="#B4B3AF" stroke-width="2" />
		<polygon id="tri-58-a" points="700,500 800,500 700,600" opacity="0" />
		<polygon id="tri-58-b" points="700,600 800,600 800,500" opacity="0" />
	</g>
	<g id="box-59" >
		<rect id="rect-59" x="800" y="500" width="100" height="100" fill="white" fill-opacity="0" stroke="#B4B3AF" stroke-width="2" />
		<polygon id="tri-59-a" points="800,500 900,500 800,600" opacity="0" />
		<polygon id="tri-59-b" points="800,600 900,600 900,500" opacity="0" />
	</g>
	<g id="box-60" >
		<rect id="rect-60" x="900" y="500" width="100" height="100" fill="white" fill-opacity="0" stroke="#B4B3AF" stroke-width="2" />
		<polygon id="tri-60-a" points="900,500 1000,500 900,600" opacity="0" />
		<polygon id="tri-60-b" points="900,600 1000,600 1000,500" opacity="0" />
	</g>
	<g id="box-61" >
		<rect id="rect-61" x="0" y="600" width="100" height="100" fill="white" fill-opacity="0" stroke="#B4B3AF" stroke-width="2" />
		<polygon id="tri-61-a" points="0,600 100,600 0,700" opacity="0" />
		<polygon id="tri-61-b" points="0,700 100,700 100,600" opacity="0" />
	</g>
	<g id="box-62" >
		<rect id="rect-62" x="100" y="600" width="100" height="100" fill="white" fill-opacity="0" stroke="#B4B3AF" stroke-width="2" />
		<polygon id="tri-62-a" points="100,600 200,600 100,700" opacity="0" />
		<polygon id="tri-62-b" points="100,700 200,700 200,600" opacity="0" />
	</g>
	<g id="box-63" >
		<rect id="rect-63" x="200" y="600" width="100" height="100" fill="white" fill-opacity="0" stroke="#B4B3AF" stroke-width="2" />
		<polygon id="tri-63-a" points="200,600 300,600 200,700" opacity="0" />
		<polygon id="tri-63-b" points="200,700 300,700 300,600" opacity="0" />
	</g>
	<g id="box-64" >
		<rect id="rect-64" x="300" y="600" width="100" height="100" fill="white" fill-opacity="0" stroke="#B4B3AF" stroke-width="2" />
		<polygon id="tri-64-a" points="300,600 400,600 300,700" opacity="0" />
		<polygon id="tri-64-b" points="300,700 400,700 400,600" opacity="0" />
	</g>
	<g id="box-65" >
		<rect id="rect-65" x="400" y="600" width="100" height="100" fill="white" fill-opacity="0" stroke="#B4B3AF" stroke-width="2" />
		<polygon id="tri-65-a" points="400,600 500,600 400,700" opacity="0" />
		<polygon id="tri-65-b" points="400,700 500,700 500,600" opacity="0" />
	</g>
	<g id="box-66" >
		<rect id="rect-66" x="500" y="600" width="100" height="100" fill="white" fill-opacity="0" stroke="#B4B3AF" stroke-width="2" />
		<polygon id="tri-66-a" points="500,600 600,600 500,700" opacity="0" />
		<polygon id="tri-66-b" points="500,700 600,700 600,600" opacity="0" />
	</g>
	<g id="box-67" >
		<rect id="rect-67" x="600" y="600" width="100" height="100" fill="white" fill-opacity="0" stroke="#B4B3AF" stroke-width="2" />
		<polygon id="tri-67-a" points="600,600 700,600 600,700" opacity="0" />
		<polygon id="tri-67-b" points="600,700 700,700 700,600" opacity="0" />
	</g>
	<g id="box-68" >
		<rect id="rect-68" x="700" y="600" width="100" height="100" fill="white" fill-opacity="0" stroke="#B4B3AF" stroke-width="2" />
		<polygon id="tri-68-a" points="700,600 800,600 700,700" opacity="0" />
		<polygon id="tri-68-b" points="700,700 800,700 800,600" opacity="0" />
	</g>
	<g id="box-69" >
		<rect id="rect-69" x="800" y="600" width="100" height="100" fill="white" fill-opacity="0" stroke="#B4B3AF" stroke-width="2" />
		<polygon id="tri-69-a" points="800,600 900,600 800,700" opacity="0" />
		<polygon id="tri-69-b" points="800,700 900,700 900,600" opacity="0" />
	</g>
	<g id="box-70" >
		<rect id="rect-70" x="900" y="600" width="100" height="100" fill="white" fill-opacity="0" stroke="#B4B3AF" stroke-width="2" />
		<polygon id="tri-70-a" points="900,600 1000,600 900,700" opacity="0" />
		<polygon id="tri-70-b" points="900,700 1000,700 1000,600" opacity="0" />
	</g>
	<g id="box-71" >
		<rect id="rect-71" x="0" y="700" width="100" height="100" fill="white" fill-opacity="0" stroke="#B4B3AF" stroke-width="2" />
		<polygon id="tri-71-a" points="0,700 100,700 0,800" opacity="0" />
		<polygon id="tri-71-b" points="0,800 100,800 100,700" opacity="0" />
	</g>
	<g id="box-72" >
		<rect id="rect-72" x="100" y="700" width="100" height="100" fill="white" fill-opacity="0" stroke="#B4B3AF" stroke-width="2" />
		<polygon id="tri-72-a" points="100,700 200,700 100,800" opacity="0" />
		<polygon id="tri-72-b" points="100,800 200,800 200,700" opacity="0" />
	</g>
	<g id="box-73" >
		<rect id="rect-73" x="200" y="700" width="100" height="100" fill="white" fill-opacity="0" stroke="#B4B3AF" stroke-width="2" />
		<polygon id="tri-73-a" points="200,700 300,700 200,800" opacity="0" />
		<polygon id="tri-73-b" points="200,800 300,800 300,700" opacity="0" />
	</g>
	<g id="box-74" >
		<rect id="rect-74" x="300" y="700" width="100" height="100" fill="white" fill-opacity="0" stroke="#B4B3AF" stroke-width="2" />
		<polygon id="tri-74-a" points="300,700 400,700 300,800" opacity="0" />
		<polygon id="tri-74-b" points="300,800 400,800 400,700" opacity="0" />
	</g>
	<g id="box-75" >
		<rect id="rect-75" x="400" y="700" width="100" height="100" fill="white" fill-opacity="0" stroke="#B4B3AF" stroke-width="2" />
		<polygon id="tri-75-a" points="400,700 500,700 400,800" opacity="0" />
		<polygon id="tri-75-b" points="400,800 500,800 500,700" opacity="0" />
	</g>
	<g id="box-76" >
		<rect id="rect-76" x="500" y="700" width="100" height="100" fill="white" fill-opacity="0" stroke="#B4B3AF" stroke-width="2" />
		<polygon id="tri-76-a" points="500,700 600,700 500,800" opacity="0" />
		<polygon id="tri-76-b" points="500,800 600,800 600,700" opacity="0" />
	</g>
	<g id="box-77" >
		<rect id="rect-77" x="600" y="700" width="100" height="100" fill="white" fill-opacity="0" stroke="#B4B3AF" stroke-width="2" />
		<polygon id="tri-77-a" points="600,700 700,700 600,800" opacity="0" />
		<polygon id="tri-77-b" points="600,800 700,800 700,700" opacity="0" />
	</g>
	<g id="box-78" >
		<rect id="rect-78" x="700" y="700" width="100" height="100" fill="white" fill-opacity="0" stroke="#B4B3AF" stroke-width="2" />
		<polygon id="tri-78-a" points="700,700 800,700 700,800" opacity="0" />
		<polygon id="tri-78-b" points="700,800 800,800 800,700" opacity="0" />
	</g>
	<g id="box-79" >
		<rect id="rect-79" x="800" y="700" width="100" height="100" fill="white" fill-opacity="0" stroke="#B4B3AF" stroke-width="2" />
		<polygon id="tri-79-a" points="800,700 900,700 800,800" opacity="0" />
		<polygon id="tri-79-b" points="800,800 900,800 900,700" opacity="0" />
	</g>
	<g id="box-80" >
		<rect id="rect-80" x="900" y="700" width="100" height="100" fill="white" fill-opacity="0" stroke="#B4B3AF" stroke-width="2" />
		<polygon id="tri-80-a" points="900,700 1000,700 900,800" opacity="0" />
		<polygon id="tri-80-b" points="900,800 1000,800 1000,700" opacity="0" />
	</g>
	<g id="box-81" >
		<rect id="rect-81" x="0" y="800" width="100" height="100" fill="white" fill-opacity="0" stroke="#B4B3AF" stroke-width="2" />
		<polygon id="tri-81-a" points="0,800 100,800 0,900" opacity="0" />
		<polygon id="tri-81-b" points="0,900 100,900 100,800" opacity="0" />
	</g>
	<g id="box-82" >
		<rect id="rect-82" x="100" y="800" width="100" height="100" fill="white" fill-opacity="0" stroke="#B4B3AF" stroke-width="2" />
		<polygon id="tri-82-a" points="100,800 200,800 100,900" opacity="0" />
		<polygon id="tri-82-b" points="100,900 200,900 200,800" opacity="0" />
	</g>
	<g id="box-83" >
		<rect id="rect-83" x="200" y="800" width="100" height="100" fill="white" fill-opacity="0" stroke="#B4B3AF" stroke-width="2" />
		<polygon id="tri-83-a" points="200,800 300,800 200,900" opacity="0" />
		<polygon id="tri-83-b" points="200,900 300,900 300,800" opacity="0" />
	</g>
	<g id="box-84" >
		<rect id="rect-84" x="300" y="800" width="100" height="100" fill="white" fill-opacity="0" stroke="#B4B3AF" stroke-width="2" />
		<polygon id="tri-84-a" points="300,800 400,800 300,900" opacity="0" />
		<polygon id="tri-84-b" points="300,900 400,900 400,800" opacity="0" />
	</g>
	<g id="box-85" >
		<rect id="rect-85" x="400" y="800" width="100" height="100" fill="white" fill-opacity="0" stroke="#B4B3AF" stroke-width="2" />
		<polygon id="tri-85-a" points="400,800 500,800 400,900" opacity="0" />
		<polygon id="tri-85-b" points="400,900 500,900 500,800" opacity="0" />
	</g>
	<g id="box-86" >
		<rect id="rect-86" x="500" y="800" width="100" height="100" fill="white" fill-opacity="0" stroke="#B4B3AF" stroke-width="2" />
		<polygon id="tri-86-a" points="500,800 600,800 500,900" opacity="0" />
		<polygon id="tri-86-b" points="500,900 600,900 600,800" opacity="0" />
	</g>
	<g id="box-87" >
		<rect id="rect-87" x="600" y="800" width="100" height="100" fill="white" fill-opacity="0" stroke="#B4B3AF" stroke-width="2" />
		<polygon id="tri-87-a" points="600,800 700,800 600,900" opacity="0" />
		<polygon id="tri-87-b" points="600,900 700,900 700,800" opacity="0" />
	</g>
	<g id="box-88" >
		<rect id="rect-88" x="700" y="800" width="100" height="100" fill="white" fill-opacity="0" stroke="#B4B3AF" stroke-width="2" />
		<polygon id="tri-88-a" points="700,800 800,800 700,900" opacity="0" />
		<polygon id="tri-88-b" points="700,900 800,900 800,800" opacity="0" />
	</g>
	<g id="box-89" >
		<rect id="rect-89" x="800" y="800" width="100" height="100" fill="white" fill-opacity="0" stroke="#B4B3AF" stroke-width="2" />
		<polygon id="tri-89-a" points="800,800 900,800 800,900" opacity="0" />
		<polygon id="tri-89-b" points="800,900 900,900 900,800" opacity="0" />
	</g>
	<g id="box-90" >
		<rect id="rect-90" x="900" y="800" width="100" height="100" fill="white" fill-opacity="0" stroke="#B4B3AF" stroke-width="2" />
		<polygon id="tri-90-a" points="900,800 1000,800 900,900" opacity="0" />
		<polygon id="tri-90-b" points="900,900 1000,900 1000,800" opacity="0" />
	</g>
	<g id="box-91" >
		<rect id="rect-91" x="0" y="900" width="100" height="100" fill="white" fill-opacity="0" stroke="#B4B3AF" stroke-width="2" />
		<polygon id="tri-91-a" points="0,900 100,900 0,1000" opacity="0" />
		<polygon id="tri-91-b" points="0,1000 100,1000 100,900" opacity="0" />
	</g>
	<g id="box-92" >
		<rect id="rect-92" x="100" y="900" width="100" height="100" fill="white" fill-opacity="0" stroke="#B4B3AF" stroke-width="2" />
		<polygon id="tri-92-a" points="100,900 200,900 100,1000" opacity="0" />
		<polygon id="tri-92-b" points="100,1000 200,1000 200,900" opacity="0" />
	</g>
	<g id="box-93" >
		<rect id="rect-93" x="200" y="900" width="100" height="100" fill="white" fill-opacity="0" stroke="#B4B3AF" stroke-width="2" />
		<polygon id="tri-93-a" points="200,900 300,900 200,1000" opacity="0" />
		<polygon id="tri-93-b" points="200,1000 300,1000 300,900" opacity="0" />
	</g>
	<g id="box-94" >
		<rect id="rect-94" x="300" y="900" width="100" height="100" fill="white" fill-opacity="0" stroke="#B4B3AF" stroke-width="2" />
		<polygon id="tri-94-a" points="300,900 400,900 300,1000" opacity="0" />
		<polygon id="tri-94-b" points="300,1000 400,1000 400,900" opacity="0" />
	</g>
	<g id="box-95" >
		<rect id="rect-95" x="400" y="900" width="100" height="100" fill="white" fill-opacity="0" stroke="#B4B3AF" stroke-width="2" />
		<polygon id="tri-95-a" points="400,900 500,900 400,1000" opacity="0" />
		<polygon id="tri-95-b" points="400,1000 500,1000 500,900" opacity="0" />
	</g>
	<g id="box-96" >
		<rect id="rect-96" x="500" y="900" width="100" height="100" fill="white" fill-opacity="0" stroke="#B4B3AF" stroke-width="2" />
		<polygon id="tri-96-a" points="500,900 600,900 500,1000" opacity="0" />
		<polygon id="tri-96-b" points="500,1000 600,1000 600,900" opacity="0" />
	</g>
	<g id="box-97" >
		<rect id="rect-97" x="600" y="900" width="100" height="100" fill="white" fill-opacity="0" stroke="#B4B3AF" stroke-width="2" />
		<polygon id="tri-97-a" points="600,900 700,900 600,1000" opacity="0" />
		<polygon id="tri-97-b" points="600,1000 700,1000 700,900" opacity="0" />
	</g>
	<g id="box-98" >
		<rect id="rect-98" x="700" y="900" width="100" height="100" fill="white" fill-opacity="0" stroke="#B4B3AF" stroke-width="2" />
		<polygon id="tri-98-a" points="700,900 800,900 700,1000" opacity="0" />
		<polygon id="tri-98-b" points="700,1000 800,1000 800,900" opacity="0" />
	</g>
	<g id="box-99" >
		<rect id="rect-99" x="800" y="900" width="100" height="100" fill="white" fill-opacity="0" stroke="#B4B3AF" stroke-width="2" />
		<polygon id="tri-99-a" points="800,900 900,900 800,1000" opacity="0" />
		<polygon id="tri-99-b" points="800,1000 900,1000 900,900" opacity="0" />
	</g>
	<g id="box-100" >
		<rect id="rect-100" x="900" y="900" width="100" height="100" fill="white" fill-opacity="0" stroke="#B4B3AF" stroke-width="2" />
		<polygon id="tri-100-a" points="900,900 1000,900 900,1000" opacity="0" />
		<polygon id="tri-100-b" points="900,1000 1000,1000 1000,900" opacity="0" />
	</g>
</svg>