<?xml version="1.0" encoding="utf-8"?>
<!-- Generator: Adobe Illustrator 15.0.0, SVG Export Plug-In . SVG Version: 6.00 Build 0)  -->
<!DOCTYPE svg PUBLIC "-//W3C//DTD SVG 1.1//EN" "http://www.w3.org/Graphics/SVG/1.1/DTD/svg11.dtd">
<svg version="1.1" id="Layer_1" xmlns="http://www.w3.org/2000/svg" xmlns:xlink="http://www.w3.org/1999/xlink" x="0px" y="0px"
	 width="259.333px" height="356.668px" viewBox="0 0 259.333 356.668" enable-background="new 0 0 259.333 356.668"
	 xml:space="preserve">
<g id="path0" >
	<path fill="#434343" d="M248.622,244.095c0,11.68-1.61,22.261-4.824,31.738c-3.218,9.481-7.661,17.86-13.33,25.137
		c-5.673,7.28-12.441,13.544-20.313,18.789c-7.871,5.249-16.548,9.565-26.025,12.949c-9.481,3.388-19.595,5.884-30.342,7.49
		c-10.751,1.61-22.725,2.412-35.928,2.412H30.516c-5.586,0-10.283-1.65-14.092-4.951s-5.713-8.673-5.713-16.123V35.131
		c0-7.447,1.904-12.822,5.713-16.123s8.506-4.951,14.092-4.951h82.52c20.142,0,37.198,1.693,51.163,5.078
		c13.965,3.388,25.728,8.506,35.293,15.361c9.562,6.855,16.885,15.532,21.963,26.025c5.078,10.497,7.617,22.852,7.617,37.07
		c0,7.958-1.016,15.448-3.047,22.471c-2.031,7.026-4.995,13.417-8.887,19.17c-3.896,5.757-8.677,10.835-14.346,15.234
		c-5.673,4.403-12.147,7.958-19.424,10.664c9.308,1.694,17.9,4.657,25.771,8.887c7.871,4.233,14.727,9.692,20.566,16.377
		c5.84,6.688,10.45,14.517,13.838,23.486C246.927,222.854,248.622,232.924,248.622,244.095z M162.293,105.717
		c0-6.602-1.016-12.524-3.047-17.773c-2.031-5.245-5.078-9.604-9.141-13.076c-4.063-3.468-9.185-6.134-15.361-7.998
		c-6.181-1.86-14.434-2.793-24.756-2.793h-33.77v85.313h37.324c9.648,0,17.349-1.143,23.106-3.428
		c5.753-2.285,10.537-5.415,14.346-9.395c3.809-3.976,6.642-8.633,8.506-13.965C161.361,117.269,162.293,111.643,162.293,105.717z
		 M179.305,246.381c0-7.617-1.27-14.429-3.809-20.439c-2.539-6.007-6.265-11.045-11.172-15.107
		c-4.911-4.063-11.172-7.192-18.789-9.395c-7.617-2.198-17.52-3.301-29.708-3.301H76.219v93.438h48.242
		c9.308,0,17.139-0.972,23.487-2.92c6.348-1.944,11.847-4.824,16.504-8.633c4.653-3.809,8.292-8.546,10.918-14.219
		C177.992,260.135,179.305,253.661,179.305,246.381z"/>
</g>
<g id="gr" display="none">
	
	<line id="path1" display="inline" fill="none" stroke="#000000" stroke-width="21" stroke-miterlimit="10" x1="35.214" y1="22.125" x2="35.214" y2="334.543"/>
	<path id="path2" display="inline" fill="none" stroke="#000000" stroke-width="21" stroke-miterlimit="10" d="M32.88,32.386
		c28.833,1.322,146.5-15.011,166.5,41.489c18.474,52.189-14.334,86.5-50,91.5s-111.5,2.059-111.5,2.059"/>
	<path id="path3" display="inline" fill="none" stroke="#000000" stroke-width="21" stroke-miterlimit="10" d="M41.38,167.875
		c72.003,0.407,152.248-9.289,176.748,44.333c24.501,53.621-9.25,88.166-47.25,104.424c-31.104,13.305-137.498,7.244-137.498,7.244"
		/>
</g>
</svg>
