<?xml version="1.0" encoding="utf-8"?>
<!-- Generator: Adobe Illustrator 15.0.0, SVG Export Plug-In . SVG Version: 6.00 Build 0)  -->
<!DOCTYPE svg PUBLIC "-//W3C//DTD SVG 1.1//EN" "http://www.w3.org/Graphics/SVG/1.1/DTD/svg11.dtd">
<svg version="1.1" id="Layer_1" xmlns="http://www.w3.org/2000/svg" xmlns:xlink="http://www.w3.org/1999/xlink" x="0px" y="0px"
	 width="246.67px" height="338.67px" viewBox="0 0 246.67 338.67" enable-background="new 0 0 246.67 338.67" xml:space="preserve">
<g id="path0">
	<path fill="#434343" d="M210.186,39.657c0,4.785-0.201,8.815-0.598,12.082c-0.4,3.271-1.039,5.862-1.914,7.776
		c-0.879,1.914-1.877,3.35-2.991,4.307c-1.118,0.957-2.393,1.436-3.828,1.436H99.648v83.262h94.985c1.436,0,2.71,0.4,3.828,1.196
		c1.114,0.8,2.112,2.153,2.991,4.067c0.875,1.914,1.514,4.468,1.914,7.656c0.396,3.192,0.598,7.178,0.598,11.963
		s-0.201,8.774-0.598,11.963c-0.4,3.192-1.039,5.824-1.914,7.896c-0.879,2.075-1.877,3.552-2.991,4.426
		c-1.118,0.879-2.393,1.316-3.828,1.316H99.648v115.322c0,1.757-0.479,3.271-1.436,4.546c-0.957,1.278-2.673,2.355-5.144,3.229
		c-2.475,0.879-5.705,1.556-9.69,2.034c-3.989,0.479-9.092,0.718-15.313,0.718c-6.063,0-11.125-0.239-15.193-0.718
		s-7.297-1.155-9.69-2.034c-2.393-0.874-4.108-1.951-5.144-3.229c-1.039-1.274-1.555-2.789-1.555-4.546V33.676
		c0-7.017,1.794-12.083,5.383-15.193s8.015-4.666,13.279-4.666h145.708c1.436,0,2.71,0.441,3.828,1.316
		c1.114,0.878,2.112,2.314,2.991,4.307c0.875,1.996,1.514,4.666,1.914,8.015C209.984,30.805,210.186,34.872,210.186,39.657z"/>
</g>
<g id="gr" display="none">
	
		<line id="path1" fill="none" stroke="#000000" stroke-width="21" stroke-miterlimit="10" x1="59.543" y1="28.835" x2="59.543" y2="309.835"/>
	
		<line id="path2" fill="none" stroke="#000000" stroke-width="21" stroke-miterlimit="10" x1="60.377" y1="39.168" x2="187.127" y2="39.168"/>
	
		<line id="path3" fill="none" stroke="#000000" stroke-width="21" stroke-miterlimit="10" x1="60.377" y1="170.585" x2="177.793" y2="170.585"/>
</g>
</svg>
