<?xml version="1.0" encoding="utf-8"?>
<!-- Generator: Adobe Illustrator 15.0.0, SVG Export Plug-In . SVG Version: 6.00 Build 0)  -->
<!DOCTYPE svg PUBLIC "-//W3C//DTD SVG 1.1//EN" "http://www.w3.org/Graphics/SVG/1.1/DTD/svg11.dtd">
<svg version="1.1" id="Layer_1" xmlns="http://www.w3.org/2000/svg" xmlns:xlink="http://www.w3.org/1999/xlink" x="0px" y="0px"
	 width="246.67px" height="338.67px" viewBox="0 0 246.67 338.67" enable-background="new 0 0 246.67 338.67" xml:space="preserve">
<path id="path0" fill="#434343" d="M226.899,294.638c0,1.368-0.445,2.599-1.334,3.691c-0.892,1.096-2.357,1.981-4.408,2.666
	c-2.051,0.686-4.787,1.229-8.203,1.641c-3.419,0.41-7.727,0.615-12.92,0.615c-5.332,0-9.741-0.205-13.229-0.615
	c-3.486-0.41-6.224-0.955-8.203-1.641c-1.982-0.685-3.418-1.57-4.308-2.666c-0.892-1.095-1.333-2.323-1.333-3.691V187.382H73.706
	v107.256c0,1.368-0.41,2.599-1.23,3.691c-0.82,1.096-2.256,1.981-4.307,2.666c-2.051,0.686-4.787,1.229-8.203,1.641
	c-3.419,0.41-7.793,0.615-13.125,0.615c-5.197,0-9.536-0.205-13.022-0.615c-3.485-0.41-6.255-0.955-8.306-1.641
	c-2.051-0.685-3.521-1.57-4.409-2.666c-0.891-1.095-1.333-2.323-1.333-3.691V44.031c0-1.363,0.442-2.596,1.333-3.689
	c0.889-1.093,2.358-1.98,4.409-2.666c2.051-0.683,4.819-1.23,8.306-1.641c3.487-0.411,7.825-0.615,13.022-0.615
	c5.332,0,9.706,0.205,13.125,0.615c3.416,0.408,6.152,0.958,8.203,1.641c2.051,0.686,3.485,1.573,4.307,2.666
	c0.82,1.096,1.23,2.326,1.23,3.689v97.412h99.258V44.031c0-1.363,0.441-2.596,1.333-3.689c0.888-1.093,2.323-1.98,4.308-2.666
	c1.979-0.683,4.717-1.23,8.203-1.641c3.485-0.411,7.896-0.615,13.229-0.615c5.193,0,9.501,0.205,12.92,0.615
	c3.416,0.408,6.15,0.958,8.203,1.641c2.051,0.686,3.52,1.573,4.408,2.666c0.889,1.096,1.332,2.326,1.332,3.689V294.638
	L226.899,294.638z"/>
<g id="gr" display="none">
	
		<line id="path1" display="inline" fill="none" stroke="#000000" stroke-width="21" stroke-miterlimit="10" x1="44.189" y1="41.263" x2="44.189" y2="294.263"/>
	
		<line id="path2" display="inline" fill="none" stroke="#000000" stroke-width="21" stroke-miterlimit="10" x1="44.189" y1="164.263" x2="206.188" y2="164.263"/>
	
		<line id="path3" display="inline" fill="none" stroke="#000000" stroke-width="21" stroke-miterlimit="10" x1="199.688" y1="41.263" x2="199.688" y2="294.263"/>
</g>
</svg>
