<?xml version="1.0" encoding="utf-8"?>
<!-- Generator: Adobe Illustrator 15.0.0, SVG Export Plug-In . SVG Version: 6.00 Build 0)  -->
<!DOCTYPE svg PUBLIC "-//W3C//DTD SVG 1.1//EN" "http://www.w3.org/Graphics/SVG/1.1/DTD/svg11.dtd">
<svg version="1.1" id="Layer_1" xmlns="http://www.w3.org/2000/svg" xmlns:xlink="http://www.w3.org/1999/xlink" x="0px" y="0px"
	 width="487.862px" height="450.621px" viewBox="0 0 487.862 450.621" enable-background="new 0 0 487.862 450.621"
	 xml:space="preserve">
	<path id="path0" fill="#D4A847" d="M434.672,87.126H280.849v91.61c4.551-3.493,12.306-7.488,23.244-11.985l15.041-3.739h16.407
		c28.255,0,49.907,14.592,64.948,43.754c2.274,5.47,4.326,11.74,6.152,18.801c1.816,7.072,2.735,13.107,2.735,18.118
		c0,16.407-6.389,32.59-19.143,48.539c-5.47,8.204-12.306,15.041-20.51,20.51l-10.255,6.152l-14.357,5.471l-15.725-30.766
		l13.674-6.152c9.571-4.103,17.315-8.428,23.244-12.99c16.856-12.754,25.296-27.111,25.296-43.07c0-8.204-1.827-15.265-5.47-21.193
		c-3.653-5.918-9.571-9.795-17.775-11.622l-32.815-2.735c-9.571,0-21.652,7.296-36.233,21.877l-18.459,22.561v156.045
		l-39.652-37.665v-71.891c-4.562,5.928-14.132,12.305-28.714,19.143l-19.826,6.152l-20.51,2.734
		c-21.428,0-40.229-7.552-56.401-22.656c-16.184-15.105-24.271-33.863-24.271-56.295c0-10.063,1.133-18.876,3.419-26.428
		c2.274-7.552,4.102-12.477,5.469-14.763c1.816-3.205,4.786-7.552,8.888-13.043c12.306-15.104,28.255-24.943,47.856-29.525h16.408
		c29.621,0,52.182,12.594,67.682,37.783v14.175c-13.673-11.847-29.856-17.775-48.54-17.775c-19.602,0-36.009,6.346-49.223,19.014
		c-7.297,6.346-13.449,14.378-18.46,24.109c-5.02,9.742-7.52,18.684-7.52,26.834c0,9.059,2.734,16.867,8.204,23.426
		c5.469,6.57,13.438,9.85,23.928,9.85c8.204,0,19.591-3.418,34.183-10.256l20.511-12.988c9.111-5.918,17.315-14.582,24.611-25.979
		c5.469-9.112,9.571-18.459,12.306-28.03V87.126H53.19V54.311h381.481V87.126z"/>

	<g id="gr" display="none">
		<line id="path1" fill="none" stroke="#231F20" stroke-width="25" stroke-miterlimit="10" x1="261.191" y1="80.765" x2="261.191" y2="366.658"/>
		<path id="path3" fill="none" stroke="#231F20" stroke-width="25" stroke-miterlimit="10" d="M259.67,224.622
			c0,0,63.255-78.288,113.222-30.757c64.983,61.815-30.716,112.8-30.716,112.8"/>
		<path id="path2" fill="none" stroke="#231F20" stroke-width="25" stroke-miterlimit="10" d="M257.973,202.338
			c0,0-75.18-63.726-126.938-11.968s-20.551,124.068,43.385,110.367c63.938-13.701,85.25-76.115,85.25-76.115"/>
		<line id="path4" fill="none" stroke="#231F20" stroke-width="25" stroke-miterlimit="10" x1="54.086" y1="71.533" x2="433.793" y2="71.533"/>

	</g>
</svg>
