<?xml version="1.0" encoding="utf-8"?>
<!-- Generator: Adobe Illustrator 15.0.0, SVG Export Plug-In . SVG Version: 6.00 Build 0)  -->
<!DOCTYPE svg PUBLIC "-//W3C//DTD SVG 1.1//EN" "http://www.w3.org/Graphics/SVG/1.1/DTD/svg11.dtd">
<svg version="1.1" id="grapg_1" xmlns="http://www.w3.org/2000/svg" xmlns:xlink="http://www.w3.org/1999/xlink" x="0px" y="0px"
	 width="558.764px" height="553.744px" viewBox="0 0 558.764 553.744" enable-background="new 0 0 558.764 553.744"
	 xml:space="preserve">
<!--graph-->
	 <g class="check" id="incorrect">
	<g>
		<g>
			
				<rect x="26.866" y="23.405" fill="#E1F4AB" stroke="#58600C" stroke-width="0.35" stroke-miterlimit="10" width="25.446" height="25.449"/>
			
				<rect x="52.313" y="23.405" fill="#E1F4AB" stroke="#58600C" stroke-width="0.35" stroke-miterlimit="10" width="25.45" height="25.449"/>
			
				<rect x="77.763" y="23.405" fill="#E1F4AB" stroke="#58600C" stroke-width="0.35" stroke-miterlimit="10" width="25.451" height="25.449"/>
			
				<rect x="103.215" y="23.405" fill="#E1F4AB" stroke="#58600C" stroke-width="0.35" stroke-miterlimit="10" width="25.448" height="25.449"/>
			
				<rect x="128.663" y="23.405" fill="#E1F4AB" stroke="#58600C" stroke-width="0.35" stroke-miterlimit="10" width="25.449" height="25.449"/>
			
				<rect x="154.114" y="23.405" fill="#E1F4AB" stroke="#58600C" stroke-width="0.35" stroke-miterlimit="10" width="25.45" height="25.449"/>
			
				<rect x="179.564" y="23.405" fill="#E1F4AB" stroke="#58600C" stroke-width="0.35" stroke-miterlimit="10" width="25.452" height="25.449"/>
			
				<rect x="205.016" y="23.405" fill="#E1F4AB" stroke="#58600C" stroke-width="0.35" stroke-miterlimit="10" width="25.447" height="25.449"/>
			
				<rect x="230.463" y="23.405" fill="#E1F4AB" stroke="#58600C" stroke-width="0.35" stroke-miterlimit="10" width="25.452" height="25.449"/>
			
				<rect x="255.915" y="23.405" fill="#E1F4AB" stroke="#58600C" stroke-width="0.35" stroke-miterlimit="10" width="25.446" height="25.449"/>
			
				<rect x="281.363" y="23.405" fill="#E1F4AB" stroke="#58600C" stroke-width="0.35" stroke-miterlimit="10" width="25.451" height="25.449"/>
			
				<rect x="306.814" y="23.405" fill="#E1F4AB" stroke="#58600C" stroke-width="0.35" stroke-miterlimit="10" width="25.45" height="25.449"/>
			
				<rect x="332.264" y="23.405" fill="#E1F4AB" stroke="#58600C" stroke-width="0.35" stroke-miterlimit="10" width="25.452" height="25.449"/>
			
				<rect x="357.717" y="23.405" fill="#E1F4AB" stroke="#58600C" stroke-width="0.35" stroke-miterlimit="10" width="25.444" height="25.449"/>
			
				<rect x="383.162" y="23.405" fill="#E1F4AB" stroke="#58600C" stroke-width="0.35" stroke-miterlimit="10" width="25.449" height="25.449"/>
			
				<rect x="26.866" y="48.854" fill="#E1F4AB" stroke="#58600C" stroke-width="0.35" stroke-miterlimit="10" width="25.446" height="25.45"/>
			
				<rect x="52.313" y="48.854" fill="#E1F4AB" stroke="#58600C" stroke-width="0.35" stroke-miterlimit="10" width="25.45" height="25.45"/>
			
				<rect x="77.763" y="48.854" fill="#E1F4AB" stroke="#58600C" stroke-width="0.35" stroke-miterlimit="10" width="25.451" height="25.45"/>
			
				<rect x="103.215" y="48.854" fill="#E1F4AB" stroke="#58600C" stroke-width="0.35" stroke-miterlimit="10" width="25.448" height="25.45"/>
			
				<rect x="128.663" y="48.854" fill="#E1F4AB" stroke="#58600C" stroke-width="0.35" stroke-miterlimit="10" width="25.449" height="25.45"/>
			
				<rect x="154.114" y="48.854" fill="#E1F4AB" stroke="#58600C" stroke-width="0.35" stroke-miterlimit="10" width="25.45" height="25.45"/>
			
				<rect x="179.564" y="48.854" fill="#E1F4AB" stroke="#58600C" stroke-width="0.35" stroke-miterlimit="10" width="25.452" height="25.45"/>
			
				<rect x="205.016" y="48.854" fill="#E1F4AB" stroke="#58600C" stroke-width="0.35" stroke-miterlimit="10" width="25.447" height="25.45"/>
			
				<rect x="230.463" y="48.854" fill="#E1F4AB" stroke="#58600C" stroke-width="0.35" stroke-miterlimit="10" width="25.452" height="25.45"/>
			
				<rect x="255.915" y="48.854" fill="#E1F4AB" stroke="#58600C" stroke-width="0.35" stroke-miterlimit="10" width="25.446" height="25.45"/>
			
				<rect x="281.363" y="48.854" fill="#E1F4AB" stroke="#58600C" stroke-width="0.35" stroke-miterlimit="10" width="25.451" height="25.45"/>
			
				<rect x="306.814" y="48.854" fill="#E1F4AB" stroke="#58600C" stroke-width="0.35" stroke-miterlimit="10" width="25.45" height="25.45"/>
			
				<rect x="332.264" y="48.854" fill="#E1F4AB" stroke="#58600C" stroke-width="0.35" stroke-miterlimit="10" width="25.452" height="25.45"/>
			
				<rect x="357.717" y="48.854" fill="#E1F4AB" stroke="#58600C" stroke-width="0.35" stroke-miterlimit="10" width="25.444" height="25.45"/>
			
				<rect x="383.162" y="48.854" fill="#E1F4AB" stroke="#58600C" stroke-width="0.35" stroke-miterlimit="10" width="25.449" height="25.45"/>
			
				<rect x="26.866" y="74.304" fill="#E1F4AB" stroke="#58600C" stroke-width="0.35" stroke-miterlimit="10" width="25.446" height="25.446"/>
			
				<rect x="52.313" y="74.304" fill="#E1F4AB" stroke="#58600C" stroke-width="0.35" stroke-miterlimit="10" width="25.45" height="25.446"/>
			
				<rect x="77.763" y="74.304" fill="#E1F4AB" stroke="#58600C" stroke-width="0.35" stroke-miterlimit="10" width="25.451" height="25.446"/>
			
				<rect x="103.215" y="74.304" fill="#E1F4AB" stroke="#58600C" stroke-width="0.35" stroke-miterlimit="10" width="25.448" height="25.446"/>
			
				<rect x="128.663" y="74.304" fill="#E1F4AB" stroke="#58600C" stroke-width="0.35" stroke-miterlimit="10" width="25.449" height="25.446"/>
			
				<rect x="154.114" y="74.304" fill="#E1F4AB" stroke="#58600C" stroke-width="0.35" stroke-miterlimit="10" width="25.45" height="25.446"/>
			
				<rect x="179.564" y="74.304" fill="#E1F4AB" stroke="#58600C" stroke-width="0.35" stroke-miterlimit="10" width="25.452" height="25.446"/>
			
				<rect x="205.016" y="74.304" fill="#E1F4AB" stroke="#58600C" stroke-width="0.35" stroke-miterlimit="10" width="25.447" height="25.446"/>
			
				<rect x="230.463" y="74.304" fill="#E1F4AB" stroke="#58600C" stroke-width="0.35" stroke-miterlimit="10" width="25.452" height="25.446"/>
			
				<rect x="255.915" y="74.304" fill="#E1F4AB" stroke="#58600C" stroke-width="0.35" stroke-miterlimit="10" width="25.446" height="25.446"/>
			
				<rect x="281.363" y="74.304" fill="#E1F4AB" stroke="#58600C" stroke-width="0.35" stroke-miterlimit="10" width="25.451" height="25.446"/>
			
				<rect x="306.814" y="74.304" fill="#E1F4AB" stroke="#58600C" stroke-width="0.35" stroke-miterlimit="10" width="25.45" height="25.446"/>
			
				<rect x="332.264" y="74.304" fill="#E1F4AB" stroke="#58600C" stroke-width="0.35" stroke-miterlimit="10" width="25.452" height="25.446"/>
			
				<rect x="357.717" y="74.304" fill="#E1F4AB" stroke="#58600C" stroke-width="0.35" stroke-miterlimit="10" width="25.444" height="25.446"/>
			
				<rect x="383.162" y="74.304" fill="#E1F4AB" stroke="#58600C" stroke-width="0.35" stroke-miterlimit="10" width="25.449" height="25.446"/>
			
				<rect x="26.866" y="99.752" fill="#E1F4AB" stroke="#58600C" stroke-width="0.35" stroke-miterlimit="10" width="25.446" height="25.45"/>
			
				<rect x="52.313" y="99.752" fill="#E1F4AB" stroke="#58600C" stroke-width="0.35" stroke-miterlimit="10" width="25.45" height="25.45"/>
			
				<rect x="77.763" y="99.752" fill="#E1F4AB" stroke="#58600C" stroke-width="0.35" stroke-miterlimit="10" width="25.451" height="25.45"/>
			
				<rect x="103.215" y="99.752" fill="#E1F4AB" stroke="#58600C" stroke-width="0.35" stroke-miterlimit="10" width="25.448" height="25.45"/>
			
				<rect x="128.663" y="99.752" fill="#E1F4AB" stroke="#58600C" stroke-width="0.35" stroke-miterlimit="10" width="25.449" height="25.45"/>
			
				<rect x="154.114" y="99.752" fill="#E1F4AB" stroke="#58600C" stroke-width="0.35" stroke-miterlimit="10" width="25.45" height="25.45"/>
			
				<rect x="179.564" y="99.752" fill="#E1F4AB" stroke="#58600C" stroke-width="0.35" stroke-miterlimit="10" width="25.452" height="25.45"/>
			
				<rect x="205.016" y="99.752" fill="#E1F4AB" stroke="#58600C" stroke-width="0.35" stroke-miterlimit="10" width="25.447" height="25.45"/>
			
				<rect x="230.463" y="99.752" fill="#E1F4AB" stroke="#58600C" stroke-width="0.35" stroke-miterlimit="10" width="25.452" height="25.45"/>
			
				<rect x="255.915" y="99.752" fill="#E1F4AB" stroke="#58600C" stroke-width="0.35" stroke-miterlimit="10" width="25.446" height="25.45"/>
			
				<rect x="281.363" y="99.752" fill="#E1F4AB" stroke="#58600C" stroke-width="0.35" stroke-miterlimit="10" width="25.451" height="25.45"/>
			
				<rect x="306.814" y="99.752" fill="#E1F4AB" stroke="#58600C" stroke-width="0.35" stroke-miterlimit="10" width="25.45" height="25.45"/>
			
				<rect x="332.264" y="99.752" fill="#E1F4AB" stroke="#58600C" stroke-width="0.35" stroke-miterlimit="10" width="25.452" height="25.45"/>
			
				<rect x="357.717" y="99.752" fill="#E1F4AB" stroke="#58600C" stroke-width="0.35" stroke-miterlimit="10" width="25.444" height="25.45"/>
			
				<rect x="383.162" y="99.752" fill="#E1F4AB" stroke="#58600C" stroke-width="0.35" stroke-miterlimit="10" width="25.449" height="25.45"/>
			
				<rect x="26.866" y="125.202" fill="#E1F4AB" stroke="#58600C" stroke-width="0.35" stroke-miterlimit="10" width="25.446" height="25.448"/>
			
				<rect x="52.313" y="125.202" fill="#E1F4AB" stroke="#58600C" stroke-width="0.35" stroke-miterlimit="10" width="25.45" height="25.448"/>
			
				<rect x="77.763" y="125.202" fill="#E1F4AB" stroke="#58600C" stroke-width="0.35" stroke-miterlimit="10" width="25.451" height="25.448"/>
			
				<rect x="103.215" y="125.202" fill="#E1F4AB" stroke="#58600C" stroke-width="0.35" stroke-miterlimit="10" width="25.448" height="25.448"/>
			
				<rect x="128.663" y="125.202" fill="#E1F4AB" stroke="#58600C" stroke-width="0.35" stroke-miterlimit="10" width="25.449" height="25.448"/>
			
				<rect x="154.114" y="125.202" fill="#E1F4AB" stroke="#58600C" stroke-width="0.35" stroke-miterlimit="10" width="25.45" height="25.448"/>
			
				<rect x="179.564" y="125.202" fill="#E1F4AB" stroke="#58600C" stroke-width="0.35" stroke-miterlimit="10" width="25.452" height="25.448"/>
			
				<rect x="205.016" y="125.202" fill="#E1F4AB" stroke="#58600C" stroke-width="0.35" stroke-miterlimit="10" width="25.447" height="25.448"/>
			
				<rect x="230.463" y="125.202" fill="#E1F4AB" stroke="#58600C" stroke-width="0.35" stroke-miterlimit="10" width="25.452" height="25.448"/>
			
				<rect x="255.915" y="125.202" fill="#E1F4AB" stroke="#58600C" stroke-width="0.35" stroke-miterlimit="10" width="25.446" height="25.448"/>
			
				<rect x="281.363" y="125.202" fill="#E1F4AB" stroke="#58600C" stroke-width="0.35" stroke-miterlimit="10" width="25.451" height="25.448"/>
			
				<rect x="306.814" y="125.202" fill="#E1F4AB" stroke="#58600C" stroke-width="0.35" stroke-miterlimit="10" width="25.45" height="25.448"/>
			
				<rect x="332.264" y="125.202" fill="#E1F4AB" stroke="#58600C" stroke-width="0.35" stroke-miterlimit="10" width="25.452" height="25.448"/>
			
				<rect x="357.717" y="125.202" fill="#E1F4AB" stroke="#58600C" stroke-width="0.35" stroke-miterlimit="10" width="25.444" height="25.448"/>
			
				<rect x="383.162" y="125.202" fill="#E1F4AB" stroke="#58600C" stroke-width="0.35" stroke-miterlimit="10" width="25.449" height="25.448"/>
			<g>
				
					<rect x="26.866" y="150.651" fill="#E1F4AB" stroke="#58600C" stroke-width="0.35" stroke-miterlimit="10" width="25.446" height="25.448"/>
			</g>
			<g>
				
					<rect x="52.313" y="150.651" fill="#E1F4AB" stroke="#58600C" stroke-width="0.35" stroke-miterlimit="10" width="25.45" height="25.448"/>
				
					<rect x="77.763" y="150.651" fill="#E1F4AB" stroke="#58600C" stroke-width="0.35" stroke-miterlimit="10" width="25.451" height="25.448"/>
			</g>
			<g>
				
					<rect x="103.215" y="150.651" fill="#E1F4AB" stroke="#58600C" stroke-width="0.35" stroke-miterlimit="10" width="25.448" height="25.448"/>
				
					<rect x="128.663" y="150.651" fill="#E1F4AB" stroke="#58600C" stroke-width="0.35" stroke-miterlimit="10" width="25.449" height="25.448"/>
			</g>
			<g>
				
					<rect x="154.114" y="150.651" fill="#E1F4AB" stroke="#58600C" stroke-width="0.35" stroke-miterlimit="10" width="25.45" height="25.448"/>
				
					<rect x="179.564" y="150.651" fill="#E1F4AB" stroke="#58600C" stroke-width="0.35" stroke-miterlimit="10" width="25.452" height="25.448"/>
			</g>
			<g>
				
					<rect x="205.016" y="150.651" fill="#E1F4AB" stroke="#58600C" stroke-width="0.35" stroke-miterlimit="10" width="25.447" height="25.448"/>
				
					<rect x="230.463" y="150.651" fill="#E1F4AB" stroke="#58600C" stroke-width="0.35" stroke-miterlimit="10" width="25.452" height="25.448"/>
			</g>
			<g>
				
					<rect x="255.915" y="150.651" fill="#E1F4AB" stroke="#58600C" stroke-width="0.35" stroke-miterlimit="10" width="25.446" height="25.448"/>
				
					<rect x="281.363" y="150.651" fill="#E1F4AB" stroke="#58600C" stroke-width="0.35" stroke-miterlimit="10" width="25.451" height="25.448"/>
			</g>
			<g>
				
					<rect x="306.814" y="150.651" fill="#E1F4AB" stroke="#58600C" stroke-width="0.35" stroke-miterlimit="10" width="25.45" height="25.448"/>
				
					<rect x="332.264" y="150.651" fill="#E1F4AB" stroke="#58600C" stroke-width="0.35" stroke-miterlimit="10" width="25.452" height="25.448"/>
			</g>
			<g>
				
					<rect x="357.717" y="150.651" fill="#E1F4AB" stroke="#58600C" stroke-width="0.35" stroke-miterlimit="10" width="25.444" height="25.448"/>
				
					<rect x="383.162" y="150.651" fill="#E1F4AB" stroke="#58600C" stroke-width="0.35" stroke-miterlimit="10" width="25.449" height="25.448"/>
			</g>
			<g>
				
					<rect x="26.866" y="176.099" fill="#E1F4AB" stroke="#58600C" stroke-width="0.35" stroke-miterlimit="10" width="25.446" height="25.451"/>
			</g>
			<g>
				
					<rect x="52.313" y="176.099" fill="#E1F4AB" stroke="#58600C" stroke-width="0.35" stroke-miterlimit="10" width="25.45" height="25.451"/>
				
					<rect x="77.763" y="176.099" fill="#E1F4AB" stroke="#58600C" stroke-width="0.35" stroke-miterlimit="10" width="25.451" height="25.451"/>
			</g>
			<g>
				
					<rect x="103.215" y="176.099" fill="#E1F4AB" stroke="#58600C" stroke-width="0.35" stroke-miterlimit="10" width="25.448" height="25.451"/>
				
					<rect x="128.663" y="176.099" fill="#E1F4AB" stroke="#58600C" stroke-width="0.35" stroke-miterlimit="10" width="25.449" height="25.451"/>
			</g>
			<g>
				
					<rect x="154.114" y="176.099" fill="#E1F4AB" stroke="#58600C" stroke-width="0.35" stroke-miterlimit="10" width="25.45" height="25.451"/>
				
					<rect x="179.564" y="176.099" fill="#E1F4AB" stroke="#58600C" stroke-width="0.35" stroke-miterlimit="10" width="25.452" height="25.451"/>
			</g>
			<g>
				
					<rect x="205.016" y="176.099" fill="#E1F4AB" stroke="#58600C" stroke-width="0.35" stroke-miterlimit="10" width="25.447" height="25.451"/>
				
					<rect x="230.463" y="176.099" fill="#E1F4AB" stroke="#58600C" stroke-width="0.35" stroke-miterlimit="10" width="25.452" height="25.451"/>
			</g>
			<g>
				
					<rect x="255.915" y="176.099" fill="#E1F4AB" stroke="#58600C" stroke-width="0.35" stroke-miterlimit="10" width="25.446" height="25.451"/>
				
					<rect x="281.363" y="176.099" fill="#E1F4AB" stroke="#58600C" stroke-width="0.35" stroke-miterlimit="10" width="25.451" height="25.451"/>
			</g>
			<g>
				
					<rect x="306.814" y="176.099" fill="#E1F4AB" stroke="#58600C" stroke-width="0.35" stroke-miterlimit="10" width="25.45" height="25.451"/>
				
					<rect x="332.264" y="176.099" fill="#E1F4AB" stroke="#58600C" stroke-width="0.35" stroke-miterlimit="10" width="25.452" height="25.451"/>
			</g>
			<g>
				
					<rect x="357.717" y="176.099" fill="#E1F4AB" stroke="#58600C" stroke-width="0.35" stroke-miterlimit="10" width="25.444" height="25.451"/>
				
					<rect x="383.162" y="176.099" fill="#E1F4AB" stroke="#58600C" stroke-width="0.35" stroke-miterlimit="10" width="25.449" height="25.451"/>
			</g>
			<g>
				
					<rect x="26.866" y="201.549" fill="#E1F4AB" stroke="#58600C" stroke-width="0.35" stroke-miterlimit="10" width="25.446" height="25.448"/>
			</g>
			<g>
				
					<rect x="52.313" y="201.549" fill="#E1F4AB" stroke="#58600C" stroke-width="0.35" stroke-miterlimit="10" width="25.45" height="25.448"/>
				
					<rect x="77.763" y="201.549" fill="#E1F4AB" stroke="#58600C" stroke-width="0.35" stroke-miterlimit="10" width="25.451" height="25.448"/>
			</g>
			<g>
				
					<rect x="103.215" y="201.549" fill="#E1F4AB" stroke="#58600C" stroke-width="0.35" stroke-miterlimit="10" width="25.448" height="25.448"/>
				
					<rect x="128.663" y="201.549" fill="#E1F4AB" stroke="#58600C" stroke-width="0.35" stroke-miterlimit="10" width="25.449" height="25.448"/>
			</g>
			<g>
				
					<rect x="154.114" y="201.549" fill="#E1F4AB" stroke="#58600C" stroke-width="0.35" stroke-miterlimit="10" width="25.45" height="25.448"/>
				
					<rect x="179.564" y="201.549" fill="#E1F4AB" stroke="#58600C" stroke-width="0.35" stroke-miterlimit="10" width="25.452" height="25.448"/>
			</g>
			<g>
				
					<rect x="205.016" y="201.549" fill="#E1F4AB" stroke="#58600C" stroke-width="0.35" stroke-miterlimit="10" width="25.447" height="25.448"/>
				
					<rect x="230.463" y="201.549" fill="#E1F4AB" stroke="#58600C" stroke-width="0.35" stroke-miterlimit="10" width="25.452" height="25.448"/>
			</g>
			<g>
				
					<rect x="255.915" y="201.549" fill="#E1F4AB" stroke="#58600C" stroke-width="0.35" stroke-miterlimit="10" width="25.446" height="25.448"/>
				
					<rect x="281.363" y="201.549" fill="#E1F4AB" stroke="#58600C" stroke-width="0.35" stroke-miterlimit="10" width="25.451" height="25.448"/>
			</g>
			<g>
				
					<rect x="306.814" y="201.549" fill="#E1F4AB" stroke="#58600C" stroke-width="0.35" stroke-miterlimit="10" width="25.45" height="25.448"/>
				
					<rect x="332.264" y="201.549" fill="#E1F4AB" stroke="#58600C" stroke-width="0.35" stroke-miterlimit="10" width="25.452" height="25.448"/>
			</g>
			<g>
				
					<rect x="357.717" y="201.549" fill="#E1F4AB" stroke="#58600C" stroke-width="0.35" stroke-miterlimit="10" width="25.444" height="25.448"/>
				
					<rect x="383.162" y="201.549" fill="#E1F4AB" stroke="#58600C" stroke-width="0.35" stroke-miterlimit="10" width="25.449" height="25.448"/>
			</g>
			<g>
				
					<rect x="26.866" y="226.998" fill="#E1F4AB" stroke="#58600C" stroke-width="0.35" stroke-miterlimit="10" width="25.446" height="25.449"/>
			</g>
			<g>
				
					<rect x="52.313" y="226.998" fill="#E1F4AB" stroke="#58600C" stroke-width="0.35" stroke-miterlimit="10" width="25.45" height="25.449"/>
				
					<rect x="77.763" y="226.998" fill="#E1F4AB" stroke="#58600C" stroke-width="0.35" stroke-miterlimit="10" width="25.451" height="25.449"/>
			</g>
			<g>
				
					<rect x="103.215" y="226.998" fill="#E1F4AB" stroke="#58600C" stroke-width="0.35" stroke-miterlimit="10" width="25.448" height="25.449"/>
				
					<rect x="128.663" y="226.998" fill="#E1F4AB" stroke="#58600C" stroke-width="0.35" stroke-miterlimit="10" width="25.449" height="25.449"/>
			</g>
			<g>
				
					<rect x="154.114" y="226.998" fill="#E1F4AB" stroke="#58600C" stroke-width="0.35" stroke-miterlimit="10" width="25.45" height="25.449"/>
				
					<rect x="179.564" y="226.998" fill="#E1F4AB" stroke="#58600C" stroke-width="0.35" stroke-miterlimit="10" width="25.452" height="25.449"/>
			</g>
			<g>
				
					<rect x="205.016" y="226.998" fill="#E1F4AB" stroke="#58600C" stroke-width="0.35" stroke-miterlimit="10" width="25.447" height="25.449"/>
				
					<rect x="230.463" y="226.998" fill="#E1F4AB" stroke="#58600C" stroke-width="0.35" stroke-miterlimit="10" width="25.452" height="25.449"/>
			</g>
			<g>
				
					<rect x="255.915" y="226.998" fill="#E1F4AB" stroke="#58600C" stroke-width="0.35" stroke-miterlimit="10" width="25.446" height="25.449"/>
				
					<rect x="281.363" y="226.998" fill="#E1F4AB" stroke="#58600C" stroke-width="0.35" stroke-miterlimit="10" width="25.451" height="25.449"/>
			</g>
			<g>
				
					<rect x="306.814" y="226.998" fill="#E1F4AB" stroke="#58600C" stroke-width="0.35" stroke-miterlimit="10" width="25.45" height="25.449"/>
				
					<rect x="332.264" y="226.998" fill="#E1F4AB" stroke="#58600C" stroke-width="0.35" stroke-miterlimit="10" width="25.452" height="25.449"/>
			</g>
			<g>
				
					<rect x="357.717" y="226.998" fill="#E1F4AB" stroke="#58600C" stroke-width="0.35" stroke-miterlimit="10" width="25.444" height="25.449"/>
				
					<rect x="383.162" y="226.998" fill="#E1F4AB" stroke="#58600C" stroke-width="0.35" stroke-miterlimit="10" width="25.449" height="25.449"/>
			</g>
			<g>
				
					<rect x="26.866" y="252.447" fill="#E1F4AB" stroke="#58600C" stroke-width="0.35" stroke-miterlimit="10" width="25.446" height="25.449"/>
			</g>
			<g>
				
					<rect x="52.313" y="252.447" fill="#E1F4AB" stroke="#58600C" stroke-width="0.35" stroke-miterlimit="10" width="25.45" height="25.449"/>
				
					<rect x="77.763" y="252.447" fill="#E1F4AB" stroke="#58600C" stroke-width="0.35" stroke-miterlimit="10" width="25.451" height="25.449"/>
			</g>
			<g>
				
					<rect x="103.215" y="252.447" fill="#E1F4AB" stroke="#58600C" stroke-width="0.35" stroke-miterlimit="10" width="25.448" height="25.449"/>
				
					<rect x="128.663" y="252.447" fill="#E1F4AB" stroke="#58600C" stroke-width="0.35" stroke-miterlimit="10" width="25.449" height="25.449"/>
			</g>
			<g>
				
					<rect x="154.114" y="252.447" fill="#E1F4AB" stroke="#58600C" stroke-width="0.35" stroke-miterlimit="10" width="25.45" height="25.449"/>
				
					<rect x="179.564" y="252.447" fill="#E1F4AB" stroke="#58600C" stroke-width="0.35" stroke-miterlimit="10" width="25.452" height="25.449"/>
			</g>
			<g>
				
					<rect x="205.016" y="252.447" fill="#E1F4AB" stroke="#58600C" stroke-width="0.35" stroke-miterlimit="10" width="25.447" height="25.449"/>
				
					<rect x="230.463" y="252.447" fill="#E1F4AB" stroke="#58600C" stroke-width="0.35" stroke-miterlimit="10" width="25.452" height="25.449"/>
			</g>
			<g>
				
					<rect x="255.915" y="252.447" fill="#E1F4AB" stroke="#58600C" stroke-width="0.35" stroke-miterlimit="10" width="25.446" height="25.449"/>
				
					<rect x="281.363" y="252.447" fill="#E1F4AB" stroke="#58600C" stroke-width="0.35" stroke-miterlimit="10" width="25.451" height="25.449"/>
			</g>
			<g>
				
					<rect x="306.814" y="252.447" fill="#E1F4AB" stroke="#58600C" stroke-width="0.35" stroke-miterlimit="10" width="25.45" height="25.449"/>
				
					<rect x="332.264" y="252.447" fill="#E1F4AB" stroke="#58600C" stroke-width="0.35" stroke-miterlimit="10" width="25.452" height="25.449"/>
			</g>
			<g>
				
					<rect x="357.717" y="252.447" fill="#E1F4AB" stroke="#58600C" stroke-width="0.35" stroke-miterlimit="10" width="25.444" height="25.449"/>
				
					<rect x="383.162" y="252.447" fill="#E1F4AB" stroke="#58600C" stroke-width="0.35" stroke-miterlimit="10" width="25.449" height="25.449"/>
			</g>
			<g>
				
					<rect x="26.866" y="277.896" fill="#E1F4AB" stroke="#58600C" stroke-width="0.35" stroke-miterlimit="10" width="25.446" height="25.448"/>
			</g>
			<g>
				
					<rect x="52.313" y="277.896" fill="#E1F4AB" stroke="#58600C" stroke-width="0.35" stroke-miterlimit="10" width="25.45" height="25.448"/>
				
					<rect x="77.763" y="277.896" fill="#E1F4AB" stroke="#58600C" stroke-width="0.35" stroke-miterlimit="10" width="25.451" height="25.448"/>
			</g>
			<g>
				
					<rect x="103.215" y="277.896" fill="#E1F4AB" stroke="#58600C" stroke-width="0.35" stroke-miterlimit="10" width="25.448" height="25.448"/>
				
					<rect x="128.663" y="277.896" fill="#E1F4AB" stroke="#58600C" stroke-width="0.35" stroke-miterlimit="10" width="25.449" height="25.448"/>
			</g>
			<g>
				
					<rect x="154.114" y="277.896" fill="#E1F4AB" stroke="#58600C" stroke-width="0.35" stroke-miterlimit="10" width="25.45" height="25.448"/>
				
					<rect x="179.564" y="277.896" fill="#E1F4AB" stroke="#58600C" stroke-width="0.35" stroke-miterlimit="10" width="25.452" height="25.448"/>
			</g>
			<g>
				
					<rect x="205.016" y="277.896" fill="#E1F4AB" stroke="#58600C" stroke-width="0.35" stroke-miterlimit="10" width="25.447" height="25.448"/>
				
					<rect x="230.463" y="277.896" fill="#E1F4AB" stroke="#58600C" stroke-width="0.35" stroke-miterlimit="10" width="25.452" height="25.448"/>
			</g>
			<g>
				
					<rect x="255.915" y="277.896" fill="#E1F4AB" stroke="#58600C" stroke-width="0.35" stroke-miterlimit="10" width="25.446" height="25.448"/>
				
					<rect x="281.363" y="277.896" fill="#E1F4AB" stroke="#58600C" stroke-width="0.35" stroke-miterlimit="10" width="25.451" height="25.448"/>
			</g>
			<g>
				
					<rect x="306.814" y="277.896" fill="#E1F4AB" stroke="#58600C" stroke-width="0.35" stroke-miterlimit="10" width="25.45" height="25.448"/>
				
					<rect x="332.264" y="277.896" fill="#E1F4AB" stroke="#58600C" stroke-width="0.35" stroke-miterlimit="10" width="25.452" height="25.448"/>
			</g>
			<g>
				
					<rect x="357.717" y="277.896" fill="#E1F4AB" stroke="#58600C" stroke-width="0.35" stroke-miterlimit="10" width="25.444" height="25.448"/>
				
					<rect x="383.162" y="277.896" fill="#E1F4AB" stroke="#58600C" stroke-width="0.35" stroke-miterlimit="10" width="25.449" height="25.448"/>
			</g>
			<g>
				
					<rect x="26.866" y="303.345" fill="#E1F4AB" stroke="#58600C" stroke-width="0.35" stroke-miterlimit="10" width="25.446" height="25.448"/>
			</g>
			<g>
				
					<rect x="52.313" y="303.345" fill="#E1F4AB" stroke="#58600C" stroke-width="0.35" stroke-miterlimit="10" width="25.45" height="25.448"/>
				
					<rect x="77.763" y="303.345" fill="#E1F4AB" stroke="#58600C" stroke-width="0.35" stroke-miterlimit="10" width="25.451" height="25.448"/>
			</g>
			<g>
				
					<rect x="103.215" y="303.345" fill="#E1F4AB" stroke="#58600C" stroke-width="0.35" stroke-miterlimit="10" width="25.448" height="25.448"/>
				
					<rect x="128.663" y="303.345" fill="#E1F4AB" stroke="#58600C" stroke-width="0.35" stroke-miterlimit="10" width="25.449" height="25.448"/>
			</g>
			<g>
				
					<rect x="154.114" y="303.345" fill="#E1F4AB" stroke="#58600C" stroke-width="0.35" stroke-miterlimit="10" width="25.45" height="25.448"/>
				
					<rect x="179.564" y="303.345" fill="#E1F4AB" stroke="#58600C" stroke-width="0.35" stroke-miterlimit="10" width="25.452" height="25.448"/>
			</g>
			<g>
				
					<rect x="205.016" y="303.345" fill="#E1F4AB" stroke="#58600C" stroke-width="0.35" stroke-miterlimit="10" width="25.447" height="25.448"/>
				
					<rect x="230.463" y="303.345" fill="#E1F4AB" stroke="#58600C" stroke-width="0.35" stroke-miterlimit="10" width="25.452" height="25.448"/>
			</g>
			<g>
				
					<rect x="255.915" y="303.345" fill="#E1F4AB" stroke="#58600C" stroke-width="0.35" stroke-miterlimit="10" width="25.446" height="25.448"/>
				
					<rect x="281.363" y="303.345" fill="#E1F4AB" stroke="#58600C" stroke-width="0.35" stroke-miterlimit="10" width="25.451" height="25.448"/>
			</g>
			<g>
				
					<rect x="306.814" y="303.345" fill="#E1F4AB" stroke="#58600C" stroke-width="0.35" stroke-miterlimit="10" width="25.45" height="25.448"/>
				
					<rect x="332.264" y="303.345" fill="#E1F4AB" stroke="#58600C" stroke-width="0.35" stroke-miterlimit="10" width="25.452" height="25.448"/>
			</g>
			<g>
				
					<rect x="357.717" y="303.345" fill="#E1F4AB" stroke="#58600C" stroke-width="0.35" stroke-miterlimit="10" width="25.444" height="25.448"/>
				
					<rect x="383.162" y="303.345" fill="#E1F4AB" stroke="#58600C" stroke-width="0.35" stroke-miterlimit="10" width="25.449" height="25.448"/>
			</g>
			<g>
				
					<rect x="26.866" y="328.795" fill="#E1F4AB" stroke="#58600C" stroke-width="0.35" stroke-miterlimit="10" width="25.446" height="25.449"/>
			</g>
			<g>
				
					<rect x="52.313" y="328.795" fill="#E1F4AB" stroke="#58600C" stroke-width="0.35" stroke-miterlimit="10" width="25.45" height="25.449"/>
				
					<rect x="77.763" y="328.795" fill="#E1F4AB" stroke="#58600C" stroke-width="0.35" stroke-miterlimit="10" width="25.451" height="25.449"/>
			</g>
			<g>
				
					<rect x="103.215" y="328.795" fill="#E1F4AB" stroke="#58600C" stroke-width="0.35" stroke-miterlimit="10" width="25.448" height="25.449"/>
				
					<rect x="128.663" y="328.795" fill="#E1F4AB" stroke="#58600C" stroke-width="0.35" stroke-miterlimit="10" width="25.449" height="25.449"/>
			</g>
			<g>
				
					<rect x="154.114" y="328.795" fill="#E1F4AB" stroke="#58600C" stroke-width="0.35" stroke-miterlimit="10" width="25.45" height="25.449"/>
				
					<rect x="179.564" y="328.795" fill="#E1F4AB" stroke="#58600C" stroke-width="0.35" stroke-miterlimit="10" width="25.452" height="25.449"/>
			</g>
			<g>
				
					<rect x="205.016" y="328.795" fill="#E1F4AB" stroke="#58600C" stroke-width="0.35" stroke-miterlimit="10" width="25.447" height="25.449"/>
				
					<rect x="230.463" y="328.795" fill="#E1F4AB" stroke="#58600C" stroke-width="0.35" stroke-miterlimit="10" width="25.452" height="25.449"/>
			</g>
			<g>
				
					<rect x="255.915" y="328.795" fill="#E1F4AB" stroke="#58600C" stroke-width="0.35" stroke-miterlimit="10" width="25.446" height="25.449"/>
				
					<rect x="281.363" y="328.795" fill="#E1F4AB" stroke="#58600C" stroke-width="0.35" stroke-miterlimit="10" width="25.451" height="25.449"/>
			</g>
			<g>
				
					<rect x="306.814" y="328.795" fill="#E1F4AB" stroke="#58600C" stroke-width="0.35" stroke-miterlimit="10" width="25.45" height="25.449"/>
				
					<rect x="332.264" y="328.795" fill="#E1F4AB" stroke="#58600C" stroke-width="0.35" stroke-miterlimit="10" width="25.452" height="25.449"/>
			</g>
			<g>
				
					<rect x="357.717" y="328.795" fill="#E1F4AB" stroke="#58600C" stroke-width="0.35" stroke-miterlimit="10" width="25.444" height="25.449"/>
				
					<rect x="383.162" y="328.795" fill="#E1F4AB" stroke="#58600C" stroke-width="0.35" stroke-miterlimit="10" width="25.449" height="25.449"/>
			</g>
			<g>
				
					<rect x="26.866" y="354.244" fill="#E1F4AB" stroke="#58600C" stroke-width="0.35" stroke-miterlimit="10" width="25.446" height="25.447"/>
			</g>
			<g>
				
					<rect x="52.313" y="354.244" fill="#E1F4AB" stroke="#58600C" stroke-width="0.35" stroke-miterlimit="10" width="25.45" height="25.447"/>
				
					<rect x="77.763" y="354.244" fill="#E1F4AB" stroke="#58600C" stroke-width="0.35" stroke-miterlimit="10" width="25.451" height="25.447"/>
			</g>
			<g>
				
					<rect x="103.215" y="354.244" fill="#E1F4AB" stroke="#58600C" stroke-width="0.35" stroke-miterlimit="10" width="25.448" height="25.447"/>
				
					<rect x="128.663" y="354.244" fill="#E1F4AB" stroke="#58600C" stroke-width="0.35" stroke-miterlimit="10" width="25.449" height="25.447"/>
			</g>
			<g>
				
					<rect x="154.114" y="354.244" fill="#E1F4AB" stroke="#58600C" stroke-width="0.35" stroke-miterlimit="10" width="25.45" height="25.447"/>
				
					<rect x="179.564" y="354.244" fill="#E1F4AB" stroke="#58600C" stroke-width="0.35" stroke-miterlimit="10" width="25.452" height="25.447"/>
			</g>
			<g>
				
					<rect x="205.016" y="354.244" fill="#E1F4AB" stroke="#58600C" stroke-width="0.35" stroke-miterlimit="10" width="25.447" height="25.447"/>
				
					<rect x="230.463" y="354.244" fill="#E1F4AB" stroke="#58600C" stroke-width="0.35" stroke-miterlimit="10" width="25.452" height="25.447"/>
			</g>
			<g>
				
					<rect x="255.915" y="354.244" fill="#E1F4AB" stroke="#58600C" stroke-width="0.35" stroke-miterlimit="10" width="25.446" height="25.447"/>
				
					<rect x="281.363" y="354.244" fill="#E1F4AB" stroke="#58600C" stroke-width="0.35" stroke-miterlimit="10" width="25.451" height="25.447"/>
			</g>
			<g>
				
					<rect x="306.814" y="354.244" fill="#E1F4AB" stroke="#58600C" stroke-width="0.35" stroke-miterlimit="10" width="25.45" height="25.447"/>
				
					<rect x="332.264" y="354.244" fill="#E1F4AB" stroke="#58600C" stroke-width="0.35" stroke-miterlimit="10" width="25.452" height="25.447"/>
			</g>
			<g>
				
					<rect x="357.717" y="354.244" fill="#E1F4AB" stroke="#58600C" stroke-width="0.35" stroke-miterlimit="10" width="25.444" height="25.447"/>
				
					<rect x="383.162" y="354.244" fill="#E1F4AB" stroke="#58600C" stroke-width="0.35" stroke-miterlimit="10" width="25.449" height="25.447"/>
			</g>
			<g>
				
					<rect x="26.866" y="379.692" fill="#E1F4AB" stroke="#58600C" stroke-width="0.35" stroke-miterlimit="10" width="25.446" height="25.449"/>
			</g>
			<g>
				
					<rect x="52.313" y="379.692" fill="#E1F4AB" stroke="#58600C" stroke-width="0.35" stroke-miterlimit="10" width="25.45" height="25.449"/>
				
					<rect x="77.763" y="379.692" fill="#E1F4AB" stroke="#58600C" stroke-width="0.35" stroke-miterlimit="10" width="25.451" height="25.449"/>
			</g>
			<g>
				
					<rect x="103.215" y="379.692" fill="#E1F4AB" stroke="#58600C" stroke-width="0.35" stroke-miterlimit="10" width="25.448" height="25.449"/>
				
					<rect x="128.663" y="379.692" fill="#E1F4AB" stroke="#58600C" stroke-width="0.35" stroke-miterlimit="10" width="25.449" height="25.449"/>
			</g>
			<g>
				
					<rect x="154.114" y="379.692" fill="#E1F4AB" stroke="#58600C" stroke-width="0.35" stroke-miterlimit="10" width="25.45" height="25.449"/>
				
					<rect x="179.564" y="379.692" fill="#E1F4AB" stroke="#58600C" stroke-width="0.35" stroke-miterlimit="10" width="25.452" height="25.449"/>
			</g>
			<g>
				
					<rect x="205.016" y="379.692" fill="#E1F4AB" stroke="#58600C" stroke-width="0.35" stroke-miterlimit="10" width="25.447" height="25.449"/>
				
					<rect x="230.463" y="379.692" fill="#E1F4AB" stroke="#58600C" stroke-width="0.35" stroke-miterlimit="10" width="25.452" height="25.449"/>
			</g>
			<g>
				
					<rect x="255.915" y="379.692" fill="#E1F4AB" stroke="#58600C" stroke-width="0.35" stroke-miterlimit="10" width="25.446" height="25.449"/>
				
					<rect x="281.363" y="379.692" fill="#E1F4AB" stroke="#58600C" stroke-width="0.35" stroke-miterlimit="10" width="25.451" height="25.449"/>
			</g>
			<g>
				
					<rect x="306.814" y="379.692" fill="#E1F4AB" stroke="#58600C" stroke-width="0.35" stroke-miterlimit="10" width="25.45" height="25.449"/>
				
					<rect x="332.264" y="379.692" fill="#E1F4AB" stroke="#58600C" stroke-width="0.35" stroke-miterlimit="10" width="25.452" height="25.449"/>
			</g>
			<g>
				
					<rect x="357.717" y="379.692" fill="#E1F4AB" stroke="#58600C" stroke-width="0.35" stroke-miterlimit="10" width="25.444" height="25.449"/>
				
					<rect x="383.162" y="379.692" fill="#E1F4AB" stroke="#58600C" stroke-width="0.35" stroke-miterlimit="10" width="25.449" height="25.449"/>
			</g>
			<g>
				
					<rect x="26.866" y="405.142" fill="#E1F4AB" stroke="#58600C" stroke-width="0.35" stroke-miterlimit="10" width="25.446" height="25.45"/>
			</g>
			<g>
				
					<rect x="52.313" y="405.142" fill="#E1F4AB" stroke="#58600C" stroke-width="0.35" stroke-miterlimit="10" width="25.45" height="25.45"/>
				
					<rect x="77.763" y="405.142" fill="#E1F4AB" stroke="#58600C" stroke-width="0.35" stroke-miterlimit="10" width="25.451" height="25.45"/>
			</g>
			<g>
				
					<rect x="103.215" y="405.142" fill="#E1F4AB" stroke="#58600C" stroke-width="0.35" stroke-miterlimit="10" width="25.448" height="25.45"/>
				
					<rect x="128.663" y="405.142" fill="#E1F4AB" stroke="#58600C" stroke-width="0.35" stroke-miterlimit="10" width="25.449" height="25.45"/>
			</g>
			<g>
				
					<rect x="154.114" y="405.142" fill="#E1F4AB" stroke="#58600C" stroke-width="0.35" stroke-miterlimit="10" width="25.45" height="25.45"/>
				
					<rect x="179.564" y="405.142" fill="#E1F4AB" stroke="#58600C" stroke-width="0.35" stroke-miterlimit="10" width="25.452" height="25.45"/>
			</g>
			<g>
				
					<rect x="205.016" y="405.142" fill="#E1F4AB" stroke="#58600C" stroke-width="0.35" stroke-miterlimit="10" width="25.447" height="25.45"/>
				
					<rect x="230.463" y="405.142" fill="#E1F4AB" stroke="#58600C" stroke-width="0.35" stroke-miterlimit="10" width="25.452" height="25.45"/>
			</g>
			<g>
				
					<rect x="255.915" y="405.142" fill="#E1F4AB" stroke="#58600C" stroke-width="0.35" stroke-miterlimit="10" width="25.446" height="25.45"/>
				
					<rect x="281.363" y="405.142" fill="#E1F4AB" stroke="#58600C" stroke-width="0.35" stroke-miterlimit="10" width="25.451" height="25.45"/>
			</g>
			<g>
				
					<rect x="306.814" y="405.142" fill="#E1F4AB" stroke="#58600C" stroke-width="0.35" stroke-miterlimit="10" width="25.45" height="25.45"/>
				
					<rect x="332.264" y="405.142" fill="#E1F4AB" stroke="#58600C" stroke-width="0.35" stroke-miterlimit="10" width="25.452" height="25.45"/>
			</g>
			<g>
				
					<rect x="357.717" y="405.142" fill="#E1F4AB" stroke="#58600C" stroke-width="0.35" stroke-miterlimit="10" width="25.444" height="25.45"/>
				
					<rect x="383.162" y="405.142" fill="#E1F4AB" stroke="#58600C" stroke-width="0.35" stroke-miterlimit="10" width="25.449" height="25.45"/>
			</g>
			<g>
				
					<rect x="26.866" y="430.594" fill="#E1F4AB" stroke="#58600C" stroke-width="0.35" stroke-miterlimit="10" width="25.446" height="25.445"/>
			</g>
			<g>
				
					<rect x="52.313" y="430.594" fill="#E1F4AB" stroke="#58600C" stroke-width="0.35" stroke-miterlimit="10" width="25.45" height="25.445"/>
				
					<rect x="77.763" y="430.594" fill="#E1F4AB" stroke="#58600C" stroke-width="0.35" stroke-miterlimit="10" width="25.451" height="25.445"/>
			</g>
			<g>
				
					<rect x="103.215" y="430.594" fill="#E1F4AB" stroke="#58600C" stroke-width="0.35" stroke-miterlimit="10" width="25.448" height="25.445"/>
				
					<rect x="128.663" y="430.594" fill="#E1F4AB" stroke="#58600C" stroke-width="0.35" stroke-miterlimit="10" width="25.449" height="25.445"/>
			</g>
			<g>
				
					<rect x="154.114" y="430.594" fill="#E1F4AB" stroke="#58600C" stroke-width="0.35" stroke-miterlimit="10" width="25.45" height="25.445"/>
				
					<rect x="179.564" y="430.594" fill="#E1F4AB" stroke="#58600C" stroke-width="0.35" stroke-miterlimit="10" width="25.452" height="25.445"/>
			</g>
			<g>
				
					<rect x="205.016" y="430.594" fill="#E1F4AB" stroke="#58600C" stroke-width="0.35" stroke-miterlimit="10" width="25.447" height="25.445"/>
				
					<rect x="230.463" y="430.594" fill="#E1F4AB" stroke="#58600C" stroke-width="0.35" stroke-miterlimit="10" width="25.452" height="25.445"/>
			</g>
			<g>
				
					<rect x="255.915" y="430.594" fill="#E1F4AB" stroke="#58600C" stroke-width="0.35" stroke-miterlimit="10" width="25.446" height="25.445"/>
				
					<rect x="281.363" y="430.594" fill="#E1F4AB" stroke="#58600C" stroke-width="0.35" stroke-miterlimit="10" width="25.451" height="25.445"/>
			</g>
			<g>
				
					<rect x="306.814" y="430.594" fill="#E1F4AB" stroke="#58600C" stroke-width="0.35" stroke-miterlimit="10" width="25.45" height="25.445"/>
				
					<rect x="332.264" y="430.594" fill="#E1F4AB" stroke="#58600C" stroke-width="0.35" stroke-miterlimit="10" width="25.452" height="25.445"/>
			</g>
			<g>
				
					<rect x="357.717" y="430.594" fill="#E1F4AB" stroke="#58600C" stroke-width="0.35" stroke-miterlimit="10" width="25.444" height="25.445"/>
				
					<rect x="383.162" y="430.594" fill="#E1F4AB" stroke="#58600C" stroke-width="0.35" stroke-miterlimit="10" width="25.449" height="25.445"/>
			</g>
			<g>
				
					<rect x="26.866" y="456.039" fill="#E1F4AB" stroke="#58600C" stroke-width="0.35" stroke-miterlimit="10" width="25.446" height="25.448"/>
			</g>
			<g>
				
					<rect x="52.313" y="456.039" fill="#E1F4AB" stroke="#58600C" stroke-width="0.35" stroke-miterlimit="10" width="25.45" height="25.448"/>
				
					<rect x="77.763" y="456.039" fill="#E1F4AB" stroke="#58600C" stroke-width="0.35" stroke-miterlimit="10" width="25.451" height="25.448"/>
			</g>
			<g>
				
					<rect x="103.215" y="456.039" fill="#E1F4AB" stroke="#58600C" stroke-width="0.35" stroke-miterlimit="10" width="25.448" height="25.448"/>
				
					<rect x="128.663" y="456.039" fill="#E1F4AB" stroke="#58600C" stroke-width="0.35" stroke-miterlimit="10" width="25.449" height="25.448"/>
			</g>
			<g>
				
					<rect x="154.114" y="456.039" fill="#E1F4AB" stroke="#58600C" stroke-width="0.35" stroke-miterlimit="10" width="25.45" height="25.448"/>
				
					<rect x="179.564" y="456.039" fill="#E1F4AB" stroke="#58600C" stroke-width="0.35" stroke-miterlimit="10" width="25.452" height="25.448"/>
			</g>
			<g>
				
					<rect x="205.016" y="456.039" fill="#E1F4AB" stroke="#58600C" stroke-width="0.35" stroke-miterlimit="10" width="25.447" height="25.448"/>
				
					<rect x="230.463" y="456.039" fill="#E1F4AB" stroke="#58600C" stroke-width="0.35" stroke-miterlimit="10" width="25.452" height="25.448"/>
			</g>
			<g>
				
					<rect x="255.915" y="456.039" fill="#E1F4AB" stroke="#58600C" stroke-width="0.35" stroke-miterlimit="10" width="25.446" height="25.448"/>
				
					<rect x="281.363" y="456.039" fill="#E1F4AB" stroke="#58600C" stroke-width="0.35" stroke-miterlimit="10" width="25.451" height="25.448"/>
			</g>
			<g>
				
					<rect x="306.814" y="456.039" fill="#E1F4AB" stroke="#58600C" stroke-width="0.35" stroke-miterlimit="10" width="25.45" height="25.448"/>
				
					<rect x="332.264" y="456.039" fill="#E1F4AB" stroke="#58600C" stroke-width="0.35" stroke-miterlimit="10" width="25.452" height="25.448"/>
			</g>
			<g>
				
					<rect x="357.717" y="456.039" fill="#E1F4AB" stroke="#58600C" stroke-width="0.35" stroke-miterlimit="10" width="25.444" height="25.448"/>
				
					<rect x="383.162" y="456.039" fill="#E1F4AB" stroke="#58600C" stroke-width="0.35" stroke-miterlimit="10" width="25.449" height="25.448"/>
			</g>
			<g>
				
					<rect x="26.866" y="481.488" fill="#E1F4AB" stroke="#58600C" stroke-width="0.35" stroke-miterlimit="10" width="25.446" height="25.449"/>
			</g>
			<g>
				
					<rect x="52.313" y="481.488" fill="#E1F4AB" stroke="#58600C" stroke-width="0.35" stroke-miterlimit="10" width="25.45" height="25.449"/>
				
					<rect x="77.763" y="481.488" fill="#E1F4AB" stroke="#58600C" stroke-width="0.35" stroke-miterlimit="10" width="25.451" height="25.449"/>
			</g>
			<g>
				
					<rect x="103.215" y="481.488" fill="#E1F4AB" stroke="#58600C" stroke-width="0.35" stroke-miterlimit="10" width="25.448" height="25.449"/>
				
					<rect x="128.663" y="481.488" fill="#E1F4AB" stroke="#58600C" stroke-width="0.35" stroke-miterlimit="10" width="25.449" height="25.449"/>
			</g>
			<g>
				
					<rect x="154.114" y="481.488" fill="#E1F4AB" stroke="#58600C" stroke-width="0.35" stroke-miterlimit="10" width="25.45" height="25.449"/>
				
					<rect x="179.564" y="481.488" fill="#E1F4AB" stroke="#58600C" stroke-width="0.35" stroke-miterlimit="10" width="25.452" height="25.449"/>
			</g>
			<g>
				
					<rect x="205.016" y="481.488" fill="#E1F4AB" stroke="#58600C" stroke-width="0.35" stroke-miterlimit="10" width="25.447" height="25.449"/>
				
					<rect x="230.463" y="481.488" fill="#E1F4AB" stroke="#58600C" stroke-width="0.35" stroke-miterlimit="10" width="25.452" height="25.449"/>
			</g>
			<g>
				
					<rect x="255.915" y="481.488" fill="#E1F4AB" stroke="#58600C" stroke-width="0.35" stroke-miterlimit="10" width="25.446" height="25.449"/>
				
					<rect x="281.363" y="481.488" fill="#E1F4AB" stroke="#58600C" stroke-width="0.35" stroke-miterlimit="10" width="25.451" height="25.449"/>
			</g>
			<g>
				
					<rect x="306.814" y="481.488" fill="#E1F4AB" stroke="#58600C" stroke-width="0.35" stroke-miterlimit="10" width="25.45" height="25.449"/>
				
					<rect x="332.264" y="481.488" fill="#E1F4AB" stroke="#58600C" stroke-width="0.35" stroke-miterlimit="10" width="25.452" height="25.449"/>
			</g>
			<g>
				
					<rect x="357.717" y="481.488" fill="#E1F4AB" stroke="#58600C" stroke-width="0.35" stroke-miterlimit="10" width="25.444" height="25.449"/>
				
					<rect x="383.162" y="481.488" fill="#E1F4AB" stroke="#58600C" stroke-width="0.35" stroke-miterlimit="10" width="25.449" height="25.449"/>
			</g>
			<g>
				
					<rect x="26.866" y="506.938" fill="#E1F4AB" stroke="#58600C" stroke-width="0.35" stroke-miterlimit="10" width="25.446" height="25.449"/>
			</g>
			<g>
				
					<rect x="52.313" y="506.938" fill="#E1F4AB" stroke="#58600C" stroke-width="0.35" stroke-miterlimit="10" width="25.45" height="25.449"/>
				
					<rect x="77.763" y="506.938" fill="#E1F4AB" stroke="#58600C" stroke-width="0.35" stroke-miterlimit="10" width="25.451" height="25.449"/>
			</g>
			<g>
				
					<rect x="103.215" y="506.938" fill="#E1F4AB" stroke="#58600C" stroke-width="0.35" stroke-miterlimit="10" width="25.448" height="25.449"/>
				
					<rect x="128.663" y="506.938" fill="#E1F4AB" stroke="#58600C" stroke-width="0.35" stroke-miterlimit="10" width="25.449" height="25.449"/>
			</g>
			<g>
				
					<rect x="154.114" y="506.938" fill="#E1F4AB" stroke="#58600C" stroke-width="0.35" stroke-miterlimit="10" width="25.45" height="25.449"/>
				
					<rect x="179.564" y="506.938" fill="#E1F4AB" stroke="#58600C" stroke-width="0.35" stroke-miterlimit="10" width="25.452" height="25.449"/>
			</g>
			<g>
				
					<rect x="205.016" y="506.938" fill="#E1F4AB" stroke="#58600C" stroke-width="0.35" stroke-miterlimit="10" width="25.447" height="25.449"/>
				
					<rect x="230.463" y="506.938" fill="#E1F4AB" stroke="#58600C" stroke-width="0.35" stroke-miterlimit="10" width="25.452" height="25.449"/>
			</g>
			<g>
				
					<rect x="255.915" y="506.938" fill="#E1F4AB" stroke="#58600C" stroke-width="0.35" stroke-miterlimit="10" width="25.446" height="25.449"/>
				
					<rect x="281.363" y="506.938" fill="#E1F4AB" stroke="#58600C" stroke-width="0.35" stroke-miterlimit="10" width="25.451" height="25.449"/>
			</g>
			<g>
				
					<rect x="306.814" y="506.938" fill="#E1F4AB" stroke="#58600C" stroke-width="0.35" stroke-miterlimit="10" width="25.45" height="25.449"/>
				
					<rect x="332.264" y="506.938" fill="#E1F4AB" stroke="#58600C" stroke-width="0.35" stroke-miterlimit="10" width="25.452" height="25.449"/>
			</g>
			<g>
				
					<rect x="357.717" y="506.938" fill="#E1F4AB" stroke="#58600C" stroke-width="0.35" stroke-miterlimit="10" width="25.444" height="25.449"/>
				
					<rect x="383.162" y="506.938" fill="#E1F4AB" stroke="#58600C" stroke-width="0.35" stroke-miterlimit="10" width="25.449" height="25.449"/>
			</g>
			
				<rect x="408.587" y="23.405" fill="#E1F4AB" stroke="#58600C" stroke-width="0.35" stroke-miterlimit="10" width="25.447" height="25.449"/>
			
				<rect x="434.035" y="23.405" fill="#E1F4AB" stroke="#58600C" stroke-width="0.35" stroke-miterlimit="10" width="25.449" height="25.449"/>
			
				<rect x="459.486" y="23.405" fill="#E1F4AB" stroke="#58600C" stroke-width="0.35" stroke-miterlimit="10" width="25.451" height="25.449"/>
			
				<rect x="484.937" y="23.405" fill="#E1F4AB" stroke="#58600C" stroke-width="0.35" stroke-miterlimit="10" width="25.45" height="25.449"/>
			
				<rect x="510.387" y="23.405" fill="#E1F4AB" stroke="#58600C" stroke-width="0.35" stroke-miterlimit="10" width="25.448" height="25.449"/>
			
				<rect x="408.587" y="48.854" fill="#E1F4AB" stroke="#58600C" stroke-width="0.35" stroke-miterlimit="10" width="25.447" height="25.45"/>
			
				<rect x="434.035" y="48.854" fill="#E1F4AB" stroke="#58600C" stroke-width="0.35" stroke-miterlimit="10" width="25.449" height="25.45"/>
			
				<rect x="459.486" y="48.854" fill="#E1F4AB" stroke="#58600C" stroke-width="0.35" stroke-miterlimit="10" width="25.451" height="25.45"/>
			
				<rect x="484.937" y="48.854" fill="#E1F4AB" stroke="#58600C" stroke-width="0.35" stroke-miterlimit="10" width="25.45" height="25.45"/>
			
				<rect x="510.387" y="48.854" fill="#E1F4AB" stroke="#58600C" stroke-width="0.35" stroke-miterlimit="10" width="25.448" height="25.45"/>
			
				<rect x="408.587" y="74.304" fill="#E1F4AB" stroke="#58600C" stroke-width="0.35" stroke-miterlimit="10" width="25.447" height="25.446"/>
			
				<rect x="434.035" y="74.304" fill="#E1F4AB" stroke="#58600C" stroke-width="0.35" stroke-miterlimit="10" width="25.449" height="25.446"/>
			
				<rect x="459.486" y="74.304" fill="#E1F4AB" stroke="#58600C" stroke-width="0.35" stroke-miterlimit="10" width="25.451" height="25.446"/>
			
				<rect x="484.937" y="74.304" fill="#E1F4AB" stroke="#58600C" stroke-width="0.35" stroke-miterlimit="10" width="25.45" height="25.446"/>
			
				<rect x="510.387" y="74.304" fill="#E1F4AB" stroke="#58600C" stroke-width="0.35" stroke-miterlimit="10" width="25.448" height="25.446"/>
			
				<rect x="408.587" y="99.752" fill="#E1F4AB" stroke="#58600C" stroke-width="0.35" stroke-miterlimit="10" width="25.447" height="25.45"/>
			
				<rect x="434.035" y="99.752" fill="#E1F4AB" stroke="#58600C" stroke-width="0.35" stroke-miterlimit="10" width="25.449" height="25.45"/>
			
				<rect x="459.486" y="99.752" fill="#E1F4AB" stroke="#58600C" stroke-width="0.35" stroke-miterlimit="10" width="25.451" height="25.45"/>
			
				<rect x="484.937" y="99.752" fill="#E1F4AB" stroke="#58600C" stroke-width="0.35" stroke-miterlimit="10" width="25.45" height="25.45"/>
			
				<rect x="510.387" y="99.752" fill="#E1F4AB" stroke="#58600C" stroke-width="0.35" stroke-miterlimit="10" width="25.448" height="25.45"/>
			
				<rect x="408.587" y="125.202" fill="#E1F4AB" stroke="#58600C" stroke-width="0.35" stroke-miterlimit="10" width="25.447" height="25.448"/>
			
				<rect x="434.035" y="125.202" fill="#E1F4AB" stroke="#58600C" stroke-width="0.35" stroke-miterlimit="10" width="25.449" height="25.448"/>
			
				<rect x="459.486" y="125.202" fill="#E1F4AB" stroke="#58600C" stroke-width="0.35" stroke-miterlimit="10" width="25.451" height="25.448"/>
			
				<rect x="484.937" y="125.202" fill="#E1F4AB" stroke="#58600C" stroke-width="0.35" stroke-miterlimit="10" width="25.45" height="25.448"/>
			
				<rect x="510.387" y="125.202" fill="#E1F4AB" stroke="#58600C" stroke-width="0.35" stroke-miterlimit="10" width="25.448" height="25.448"/>
			<g>
				
					<rect x="408.587" y="150.651" fill="#E1F4AB" stroke="#58600C" stroke-width="0.35" stroke-miterlimit="10" width="25.447" height="25.448"/>
				
					<rect x="434.035" y="150.651" fill="#E1F4AB" stroke="#58600C" stroke-width="0.35" stroke-miterlimit="10" width="25.449" height="25.448"/>
			</g>
			<g>
				
					<rect x="459.486" y="150.651" fill="#E1F4AB" stroke="#58600C" stroke-width="0.35" stroke-miterlimit="10" width="25.451" height="25.448"/>
				
					<rect x="484.937" y="150.651" fill="#E1F4AB" stroke="#58600C" stroke-width="0.35" stroke-miterlimit="10" width="25.45" height="25.448"/>
			</g>
			<g>
				
					<rect x="510.387" y="150.651" fill="#E1F4AB" stroke="#58600C" stroke-width="0.35" stroke-miterlimit="10" width="25.448" height="25.448"/>
			</g>
			<g>
				
					<rect x="408.587" y="176.099" fill="#E1F4AB" stroke="#58600C" stroke-width="0.35" stroke-miterlimit="10" width="25.447" height="25.451"/>
				
					<rect x="434.035" y="176.099" fill="#E1F4AB" stroke="#58600C" stroke-width="0.35" stroke-miterlimit="10" width="25.449" height="25.451"/>
			</g>
			<g>
				
					<rect x="459.486" y="176.099" fill="#E1F4AB" stroke="#58600C" stroke-width="0.35" stroke-miterlimit="10" width="25.451" height="25.451"/>
				
					<rect x="484.937" y="176.099" fill="#E1F4AB" stroke="#58600C" stroke-width="0.35" stroke-miterlimit="10" width="25.45" height="25.451"/>
			</g>
			<g>
				
					<rect x="510.387" y="176.099" fill="#E1F4AB" stroke="#58600C" stroke-width="0.35" stroke-miterlimit="10" width="25.448" height="25.451"/>
			</g>
			<g>
				
					<rect x="408.587" y="201.549" fill="#E1F4AB" stroke="#58600C" stroke-width="0.35" stroke-miterlimit="10" width="25.447" height="25.448"/>
				
					<rect x="434.035" y="201.549" fill="#E1F4AB" stroke="#58600C" stroke-width="0.35" stroke-miterlimit="10" width="25.449" height="25.448"/>
			</g>
			<g>
				
					<rect x="459.486" y="201.549" fill="#E1F4AB" stroke="#58600C" stroke-width="0.35" stroke-miterlimit="10" width="25.451" height="25.448"/>
				
					<rect x="484.937" y="201.549" fill="#E1F4AB" stroke="#58600C" stroke-width="0.35" stroke-miterlimit="10" width="25.45" height="25.448"/>
			</g>
			<g>
				
					<rect x="510.387" y="201.549" fill="#E1F4AB" stroke="#58600C" stroke-width="0.35" stroke-miterlimit="10" width="25.448" height="25.448"/>
			</g>
			<g>
				
					<rect x="408.587" y="226.998" fill="#E1F4AB" stroke="#58600C" stroke-width="0.35" stroke-miterlimit="10" width="25.447" height="25.449"/>
				
					<rect x="434.035" y="226.998" fill="#E1F4AB" stroke="#58600C" stroke-width="0.35" stroke-miterlimit="10" width="25.449" height="25.449"/>
			</g>
			<g>
				
					<rect x="459.486" y="226.998" fill="#E1F4AB" stroke="#58600C" stroke-width="0.35" stroke-miterlimit="10" width="25.451" height="25.449"/>
				
					<rect x="484.937" y="226.998" fill="#E1F4AB" stroke="#58600C" stroke-width="0.35" stroke-miterlimit="10" width="25.45" height="25.449"/>
			</g>
			<g>
				
					<rect x="510.387" y="226.998" fill="#E1F4AB" stroke="#58600C" stroke-width="0.35" stroke-miterlimit="10" width="25.448" height="25.449"/>
			</g>
			<g>
				
					<rect x="408.587" y="252.447" fill="#E1F4AB" stroke="#58600C" stroke-width="0.35" stroke-miterlimit="10" width="25.447" height="25.449"/>
				
					<rect x="434.035" y="252.447" fill="#E1F4AB" stroke="#58600C" stroke-width="0.35" stroke-miterlimit="10" width="25.449" height="25.449"/>
			</g>
			<g>
				
					<rect x="459.486" y="252.447" fill="#E1F4AB" stroke="#58600C" stroke-width="0.35" stroke-miterlimit="10" width="25.451" height="25.449"/>
				
					<rect x="484.937" y="252.447" fill="#E1F4AB" stroke="#58600C" stroke-width="0.35" stroke-miterlimit="10" width="25.45" height="25.449"/>
			</g>
			<g>
				
					<rect x="510.387" y="252.447" fill="#E1F4AB" stroke="#58600C" stroke-width="0.35" stroke-miterlimit="10" width="25.448" height="25.449"/>
			</g>
			<g>
				
					<rect x="408.587" y="277.896" fill="#E1F4AB" stroke="#58600C" stroke-width="0.35" stroke-miterlimit="10" width="25.447" height="25.448"/>
				
					<rect x="434.035" y="277.896" fill="#E1F4AB" stroke="#58600C" stroke-width="0.35" stroke-miterlimit="10" width="25.449" height="25.448"/>
			</g>
			<g>
				
					<rect x="459.486" y="277.896" fill="#E1F4AB" stroke="#58600C" stroke-width="0.35" stroke-miterlimit="10" width="25.451" height="25.448"/>
				
					<rect x="484.937" y="277.896" fill="#E1F4AB" stroke="#58600C" stroke-width="0.35" stroke-miterlimit="10" width="25.45" height="25.448"/>
			</g>
			<g>
				
					<rect x="510.387" y="277.896" fill="#E1F4AB" stroke="#58600C" stroke-width="0.35" stroke-miterlimit="10" width="25.448" height="25.448"/>
			</g>
			<g>
				
					<rect x="408.587" y="303.345" fill="#E1F4AB" stroke="#58600C" stroke-width="0.35" stroke-miterlimit="10" width="25.447" height="25.448"/>
				
					<rect x="434.035" y="303.345" fill="#E1F4AB" stroke="#58600C" stroke-width="0.35" stroke-miterlimit="10" width="25.449" height="25.448"/>
			</g>
			<g>
				
					<rect x="459.486" y="303.345" fill="#E1F4AB" stroke="#58600C" stroke-width="0.35" stroke-miterlimit="10" width="25.451" height="25.448"/>
				
					<rect x="484.937" y="303.345" fill="#E1F4AB" stroke="#58600C" stroke-width="0.35" stroke-miterlimit="10" width="25.45" height="25.448"/>
			</g>
			<g>
				
					<rect x="510.387" y="303.345" fill="#E1F4AB" stroke="#58600C" stroke-width="0.35" stroke-miterlimit="10" width="25.448" height="25.448"/>
			</g>
			<g>
				
					<rect x="408.587" y="328.795" fill="#E1F4AB" stroke="#58600C" stroke-width="0.35" stroke-miterlimit="10" width="25.447" height="25.449"/>
				
					<rect x="434.035" y="328.795" fill="#E1F4AB" stroke="#58600C" stroke-width="0.35" stroke-miterlimit="10" width="25.449" height="25.449"/>
			</g>
			<g>
				
					<rect x="459.486" y="328.795" fill="#E1F4AB" stroke="#58600C" stroke-width="0.35" stroke-miterlimit="10" width="25.451" height="25.449"/>
				
					<rect x="484.937" y="328.795" fill="#E1F4AB" stroke="#58600C" stroke-width="0.35" stroke-miterlimit="10" width="25.45" height="25.449"/>
			</g>
			<g>
				
					<rect x="510.387" y="328.795" fill="#E1F4AB" stroke="#58600C" stroke-width="0.35" stroke-miterlimit="10" width="25.448" height="25.449"/>
			</g>
			<g>
				
					<rect x="408.587" y="354.244" fill="#E1F4AB" stroke="#58600C" stroke-width="0.35" stroke-miterlimit="10" width="25.447" height="25.447"/>
				
					<rect x="434.035" y="354.244" fill="#E1F4AB" stroke="#58600C" stroke-width="0.35" stroke-miterlimit="10" width="25.449" height="25.447"/>
			</g>
			<g>
				
					<rect x="459.486" y="354.244" fill="#E1F4AB" stroke="#58600C" stroke-width="0.35" stroke-miterlimit="10" width="25.451" height="25.447"/>
				
					<rect x="484.937" y="354.244" fill="#E1F4AB" stroke="#58600C" stroke-width="0.35" stroke-miterlimit="10" width="25.45" height="25.447"/>
			</g>
			<g>
				
					<rect x="510.387" y="354.244" fill="#E1F4AB" stroke="#58600C" stroke-width="0.35" stroke-miterlimit="10" width="25.448" height="25.447"/>
			</g>
			<g>
				
					<rect x="408.587" y="379.692" fill="#E1F4AB" stroke="#58600C" stroke-width="0.35" stroke-miterlimit="10" width="25.447" height="25.449"/>
				
					<rect x="434.035" y="379.692" fill="#E1F4AB" stroke="#58600C" stroke-width="0.35" stroke-miterlimit="10" width="25.449" height="25.449"/>
			</g>
			<g>
				
					<rect x="459.486" y="379.692" fill="#E1F4AB" stroke="#58600C" stroke-width="0.35" stroke-miterlimit="10" width="25.451" height="25.449"/>
				
					<rect x="484.937" y="379.692" fill="#E1F4AB" stroke="#58600C" stroke-width="0.35" stroke-miterlimit="10" width="25.45" height="25.449"/>
			</g>
			<g>
				
					<rect x="510.387" y="379.692" fill="#E1F4AB" stroke="#58600C" stroke-width="0.35" stroke-miterlimit="10" width="25.448" height="25.449"/>
			</g>
			<g>
				
					<rect x="408.587" y="405.142" fill="#E1F4AB" stroke="#58600C" stroke-width="0.35" stroke-miterlimit="10" width="25.447" height="25.45"/>
				
					<rect x="434.035" y="405.142" fill="#E1F4AB" stroke="#58600C" stroke-width="0.35" stroke-miterlimit="10" width="25.449" height="25.45"/>
			</g>
			<g>
				
					<rect x="459.486" y="405.142" fill="#E1F4AB" stroke="#58600C" stroke-width="0.35" stroke-miterlimit="10" width="25.451" height="25.45"/>
				
					<rect x="484.937" y="405.142" fill="#E1F4AB" stroke="#58600C" stroke-width="0.35" stroke-miterlimit="10" width="25.45" height="25.45"/>
			</g>
			<g>
				
					<rect x="510.387" y="405.142" fill="#E1F4AB" stroke="#58600C" stroke-width="0.35" stroke-miterlimit="10" width="25.448" height="25.45"/>
			</g>
			<g>
				
					<rect x="408.587" y="430.594" fill="#E1F4AB" stroke="#58600C" stroke-width="0.35" stroke-miterlimit="10" width="25.447" height="25.445"/>
				
					<rect x="434.035" y="430.594" fill="#E1F4AB" stroke="#58600C" stroke-width="0.35" stroke-miterlimit="10" width="25.449" height="25.445"/>
			</g>
			<g>
				
					<rect x="459.486" y="430.594" fill="#E1F4AB" stroke="#58600C" stroke-width="0.35" stroke-miterlimit="10" width="25.451" height="25.445"/>
				
					<rect x="484.937" y="430.594" fill="#E1F4AB" stroke="#58600C" stroke-width="0.35" stroke-miterlimit="10" width="25.45" height="25.445"/>
			</g>
			<g>
				
					<rect x="510.387" y="430.594" fill="#E1F4AB" stroke="#58600C" stroke-width="0.35" stroke-miterlimit="10" width="25.448" height="25.445"/>
			</g>
			<g>
				
					<rect x="408.587" y="456.039" fill="#E1F4AB" stroke="#58600C" stroke-width="0.35" stroke-miterlimit="10" width="25.447" height="25.448"/>
				
					<rect x="434.035" y="456.039" fill="#E1F4AB" stroke="#58600C" stroke-width="0.35" stroke-miterlimit="10" width="25.449" height="25.448"/>
			</g>
			<g>
				
					<rect x="459.486" y="456.039" fill="#E1F4AB" stroke="#58600C" stroke-width="0.35" stroke-miterlimit="10" width="25.451" height="25.448"/>
				
					<rect x="484.937" y="456.039" fill="#E1F4AB" stroke="#58600C" stroke-width="0.35" stroke-miterlimit="10" width="25.45" height="25.448"/>
			</g>
			<g>
				
					<rect x="510.387" y="456.039" fill="#E1F4AB" stroke="#58600C" stroke-width="0.35" stroke-miterlimit="10" width="25.448" height="25.448"/>
			</g>
			<g>
				
					<rect x="408.587" y="481.488" fill="#E1F4AB" stroke="#58600C" stroke-width="0.35" stroke-miterlimit="10" width="25.447" height="25.449"/>
				
					<rect x="434.035" y="481.488" fill="#E1F4AB" stroke="#58600C" stroke-width="0.35" stroke-miterlimit="10" width="25.449" height="25.449"/>
			</g>
			<g>
				
					<rect x="459.486" y="481.488" fill="#E1F4AB" stroke="#58600C" stroke-width="0.35" stroke-miterlimit="10" width="25.451" height="25.449"/>
				
					<rect x="484.937" y="481.488" fill="#E1F4AB" stroke="#58600C" stroke-width="0.35" stroke-miterlimit="10" width="25.45" height="25.449"/>
			</g>
			<g>
				
					<rect x="510.387" y="481.488" fill="#E1F4AB" stroke="#58600C" stroke-width="0.35" stroke-miterlimit="10" width="25.448" height="25.449"/>
			</g>
			<g>
				
					<rect x="408.587" y="506.938" fill="#E1F4AB" stroke="#58600C" stroke-width="0.35" stroke-miterlimit="10" width="25.447" height="25.449"/>
				
					<rect x="434.035" y="506.938" fill="#E1F4AB" stroke="#58600C" stroke-width="0.35" stroke-miterlimit="10" width="25.449" height="25.449"/>
			</g>
			<g>
				
					<rect x="459.486" y="506.938" fill="#E1F4AB" stroke="#58600C" stroke-width="0.35" stroke-miterlimit="10" width="25.451" height="25.449"/>
				
					<rect x="484.937" y="506.938" fill="#E1F4AB" stroke="#58600C" stroke-width="0.35" stroke-miterlimit="10" width="25.45" height="25.449"/>
			</g>
			<g>
				
					<rect x="510.387" y="506.938" fill="#E1F4AB" stroke="#58600C" stroke-width="0.35" stroke-miterlimit="10" width="25.448" height="25.449"/>
			</g>
		</g>
		<text transform="matrix(1 0 0 1 266.2112 292.6746)" font-family="'MyriadPro-Regular'" font-size="15">O</text>
	</g>
	<g>
		
			<line fill="none" stroke="#6F7F0F" stroke-width="1.5" stroke-miterlimit="10" x1="27.771" y1="150.697" x2="534.932" y2="150.697"/>
		
			<line fill="none" stroke="#6F7F0F" stroke-width="1.5" stroke-miterlimit="10" x1="27.771" y1="405.095" x2="534.932" y2="405.095"/>
		
			<line fill="none" stroke="#6F7F0F" stroke-width="1.5" stroke-miterlimit="10" x1="408.55" y1="24.314" x2="408.55" y2="531.477"/>
		
			<line fill="none" stroke="#6F7F0F" stroke-width="1.5" stroke-miterlimit="10" x1="154.151" y1="24.314" x2="154.151" y2="531.477"/>
	</g>
	<g>
		<g>
			<g>
				
					<line fill="none" stroke="#231F20" stroke-width="2" stroke-miterlimit="10" x1="39.067" y1="277.942" x2="523.635" y2="277.942"/>
				<g>
					<polygon fill="#231F20" points="27.771,277.942 43.689,284.447 39.912,277.942 43.689,271.439 					"/>
				</g>
				<g>
					<polygon fill="#231F20" points="534.932,277.942 519.013,284.447 522.79,277.942 519.013,271.439 					"/>
				</g>
			</g>
		</g>
		<g>
			<text transform="matrix(0.9 0 0 1 303.7249 292.405)" font-family="'MyriadPro-Regular'" font-size="15">1</text>
			<text transform="matrix(0.9 0 0 1 328.7258 292.405)" font-family="'MyriadPro-Regular'" font-size="15">2</text>
			<text transform="matrix(0.9 0 0 1 354.3918 292.405)" font-family="'MyriadPro-Regular'" font-size="15">3</text>
			<text transform="matrix(0.9 0 0 1 379.3918 292.405)" font-family="'MyriadPro-Regular'" font-size="15">4</text>
			<text transform="matrix(0.9 0 0 1 406.0579 292.405)" font-family="'MyriadPro-Regular'" font-size="15">5</text>
			<text transform="matrix(0.9 0 0 1 431.0579 292.405)" font-family="'MyriadPro-Regular'" font-size="15">6</text>
			<text transform="matrix(0.9 0 0 1 455.7258 292.405)" font-family="'MyriadPro-Regular'" font-size="15">7</text>
			<text transform="matrix(0.9 0 0 1 481.7258 292.405)" font-family="'MyriadPro-Regular'" font-size="15">8</text>
			<text transform="matrix(0.9 0 0 1 507.3918 292.405)" font-family="'MyriadPro-Regular'" font-size="15">9</text>
			<text transform="matrix(0.9 0 0 1 528.929 292.405)" font-family="'MyriadPro-Regular'" font-size="15">10</text>
		</g>
		<g>
			<text transform="matrix(0.9 0 0 1 17.6907 292.405)" font-family="'MyriadPro-Regular'" font-size="15">-10</text>
			<text transform="matrix(0.9 0 0 1 46.1536 292.405)" font-family="'MyriadPro-Regular'" font-size="15">-9</text>
			<text transform="matrix(0.9 0 0 1 72.8201 292.405)" font-family="'MyriadPro-Regular'" font-size="15">-8</text>
			<text transform="matrix(0.9 0 0 1 96.8201 292.405)" font-family="'MyriadPro-Regular'" font-size="15">-7</text>
			<text transform="matrix(0.9 0 0 1 123.4866 292.405)" font-family="'MyriadPro-Regular'" font-size="15">-6</text>
			<text transform="matrix(0.9 0 0 1 148.4866 292.405)" font-family="'MyriadPro-Regular'" font-size="15">-5</text>
			<text transform="matrix(0.9 0 0 1 174.1536 292.405)" font-family="'MyriadPro-Regular'" font-size="15">-4</text>
			<text transform="matrix(0.9 0 0 1 199.1536 292.405)" font-family="'MyriadPro-Regular'" font-size="15">-3</text>
			<text transform="matrix(0.9 0 0 1 224.8201 292.405)" font-family="'MyriadPro-Regular'" font-size="15">-2</text>
			<text transform="matrix(0.9 0 0 1 250.8201 292.405)" font-family="'MyriadPro-Regular'" font-size="15">-1</text>
		</g>
		<text transform="matrix(1 0 0 1 7.5442 283.3425)" font-family="'MyriadPro-Semibold'" font-size="15">X’</text>
		<text transform="matrix(1 0 0 1 541.5442 283.3425)" font-family="'MyriadPro-Semibold'" font-size="15">X</text>
	</g>
	<g>
		<g>
			<g>
				
					<line fill="none" stroke="#231F20" stroke-width="2" stroke-miterlimit="10" x1="281.304" y1="35.611" x2="281.304" y2="520.18"/>
				<g>
					<polygon fill="#231F20" points="281.304,24.314 274.799,40.233 281.304,36.456 287.806,40.233 					"/>
				</g>
				<g>
					<polygon fill="#231F20" points="281.304,531.477 274.799,515.559 281.304,519.338 287.806,515.559 					"/>
				</g>
			</g>
		</g>
		<g>
			<text transform="matrix(0.9 0 0 1 258.4128 28.2273)" font-family="'MyriadPro-Regular'" font-size="15">10</text>
			<text transform="matrix(0.9 0 0 1 265.3381 52.282)" font-family="'MyriadPro-Regular'" font-size="15">9</text>
			<text transform="matrix(0.9 0 0 1 265.3381 78.7507)" font-family="'MyriadPro-Regular'" font-size="15">8</text>
			<text transform="matrix(0.9 0 0 1 265.3381 103.8035)" font-family="'MyriadPro-Regular'" font-size="15">7</text>
			<text transform="matrix(0.9 0 0 1 265.3381 127.9802)" font-family="'MyriadPro-Regular'" font-size="15">6</text>
			<text transform="matrix(0.9 0 0 1 265.3381 155.0339)" font-family="'MyriadPro-Regular'" font-size="15">5</text>
			<text transform="matrix(0.9 0 0 1 265.3381 181.5027)" font-family="'MyriadPro-Regular'" font-size="15">4</text>
			<text transform="matrix(0.9 0 0 1 265.3381 206.5564)" font-family="'MyriadPro-Regular'" font-size="15">3</text>
			<text transform="matrix(0.9 0 0 1 265.3381 232.4402)" font-family="'MyriadPro-Regular'" font-size="15">2</text>
			<text transform="matrix(0.9 0 0 1 265.3381 257.4939)" font-family="'MyriadPro-Regular'" font-size="15">1</text>
		</g>
		<g>
			<text transform="matrix(0.9 0 0 1 263.1936 307.3835)" font-family="'MyriadPro-Regular'" font-size="15">-1</text>
			<text transform="matrix(0.9 0 0 1 263.1936 331.4363)" font-family="'MyriadPro-Regular'" font-size="15">-2</text>
			<text transform="matrix(0.9 0 0 1 263.1936 357.905)" font-family="'MyriadPro-Regular'" font-size="15">-3</text>
			<text transform="matrix(0.9 0 0 1 263.1936 382.9597)" font-family="'MyriadPro-Regular'" font-size="15">-4</text>
			<text transform="matrix(0.9 0 0 1 263.1936 407.1355)" font-family="'MyriadPro-Regular'" font-size="15">-5</text>
			<text transform="matrix(0.9 0 0 1 263.1936 434.1902)" font-family="'MyriadPro-Regular'" font-size="15">-6</text>
			<text transform="matrix(0.9 0 0 1 263.1936 460.6589)" font-family="'MyriadPro-Regular'" font-size="15">-7</text>
			<text transform="matrix(0.9 0 0 1 263.1936 485.7117)" font-family="'MyriadPro-Regular'" font-size="15">-8</text>
			<text transform="matrix(0.9 0 0 1 263.1936 511.5964)" font-family="'MyriadPro-Regular'" font-size="15">-9</text>
			<text transform="matrix(0.9 0 0 1 256.2683 536.6482)" font-family="'MyriadPro-Regular'" font-size="15">-10</text>
		</g>
		<text transform="matrix(1 0 0 1 276.8772 546.0085)" font-family="'MyriadPro-Semibold'" font-size="15">Y’</text>
		<text transform="matrix(1 0 0 1 276.8772 19.3416)" font-family="'MyriadPro-Semibold'" font-size="15">Y</text>
	</g>
</g>
<g>
	<text class="corrtxt-x1" transform="matrix(1 0 0 1 95.301 417.9246)" font-family="'MyriadPro-Regular'" font-size="12">A’ (-6, -5)</text>
	<text class="corrtxt-x2" transform="matrix(1 0 0 1 223.801 421.4246)" font-family="'MyriadPro-Regular'" font-size="12">D’ (-1, -5)</text>
	<text class="corrtxt-x3" transform="matrix(1 0 0 1 168.801 320.4246)" font-family="'MyriadPro-Regular'" font-size="12">C’ (-3, 2)</text>
	<text class="corrtxt-x4" transform="matrix(1 0 0 1 43.301 323.4246)" font-family="'MyriadPro-Regular'" font-size="12">B’ (-8, -2)</text>
</g>
<g>
	<text transform="matrix(1 0 0 1 36.301 229.4236)" font-family="'MyriadPro-Regular'" font-size="12">B (-8, 2)</text>
	<text transform="matrix(1 0 0 1 208.3137 241.0632)" font-family="'MyriadPro-Regular'" font-size="12">C (-3, 2)</text>
	<text transform="matrix(1 0 0 1 224.4797 140.8308)" font-family="'MyriadPro-Regular'" font-size="12">D (-1, 5)</text>
	<text transform="matrix(1 0 0 1 82.5608 153.1179)" font-family="'MyriadPro-Regular'" font-size="12">A (-6, 5)</text>
</g>
<g>
	<text class="corrtxt-y1" transform="matrix(1 0 0 1 440.9426 146.5212)" font-family="'MyriadPro-Regular'" font-size="12">A’ (6, 5)</text>
	<text class="corrtxt-y2" transform="matrix(1 0 0 1 290.0325 142.8923)" font-family="'MyriadPro-Regular'" font-size="12">D’ (1, 5)</text>
	<text class="corrtxt-y3" transform="matrix(1 0 0 1 329.8137 239.5632)" font-family="'MyriadPro-Regular'" font-size="12">C’ (3, 2)</text>
	<text class="corrtxt-y4" transform="matrix(1 0 0 1 487.8 240.9236)" font-family="'MyriadPro-Regular'" font-size="12">B’(8, 2)</text>
</g>

<!--para1-->
<polygon fill="none" stroke="#005CA9" stroke-width="2" stroke-miterlimit="10" points="128.382,150.238 77.687,226.838 
	204.787,226.838 255.873,150.238 "/>

<!--para2-->
<polygon class="correctpara2" fill="none" stroke="#005CA9" stroke-width="2" stroke-miterlimit="10" points="434.996,149.877 485.693,226.838 
	358.594,226.838 307.508,150.238 "/>
	
<!--para3-->
<polygon class="correctpara" fill="none" stroke="#005CA9" stroke-width="2" stroke-miterlimit="10" points="205.178,328.238 255.873,404.84 
	128.773,404.84 77.687,328.238 "/>

<!--points3 correctpoints-->
<circle class="check" id="correct10" fill="#FF0000" cx="128.773" cy="404.838" r="4.527"/>
<circle class="check" id="correct1" fill="#FF0000" cx="128.773" cy="404.838" r="10"/>
<circle class="check" id="correct20" fill="#FF0000" cx="255.873" cy="404.838" r="4.527"/>
<circle class="check" id="correct2" fill="#FF0000" cx="255.873" cy="404.838" r="10"/>
<circle class="check" id="correct30" fill="#FF0000" cx="204.787" cy="327.238" r="4.527"/>
<circle class="check" id="correct3" fill="#FF0000" cx="204.787" cy="327.238" r="10"/>
<circle class="check" id="correct40" fill="#FF0000" cx="77.687" cy="328.238" r="4.527"/>
<circle class="check" id="correct4" fill="#FF0000" cx="77.687" cy="328.238" r="10"/>

<!--points1-->
<g>
	<circle class="que1" fill="#FF0000" cx="128.773" cy="149.238" r="4.527"/>
	<circle class="que2" fill="#FF0000" cx="255.873" cy="150.238" r="4.527"/>
	<circle class="que3" fill="#FF0000" cx="204.787" cy="226.838" r="4.527"/>
	<circle class="que4" fill="#FF0000" cx="77.687" cy="226.838" r="4.527"/>
	
</g>

<!--points2-->
<circle class="check" id="correct50" fill="#FF0000" cx="434.606" cy="149.238" r="4.527"/>
<circle class="check" id="correct5" fill="#FF0000" cx="434.606" cy="149.238" r="10"/>
<circle class="check" id="correct60" fill="#FF0000" cx="307.508" cy="150.238" r="4.527"/>
<circle class="check" id="correct6" fill="#FF0000" cx="307.508" cy="150.238" r="10"/>
<circle class="check" id="correct70" fill="#FF0000" cx="358.594" cy="226.838" r="4.527"/>
<circle class="check" id="correct7" fill="#FF0000" cx="358.594" cy="226.838" r="10"/>
<circle class="check" id="correct80" fill="#FF0000" cx="485.692" cy="226.838" r="4.527"/>
<circle class="check" id="correct8" fill="#FF0000" cx="485.692" cy="226.838" r="10"/>

<!--dotted -->

<g class="dottedlinex">
	<line fill="#FFFFFF" x1="77.882" y1="228.872" x2="77.882" y2="327.238"/>
	<g>
		
			<line fill="none" stroke="#000000" stroke-width="1.5" stroke-miterlimit="10" x1="77.882" y1="228.872" x2="77.882" y2="229.872"/>
		
			<line fill="none" stroke="#000000" stroke-width="1.5" stroke-miterlimit="10" stroke-dasharray="1.9667,1.9667" x1="77.882" y1="231.839" x2="77.882" y2="325.255"/>
		
			<line fill="none" stroke="#000000" stroke-width="1.5" stroke-miterlimit="10" x1="77.882" y1="326.238" x2="77.882" y2="327.238"/>
	</g>
</g>

<g class="dottedlinex">
	<line fill="#FFFFFF" x1="128.773" y1="404.84" x2="128.773" y2="153.765"/>
	<g>
		
			<line fill="none" stroke="#000000" stroke-width="1.5" stroke-miterlimit="10" x1="128.773" y1="404.84" x2="128.773" y2="403.84"/>
		
			<line fill="none" stroke="#000000" stroke-width="1.5" stroke-miterlimit="10" stroke-dasharray="1.9926,1.9926" x1="128.773" y1="401.847" x2="128.773" y2="155.761"/>
		
			<line fill="none" stroke="#000000" stroke-width="1.5" stroke-miterlimit="10" x1="128.773" y1="154.765" x2="128.773" y2="153.765"/>
	</g>
</g>
<g class="dottedlinex">
	<line fill="#FFFFFF" x1="204.787" y1="231.365" x2="204.787" y2="317.238"/>
	<g>
		
			<line fill="none" stroke="#000000" stroke-width="1.5" stroke-miterlimit="10" x1="204.787" y1="231.365" x2="204.787" y2="232.365"/>
		
			<line fill="none" stroke="#000000" stroke-width="1.5" stroke-miterlimit="10" stroke-dasharray="2.0457,2.0457" x1="204.787" y1="234.411" x2="204.787" y2="315.216"/>
		
			<line fill="none" stroke="#000000" stroke-width="1.5" stroke-miterlimit="10" x1="204.787" y1="316.238" x2="204.787" y2="317.238"/>
	</g>
</g>
<g class="dottedlinex">
	<line fill="#FFFFFF" x1="255.873" y1="394.838" x2="255.873" y2="154.765"/>
	<g>
		
			<line fill="none" stroke="#000000" stroke-width="1.5" stroke-miterlimit="10" x1="255.873" y1="394.838" x2="255.873" y2="393.838"/>
		
			<line fill="none" stroke="#000000" stroke-width="1.5" stroke-miterlimit="10" stroke-dasharray="2.0006,2.0006" x1="255.873" y1="391.837" x2="255.873" y2="156.766"/>
		
			<line fill="none" stroke="#000000" stroke-width="1.5" stroke-miterlimit="10" x1="255.873" y1="155.765" x2="255.873" y2="154.765"/>
	</g>
</g>


<line class="dottedliney" fill="#FFFFFF" stroke="#000000" stroke-width="1.5" stroke-miterlimit="10" stroke-dasharray="2,2" x1="133.3" y1="150.238" x2="434.996" y2="150.238"/>
<line class="dottedliney" fill="#FFFFFF" stroke="#000000" stroke-width="1.5" stroke-miterlimit="10" stroke-dasharray="2,2" x1="259.951" y1="150.238" x2="307.511" y2="150.238"/>
<line class="dottedliney" fill="#FFFFFF" stroke="#000000" stroke-width="1.5" stroke-miterlimit="10" stroke-dasharray="2,2" x1="209.314" y1="226.838" x2="357.716" y2="226.838"/>
<line class="dottedliney" fill="#FFFFFF" stroke="#000000" stroke-width="1.5" stroke-miterlimit="10" stroke-dasharray="2,2" x1="81.586" y1="226.838" x2="484.968" y2="226.838"/>

</svg>
