<?xml version="1.0" encoding="utf-8"?>
<!-- Generator: Adobe Illustrator 15.0.0, SVG Export Plug-In . SVG Version: 6.00 Build 0)  -->
<!DOCTYPE svg PUBLIC "-//W3C//DTD SVG 1.1//EN" "http://www.w3.org/Graphics/SVG/1.1/DTD/svg11.dtd">
<svg version="1.1" id="Layer_1" xmlns="http://www.w3.org/2000/svg" xmlns:xlink="http://www.w3.org/1999/xlink" x="0px" y="0px"
	 width="290.746px" height="290.745px" viewBox="304.791 2.542 290.746 290.745"
	 enable-background="new 304.791 2.542 290.746 290.745" xml:space="preserve">
<g>
	<g>
		<circle fill="#FFFDE9" stroke="#F58220" stroke-width="1.5922" stroke-miterlimit="10" cx="449.97" cy="147.915" r="55.567"/>
	</g>
	<path fill="none" stroke="#0095DA" stroke-width="2.2175" stroke-miterlimit="10" d="M449.97,270.708
		c-67.816,0-122.792-54.977-122.792-122.793S382.154,25.121,449.97,25.121c67.817,0,122.793,54.978,122.793,122.794
		S517.788,270.708,449.97,270.708z"/>
	<path fill="none" stroke="#0095DA" stroke-width="2.2175" stroke-miterlimit="10" d="M449.971,244.041
		c-53.09,0-96.125-43.035-96.125-96.125c0-53.09,43.035-96.125,96.125-96.125c53.089,0,96.125,43.035,96.125,96.125
		C546.096,201.005,503.06,244.041,449.971,244.041z"/>
	<g>
		<circle fill="#F8878B" stroke="#AF2E38" stroke-width="0.7268" stroke-miterlimit="10" cx="572.902" cy="144.907" r="10.675"/>
	</g>
	<g>
		<circle fill="#F8878B" stroke="#AF2E38" stroke-width="0.7268" stroke-miterlimit="10" cx="451.866" cy="51.942" r="10.675"/>
	</g>
	<g>
		<circle fill="#F8878B" stroke="#AF2E38" stroke-width="0.7268" stroke-miterlimit="10" cx="451.866" cy="243.988" r="10.675"/>
	</g>
	<g>
		<circle fill="#F8878B" stroke="#AF2E38" stroke-width="0.7268" stroke-miterlimit="10" cx="327.423" cy="144.907" r="10.675"/>
	</g>
</g>
<text transform="matrix(1 0 0 1 428.3677 163.5054)" fill="#008C44" font-family="'MyriadPro-Regular'" font-size="46">Be</text>
</svg>
