<?xml version="1.0" encoding="utf-8"?>
<!-- Generator: Adobe Illustrator 15.0.0, SVG Export Plug-In . SVG Version: 6.00 Build 0)  -->
<!DOCTYPE svg PUBLIC "-//W3C//DTD SVG 1.1//EN" "http://www.w3.org/Graphics/SVG/1.1/DTD/svg11.dtd">
<svg version="1.1" id="Layer_1" xmlns="http://www.w3.org/2000/svg" xmlns:xlink="http://www.w3.org/1999/xlink" x="0px" y="0px"
	 width="290.746px" height="290.746px" viewBox="0 0 290.746 290.746" enable-background="new 0 0 290.746 290.746"
	 xml:space="preserve">
<g>
	<g>
		<circle fill="#FFFDE9" stroke="#F58220" stroke-width="1.9773" stroke-miterlimit="10" cx="148.081" cy="149.549" r="57.593"/>
	</g>
	<path fill="none" stroke="#0095DA" stroke-width="2.3539" stroke-miterlimit="10" d="M148.081,276.819
		c-70.289,0-127.269-56.98-127.269-127.27S77.792,22.28,148.081,22.28c70.289,0,127.27,56.98,127.27,127.27
		S218.37,276.819,148.081,276.819z"/>
	<path fill="none" stroke="#0095DA" stroke-width="2.3539" stroke-miterlimit="10" d="M148.082,249.18
		c-55.024,0-99.63-44.605-99.63-99.63s44.605-99.63,99.63-99.63c55.023,0,99.63,44.605,99.63,99.63S203.105,249.18,148.082,249.18z"
		/>
	<g>
		<circle fill="#F8878B" stroke="#AF2E38" stroke-width="0.7533" stroke-miterlimit="10" cx="19.738" cy="149.281" r="10.71"/>
	</g>
	<g>
		<circle fill="#F8878B" stroke="#AF2E38" stroke-width="0.7533" stroke-miterlimit="10" cx="151.028" cy="50.616" r="10.71"/>
	</g>
	<g>
		<circle fill="#F8878B" stroke="#AF2E38" stroke-width="0.7533" stroke-miterlimit="10" cx="151.028" cy="249.662" r="10.71"/>
	</g>
	<g>
		<circle fill="#F8878B" stroke="#AF2E38" stroke-width="0.7533" stroke-miterlimit="10" cx="238.988" cy="240.124" r="10.71"/>
	</g>
	<g>
		<circle fill="#F8878B" stroke="#AF2E38" stroke-width="0.7533" stroke-miterlimit="10" cx="232.969" cy="57.25" r="10.709"/>
	</g>
</g>
<text transform="matrix(1 0 0 1 134.2046 161.3477)" fill="#008C44" font-family="'MyriadPro-Regular'" font-size="46">B</text>
</svg>
