<?xml version="1.0" encoding="utf-8"?>
<!-- Generator: Adobe Illustrator 15.0.0, SVG Export Plug-In . SVG Version: 6.00 Build 0)  -->
<!DOCTYPE svg PUBLIC "-//W3C//DTD SVG 1.1//EN" "http://www.w3.org/Graphics/SVG/1.1/DTD/svg11.dtd">
<svg version="1.1" id="Layer_1" xmlns="http://www.w3.org/2000/svg" xmlns:xlink="http://www.w3.org/1999/xlink" x="0px" y="0px"
	 width="296.869px" height="289.833px" viewBox="0 0 296.869 289.833" enable-background="new 0 0 296.869 289.833"
	 xml:space="preserve">
<g>
	<circle fill="none" stroke="#0095DA" stroke-width="2.2174" stroke-miterlimit="10" cx="149.902" cy="140.758" r="103.75"/>
	<circle fill="none" stroke="#0095DA" stroke-width="2.2174" stroke-miterlimit="10" cx="149.902" cy="140.757" r="81.218"/>
	<circle fill="none" stroke="#0095DA" stroke-width="2.2174" stroke-miterlimit="10" cx="149.712" cy="140.759" r="126.281"/>
	<g>
		<circle fill="#F8878B" stroke="#AF2E38" stroke-width="0.6141" stroke-miterlimit="10" cx="149.902" cy="59.711" r="8.731"/>
	</g>
	<g>
		<circle fill="#F8878B" stroke="#AF2E38" stroke-width="0.6141" stroke-miterlimit="10" cx="149.902" cy="244.476" r="8.731"/>
	</g>
	<g>
		<circle fill="#F8878B" stroke="#AF2E38" stroke-width="0.6141" stroke-miterlimit="10" cx="149.902" cy="220.789" r="8.731"/>
	</g>
	<g>
		<circle fill="#F8878B" stroke="#AF2E38" stroke-width="0.6141" stroke-miterlimit="10" cx="149.902" cy="37.015" r="8.731"/>
	</g>
	<g>
		<circle fill="#F8878B" stroke="#AF2E38" stroke-width="0.6141" stroke-miterlimit="10" cx="105.238" cy="22.596" r="8.731"/>
	</g>
	<g>
		<circle fill="#F8878B" stroke="#AF2E38" stroke-width="0.6141" stroke-miterlimit="10" cx="76.752" cy="67.612" r="8.731"/>
	</g>
	<g>
		<circle fill="#F8878B" stroke="#AF2E38" stroke-width="0.6141" stroke-miterlimit="10" cx="45.804" cy="140.41" r="8.731"/>
	</g>
	<g>
		<circle fill="#F8878B" stroke="#AF2E38" stroke-width="0.6141" stroke-miterlimit="10" cx="30.682" cy="187.535" r="8.731"/>
	</g>
	<g>
		<circle fill="#F8878B" stroke="#AF2E38" stroke-width="0.6141" stroke-miterlimit="10" cx="76.4" cy="214.263" r="8.731"/>
	</g>
	<g>
		<path fill="#F8878B" stroke="#AF2E38" stroke-width="0.6141" stroke-miterlimit="10" d="M230.024,216.606
			c0.064,4.822-3.791,8.784-8.613,8.85c-4.82,0.064-8.782-3.791-8.847-8.612c-0.067-4.822,3.789-8.784,8.61-8.85
			C225.996,207.93,229.957,211.784,230.024,216.606z"/>
	</g>
	<g>
		<circle fill="#F8878B" stroke="#AF2E38" stroke-width="0.6141" stroke-miterlimit="10" cx="188.939" cy="261.036" r="8.731"/>
	</g>
	<g>
		<path fill="#F8878B" stroke="#AF2E38" stroke-width="0.6141" stroke-miterlimit="10" d="M262.263,141.141
			c0.065,4.822-3.791,8.784-8.613,8.85c-4.82,0.064-8.782-3.789-8.847-8.612c-0.067-4.82,3.789-8.783,8.61-8.85
			C258.235,132.464,262.197,136.319,262.263,141.141z"/>
	</g>
	<g>
		<circle fill="#F8878B" stroke="#AF2E38" stroke-width="0.6141" stroke-miterlimit="10" cx="269.007" cy="96.947" r="8.73"/>
	</g>
	<g>
		<path fill="#F8878B" stroke="#AF2E38" stroke-width="0.6141" stroke-miterlimit="10" d="M232.019,66.936
			c0.064,4.822-3.791,8.784-8.613,8.851c-4.82,0.064-8.781-3.79-8.847-8.613c-0.067-4.821,3.789-8.782,8.61-8.849
			C227.991,58.259,231.953,62.113,232.019,66.936z"/>
	</g>
	<g>
		<circle fill="#FFFDE9" stroke="#F58220" stroke-width="1.5922" stroke-miterlimit="10" cx="149.713" cy="140.759" r="46.949"/>
	</g>
</g>
<text transform="matrix(1 0 0 1 132.8252 153.5654)" fill="#008C44" font-family="'MyriadPro-Regular'" font-size="46">Si</text>
</svg>
