selector,english_word,engmeaning,nepali_word,nepmeaning,image
Steaming,Steam,,बाफ,,
warm,warm,,न्‍यानो,,
transfer,transfer,,सर्नु,,
eventually,eventually,,अन्तमा,,
surrounding,surrounding,,वरिपरी,,
instead,instead,,सट‍्‍टामा,,
gained,gain,,पाउनु,,
effects,effect,,असर,,
molecules,molecule,,अणु,,
vibrate,vibrate,,थर्कनु,काँप्नु,
interspace,interspace,,,एउटा अणु देखि अर्को अणुसम्मको दूरी,
expands,expand,,,ठुलो हुनु,
exaggerated,exaggerate,,बढि,धेरै देखाउनु,
thermal,thermal,,,तापसँग सम्बन्‍धित,
phenomenon,phenomenon,,प्रक्रिया,,
lid,lid,,बिर्को,,
stuck,stick,,अड्किनु,,
sagging,sag,,,मुनितिर लच्किएको,
explore,explore,,,,
property,property,,गुण,,
contracts,contract,,खुम्चनु,,
