selector,english_word,engmeaning,nepali_word,nepmeaning,image
energy,Energy,,शक्ति,,
objects,Object,,सामान,,
visble,Visible,something that can be seen,,देख्‍न सकिने ,
emit,Emit,,निकाल्‍नु,,
detail,Detail,,,सम्पूर्ण जानकारी,
main,Main,,मुख्‍य,,
brighter,Bright,,उज्‍यालो,,
required,Require,,चाहिने,आवश्यक,
receive,Receive,,पाउनु,,
lantern,Lantern,,लालटिन,आगो वा बिजुली प्रयोग गरेर उज्‍यालो दिने स्रोत,
previous,Previous,,पहिलेको,,
capable,Capable,,सक्षम,कुनै काम गर्न सक्ने क्षमता भएको,
usually,Usually,,प्राय,,
shines,Shine,,चम्किनु,,
reflecting,Reflect,,परावर्तन,कुनै वस्तुमा (प्रकाश) ठोक्किएर फर्किनु,
Tracing paper,Tracing paper,,चित्र वा झक्षर छाप्न प्रयोग हुने अर्धपारदर्शक कागज,छाप्न प्रयोग हुने अर्धपारदर्शक कागज,
allow,Allow,,,अनुमति दिनु,
Identify,Identify,,पहिचान गर्नु,,
straight,Straight,,सिधा,,
similarly,Similarly,,त्यसैगरी,त्यस्तै,
travels,Travel,to move,चल्नु,,
Experiment,Experiment,,क्रियाकलाप,प्रयोग गर्नु,
Procedure,Procedure,,,काम गर्ने तरिका,
Lie,Lay,,रहनु,,
Conclusion,Conclusion,,निष्कर्ष,,
displace,Displace,,विस्‍थापित गर्नु,कुनै वस्तु हटाएर नयाँ वस्तु राख्‍नु,
