selector,english_word,engmeaning,nepali_word,nepmeaning,image
ऋणात्‍मक,ऋणात्‍मक,"शुन्य भन्दा सानो, सङ्‌ख्याको अगाडी घटाउ चिह्‍न हुन्छ",negative,,
धनात्‍मक,धनात्‍मक,"शुन्य भन्दा ठुलो, सङ्‌ख्याको अगाडी जोड चिह्‍न हुन्छ अथवा कुनै चिह्न हुदैन",positive,,
