selector,english_word,engmeaning,nepali_word,nepmeaning,image
हाटबजार,,,हाटबजार,खास दिन र स्थानमा लाग्ने बजार,
हस्तकला,,,हस्तकला,हातले बनाएको कलात्मक सामग्री,
ब्रोकाउली,,,ब्रोकाउली,"हरियो काउली, तरकारी",
च्याउ,,,च्याउ,चिसो ठाउँमा उम्रने सेतो वा खैरो रङमा पाइने वनस्पति,
श्रृङ्गार,,,श्रृङ्गार,सजावट,
