<?xml version="1.0" encoding="utf-8"?>
<!-- Generator: Adobe Illustrator 16.0.0, SVG Export Plug-In . SVG Version: 6.00 Build 0)  -->
<!DOCTYPE svg PUBLIC "-//W3C//DTD SVG 1.1//EN" "http://www.w3.org/Graphics/SVG/1.1/DTD/svg11.dtd">
<svg version="1.1" id="Layer_1" xmlns="http://www.w3.org/2000/svg" xmlns:xlink="http://www.w3.org/1999/xlink" x="0px" y="0px"
	 width="960px" height="580px" viewBox="0 0 960 580" enable-background="new 0 0 960 580" xml:space="preserve">
<rect id="main-bg" fill="#FFFFFF" width="960" height="580"/>
<g id="class1">
	<rect x="208.388" y="510.453" fill="#FFE599" width="129.519" height="37.363"/>
	<g>
		<path d="M251.032,539.28c-0.908,0.448-2.721,0.907-5.045,0.907c-5.383,0-9.435-3.401-9.435-9.663
			c0-5.979,4.052-10.032,9.974-10.032c2.381,0,3.88,0.511,4.533,0.852l-0.596,2.015c-0.934-0.455-2.267-0.797-3.852-0.797
			c-4.479,0-7.453,2.861-7.453,7.875c0,4.678,2.691,7.681,7.339,7.681c1.502,0,3.032-0.31,4.024-0.793L251.032,539.28z"/>
		<path d="M254.042,519.783h2.493v20.119h-2.493V519.783z"/>
		<path d="M268.328,539.902l-0.198-1.728h-0.086c-0.766,1.079-2.237,2.039-4.193,2.039c-2.776,0-4.193-1.954-4.193-3.938
			c0-3.314,2.947-5.13,8.244-5.102v-0.28c0-1.136-0.311-3.175-3.114-3.175c-1.276,0-2.607,0.396-3.572,1.02l-0.568-1.644
			c1.135-0.733,2.778-1.217,4.506-1.217c4.194,0,5.214,2.859,5.214,5.607v5.128c0,1.192,0.055,2.354,0.225,3.288L268.328,539.902
			L268.328,539.902z M267.959,532.905c-2.72-0.059-5.809,0.425-5.809,3.087c0,1.614,1.078,2.382,2.353,2.382
			c1.785,0,2.919-1.136,3.316-2.296c0.083-0.255,0.141-0.539,0.141-0.795L267.959,532.905L267.959,532.905z"/>
		<path d="M274.059,537.354c0.736,0.479,2.04,0.993,3.289,0.993c1.813,0,2.662-0.907,2.662-2.044c0-1.189-0.707-1.841-2.549-2.521
			c-2.466-0.878-3.625-2.238-3.625-3.881c0-2.211,1.782-4.023,4.731-4.023c1.385,0,2.606,0.396,3.37,0.849l-0.622,1.813
			c-0.538-0.338-1.53-0.794-2.807-0.794c-1.474,0-2.295,0.853-2.295,1.871c0,1.134,0.821,1.645,2.607,2.325
			c2.381,0.904,3.6,2.095,3.6,4.136c0,2.408-1.871,4.108-5.129,4.108c-1.502,0-2.891-0.369-3.854-0.933L274.059,537.354z"/>
		<path d="M285.286,537.354c0.735,0.479,2.039,0.993,3.287,0.993c1.814,0,2.663-0.907,2.663-2.044c0-1.189-0.708-1.841-2.549-2.521
			c-2.466-0.878-3.627-2.238-3.627-3.881c0-2.211,1.783-4.023,4.732-4.023c1.386,0,2.606,0.396,3.37,0.849l-0.624,1.813
			c-0.537-0.338-1.529-0.794-2.805-0.794c-1.474,0-2.296,0.853-2.296,1.871c0,1.134,0.822,1.645,2.607,2.325
			c2.381,0.904,3.599,2.095,3.599,4.136c0,2.408-1.871,4.108-5.13,4.108c-1.5,0-2.89-0.369-3.853-0.933L285.286,537.354z"/>
		<path d="M307.48,523.808h-0.055l-3.202,1.729l-0.483-1.898l4.024-2.152h2.124v18.417h-2.408V523.808z"/>
	</g>
</g>
<g id="class2">
	<rect x="347.514" y="510.453" fill="#F9CB9C" width="129.519" height="37.363"/>
	<g>
		<path d="M386.501,538.502c-0.908,0.452-2.722,0.908-5.044,0.908c-5.384,0-9.436-3.401-9.436-9.662
			c0-5.98,4.052-10.032,9.974-10.032c2.381,0,3.882,0.511,4.534,0.853l-0.595,2.009c-0.935-0.453-2.267-0.791-3.853-0.791
			c-4.478,0-7.452,2.86-7.452,7.877c0,4.674,2.691,7.676,7.339,7.676c1.502,0,3.031-0.311,4.023-0.793L386.501,538.502z"/>
		<path d="M389.512,519.008h2.495v20.118h-2.495V519.008z"/>
		<path d="M403.797,539.126l-0.199-1.729h-0.085c-0.765,1.079-2.236,2.04-4.192,2.04c-2.776,0-4.192-1.952-4.192-3.938
			c0-3.315,2.946-5.129,8.244-5.101v-0.282c0-1.136-0.31-3.175-3.115-3.175c-1.275,0-2.607,0.396-3.569,1.019l-0.568-1.643
			c1.133-0.735,2.775-1.219,4.506-1.219c4.193,0,5.212,2.86,5.212,5.608v5.13c0,1.189,0.058,2.354,0.228,3.288L403.797,539.126
			L403.797,539.126z M403.428,532.127c-2.721-0.059-5.809,0.426-5.809,3.087c0,1.617,1.078,2.381,2.354,2.381
			c1.785,0,2.918-1.131,3.315-2.294c0.083-0.254,0.141-0.54,0.141-0.793L403.428,532.127L403.428,532.127z"/>
		<path d="M409.528,536.575c0.736,0.48,2.042,0.992,3.288,0.992c1.813,0,2.662-0.907,2.662-2.041c0-1.19-0.707-1.842-2.549-2.522
			c-2.465-0.877-3.627-2.236-3.627-3.88c0-2.212,1.784-4.024,4.732-4.024c1.387,0,2.606,0.396,3.371,0.851l-0.623,1.813
			c-0.539-0.339-1.53-0.793-2.805-0.793c-1.476,0-2.297,0.853-2.297,1.872c0,1.131,0.821,1.643,2.608,2.323
			c2.379,0.904,3.597,2.097,3.597,4.137c0,2.409-1.868,4.109-5.129,4.109c-1.501,0-2.889-0.369-3.852-0.936L409.528,536.575z"/>
		<path d="M420.755,536.575c0.736,0.48,2.04,0.992,3.287,0.992c1.813,0,2.662-0.907,2.662-2.041c0-1.19-0.708-1.842-2.549-2.522
			c-2.466-0.877-3.625-2.236-3.625-3.88c0-2.212,1.784-4.024,4.73-4.024c1.39,0,2.606,0.396,3.373,0.851l-0.624,1.813
			c-0.539-0.339-1.529-0.793-2.805-0.793c-1.475,0-2.296,0.853-2.296,1.872c0,1.131,0.821,1.643,2.607,2.323
			c2.38,0.904,3.599,2.097,3.599,4.137c0,2.409-1.871,4.109-5.129,4.109c-1.5,0-2.891-0.369-3.854-0.936L420.755,536.575z"/>
		<path d="M437.537,539.126v-1.531l1.955-1.896c4.705-4.479,6.83-6.857,6.856-9.637c0-1.869-0.905-3.598-3.653-3.598
			c-1.672,0-3.061,0.85-3.91,1.559l-0.794-1.756c1.275-1.078,3.089-1.869,5.214-1.869c3.968,0,5.639,2.719,5.639,5.354
			c0,3.399-2.465,6.146-6.348,9.887l-1.473,1.362v0.056h8.272v2.069H437.537z"/>
	</g>
</g>
<g id="class3">
	<rect x="488.486" y="510.453" fill="#EA9999" width="129.52" height="37.363"/>
	<g>
		<path d="M528.188,539.333c-0.907,0.454-2.721,0.908-5.045,0.908c-5.383,0-9.436-3.399-9.436-9.661
			c0-5.98,4.053-10.033,9.973-10.033c2.384,0,3.884,0.509,4.533,0.852l-0.594,2.012c-0.936-0.452-2.268-0.792-3.854-0.792
			c-4.477,0-7.452,2.857-7.452,7.875c0,4.673,2.692,7.678,7.34,7.678c1.502,0,3.031-0.312,4.022-0.793L528.188,539.333z"/>
		<path d="M531.197,519.838h2.496v20.119h-2.496V519.838z"/>
		<path d="M545.484,539.957l-0.201-1.727h-0.084c-0.764,1.072-2.238,2.038-4.193,2.038c-2.774,0-4.192-1.958-4.192-3.938
			c0-3.315,2.946-5.128,8.243-5.103v-0.28c0-1.133-0.311-3.176-3.112-3.176c-1.277,0-2.609,0.396-3.572,1.021l-0.566-1.644
			c1.136-0.739,2.775-1.218,4.507-1.218c4.192,0,5.213,2.86,5.213,5.607v5.13c0,1.188,0.057,2.354,0.227,3.286h-2.268V539.957z
			 M545.115,532.961c-2.719-0.063-5.81,0.425-5.81,3.088c0,1.613,1.076,2.379,2.353,2.379c1.785,0,2.918-1.135,3.313-2.298
			c0.084-0.253,0.144-0.534,0.144-0.793V532.961z"/>
		<path d="M551.215,537.409c0.736,0.479,2.041,0.991,3.287,0.991c1.814,0,2.66-0.91,2.66-2.042c0-1.193-0.707-1.844-2.547-2.521
			c-2.465-0.877-3.627-2.238-3.627-3.88c0-2.212,1.785-4.024,4.731-4.024c1.388,0,2.605,0.396,3.369,0.851l-0.623,1.812
			c-0.537-0.342-1.528-0.794-2.805-0.794c-1.471,0-2.295,0.85-2.295,1.871c0,1.133,0.824,1.643,2.606,2.326
			c2.381,0.9,3.599,2.094,3.599,4.132c0,2.409-1.869,4.111-5.129,4.111c-1.5,0-2.892-0.367-3.854-0.938L551.215,537.409z"/>
		<path d="M562.439,537.409c0.737,0.479,2.041,0.991,3.289,0.991c1.813,0,2.661-0.91,2.661-2.042c0-1.193-0.709-1.844-2.549-2.521
			c-2.467-0.877-3.627-2.238-3.627-3.88c0-2.212,1.785-4.024,4.732-4.024c1.387,0,2.604,0.396,3.371,0.851l-0.625,1.812
			c-0.537-0.342-1.529-0.794-2.806-0.794c-1.473,0-2.295,0.85-2.295,1.871c0,1.133,0.822,1.643,2.607,2.326
			c2.379,0.9,3.598,2.094,3.598,4.132c0,2.409-1.869,4.111-5.129,4.111c-1.5,0-2.889-0.367-3.854-0.938L562.439,537.409z"/>
		<path d="M579.818,537.095c0.709,0.453,2.352,1.164,4.08,1.164c3.202,0,4.192-2.042,4.166-3.572
			c-0.029-2.578-2.354-3.682-4.761-3.682h-1.389v-1.869h1.389c1.814,0,4.107-0.938,4.107-3.12c0-1.472-0.935-2.778-3.229-2.778
			c-1.477,0-2.891,0.656-3.684,1.22l-0.65-1.813c0.961-0.706,2.83-1.417,4.814-1.417c3.627,0,5.271,2.152,5.271,4.395
			c0,1.898-1.135,3.515-3.401,4.337v0.054c2.268,0.453,4.108,2.154,4.108,4.73c0,2.947-2.297,5.526-6.713,5.526
			c-2.069,0-3.883-0.649-4.791-1.246L579.818,537.095z"/>
	</g>
</g>
<g id="class4">
	<rect x="625.811" y="510.453" fill="#B4A7D6" width="129.521" height="37.363"/>
	<g>
		<path d="M665.361,539.672c-0.906,0.453-2.722,0.905-5.045,0.905c-5.384,0-9.437-3.398-9.437-9.661
			c0-5.977,4.053-10.03,9.976-10.03c2.379,0,3.881,0.509,4.53,0.853l-0.594,2.01c-0.934-0.454-2.264-0.794-3.852-0.794
			c-4.478,0-7.453,2.861-7.453,7.877c0,4.675,2.69,7.68,7.338,7.68c1.506,0,3.033-0.313,4.024-0.794L665.361,539.672z"/>
		<path d="M668.375,520.176h2.492v20.12h-2.492V520.176z"/>
		<path d="M682.658,540.296l-0.199-1.729h-0.086c-0.762,1.075-2.238,2.04-4.193,2.04c-2.774,0-4.192-1.956-4.192-3.938
			c0-3.315,2.948-5.128,8.248-5.102v-0.282c0-1.133-0.312-3.176-3.117-3.176c-1.275,0-2.607,0.397-3.572,1.021l-0.565-1.642
			c1.135-0.735,2.776-1.219,4.504-1.219c4.192,0,5.215,2.859,5.215,5.609v5.127c0,1.19,0.059,2.354,0.227,3.289L682.658,540.296
			L682.658,540.296z M682.287,533.298c-2.719-0.058-5.805,0.424-5.805,3.087c0,1.617,1.073,2.379,2.348,2.379
			c1.785,0,2.922-1.132,3.318-2.295c0.086-0.253,0.139-0.536,0.139-0.792V533.298z"/>
		<path d="M688.389,537.745c0.736,0.479,2.039,0.992,3.287,0.992c1.816,0,2.664-0.907,2.664-2.04c0-1.192-0.709-1.844-2.551-2.524
			c-2.467-0.875-3.625-2.233-3.625-3.88c0-2.212,1.785-4.021,4.729-4.021c1.388,0,2.607,0.396,3.371,0.847l-0.625,1.814
			c-0.535-0.341-1.526-0.793-2.803-0.793c-1.475,0-2.295,0.85-2.295,1.869c0,1.133,0.82,1.645,2.604,2.324
			c2.382,0.907,3.601,2.097,3.601,4.136c0,2.409-1.869,4.108-5.131,4.108c-1.498,0-2.888-0.368-3.853-0.935L688.389,537.745z"/>
		<path d="M699.615,537.745c0.735,0.479,2.039,0.992,3.287,0.992c1.813,0,2.662-0.907,2.662-2.04c0-1.192-0.707-1.844-2.55-2.524
			c-2.465-0.875-3.627-2.233-3.627-3.88c0-2.212,1.787-4.021,4.732-4.021c1.389,0,2.606,0.396,3.371,0.847l-0.625,1.814
			c-0.535-0.341-1.527-0.793-2.804-0.793c-1.473,0-2.295,0.85-2.295,1.869c0,1.133,0.822,1.645,2.605,2.324
			c2.383,0.907,3.6,2.097,3.6,4.136c0,2.409-1.871,4.108-5.131,4.108c-1.5,0-2.889-0.368-3.852-0.935L699.615,537.745z"/>
		<path d="M724.105,540.296v-5.017h-8.558v-1.644l8.215-11.76h2.693v11.447h2.58v1.955h-2.58v5.017L724.105,540.296L724.105,540.296
			z M724.105,533.324v-6.149c0-0.964,0.026-1.925,0.084-2.889h-0.084c-0.564,1.078-1.019,1.872-1.529,2.722l-4.506,6.26v0.058
			L724.105,533.324L724.105,533.324z"/>
	</g>
</g>
<g id="class5">
	<rect x="766.91" y="509.725" fill="#A4C2F4" width="129.518" height="37.361"/>
	<g>
		<path d="M810.43,537.605c-0.908,0.45-2.721,0.905-5.045,0.905c-5.387,0-9.438-3.398-9.438-9.662
			c0-5.979,4.051-10.031,9.975-10.031c2.383,0,3.883,0.51,4.535,0.854l-0.598,2.012c-0.935-0.454-2.265-0.796-3.853-0.796
			c-4.477,0-7.451,2.86-7.451,7.877c0,4.676,2.693,7.678,7.338,7.678c1.503,0,3.031-0.312,4.023-0.794L810.43,537.605z"/>
		<path d="M813.441,518.11h2.491v20.117h-2.491V518.11z"/>
		<path d="M827.725,538.229l-0.196-1.729h-0.089c-0.766,1.079-2.235,2.04-4.19,2.04c-2.777,0-4.195-1.955-4.195-3.938
			c0-3.316,2.949-5.133,8.246-5.104v-0.28c0-1.138-0.311-3.176-3.115-3.176c-1.274,0-2.606,0.398-3.571,1.02l-0.566-1.641
			c1.135-0.738,2.775-1.219,4.506-1.219c4.193,0,5.213,2.858,5.213,5.606v5.13c0,1.189,0.06,2.354,0.229,3.288L827.725,538.229
			L827.725,538.229z M827.355,531.229c-2.722-0.057-5.808,0.426-5.808,3.089c0,1.615,1.074,2.382,2.349,2.382
			c1.788,0,2.922-1.132,3.317-2.295c0.084-0.253,0.142-0.539,0.142-0.793V531.229z"/>
		<path d="M833.457,535.677c0.736,0.481,2.041,0.994,3.287,0.994c1.811,0,2.662-0.907,2.662-2.043c0-1.188-0.707-1.84-2.552-2.521
			c-2.465-0.88-3.627-2.239-3.627-3.882c0-2.211,1.785-4.022,4.732-4.022c1.389,0,2.609,0.396,3.371,0.849l-0.623,1.813
			c-0.537-0.337-1.529-0.794-2.805-0.794c-1.474,0-2.294,0.853-2.294,1.873c0,1.132,0.82,1.643,2.604,2.323
			c2.383,0.904,3.6,2.097,3.6,4.137c0,2.407-1.868,4.107-5.129,4.107c-1.504,0-2.889-0.368-3.852-0.934L833.457,535.677z"/>
		<path d="M844.684,535.677c0.732,0.481,2.037,0.994,3.287,0.994c1.812,0,2.662-0.907,2.662-2.043c0-1.188-0.707-1.84-2.551-2.521
			c-2.465-0.88-3.627-2.239-3.627-3.882c0-2.211,1.787-4.022,4.734-4.022c1.389,0,2.606,0.396,3.368,0.849l-0.625,1.813
			c-0.534-0.337-1.526-0.794-2.803-0.794c-1.473,0-2.293,0.853-2.293,1.873c0,1.132,0.82,1.643,2.603,2.323
			c2.385,0.904,3.602,2.097,3.602,4.137c0,2.407-1.869,4.107-5.127,4.107c-1.506,0-2.891-0.368-3.854-0.934L844.684,535.677z"/>
		<path d="M872.461,521.906h-7.027l-0.707,4.732c0.423-0.058,0.818-0.111,1.5-0.111c1.419,0,2.834,0.31,3.968,0.99
			c1.444,0.819,2.635,2.409,2.635,4.732c0,3.598-2.861,6.288-6.855,6.288c-2.014,0-3.711-0.567-4.59-1.134l0.621-1.898
			c0.769,0.456,2.267,1.021,3.939,1.021c2.35,0,4.362-1.531,4.362-3.999c-0.028-2.376-1.619-4.075-5.299-4.075
			c-1.049,0-1.871,0.109-2.551,0.195l1.189-8.842h8.813L872.461,521.906L872.461,521.906z"/>
	</g>
</g>
<line fill="none" stroke="#000000" stroke-miterlimit="10" x1="169" y1="401.5" x2="879" y2="401.5"/>
<line fill="none" stroke="#000000" stroke-miterlimit="10" x1="169" y1="326.5" x2="879" y2="326.5"/>
<line fill="none" stroke="#000000" stroke-miterlimit="10" x1="169" y1="475.5" x2="879" y2="475.5"/>
<line fill="none" stroke="#000000" stroke-miterlimit="10" x1="169" y1="250.5" x2="879" y2="250.5"/>
<line fill="none" stroke="#000000" stroke-miterlimit="10" x1="169" y1="175.5" x2="879" y2="175.5"/>
<line fill="none" stroke="#000000" stroke-miterlimit="10" x1="169" y1="99.5" x2="879" y2="99.5"/>
<g id="num1">
	<rect x="110" y="434" fill="#CCCCCC" width="45" height="39"/>
	<g>
		<path d="M137.651,453.435c0,6.41-2.378,9.949-6.556,9.949c-3.684,0-6.18-3.452-6.238-9.689c0-6.323,2.728-9.806,6.557-9.806
			C135.388,443.889,137.651,447.427,137.651,453.435z M127.411,453.722c0,4.903,1.509,7.688,3.829,7.688
			c2.611,0,3.858-3.047,3.858-7.861c0-4.641-1.188-7.688-3.829-7.688C129.035,445.86,127.411,448.588,127.411,453.722z"/>
	</g>
</g>
<g id="num2">
	<rect x="110" y="361" fill="#CCCCCC" width="45" height="39"/>
	<g>
		<path d="M137.204,373.118h-7.195l-0.726,4.847c0.435-0.06,0.841-0.118,1.539-0.118c1.45,0,2.901,0.322,4.061,1.016
			c1.479,0.841,2.699,2.469,2.699,4.847c0,3.686-2.931,6.441-7.021,6.441c-2.061,0-3.801-0.581-4.7-1.163l0.638-1.941
			c0.783,0.463,2.321,1.045,4.032,1.045c2.409,0,4.468-1.567,4.468-4.093c-0.03-2.437-1.653-4.175-5.424-4.175
			c-1.074,0-1.916,0.112-2.612,0.202l1.219-9.053h9.023L137.204,373.118L137.204,373.118z"/>
	</g>
</g>
<g id="num3">
	<rect x="110" y="288" fill="#CCCCCC" width="45" height="39"/>
	<g>
		<path d="M122.228,300.404h-0.057l-3.279,1.771l-0.493-1.941l4.12-2.205h2.176v18.854h-2.466L122.228,300.404L122.228,300.404z"/>
		<path d="M144.11,307.251c0,6.413-2.378,9.953-6.557,9.953c-3.683,0-6.18-3.455-6.237-9.689c0-6.326,2.727-9.809,6.556-9.809
			C141.846,297.706,144.11,301.246,144.11,307.251z M133.87,307.542c0,4.904,1.508,7.688,3.829,7.688
			c2.611,0,3.859-3.048,3.859-7.862c0-4.64-1.189-7.688-3.83-7.688C135.492,299.68,133.87,302.407,133.87,307.542z"/>
	</g>
</g>
<g id="num4">
	<rect x="110" y="211" fill="#CCCCCC" width="45" height="39"/>
	<g>
		<path d="M122.678,223.055h-0.059l-3.279,1.771l-0.492-1.944l4.119-2.205h2.177v18.857h-2.466V223.055z"/>
		<path d="M143.282,222.822h-7.195l-0.726,4.846c0.435-0.059,0.841-0.115,1.538-0.115c1.451,0,2.901,0.318,4.062,1.014
			c1.479,0.842,2.697,2.466,2.697,4.845c0,3.687-2.929,6.44-7.021,6.44c-2.06,0-3.801-0.58-4.7-1.159l0.639-1.944
			c0.783,0.464,2.321,1.044,4.031,1.044c2.409,0,4.469-1.565,4.469-4.09c-0.03-2.437-1.654-4.177-5.425-4.177
			c-1.074,0-1.916,0.115-2.611,0.202l1.218-9.052h9.022v2.146H143.282z"/>
	</g>
</g>
<g id="num5">
	<rect x="110" y="138" fill="#CCCCCC" width="45" height="39"/>
	<g>
		<path d="M118.543,166.846v-1.566l2.001-1.944c4.817-4.584,6.993-7.021,7.021-9.862c0-1.916-0.929-3.686-3.742-3.686
			c-1.712,0-3.133,0.869-4.004,1.596l-0.813-1.799c1.306-1.103,3.163-1.916,5.338-1.916c4.063,0,5.773,2.787,5.773,5.483
			c0,3.481-2.523,6.296-6.499,10.126l-1.508,1.393v0.059h8.472v2.117L118.543,166.846L118.543,166.846z"/>
		<path d="M145.965,157.214c0,6.412-2.377,9.95-6.556,9.95c-3.684,0-6.18-3.452-6.238-9.689c0-6.324,2.727-9.807,6.556-9.807
			C143.702,147.668,145.965,151.209,145.965,157.214z M135.726,157.504c0,4.902,1.508,7.688,3.829,7.688
			c2.611,0,3.858-3.046,3.858-7.86c0-4.642-1.189-7.688-3.828-7.688C137.35,149.643,135.726,152.369,135.726,157.504z"/>
	</g>
</g>
<g id="num6">
	<rect x="110" y="61" fill="#CCCCCC" width="45" height="39"/>
	<g>
		<path d="M118.992,89.785v-1.567l2.002-1.943c4.816-4.583,6.992-7.021,7.02-9.864c0-1.914-0.929-3.684-3.742-3.684
			c-1.713,0-3.133,0.87-4.003,1.596l-0.813-1.799c1.306-1.103,3.162-1.915,5.338-1.915c4.063,0,5.773,2.785,5.773,5.483
			c0,3.481-2.523,6.295-6.498,10.124l-1.51,1.394v0.057h8.472v2.119L118.992,89.785L118.992,89.785z"/>
		<path d="M145.139,73.074h-7.195l-0.725,4.846c0.434-0.061,0.84-0.117,1.537-0.117c1.451,0,2.901,0.32,4.063,1.017
			c1.479,0.841,2.697,2.466,2.697,4.845c0,3.684-2.931,6.44-7.021,6.44c-2.06,0-3.801-0.582-4.7-1.16L134.433,87
			c0.783,0.463,2.322,1.045,4.033,1.045c2.409,0,4.468-1.567,4.468-4.092c-0.029-2.437-1.653-4.178-5.425-4.178
			c-1.073,0-1.914,0.117-2.611,0.204l1.219-9.053h9.022V73.074z"/>
	</g>
</g>
<rect id="bar1" x="223.809" y="322.584" fill="#FFFF00" width="99.904" height="153.579"/>
<rect id="bar2" x="362.32" y="213.745" fill="#FF9900" width="99.906" height="262.418"/>
<rect id="bar3" x="503.199" y="97.742" fill="#FF0000" width="99.904" height="378.421"/>
<rect id="bar4" x="640.617" y="143.596" fill="#9900FF" width="99.906" height="332.567"/>
<rect id="bar5" x="781.367" y="250.586" fill="#4A86E8" width="99.901" height="225.799"/>
<g id="num">
	<rect x="33.771" y="137.766" fill="#CCCCCC" width="52" height="270"/>
	<g>
		<path d="M67.48,393.521H47.594v-2.803l10.062-6.373c2.33-1.477,4.426-2.627,6.461-3.57l-0.029-0.059
			c-2.654,0.236-5.074,0.295-8.174,0.295h-8.319v-2.42H67.48v2.596l-10.091,6.314c-2.213,1.387-4.485,2.715-6.639,3.717l0.029,0.09
			c2.508-0.148,4.898-0.207,8.203-0.207h8.497L67.48,393.521L67.48,393.521z"/>
		<path d="M63.585,362.236c1.476,0,2.773-0.029,3.895-0.119v2.301l-2.331,0.148v0.059c1.15,0.68,2.655,2.184,2.655,4.723
			c0,2.24-1.238,4.926-6.255,4.926H53.2v-2.596h7.908c2.713,0,4.543-0.826,4.543-3.188c0-1.742-1.21-2.951-2.361-3.422
			c-0.383-0.148-0.855-0.236-1.327-0.236h-8.762v-2.596H63.585z"/>
		<path d="M57.064,357.92c-1.476,0-2.685,0.029-3.864,0.117v-2.271l2.301-0.117v-0.09c-1.357-0.795-2.625-2.125-2.625-4.484
			c0-1.947,1.18-3.422,2.861-4.043v-0.059c-0.797-0.441-1.416-1.002-1.858-1.594c-0.649-0.854-1.003-1.799-1.003-3.156
			c0-1.889,1.238-4.691,6.195-4.691h8.409v2.537h-8.085c-2.743,0-4.396,1.004-4.396,3.098c0,1.477,1.092,2.627,2.361,3.068
			c0.354,0.119,0.826,0.207,1.299,0.207h8.821v2.539h-8.557c-2.271,0-3.925,1.002-3.925,2.979c0,1.623,1.299,2.805,2.598,3.217
			c0.383,0.146,0.825,0.207,1.269,0.207h8.615v2.537H57.064L57.064,357.92z"/>
		<path d="M67.48,333.416c-0.974-0.059-2.419-0.117-3.688-0.117h-17.26v-2.566h8.969v-0.059c-1.594-0.916-2.625-2.568-2.625-4.869
			c0-3.541,2.95-6.049,7.287-6.021c5.104,0,7.642,3.217,7.642,6.404c0,2.064-0.796,3.717-2.685,4.781v0.088l2.36,0.117V333.416z
			 M61.756,330.732c0.324,0,0.648-0.059,0.943-0.119c1.8-0.502,3.039-2.006,3.039-3.895c0-2.713-2.213-4.336-5.488-4.336
			c-2.861,0-5.311,1.475-5.311,4.248c0,1.771,1.21,3.422,3.188,3.953c0.294,0.059,0.648,0.146,1.062,0.146h2.567V330.732z"/>
		<path d="M60.813,315.057c3.511-0.059,4.956-2.299,4.956-4.896c0-1.857-0.324-2.98-0.737-3.953l1.859-0.443
			c0.413,0.916,0.886,2.479,0.886,4.752c0,4.395-2.893,7.021-7.201,7.021c-4.307,0-7.699-2.539-7.699-6.697
			c0-4.662,4.101-5.902,6.727-5.902c0.531,0,0.944,0.059,1.21,0.088L60.813,315.057L60.813,315.057z M58.953,307.443
			c-1.65-0.029-4.219,0.68-4.219,3.6c0,2.627,2.42,3.777,4.219,3.984V307.443z"/>
		<path d="M57.655,301.713c-1.682,0-3.128,0.029-4.455,0.117v-2.27l2.803-0.09v-0.117c-1.918-0.648-3.127-2.213-3.127-3.953
			c0-0.295,0.028-0.502,0.088-0.74h2.449c-0.059,0.268-0.09,0.533-0.09,0.885c0,1.83,1.389,3.129,3.336,3.482
			c0.354,0.059,0.766,0.119,1.209,0.119h7.612v2.566H57.655z"/>
		<path d="M60.223,272.879c5.28,0,7.582,3.658,7.582,7.109c0,3.867-2.833,6.845-7.347,6.845c-4.779,0-7.582-3.127-7.582-7.08
			C52.875,275.651,55.854,272.879,60.223,272.879z M60.37,284.209c3.128,0,5.488-1.8,5.488-4.337c0-2.479-2.331-4.338-5.548-4.338
			c-2.419,0-5.486,1.209-5.486,4.278C54.823,282.879,57.655,284.209,60.37,284.209z"/>
		<path d="M67.48,269.329H55.177v2.006h-1.976v-2.006h-0.679c-2.007,0-3.835-0.443-4.986-1.653
			c-0.944-0.973-1.329-2.271-1.329-3.481c0-0.914,0.207-1.711,0.414-2.212l2.007,0.354c-0.178,0.383-0.325,0.914-0.325,1.651
			c0,2.213,1.947,2.774,4.131,2.774h0.768v-3.453h1.977v3.453H67.48V269.329z"/>
		<path d="M64.353,254.981c0.709-1.151,1.299-2.833,1.299-4.603c0-2.626-1.387-4.16-3.395-4.16c-1.857,0-2.92,1.062-3.953,3.747
			c-1.15,3.246-2.832,5.251-5.635,5.251c-3.098,0-5.399-2.566-5.399-6.431c0-2.036,0.472-3.511,0.974-4.396l2.094,0.708
			c-0.354,0.649-0.943,1.976-0.943,3.777c0,2.713,1.623,3.747,2.98,3.747c1.857,0,2.773-1.209,3.835-3.953
			c1.299-3.364,2.921-5.075,5.843-5.075c3.068,0,5.725,2.271,5.725,6.963c0,1.917-0.562,4.012-1.27,5.074L64.353,254.981z"/>
		<path d="M49.099,237.122h4.102v-3.718h1.977v3.718h7.7c1.771,0,2.774-0.501,2.774-1.947c0-0.678-0.09-1.179-0.178-1.504
			l1.947-0.119c0.207,0.502,0.355,1.298,0.355,2.301c0,1.21-0.385,2.184-1.092,2.804c-0.768,0.738-2.037,1.003-3.719,1.003h-7.789
			v2.212h-1.975v-2.212h-3.422L49.099,237.122z"/>
		<path d="M63.585,218.53c1.476,0,2.773-0.029,3.895-0.118v2.302l-2.331,0.148v0.059c1.15,0.679,2.655,2.183,2.655,4.721
			c0,2.242-1.238,4.928-6.255,4.928H53.2v-2.597h7.908c2.713,0,4.543-0.826,4.543-3.187c0-1.74-1.21-2.95-2.361-3.422
			c-0.383-0.147-0.855-0.235-1.327-0.235h-8.762v-2.597h10.385V218.53z"/>
		<path d="M46.533,201.88h17.26c1.27,0,2.715-0.03,3.688-0.118v2.331l-2.479,0.118v0.059c1.593,0.797,2.803,2.538,2.803,4.869
			c0,3.452-2.921,6.108-7.258,6.108c-4.751,0.029-7.671-2.921-7.671-6.402c0-2.184,1.031-3.659,2.183-4.309v-0.059h-8.526V201.88z
			 M59.013,204.475c-0.325,0-0.768,0.03-1.092,0.119c-1.652,0.383-3.01,1.8-3.01,3.747c0,2.685,2.359,4.279,5.518,4.279
			c2.892,0,5.281-1.417,5.281-4.22c0-1.741-1.15-3.333-3.098-3.806c-0.355-0.089-0.708-0.119-1.121-0.119H59.013z"/>
		<path d="M60.813,196.117c3.511-0.059,4.956-2.3,4.956-4.897c0-1.858-0.324-2.98-0.737-3.953l1.859-0.443
			c0.413,0.916,0.886,2.479,0.886,4.751c0,4.396-2.893,7.022-7.201,7.022c-4.307,0-7.699-2.538-7.699-6.698
			c0-4.662,4.101-5.901,6.727-5.901c0.531,0,0.944,0.06,1.21,0.089L60.813,196.117L60.813,196.117z M58.953,188.505
			c-1.65-0.029-4.219,0.679-4.219,3.6c0,2.626,2.42,3.777,4.219,3.983V188.505z"/>
		<path d="M57.064,182.774c-1.476,0-2.685,0.03-3.864,0.118v-2.301l2.36-0.148v-0.059c-1.357-0.708-2.685-2.361-2.685-4.721
			c0-1.976,1.18-5.045,6.076-5.045h8.528v2.597h-8.232c-2.302,0-4.219,0.855-4.219,3.305c0,1.71,1.21,3.039,2.655,3.481
			c0.324,0.118,0.768,0.176,1.209,0.176h8.587v2.597H57.064z"/>
		<path d="M49.099,163.379h4.102v-3.718h1.977v3.718h7.7c1.771,0,2.774-0.501,2.774-1.947c0-0.679-0.09-1.18-0.178-1.504
			l1.947-0.119c0.207,0.502,0.355,1.299,0.355,2.302c0,1.209-0.385,2.184-1.092,2.804c-0.768,0.737-2.037,1.003-3.719,1.003h-7.789
			v2.213h-1.975v-2.213h-3.422L49.099,163.379z"/>
		<path d="M64.825,157.09c0.503-0.768,1.033-2.125,1.033-3.423c0-1.889-0.944-2.772-2.124-2.772c-1.239,0-1.918,0.737-2.625,2.655
			c-0.916,2.567-2.332,3.776-4.044,3.776c-2.3,0-4.188-1.858-4.188-4.927c0-1.445,0.412-2.715,0.884-3.511l1.888,0.65
			c-0.353,0.56-0.824,1.593-0.824,2.92c0,1.535,0.885,2.391,1.947,2.391c1.18,0,1.71-0.855,2.419-2.715
			c0.944-2.478,2.184-3.747,4.308-3.747c2.508,0,4.279,1.947,4.279,5.341c0,1.563-0.385,3.009-0.975,4.012L64.825,157.09z"/>
	</g>
</g>
<line fill="none" stroke="#000000" stroke-width="4.6717" stroke-miterlimit="10" x1="167.606" y1="24.104" x2="167.606" y2="477.167"/>
<line fill="none" stroke="#000000" stroke-width="4.9415" stroke-miterlimit="10" x1="943.067" y1="475.913" x2="166.5" y2="475.913"/>
<polygon points="158,33.667 168.167,8 177,34 168,28.5 "/>
<polygon points="926.295,465.979 951.961,476.146 925.961,484.979 931.461,475.979 "/>
<g>
	<path d="M921.968,497.729l4.232,6.372c1.098,1.658,2.021,3.189,2.999,4.842h0.185c0.979-1.776,1.962-3.309,2.945-4.901l4.162-6.313
		h5.828l-10.115,14.343l10.419,15.322h-6.132l-4.347-6.685c-1.163-1.716-2.146-3.367-3.189-5.144h-0.12
		c-0.984,1.776-2.026,3.368-3.129,5.144l-4.286,6.685h-5.949l10.54-15.138l-10.052-14.527H921.968z"/>
</g>
<g>
	<path d="M125.512,15.084l5.091,13.731c0.528,1.536,1.105,3.363,1.488,4.754h0.095c0.433-1.392,0.914-3.166,1.49-4.848l4.61-13.638
		h4.465l-6.338,16.566c-3.026,7.973-5.091,12.051-7.973,14.549c-2.064,1.827-4.129,2.545-5.185,2.737l-1.057-3.554
		c1.057-0.337,2.45-1.008,3.699-2.064c1.151-0.911,2.592-2.545,3.552-4.705c0.191-0.433,0.336-0.771,0.336-1.008
		c0-0.243-0.096-0.579-0.288-1.106l-8.596-21.416H125.512z"/>
</g>
</svg>
