<?xml version="1.0" encoding="utf-8"?>
<!-- Generator: Adobe Illustrator 15.0.0, SVG Export Plug-In . SVG Version: 6.00 Build 0)  -->
<!DOCTYPE svg PUBLIC "-//W3C//DTD SVG 1.1//EN" "http://www.w3.org/Graphics/SVG/1.1/DTD/svg11.dtd">
<svg version="1.1" id="Layer_1" xmlns="http://www.w3.org/2000/svg" xmlns:xlink="http://www.w3.org/1999/xlink" x="0px" y="0px"
	 width="642.978px" height="642.979px" viewBox="0 0 642.978 642.979" enable-background="new 0 0 642.978 642.979"
	 xml:space="preserve">
<circle class="atmos" fill="#0F61B5" cx="321.489" cy="321.489" r="321.489"/>
<g>
	<path fill="#1799D3" d="M475.24,512.113c-7.301-3.025-14.424-13.355-20.834-20.835c-6.411-7.479-5.875-27.064-5.52-29.381
		c0.355-2.313,5.52-3.739,12.109-3.739c6.587,0,28.134,1.426,37.394-0.533s8.546-14.602,11.752-19.766
		c3.205-5.164,5.342-1.958,15.669-2.314c10.328-0.356,20.3,3.026,30.628,7.301c3.068,1.27,6.258,3.172,9.234,5.215
		c19.68-37.889,30.812-80.928,30.812-126.572c0-29.82-4.767-58.525-13.545-85.414c-5.18,1.357-14.475,3.353-25.655,3.748
		c-17.26,0.61-21.229-0.764-28.562-5.193c-7.333-4.43-10.388-4.124-13.595-9.928c-3.207-5.805-2.139-14.053-6.872-12.373
		c-4.736,1.681-10.539,10.388-20.772,9.623c-10.233-0.764-23.829-12.524-31.466-16.496c-7.638-3.971-11.916-5.957-11.607-8.858
		c0.305-2.902,7.024-4.277,12.067-4.583c5.038-0.305,14.508-1.68,20.467-3.514c5.956-1.831,10.842-3.512,4.732-5.039
		c-6.108-1.528-32.684-0.764-36.962,0.916c-4.276,1.681-5.805,3.817-13.441,4.275c-7.637,0.459-7.789,2.139-13.289,0.459
		c-5.497-1.681-14.356-14.203-14.814-16.188c-0.459-1.985-1.681-3.056-1.681-3.056s-3.511,2.139-3.511,5.346
		s5.191,12.373,6.566,15.885c1.375,3.514,6.414,10.387,0.916,10.846c-5.5,0.458-7.942-0.764-11.455-7.027
		s-18.787-21.078-20.161-21.688c-1.375-0.612-3.209-2.598-4.736-0.918c-1.526,1.681-13.593,9.166-14.356,12.525
		c-0.764,3.358-0.305,3.666,3.513,5.191c3.818,1.528,7.638,9.014,7.638,12.832s-0.152,7.33-5.042,7.484
		c-4.887,0.151-25.965,4.887-29.631,3.666c-3.666-1.223-8.247-4.888-10.386-11.455c-2.139-6.568-3.664-12.221-2.139-14.357
		c1.527-2.14,9.316-2.903,13.747-5.5c4.428-2.596,5.497-2.139,5.803-7.025c0.306-4.889-3.056-13.748-2.291-16.955
		c0.764-3.207,12.524-10.997,14.969-11.15c2.443-0.15,12.525,8.402,14.052,5.348c1.526-3.056,3.971-10.08,5.193-12.373
		c1.223-2.291-0.61-1.375,5.803-4.123c6.417-2.75,4.277-11.762,3.361-13.441c-0.917-1.68-6.108-5.805-10.691-5.805
		c-4.582,0-17.412,12.066-23.064,16.039c-5.651,3.97-5.804,4.582-10.844,3.816c-5.04-0.762-11.304-8.094-11.609-11.76
		c-0.305-3.666,1.833-6.108,2.749-8.096c0.917-1.986,1.07-5.039-1.068-6.872c-2.137-1.833-6.872-2.749-6.872-5.194
		c0-2.443,3.36-8.4,5.955-11.914c2.598-3.512,10.386-11.303,16.345-11.606c5.956-0.306,11.76-1.375,15.273-0.306
		c3.513,1.068,5.957,1.221,10.843,5.956c4.891,4.735,10.54,8.706,16.346,11.15c5.803,2.444,12.828,6.263,11.301,3.819
		c-1.525-2.444-4.886-15.58-5.346-20.469c-0.457-4.887-1.068-6.568,1.987-9.316c3.052-2.75,10.691-9.774,12.371-3.514
		c1.679,6.262,2.291,12.525,0.304,17.107c-1.983,4.582-7.176,15.58-3.206,15.428c3.971-0.153,6.109,1.679,15.12-4.432
		c9.012-6.109,17.262-11.76,21.995-13.44c4.735-1.681,10.081-2.29,10.998-2.29s3.055,2.901,9.164,3.664
		c1.784,0.225,3.296,0.226,4.619,0.135c-41.126-24.499-89.177-38.585-140.521-38.585c-61.826,0-118.883,20.405-164.813,54.844
		c2.282,1.05,4.309,2.308,5.168,3.718c2.492,4.096,8.37,4.452,7.3,16.203c-1.068,11.752-4.096,33.478,2.492,29.559
		c6.589-3.916,17.629-12.107,21.19-11.573s7.301,4.808,12.466,6.232c5.164,1.425,25.107,1.603,30.981,4.451
		c5.878,2.851,7.303,3.384,4.809,6.411c-2.492,3.027-22.08,14.244-25.106,21.012c-3.027,6.767-3.562,12.82-10.862,17.271
		c-7.301,4.453-23.862,6.768-25.284,11.041c-1.426,4.273-3.385,15.136,0.355,24.573c3.738,9.437,3.206,11.573-0.891,11.396
		s-13.355-7.656-15.67-11.396s1.068-10.506-1.78-14.958c-2.85-4.452-18.697-4.808-20.3-4.273s-7.301,6.055-4.63,10.506
		c2.67,4.451,7.301,14.957,14.957,24.93c7.657,9.972,15.671,24.217,19.054,26.354c3.383,2.136,11.217,4.094,14.066,3.917
		c2.851-0.178,10.151-5.341,15.313-3.562c5.165,1.78,27.601,13.178,33.478,21.012c5.876,7.835,12.466,13.533,16.025,22.26
		c3.561,8.725,9.617,18.518,15.136,19.942c5.52,1.424,10.861,2.849,12.465,4.094c1.604,1.247,1.247,6.946,1.424,8.905
		c0.18,1.959,6.411,0.533,14.423,0.711c8.013,0.18,10.863-2.849,14.246,1.07c3.382,3.917,13.177,16.202,13.533,19.764
		s0.179,5.697-4.985,6.945c-5.166,1.246-12.643,4.096-15.314,5.52c-2.67,1.425-7.301,2.85-9.972,8.726
		c-2.672,5.876-11.041,17.807-15.849,20.833c-4.808,3.027-10.149,6.233-17.27,12.465c-7.124,6.232-11.041,15.492-13.178,20.122
		c-2.138,4.63-8.904,16.381-12.287,24.038c-3.385,7.657-6.767,14.424-9.083,15.67c-2.313,1.247-14.777,0.179-16.914,4.631
		c-2.139,4.451-9.615,21.723-9.974,24.039c-0.355,2.314-3.561,4.631-6.765,3.738c-3.206-0.889-8.37-4.451-7.303-8.725
		c1.069-4.273,2.494-7.123,4.809-14.958c2.314-7.834,3.739-15.67,3.739-19.766c0-4.095-2.137-8.19-1.958-13.354
		c0.178-5.164,9.081-22.614,11.218-33.654c2.137-11.041,7.124-21.367,0.178-29.381c-6.945-8.013-12.463-13.178-15.847-14.779
		c-3.385-1.603-6.056-0.534-10.863-7.123c-4.808-6.588-11.929-12.643-16.38-12.82c-4.453-0.178-6.946,0.355-9.083-6.232
		s-4.808-12.82-3.739-23.684c1.067-10.861-0.355-13.889,4.273-18.875c4.63-4.986,12.11-10.148,16.383-14.601
		s9.615-8.903,9.26-14.245s-6.946-11.396-19.766-16.738c-12.821-5.342-16.563-6.41-26.71-20.478
		c-10.15-14.067-5.699-26.532-15.315-32.942c-9.615-6.412-8.545-6.943-11.929-1.068c-3.385,5.876-2.85,14.601-8.192,12.109
		c-5.342-2.494-6.588-18.52-7.656-21.014c-0.738-1.723-2.667-9.91-4.143-16.215c-21.616,39.275-33.928,84.397-33.928,132.398
		c0,104.221,57.98,194.893,143.44,241.537c-0.062-2.361,0.39-4.324,1.382-6.613c2.398-5.514,12.71-11.27,19.663-8.873
		c6.955,2.4,19.904,8.635,30.214,14.389c10.31,5.756,37.646,22.781,50.115,19.662c12.471-3.117,28.536-17.504,42.202-16.064
		c13.668,1.438,29.015,5.273,38.127,6.713c9.111,1.439,31.652,5.996,35.969,2.158c4.316-3.836,24.218-23.26,26.137-25.178
		c1.918-1.918,1.917-8.393,8.393-5.754c6.474,2.637,7.435,5.275,10.789,2.875c3.356-2.396,12.229-10.549,16.784-9.59
		c4.558,0.959,5.276,2.639,9.114,4.316c1.299,0.568,3.175,1.412,5.116,2.305c7.799-5.717,15.293-11.824,22.437-18.313
		c-0.973-0.211-1.879-0.428-2.644-0.658C496.075,522.084,482.543,515.139,475.24,512.113z M447.605,379.118
		c-4.205,4.647-11.287,12.837-12.615,18.37c-1.33,5.531-13.721,26.778-16.156,29.434c-2.435,2.657-2.877,3.542-9.961,3.099
		c-7.08-0.441-14.383-2.654-16.375-0.663c-1.994,1.992-5.534,15.936-11.952,17.484s-15.492-3.32-16.821-6.861
		c-1.326-3.541,2.88-10.844,6.198-20.361c3.32-9.517,3.763-11.287-0.664-18.813c-4.428-7.523-6.197-9.518-5.312-11.064
		c0.884-1.55,6.419-1.106,6.197-9.075c-0.222-7.967-5.313-42.05-5.756-47.361c-0.441-5.312,1.771-13.278-9.957-14.827
		c-11.731-1.551-7.305,3.539-16.377,1.326c-9.076-2.212-11.73-9.072-15.937-9.295c-4.205-0.221-17.04-0.664-21.688-1.548
		c-4.648-0.886-9.073-5.533-10.18-14.386c-1.108-8.854,2.432-28.771,3.098-32.976c0.663-4.206,3.54-16.157,6.416-19.477
		c2.88-3.319,9.74-12.173,28.552-13.722c0,0,7.303,1.771,13.057,4.869c5.754,3.098,21.911,11.065,27.001,8.853
		c5.091-2.213,17.263-11.067,19.919-13.06c2.654-1.99,4.867-0.662,7.525,4.428c2.653,5.09,5.532,8.41,7.967,8.41
		s8.853-1.106,19.033,3.32c10.181,4.426,19.696,12.615,31.871,20.804c12.172,8.188,19.695,17.484,29.654,17.926
		c9.959,0.442,23.461-6.417,26.561-2.876c3.097,3.541,11.729,10.622,8.187,19.254c-3.539,8.631-10.623,9.073-16.598,10.18
		c-5.975,1.107-23.901,6.197-29.214,7.969c-5.312,1.77-18.149,11.508-16.82,18.812c1.328,7.304,2.212,32.753,0,37.181
		C454.246,378.896,451.81,374.471,447.605,379.118z"/>
	<path fill="#92D14F" d="M565.673,448.061c-2.977-2.043-6.166-3.945-9.234-5.215c-10.328-4.274-20.3-7.657-30.628-7.301
		c-10.327,0.356-12.464-2.85-15.669,2.314c-3.206,5.164-2.492,17.807-11.752,19.766s-30.807,0.533-37.394,0.533
		c-6.59,0-11.754,1.426-12.109,3.739c-0.355,2.316-0.892,21.902,5.52,29.381c6.41,7.479,13.533,17.81,20.834,20.835
		c7.303,3.025,20.835,9.971,28.491,12.287c0.765,0.23,1.671,0.447,2.644,0.658C530.417,503.207,550.563,477.15,565.673,448.061z"/>
	<path fill="#1799D3" d="M564.615,202.858c-4.735-0.458-18.022-1.833-19.245,0.917c-1.222,2.75-3.513,7.33-1.069,7.484
		c2.443,0.152,4.122-0.154,12.829-0.306c7.275-0.128,11.25,0.276,16.279,0.146c-1.227-2.795-2.484-5.571-3.801-8.314
		C567.642,202.941,565.841,202.978,564.615,202.858z"/>
	<path fill="#92D14F" d="M92.22,226.318c5.343,2.491,4.808-6.233,8.192-12.109c3.384-5.875,2.313-5.344,11.929,1.068
		c9.616,6.41,5.165,18.875,15.315,32.942c10.147,14.067,13.889,15.136,26.71,20.478c12.819,5.342,19.41,11.396,19.766,16.738
		s-4.987,9.793-9.26,14.245s-11.753,9.614-16.383,14.601c-4.629,4.986-3.206,8.014-4.273,18.875
		c-1.068,10.863,1.603,17.096,3.739,23.684s4.63,6.055,9.083,6.232c4.451,0.178,11.572,6.232,16.38,12.82
		c4.808,6.589,7.479,5.521,10.863,7.123c3.384,1.602,8.901,6.767,15.847,14.779c6.946,8.014,1.959,18.34-0.178,29.381
		c-2.137,11.04-11.04,28.49-11.218,33.654c-0.179,5.164,1.958,9.26,1.958,13.354c0,4.096-1.425,11.932-3.739,19.766
		c-2.314,7.835-3.739,10.685-4.809,14.958c-1.067,4.273,4.097,7.836,7.303,8.725c3.204,0.893,6.409-1.424,6.765-3.738
		c0.358-2.316,7.835-19.588,9.974-24.039c2.137-4.452,14.601-3.384,16.914-4.631c2.316-1.246,5.698-8.013,9.083-15.67
		c3.383-7.657,10.149-19.408,12.287-24.038c2.137-4.63,6.054-13.89,13.178-20.122c7.12-6.231,12.462-9.438,17.27-12.465
		c4.808-3.026,13.177-14.957,15.849-20.833c2.671-5.876,7.302-7.301,9.972-8.726c2.672-1.424,10.148-4.273,15.314-5.52
		c5.164-1.248,5.342-3.384,4.985-6.945s-10.151-15.847-13.533-19.764c-3.383-3.919-6.233-0.891-14.246-1.07
		c-8.012-0.178-14.243,1.248-14.423-0.711c-0.177-1.959,0.18-7.658-1.424-8.905c-1.604-1.245-6.945-2.67-12.465-4.094
		c-5.519-1.425-11.575-11.218-15.136-19.942c-3.56-8.727-10.149-14.425-16.025-22.26c-5.877-7.834-28.313-19.231-33.478-21.012
		c-5.162-1.779-12.463,3.384-15.313,3.562c-2.85,0.177-10.684-1.781-14.066-3.917c-3.383-2.137-11.396-16.382-19.054-26.354
		c-7.656-9.973-12.287-20.479-14.957-24.93c-2.671-4.451,3.027-9.972,4.63-10.506s17.45-0.179,20.3,4.273
		c2.849,4.452-0.534,11.219,1.78,14.958s11.573,11.218,15.67,11.396s4.629-1.959,0.891-11.396c-3.74-9.438-1.781-20.3-0.355-24.573
		c1.422-4.273,17.983-6.588,25.284-11.041c7.301-4.451,7.835-10.505,10.862-17.271c3.026-6.768,22.614-17.984,25.106-21.012
		c2.494-3.027,1.069-3.561-4.809-6.411c-5.874-2.849-25.817-3.026-30.981-4.451c-5.165-1.425-8.904-5.698-12.466-6.232
		s-14.602,7.657-21.19,11.573c-6.588,3.919-3.561-17.807-2.492-29.559c1.07-11.751-4.808-12.107-7.3-16.203
		c-0.859-1.41-2.886-2.668-5.168-3.718c-31.238,23.424-57.317,53.345-76.256,87.753c1.476,6.305,3.404,14.492,4.143,16.215
		C85.632,207.799,86.878,223.824,92.22,226.318z"/>
	<path fill="#92D14F" d="M457.392,84.943c-6.109-0.763-8.247-3.664-9.164-3.664s-6.263,0.609-10.998,2.29
		c-4.733,1.681-12.983,7.331-21.995,13.44c-9.011,6.11-11.149,4.278-15.12,4.432c-3.97,0.152,1.223-10.846,3.206-15.428
		c1.987-4.582,1.375-10.846-0.304-17.107c-1.68-6.261-9.319,0.764-12.371,3.514c-3.056,2.748-2.444,4.43-1.987,9.316
		c0.46,4.889,3.82,18.024,5.346,20.469c1.527,2.443-5.498-1.375-11.301-3.819c-5.806-2.444-11.455-6.415-16.346-11.15
		c-4.886-4.735-7.33-4.888-10.843-5.956c-3.514-1.069-9.317,0-15.273,0.306c-5.959,0.304-13.747,8.095-16.345,11.606
		c-2.595,3.514-5.955,9.471-5.955,11.914c0,2.445,4.735,3.361,6.872,5.194c2.139,1.833,1.985,4.886,1.068,6.872
		c-0.916,1.987-3.054,4.43-2.749,8.096c0.306,3.666,6.569,10.998,11.609,11.76c5.04,0.766,5.192,0.153,10.844-3.816
		c5.652-3.973,18.482-16.039,23.064-16.039c4.583,0,9.774,4.125,10.691,5.805c0.916,1.68,3.056,10.691-3.361,13.441
		c-6.413,2.748-4.58,1.832-5.803,4.123c-1.223,2.293-3.667,9.317-5.193,12.373c-1.526,3.055-11.608-5.498-14.052-5.348
		c-2.444,0.153-14.205,7.943-14.969,11.15c-0.765,3.207,2.597,12.066,2.291,16.955c-0.306,4.887-1.375,4.43-5.803,7.025
		c-4.431,2.597-12.22,3.36-13.747,5.5c-1.525,2.137,0,7.789,2.139,14.357c2.139,6.567,6.72,10.232,10.386,11.455
		c3.666,1.221,24.744-3.515,29.631-3.666c4.89-0.154,5.042-3.666,5.042-7.484s-3.819-11.304-7.638-12.832
		c-3.817-1.525-4.276-1.833-3.513-5.191c0.764-3.359,12.83-10.845,14.356-12.525c1.527-1.68,3.361,0.306,4.736,0.918
		c1.374,0.609,16.648,15.424,20.161,21.688s5.955,7.485,11.455,7.027c5.498-0.459,0.459-7.332-0.916-10.846
		c-1.375-3.512-6.566-12.678-6.566-15.885s3.511-5.346,3.511-5.346s1.222,1.07,1.681,3.056c0.458,1.985,9.317,14.508,14.814,16.188
		c5.5,1.68,5.652,0,13.289-0.459c7.637-0.458,9.165-2.595,13.441-4.275c4.278-1.68,30.854-2.444,36.962-0.916
		c6.109,1.527,1.224,3.208-4.732,5.039c-5.959,1.834-15.429,3.209-20.467,3.514c-5.043,0.306-11.763,1.681-12.067,4.583
		c-0.309,2.901,3.97,4.888,11.607,8.858c7.637,3.972,21.232,15.732,31.466,16.496c10.233,0.765,16.036-7.942,20.772-9.623
		c4.733-1.68,3.665,6.568,6.872,12.373c3.207,5.804,6.262,5.498,13.595,9.928c7.332,4.43,11.302,5.804,28.562,5.193
		c11.181-0.396,20.476-2.391,25.655-3.748c-2.778-8.516-5.964-16.848-9.53-24.975c-5.029,0.131-9.004-0.273-16.279-0.146
		c-8.707,0.151-10.386,0.458-12.829,0.306c-2.443-0.154-0.152-4.734,1.069-7.484c1.223-2.75,14.51-1.375,19.245-0.917
		c1.226,0.119,3.026,0.083,4.993-0.073c-23.505-49.045-61.128-90.024-107.598-117.707C460.688,85.169,459.176,85.168,457.392,84.943
		z"/>
	<path fill="#92D14F" d="M456.459,374.471c2.212-4.428,1.328-29.877,0-37.181c-1.329-7.304,11.509-17.042,16.82-18.812
		c5.313-1.771,23.239-6.861,29.214-7.969c5.975-1.106,13.059-1.549,16.598-10.18c3.543-8.632-5.09-15.713-8.187-19.254
		c-3.1-3.541-16.602,3.318-26.561,2.876c-9.959-0.441-17.482-9.737-29.654-17.926c-12.175-8.188-21.69-16.378-31.871-20.804
		c-10.181-4.427-16.599-3.32-19.033-3.32s-5.313-3.32-7.967-8.41c-2.658-5.09-4.871-6.418-7.525-4.428
		c-2.656,1.992-14.828,10.847-19.919,13.06c-5.09,2.213-21.247-5.755-27.001-8.853c-5.754-3.099-13.057-4.869-13.057-4.869
		c-18.812,1.549-25.672,10.402-28.552,13.722c-2.876,3.319-5.753,15.271-6.416,19.477c-0.666,4.204-4.206,24.122-3.098,32.976
		c1.106,8.853,5.531,13.5,10.18,14.386c4.647,0.884,17.482,1.327,21.688,1.548c4.206,0.223,6.86,7.083,15.937,9.295
		c9.072,2.213,4.646-2.877,16.377-1.326c11.729,1.549,9.516,9.516,9.957,14.827c0.442,5.312,5.534,39.395,5.756,47.361
		c0.222,7.969-5.313,7.525-6.197,9.075c-0.886,1.547,0.884,3.541,5.312,11.064c4.427,7.525,3.984,9.296,0.664,18.813
		c-3.318,9.518-7.524,16.82-6.198,20.361c1.329,3.541,10.403,8.41,16.821,6.861s9.958-15.492,11.952-17.484
		c1.992-1.991,9.295,0.222,16.375,0.663c7.084,0.443,7.526-0.441,9.961-3.099c2.436-2.655,14.826-23.902,16.156-29.434
		c1.328-5.533,8.41-13.723,12.615-18.37C451.81,374.471,454.246,378.896,456.459,374.471z"/>
	<path fill="#F0EFEE" d="M469.708,536.75c-4.555-0.959-13.428,7.193-16.784,9.59c-3.354,2.4-4.315-0.238-10.789-2.875
		c-6.476-2.639-6.475,3.836-8.393,5.754c-1.919,1.918-21.82,21.342-26.137,25.178c-4.316,3.838-26.857-0.719-35.969-2.158
		c-9.112-1.439-24.459-5.275-38.127-6.713c-13.666-1.439-29.731,12.947-42.202,16.064c-12.469,3.119-39.806-13.906-50.115-19.662
		c-10.31-5.754-23.259-11.988-30.214-14.389c-6.953-2.396-17.265,3.359-19.663,8.873c-0.992,2.289-1.443,4.252-1.382,6.613
		c39.077,21.33,83.9,33.459,131.557,33.459c60.771,0,116.929-19.73,162.448-53.113c-1.941-0.893-3.817-1.736-5.116-2.305
		C474.984,539.389,474.266,537.709,469.708,536.75z"/>
</g>
</svg>
