<?xml version="1.0" encoding="utf-8"?>
<!-- Generator: Adobe Illustrator 15.0.0, SVG Export Plug-In . SVG Version: 6.00 Build 0)  -->
<!DOCTYPE svg PUBLIC "-//W3C//DTD SVG 1.1//EN" "http://www.w3.org/Graphics/SVG/1.1/DTD/svg11.dtd">
<svg version="1.1" id="Layer_1" xmlns="http://www.w3.org/2000/svg" xmlns:xlink="http://www.w3.org/1999/xlink" x="0px" y="0px"
	 width="1200.001px" height="725.178px" viewBox="0 0 1200.001 725.178" enable-background="new 0 0 1200.001 725.178"
	 xml:space="preserve">
<g>
	<rect x="14.773" y="14.686" fill="#27B34B" width="1170.452" height="695.807"/>
	<g>
		
			<rect x="14.773" y="14.686" fill="none" stroke="#E5E5E5" stroke-width="29.3711" stroke-linecap="round" stroke-linejoin="round" stroke-miterlimit="10" width="1170.452" height="695.807"/>
		<path fill="#686969" d="M49.248,725.088H14.713C6.589,725.088,0,718.58,0,710.553v-30.879c0-8.109,29.549-8.109,29.549,0v16.221
			h19.699C57.455,695.895,57.455,725.088,49.248,725.088"/>
		<path fill="#686969" d="M1145.827,725.088h34.091c8.126,0,15.157-6.508,15.157-14.535v-30.879c0-8.109-29.549-8.109-29.549,0
			v16.221h-19.699C1137.62,695.895,1137.62,725.088,1145.827,725.088"/>
		<path fill="#686969" d="M49.248,3.333H14.713C6.589,3.333,0,10.012,0,18.04v30.707c0,8.11,29.549,8.11,29.549,0V32.527h19.699
			C57.455,32.527,57.455,3.333,49.248,3.333"/>
		<path fill="#686969" d="M1150.754,0.088h34.025c8.161,0,15.222,6.976,15.222,15.037v30.377c0,8.11-29.55,8.11-29.55,0v-16.22
			h-19.697C1142.546,29.282,1142.546,0.088,1150.754,0.088"/>
	</g>
</g>
</svg>
