<?xml version="1.0" encoding="utf-8"?>
<!-- Generator: Adobe Illustrator 15.0.0, SVG Export Plug-In . SVG Version: 6.00 Build 0)  -->
<!DOCTYPE svg PUBLIC "-//W3C//DTD SVG 1.1//EN" "http://www.w3.org/Graphics/SVG/1.1/DTD/svg11.dtd">
<svg version="1.1" id="Layer_1" xmlns="http://www.w3.org/2000/svg" xmlns:xlink="http://www.w3.org/1999/xlink" x="0px" y="0px"
	 width="961px" height="581px" viewBox="0 0 961 581" enable-background="new 0 0 961 581" xml:space="preserve">
<g>
	<g>
		<rect x="13.88" y="78.444" fill="#DADFA1" width="50.193" height="50.179"/>
		<text transform="matrix(1.0003 0 0 1 30.5859 113.3633)" fill="#231F20" font-family="'Calibri-Bold'" font-size="26.5879">H</text>
		<g>
			<g>
				<text transform="matrix(1.0003 0 0 1 35.2744 90.3555)" fill="#231F20" font-family="'Calibri-Bold'" font-size="14.5974">1</text>
			</g>
		</g>
	</g>
	<text transform="matrix(1.0003 0 0 1 26.0439 122.0391)" fill="#231F20" font-family="'Calibri-Bold'" font-size="6.3864">Hydro­gen</text>
</g>
<g>
	<g>
		<rect x="898.3" y="78.444" fill="#DADFA1" width="50.188" height="50.179"/>
		<text transform="matrix(1.0003 0 0 1 908.3096 112.8916)" fill="#231F20" font-family="'Calibri-Bold'" font-size="26.5879">He</text>
		<text transform="matrix(1.0003 0 0 1 913.8281 123.3945)" fill="#231F20" font-family="'Calibri-Bold'" font-size="6.3864">Helium</text>
	</g>
	<g>
		<g>
			<text transform="matrix(1.0003 0 0 1 919.6934 90.3555)" fill="#231F20" font-family="'Calibri-Bold'" font-size="14.5974">2</text>
		</g>
	</g>
</g>
<g>
	<g>
		<rect x="638.214" y="130.447" fill="#DADFA1" width="50.192" height="50.179"/>
		<text transform="matrix(1.0003 0 0 1 655.8564 165.918)" font-family="'Calibri-Bold'" font-size="26.5879">B</text>
		<text transform="matrix(1.0003 0 0 1 655.1768 176.4199)" font-family="'Calibri-Bold'" font-size="6.3864">Boron</text>
	</g>
	<g>
		<g>
			<text transform="matrix(1.0003 0 0 1 659.6113 142.3574)" font-family="'Calibri-Bold'" font-size="14.5974">5</text>
		</g>
	</g>
</g>
<g>
	<g>
		<rect x="690.233" y="130.447" fill="#DADFA1" width="50.189" height="50.179"/>
		<text transform="matrix(1.0003 0 0 1 708.2881 164.8955)" fill="#231F20" font-family="'Calibri-Bold'" font-size="26.5879">C</text>
		<text transform="matrix(1.0003 0 0 1 705.7197 175.3965)" fill="#231F20" font-family="'Calibri-Bold'" font-size="6.3864">Carbon</text>
	</g>
	<g>
		<g>
			<text transform="matrix(1.0003 0 0 1 711.6279 142.3574)" fill="#231F20" font-family="'Calibri-Bold'" font-size="14.5974">6</text>
		</g>
	</g>
</g>
<g>
	<g>
		<rect x="742.248" y="130.447" fill="#DADFA1" width="50.194" height="50.179"/>
		<text transform="matrix(1.0003 0 0 1 758.583 164.8955)" fill="#231F20" font-family="'Calibri-Bold'" font-size="26.5879">N</text>
		<text transform="matrix(1.0003 0 0 1 755.5977 175.3965)" fill="#231F20" font-family="'Calibri-Bold'" font-size="6.3864">Nitro­gen</text>
	</g>
	<g>
		<g>
			<text transform="matrix(1.0003 0 0 1 763.6436 142.3574)" fill="#231F20" font-family="'Calibri-Bold'" font-size="14.5974">7</text>
		</g>
	</g>
</g>
<g>
	<g>
		<rect x="794.266" y="130.447" fill="#DADFA1" width="50.19" height="50.179"/>
		<text transform="matrix(1.0003 0 0 1 810.3662 164.8955)" fill="#231F20" font-family="'Calibri-Bold'" font-size="26.5879">O</text>
		<text transform="matrix(1.0003 0 0 1 809.3232 175.3965)" fill="#231F20" font-family="'Calibri-Bold'" font-size="6.3864">Oxy­gen</text>
	</g>
	<g>
		<g>
			<text transform="matrix(1.0003 0 0 1 815.6602 142.3574)" fill="#231F20" font-family="'Calibri-Bold'" font-size="14.5974">8</text>
		</g>
	</g>
</g>
<g>
	<g>
		<rect x="846.281" y="130.447" fill="#DADFA1" width="50.191" height="50.179"/>
		<text transform="matrix(1.0003 0 0 1 865.2725 164.8955)" fill="#231F20" font-family="'Calibri-Bold'" font-size="26.5879">F</text>
		<text transform="matrix(1.0003 0 0 1 860.3936 175.3965)" fill="#231F20" font-family="'Calibri-Bold'" font-size="6.3864">Fluor­ine</text>
	</g>
	<g>
		<g>
			<text transform="matrix(1.0003 0 0 1 867.6777 142.3574)" fill="#231F20" font-family="'Calibri-Bold'" font-size="14.5974">9</text>
		</g>
	</g>
</g>
<g>
	<g>
		<rect x="898.3" y="130.447" fill="#DADFA1" width="50.188" height="50.179"/>
		<text transform="matrix(1.0003 0 0 1 907.9395 164.8955)" fill="#231F20" font-family="'Calibri-Bold'" font-size="26.5879">Ne</text>
		<text transform="matrix(1.0003 0 0 1 916.1895 175.3965)" fill="#231F20" font-family="'Calibri-Bold'" font-size="6.3864">Neon</text>
	</g>
	<g>
		<g>
			<text transform="matrix(1.0003 0 0 1 915.9932 142.3574)" fill="#231F20" font-family="'Calibri-Bold'" font-size="14.5974">10</text>
		</g>
	</g>
</g>
<g>
	<g>
		<rect x="638.214" y="182.449" fill="#DADFA1" width="50.192" height="50.182"/>
		<text transform="matrix(1.0003 0 0 1 651.9873 217.9209)" fill="#231F20" font-family="'Calibri-Bold'" font-size="26.5879">Al</text>
		<text transform="matrix(1.0003 0 0 1 648.623 228.4238)" fill="#231F20" font-family="'Calibri-Bold'" font-size="6.3864">Alumin­ium</text>
	</g>
	<g>
		<g>
			<text transform="matrix(1.0003 0 0 1 655.9111 194.3604)" fill="#231F20" font-family="'Calibri-Bold'" font-size="14.5974">13</text>
		</g>
	</g>
</g>
<g>
	<g>
		<rect x="690.233" y="182.449" fill="#DADFA1" width="50.189" height="50.182"/>
		<text transform="matrix(1.0003 0 0 1 705.7754 217.9209)" fill="#231F20" font-family="'Calibri-Bold'" font-size="26.5879">Si</text>
		<text transform="matrix(1.0003 0 0 1 706.6367 228.4238)" fill="#231F20" font-family="'Calibri-Bold'" font-size="6.3864">Sili­con</text>
	</g>
	<g>
		<g>
			<text transform="matrix(1.0003 0 0 1 707.9287 194.3604)" fill="#231F20" font-family="'Calibri-Bold'" font-size="14.5974">14</text>
		</g>
	</g>
</g>
<g>
	<g>
		<rect x="742.248" y="182.449" fill="#DADFA1" width="50.194" height="50.182"/>
		<text transform="matrix(1.0003 0 0 1 760.2646 216.8984)" fill="#231F20" font-family="'Calibri-Bold'" font-size="26.5879">P</text>
		<text transform="matrix(1.0003 0 0 1 751.6094 227.4004)" fill="#231F20" font-family="'Calibri-Bold'" font-size="6.3864">Phos­phorus</text>
	</g>
	<g>
		<g>
			<text transform="matrix(1.0003 0 0 1 759.9443 194.3604)" fill="#231F20" font-family="'Calibri-Bold'" font-size="14.5974">15</text>
		</g>
	</g>
</g>
<g>
	<g>
		<rect x="794.266" y="182.449" fill="#DADFA1" width="50.19" height="50.182"/>
		<text transform="matrix(1.0003 0 0 1 813.0742 216.8984)" fill="#231F20" font-family="'Calibri-Bold'" font-size="26.5879">S</text>
		<text transform="matrix(1.0003 0 0 1 811.4326 227.4004)" fill="#231F20" font-family="'Calibri-Bold'" font-size="6.3864">Sulfur</text>
	</g>
	<g>
		<g>
			<text transform="matrix(1.0003 0 0 1 811.96 194.3604)" fill="#231F20" font-family="'Calibri-Bold'" font-size="14.5974">16</text>
		</g>
	</g>
</g>
<g>
	<g>
		<rect x="846.281" y="182.449" fill="#DADFA1" width="50.191" height="50.182"/>
		<text transform="matrix(1.0003 0 0 1 861.0723 216.8984)" fill="#231F20" font-family="'Calibri-Bold'" font-size="26.5879">Cl</text>
		<text transform="matrix(1.0003 0 0 1 860.1689 227.4004)" fill="#231F20" font-family="'Calibri-Bold'" font-size="6.3864">Chlor­ine</text>
	</g>
	<g>
		<g>
			<text transform="matrix(1.0003 0 0 1 863.9775 194.3604)" fill="#231F20" font-family="'Calibri-Bold'" font-size="14.5974">17</text>
		</g>
	</g>
</g>
<g>
	<g>
		<rect x="898.3" y="182.449" fill="#DADFA1" width="50.188" height="50.182"/>
		<text transform="matrix(1.0003 0 0 1 910.6074 216.8984)" fill="#231F20" font-family="'Calibri-Bold'" font-size="26.5879">Ar</text>
		<text transform="matrix(1.0003 0 0 1 915.3164 227.4004)" fill="#231F20" font-family="'Calibri-Bold'" font-size="6.3864">Argon</text>
	</g>
	<g>
		<g>
			<text transform="matrix(1.0003 0 0 1 915.9932 194.3604)" fill="#231F20" font-family="'Calibri-Bold'" font-size="14.5974">18</text>
		</g>
	</g>
</g>
<g>
	<g>
		<rect x="118.052" y="234.454" fill="#DADFA1" width="50.192" height="50.181"/>
		<text transform="matrix(1.0003 0 0 1 131.2949 268.9014)" fill="#231F20" font-family="'Calibri-Bold'" font-size="26.5879">Sc</text>
		<text transform="matrix(1.0003 0 0 1 130.1377 279.4043)" fill="#231F20" font-family="'Calibri-Bold'" font-size="6.3864">Scan­dium</text>
	</g>
	<g>
		<g>
			<text transform="matrix(1.0003 0 0 1 135.748 246.3643)" fill="#231F20" font-family="'Calibri-Bold'" font-size="14.5974">21</text>
		</g>
	</g>
</g>
<g>
	<g>
		<rect x="170.068" y="234.454" fill="#DADFA1" width="50.19" height="50.181"/>
		<text transform="matrix(1.0003 0 0 1 185.3135 268.9014)" fill="#231F20" font-family="'Calibri-Bold'" font-size="26.5879">Ti</text>
		<text transform="matrix(1.0003 0 0 1 183.2432 279.4043)" fill="#231F20" font-family="'Calibri-Bold'" font-size="6.3864">Tita­nium</text>
	</g>
	<g>
		<g>
			<text transform="matrix(1.0003 0 0 1 187.7646 246.3643)" fill="#231F20" font-family="'Calibri-Bold'" font-size="14.5974">22</text>
		</g>
	</g>
</g>
<g>
	<g>
		<rect x="222.085" y="234.454" fill="#DADFA1" width="50.19" height="50.181"/>
		<text transform="matrix(1.0003 0 0 1 239.3145 268.9014)" fill="#231F20" font-family="'Calibri-Bold'" font-size="26.5879">V</text>
		<text transform="matrix(1.0003 0 0 1 233.5527 279.4043)" fill="#231F20" font-family="'Calibri-Bold'" font-size="6.3864">Vana­dium</text>
	</g>
	<g>
		<g>
			<text transform="matrix(1.0003 0 0 1 239.7803 246.3643)" fill="#231F20" font-family="'Calibri-Bold'" font-size="14.5974">23</text>
		</g>
	</g>
</g>
<g>
	<g>
		<rect x="274.102" y="234.454" fill="#DADFA1" width="50.19" height="50.181"/>
		<text transform="matrix(1.0003 0 0 1 287.4297 268.9014)" fill="#231F20" font-family="'Calibri-Bold'" font-size="26.5879">Cr</text>
		<text transform="matrix(1.0003 0 0 1 285.1846 279.4043)" fill="#231F20" font-family="'Calibri-Bold'" font-size="6.3864">Chrom­ium</text>
	</g>
	<g>
		<g>
			<text transform="matrix(1.0003 0 0 1 291.7969 246.3643)" fill="#231F20" font-family="'Calibri-Bold'" font-size="14.5974">24</text>
		</g>
	</g>
</g>
<g>
	<g>
		<rect x="326.117" y="234.454" fill="#DADFA1" width="50.194" height="50.181"/>
		<text transform="matrix(1.0003 0 0 1 332.4541 268.9014)" fill="#231F20" font-family="'Calibri-Bold'" font-size="26.5879">Mn</text>
		<text transform="matrix(1.0003 0 0 1 335.7744 279.4043)" fill="#231F20" font-family="'Calibri-Bold'" font-size="6.3864">Manga­nese</text>
	</g>
	<g>
		<g>
			<text transform="matrix(1.0003 0 0 1 343.8125 246.3643)" fill="#231F20" font-family="'Calibri-Bold'" font-size="14.5974">25</text>
		</g>
	</g>
</g>
<g>
	<g>
		<rect x="378.134" y="234.454" fill="#DADFA1" width="50.191" height="50.181"/>
		<text transform="matrix(1.0003 0 0 1 390.4297 268.9014)" fill="#231F20" font-family="'Calibri-Bold'" font-size="26.5879">Fe</text>
		<text transform="matrix(1.0003 0 0 1 397.75 279.4043)" fill="#231F20" font-family="'Calibri-Bold'" font-size="6.3864">Iron</text>
	</g>
	<g>
		<g>
			<text transform="matrix(1.0003 0 0 1 395.8301 246.3643)" fill="#231F20" font-family="'Calibri-Bold'" font-size="14.5974">26</text>
		</g>
	</g>
</g>
<g>
	<g>
		<rect x="430.15" y="234.454" fill="#DADFA1" width="50.191" height="50.181"/>
		<text transform="matrix(1.0003 0 0 1 441.0566 268.9014)" fill="#231F20" font-family="'Calibri-Bold'" font-size="26.5879">Co</text>
		<text transform="matrix(1.0003 0 0 1 446.5947 279.4043)" fill="#231F20" font-family="'Calibri-Bold'" font-size="6.3864">Cobalt</text>
	</g>
	<g>
		<g>
			<text transform="matrix(1.0003 0 0 1 447.8447 246.3643)" fill="#231F20" font-family="'Calibri-Bold'" font-size="14.5974">27</text>
		</g>
	</g>
</g>
<g>
	<g>
		<rect x="482.167" y="234.454" fill="#DADFA1" width="50.189" height="50.181"/>
		<text transform="matrix(1.0003 0 0 1 495.2354 268.9014)" fill="#231F20" font-family="'Calibri-Bold'" font-size="26.5879">Ni</text>
		<text transform="matrix(1.0003 0 0 1 499.0518 279.4043)" fill="#231F20" font-family="'Calibri-Bold'" font-size="6.3864">Nickel</text>
	</g>
	<g>
		<g>
			<text transform="matrix(1.0003 0 0 1 499.8613 246.3643)" fill="#231F20" font-family="'Calibri-Bold'" font-size="14.5974">28</text>
		</g>
	</g>
</g>
<g>
	<g>
		<rect x="534.184" y="234.454" fill="#DADFA1" width="50.193" height="50.181"/>
		<text transform="matrix(1.0003 0 0 1 545.1025 268.9014)" fill="#231F20" font-family="'Calibri-Bold'" font-size="26.5879">Cu</text>
		<text transform="matrix(1.0003 0 0 1 549.6377 279.4043)" fill="#231F20" font-family="'Calibri-Bold'" font-size="6.3864">Copper</text>
	</g>
	<g>
		<g>
			<text transform="matrix(1.0003 0 0 1 551.8779 246.3643)" fill="#231F20" font-family="'Calibri-Bold'" font-size="14.5974">29</text>
		</g>
	</g>
</g>
<g>
	<g>
		<rect x="586.199" y="234.454" fill="#DADFA1" width="50.191" height="50.181"/>
		<text transform="matrix(1.0003 0 0 1 597.8018 268.9014)" fill="#231F20" font-family="'Calibri-Bold'" font-size="26.5879">Zn</text>
		<text transform="matrix(1.0003 0 0 1 605.873 279.4043)" fill="#231F20" font-family="'Calibri-Bold'" font-size="6.3864">Zinc</text>
	</g>
	<g>
		<g>
			<text transform="matrix(1.0003 0 0 1 603.8945 246.3643)" fill="#231F20" font-family="'Calibri-Bold'" font-size="14.5974">30</text>
		</g>
	</g>
</g>
<g>
	<g>
		<rect x="638.214" y="234.454" fill="#DADFA1" width="50.192" height="50.181"/>
		<text transform="matrix(1.0003 0 0 1 648.2725 269.9238)" fill="#231F20" font-family="'Calibri-Bold'" font-size="26.5879">Ga</text>
		<text transform="matrix(1.0003 0 0 1 652.9736 280.4268)" fill="#231F20" font-family="'Calibri-Bold'" font-size="6.3864">Gallium</text>
	</g>
	<g>
		<g>
			<text transform="matrix(1.0003 0 0 1 655.9111 246.3643)" fill="#231F20" font-family="'Calibri-Bold'" font-size="14.5974">31</text>
		</g>
	</g>
</g>
<g>
	<g>
		<rect x="690.233" y="234.454" fill="#DADFA1" width="50.189" height="50.181"/>
		<text transform="matrix(1.0003 0 0 1 700.1602 269.9238)" fill="#231F20" font-family="'Calibri-Bold'" font-size="26.5879">Ge</text>
		<text transform="matrix(1.0003 0 0 1 699.5039 280.4268)" fill="#231F20" font-family="'Calibri-Bold'" font-size="6.3864">Germa­nium</text>
	</g>
	<g>
		<g>
			<text transform="matrix(1.0003 0 0 1 707.9287 246.3643)" fill="#231F20" font-family="'Calibri-Bold'" font-size="14.5974">32</text>
		</g>
	</g>
</g>
<g>
	<g>
		<rect x="742.248" y="234.454" fill="#DADFA1" width="50.194" height="50.181"/>
		<text transform="matrix(1.0003 0 0 1 753.9805 269.9238)" fill="#231F20" font-family="'Calibri-Bold'" font-size="26.5879">As</text>
		<text transform="matrix(1.0003 0 0 1 757.4951 280.4268)" fill="#231F20" font-family="'Calibri-Bold'" font-size="6.3864">Arsenic</text>
	</g>
	<g>
		<g>
			<text transform="matrix(1.0003 0 0 1 759.9443 246.3643)" fill="#231F20" font-family="'Calibri-Bold'" font-size="14.5974">33</text>
		</g>
	</g>
</g>
<g>
	<g>
		<rect x="794.266" y="234.454" fill="#DADFA1" width="50.19" height="50.181"/>
		<text transform="matrix(1.0003 0 0 1 806.3799 268.9014)" fill="#231F20" font-family="'Calibri-Bold'" font-size="26.5879">Se</text>
		<text transform="matrix(1.0003 0 0 1 806.9785 279.4043)" fill="#231F20" font-family="'Calibri-Bold'" font-size="6.3864">Sele­nium</text>
	</g>
	<g>
		<g>
			<text transform="matrix(1.0003 0 0 1 811.96 246.3643)" fill="#231F20" font-family="'Calibri-Bold'" font-size="14.5974">34</text>
		</g>
	</g>
</g>
<g>
	<g>
		<rect x="846.281" y="234.454" fill="#DADFA1" width="50.191" height="50.181"/>
		<text transform="matrix(1.0003 0 0 1 859.1934 268.9014)" fill="#231F20" font-family="'Calibri-Bold'" font-size="26.5879">Br</text>
		<text transform="matrix(1.0003 0 0 1 859.9697 279.4043)" fill="#231F20" font-family="'Calibri-Bold'" font-size="6.3864">Bromine</text>
	</g>
	<g>
		<g>
			<text transform="matrix(1.0003 0 0 1 863.9775 246.3643)" fill="#231F20" font-family="'Calibri-Bold'" font-size="14.5974">35</text>
		</g>
	</g>
</g>
<g>
	<g>
		<rect x="898.3" y="234.454" fill="#DADFA1" width="50.188" height="50.181"/>
		<text transform="matrix(1.0003 0 0 1 911.3936 268.9014)" fill="#231F20" font-family="'Calibri-Bold'" font-size="26.5879">Kr</text>
		<text transform="matrix(1.0003 0 0 1 912.6855 279.4043)" fill="#231F20" font-family="'Calibri-Bold'" font-size="6.3864">Kryp­ton</text>
	</g>
	<g>
		<g>
			<text transform="matrix(1.0003 0 0 1 915.9932 246.3643)" fill="#231F20" font-family="'Calibri-Bold'" font-size="14.5974">36</text>
		</g>
	</g>
</g>
<g>
	<g>
		<rect x="118.052" y="286.457" fill="#DADFA1" width="50.192" height="50.179"/>
		<text transform="matrix(1.0003 0 0 1 136.2373 320.9043)" fill="#231F20" font-family="'Calibri-Bold'" font-size="26.5879">Y</text>
		<text transform="matrix(1.0003 0 0 1 133.0986 331.4082)" fill="#231F20" font-family="'Calibri-Bold'" font-size="6.3864">Yttrium</text>
	</g>
	<g>
		<g>
			<text transform="matrix(1.0003 0 0 1 135.748 298.3691)" fill="#231F20" font-family="'Calibri-Bold'" font-size="14.5974">39</text>
		</g>
	</g>
</g>
<g>
	<g>
		<rect x="170.068" y="286.457" fill="#DADFA1" width="50.19" height="50.179"/>
		<text transform="matrix(1.0003 0 0 1 184.0801 320.9043)" fill="#231F20" font-family="'Calibri-Bold'" font-size="26.5879">Zr</text>
		<text transform="matrix(1.0003 0 0 1 181.793 331.4082)" fill="#231F20" font-family="'Calibri-Bold'" font-size="6.3864">Zirco­nium</text>
	</g>
	<g>
		<g>
			<text transform="matrix(1.0003 0 0 1 187.7646 298.3691)" fill="#231F20" font-family="'Calibri-Bold'" font-size="14.5974">40</text>
		</g>
	</g>
</g>
<g>
	<g>
		<rect x="222.085" y="286.457" fill="#DADFA1" width="50.19" height="50.179"/>
		<text transform="matrix(1.0003 0 0 1 231.2822 320.9043)" fill="#231F20" font-family="'Calibri-Bold'" font-size="26.5879">Nb</text>
		<text transform="matrix(1.0003 0 0 1 235.7041 331.4082)" fill="#231F20" font-family="'Calibri-Bold'" font-size="6.3864">Nio­bium</text>
	</g>
	<g>
		<g>
			<text transform="matrix(1.0003 0 0 1 239.7803 298.3691)" fill="#231F20" font-family="'Calibri-Bold'" font-size="14.5974">41</text>
		</g>
	</g>
</g>
<g>
	<g>
		<rect x="274.102" y="286.457" fill="#DADFA1" width="50.19" height="50.179"/>
		<text transform="matrix(1.0003 0 0 1 280.4238 320.9043)" fill="#231F20" font-family="'Calibri-Bold'" font-size="26.5879">Mo</text>
		<text transform="matrix(1.0003 0 0 1 281.2686 331.4082)" fill="#231F20" font-family="'Calibri-Bold'" font-size="6.3864">Molyb­denum</text>
	</g>
	<g>
		<g>
			<text transform="matrix(1.0003 0 0 1 291.7969 298.3691)" fill="#231F20" font-family="'Calibri-Bold'" font-size="14.5974">42</text>
		</g>
	</g>
</g>
<g>
	<g>
		<rect x="326.117" y="286.457" fill="#DADFA1" width="50.194" height="50.179"/>
		<text transform="matrix(1.0003 0 0 1 339.0645 320.9043)" fill="#231F20" font-family="'Calibri-Bold'" font-size="26.5879">Tc</text>
		<text transform="matrix(1.0003 0 0 1 335.4082 331.4082)" fill="#231F20" font-family="'Calibri-Bold'" font-size="6.3864">Tech­netium</text>
	</g>
	<g>
		<g>
			<text transform="matrix(1.0003 0 0 1 343.8125 298.3691)" fill="#231F20" font-family="'Calibri-Bold'" font-size="14.5974">43</text>
		</g>
	</g>
</g>
<g>
	<g>
		<rect x="378.134" y="286.457" fill="#DADFA1" width="50.191" height="50.179"/>
		<text transform="matrix(1.0003 0 0 1 388.6055 320.9043)" fill="#231F20" font-family="'Calibri-Bold'" font-size="26.5879">Ru</text>
		<text transform="matrix(1.0003 0 0 1 388.418 331.4082)" fill="#231F20" font-family="'Calibri-Bold'" font-size="6.3864">Ruthe­nium</text>
	</g>
	<g>
		<g>
			<text transform="matrix(1.0003 0 0 1 395.8301 298.3691)" fill="#231F20" font-family="'Calibri-Bold'" font-size="14.5974">44</text>
		</g>
	</g>
</g>
<g>
	<g>
		<rect x="430.15" y="286.457" fill="#DADFA1" width="50.191" height="50.179"/>
		<text transform="matrix(1.0003 0 0 1 440.6211 320.9043)" fill="#231F20" font-family="'Calibri-Bold'" font-size="26.5879">Rh</text>
		<text transform="matrix(1.0003 0 0 1 443.1455 331.4082)" fill="#231F20" font-family="'Calibri-Bold'" font-size="6.3864">Rho­dium</text>
	</g>
	<g>
		<g>
			<text transform="matrix(1.0003 0 0 1 447.8447 298.3691)" fill="#231F20" font-family="'Calibri-Bold'" font-size="14.5974">45</text>
		</g>
	</g>
</g>
<g>
	<g>
		<rect x="482.167" y="286.457" fill="#DADFA1" width="50.189" height="50.179"/>
		<text transform="matrix(1.0003 0 0 1 493.0469 320.9043)" fill="#231F20" font-family="'Calibri-Bold'" font-size="26.5879">Pd</text>
		<text transform="matrix(1.0003 0 0 1 493.9688 331.4082)" fill="#231F20" font-family="'Calibri-Bold'" font-size="6.3864">Pallad­ium</text>
	</g>
	<g>
		<g>
			<text transform="matrix(1.0003 0 0 1 499.8613 298.3691)" fill="#231F20" font-family="'Calibri-Bold'" font-size="14.5974">46</text>
		</g>
	</g>
</g>
<g>
	<g>
		<rect x="534.184" y="286.457" fill="#DADFA1" width="50.193" height="50.179"/>
		<text transform="matrix(1.0003 0 0 1 544.915 320.9043)" fill="#231F20" font-family="'Calibri-Bold'" font-size="26.5879">Ag</text>
		<text transform="matrix(1.0003 0 0 1 551.8857 331.4082)" fill="#231F20" font-family="'Calibri-Bold'" font-size="6.3864">Silver</text>
	</g>
	<g>
		<g>
			<text transform="matrix(1.0003 0 0 1 551.8779 298.3691)" fill="#231F20" font-family="'Calibri-Bold'" font-size="14.5974">47</text>
		</g>
	</g>
</g>
<g>
	<g>
		<rect x="586.199" y="286.457" fill="#DADFA1" width="50.191" height="50.179"/>
		<text transform="matrix(1.0003 0 0 1 597.1201 320.9043)" fill="#231F20" font-family="'Calibri-Bold'" font-size="26.5879">Cd</text>
		<text transform="matrix(1.0003 0 0 1 598.5596 331.4082)" fill="#231F20" font-family="'Calibri-Bold'" font-size="6.3864">Cad­mium</text>
	</g>
	<g>
		<g>
			<text transform="matrix(1.0003 0 0 1 603.8945 298.3691)" fill="#231F20" font-family="'Calibri-Bold'" font-size="14.5974">48</text>
		</g>
	</g>
</g>
<g>
	<g>
		<rect x="638.214" y="286.457" fill="#DADFA1" width="50.192" height="50.179"/>
		<text transform="matrix(1.0003 0 0 1 652.6299 321.9268)" fill="#231F20" font-family="'Calibri-Bold'" font-size="26.5879">In</text>
		<text transform="matrix(1.0003 0 0 1 653.874 332.4307)" fill="#231F20" font-family="'Calibri-Bold'" font-size="6.3864">Indium</text>
	</g>
	<g>
		<g>
			<text transform="matrix(1.0003 0 0 1 655.9111 298.3691)" fill="#231F20" font-family="'Calibri-Bold'" font-size="14.5974">49</text>
		</g>
	</g>
</g>
<g>
	<g>
		<rect x="690.233" y="286.457" fill="#DADFA1" width="50.189" height="50.179"/>
		<text transform="matrix(1.0003 0 0 1 701.9053 321.9268)" fill="#231F20" font-family="'Calibri-Bold'" font-size="26.5879">Sn</text>
		<text transform="matrix(1.0003 0 0 1 711.1875 332.4307)" fill="#231F20" font-family="'Calibri-Bold'" font-size="6.3864">Tin</text>
	</g>
	<g>
		<g>
			<text transform="matrix(1.0003 0 0 1 707.9287 298.3691)" fill="#231F20" font-family="'Calibri-Bold'" font-size="14.5974">50</text>
		</g>
	</g>
</g>
<g>
	<g>
		<rect x="742.248" y="286.457" fill="#DADFA1" width="50.194" height="50.179"/>
		<text transform="matrix(1.0003 0 0 1 753.9219 321.9268)" fill="#231F20" font-family="'Calibri-Bold'" font-size="26.5879">Sb</text>
		<text transform="matrix(1.0003 0 0 1 754.2227 332.4307)" fill="#231F20" font-family="'Calibri-Bold'" font-size="6.3864">Anti­mony</text>
	</g>
	<g>
		<g>
			<text transform="matrix(1.0003 0 0 1 759.9443 298.3691)" fill="#231F20" font-family="'Calibri-Bold'" font-size="14.5974">51</text>
		</g>
	</g>
</g>
<g>
	<g>
		<rect x="794.266" y="286.457" fill="#DADFA1" width="50.19" height="50.179"/>
		<text transform="matrix(1.0003 0 0 1 806.082 321.9268)" fill="#231F20" font-family="'Calibri-Bold'" font-size="26.5879">Te</text>
		<text transform="matrix(1.0003 0 0 1 806.5957 332.4307)" fill="#231F20" font-family="'Calibri-Bold'" font-size="6.3864">Tellur­ium</text>
	</g>
	<g>
		<g>
			<text transform="matrix(1.0003 0 0 1 811.96 298.3691)" fill="#231F20" font-family="'Calibri-Bold'" font-size="14.5974">52</text>
		</g>
	</g>
</g>
<g>
	<g>
		<rect x="846.281" y="286.457" fill="#DADFA1" width="50.191" height="50.179"/>
		<text transform="matrix(1.0003 0 0 1 867.8301 320.9043)" fill="#231F20" font-family="'Calibri-Bold'" font-size="26.5879">I</text>
		<text transform="matrix(1.0003 0 0 1 862.9268 331.4082)" fill="#231F20" font-family="'Calibri-Bold'" font-size="6.3864">Iodine</text>
	</g>
	<g>
		<g>
			<text transform="matrix(1.0003 0 0 1 863.9775 298.3691)" fill="#231F20" font-family="'Calibri-Bold'" font-size="14.5974">53</text>
		</g>
	</g>
</g>
<g>
	<g>
		<rect x="898.3" y="286.457" fill="#DADFA1" width="50.188" height="50.179"/>
		<text transform="matrix(1.0003 0 0 1 909.373 320.9043)" fill="#231F20" font-family="'Calibri-Bold'" font-size="26.5879">Xe</text>
		<text transform="matrix(1.0003 0 0 1 914.8203 331.4082)" fill="#231F20" font-family="'Calibri-Bold'" font-size="6.3864">Xenon</text>
	</g>
	<g>
		<g>
			<text transform="matrix(1.0003 0 0 1 915.9932 298.3691)" fill="#231F20" font-family="'Calibri-Bold'" font-size="14.5974">54</text>
		</g>
	</g>
</g>
<g>
	<g>
		<rect x="118.052" y="463.792" fill="#DADFA1" width="50.192" height="50.18"/>
		<text transform="matrix(1.0003 0 0 1 130.959 499.2617)" fill="#231F20" font-family="'Calibri-Bold'" font-size="26.5879">La</text>
		<text transform="matrix(1.0003 0 0 1 128.0205 509.7656)" fill="#231F20" font-family="'Calibri-Bold'" font-size="6.3864">Lan­thanum</text>
	</g>
	<g>
		<g>
			<text transform="matrix(1.0003 0 0 1 135.748 475.7041)" fill="#231F20" font-family="'Calibri-Bold'" font-size="14.5974">57</text>
		</g>
	</g>
</g>
<g>
	<g>
		<rect x="118.052" y="338.461" fill="#DADFA1" width="50.192" height="50.178"/>
		<text transform="matrix(1.0003 0 0 1 126.4375 355.0723)" fill="#231F20" font-family="'Calibri-Bold'" font-size="14.3165">57-71</text>
	</g>
	<text transform="matrix(1.0003 0 0 1 128.3662 371.4941)" fill="#231F20" font-family="'Calibri-Bold'" font-size="10.9481">La-Lu</text>
	<text transform="matrix(1.0003 0 0 1 119.5986 382.1777)" fill="#231F20" font-family="'Calibri-Bold'" font-size="8.9028">Lanthanide</text>
</g>
<g>
	<g>
		<rect x="170.068" y="463.792" fill="#DADFA1" width="50.19" height="50.18"/>
		<text transform="matrix(1.0003 0 0 1 181.4307 499.2617)" fill="#231F20" font-family="'Calibri-Bold'" font-size="26.5879">Ce</text>
		<text transform="matrix(1.0003 0 0 1 185.5723 509.7656)" fill="#231F20" font-family="'Calibri-Bold'" font-size="6.3864">Cerium</text>
	</g>
	<g>
		<g>
			<text transform="matrix(1.0003 0 0 1 187.7646 475.7041)" fill="#231F20" font-family="'Calibri-Bold'" font-size="14.5974">58</text>
		</g>
	</g>
</g>
<g>
	<g>
		<rect x="222.085" y="463.792" fill="#DADFA1" width="50.19" height="50.18"/>
		<text transform="matrix(1.0003 0 0 1 235.374 499.2617)" fill="#231F20" font-family="'Calibri-Bold'" font-size="26.5879">Pr</text>
		<text transform="matrix(1.0003 0 0 1 227.1865 509.7656)" fill="#231F20" font-family="'Calibri-Bold'" font-size="6.3864">Praseo­dymium</text>
	</g>
	<g>
		<g>
			<text transform="matrix(1.0003 0 0 1 239.7803 475.7041)" fill="#231F20" font-family="'Calibri-Bold'" font-size="14.5974">59</text>
		</g>
	</g>
</g>
<g>
	<g>
		<rect x="274.102" y="463.792" fill="#DADFA1" width="50.19" height="50.18"/>
		<text transform="matrix(1.0003 0 0 1 283.2998 499.2617)" fill="#231F20" font-family="'Calibri-Bold'" font-size="26.5879">Nd</text>
		<text transform="matrix(1.0003 0 0 1 282.7852 509.7656)" fill="#231F20" font-family="'Calibri-Bold'" font-size="6.3864">Neo­dymium</text>
	</g>
	<g>
		<g>
			<text transform="matrix(1.0003 0 0 1 291.7969 475.7041)" fill="#231F20" font-family="'Calibri-Bold'" font-size="14.5974">60</text>
		</g>
	</g>
</g>
<g>
	<g>
		<rect x="326.117" y="463.792" fill="#DADFA1" width="50.194" height="50.18"/>
		<text transform="matrix(1.0003 0 0 1 333.3174 499.2617)" fill="#231F20" font-family="'Calibri-Bold'" font-size="26.5879">Pm</text>
		<text transform="matrix(1.0003 0 0 1 334.4766 509.7656)" fill="#231F20" font-family="'Calibri-Bold'" font-size="6.3864">Prome­thium</text>
	</g>
	<g>
		<g>
			<text transform="matrix(1.0003 0 0 1 343.8125 475.7041)" fill="#231F20" font-family="'Calibri-Bold'" font-size="14.5974">61</text>
		</g>
	</g>
</g>
<g>
	<g>
		<rect x="378.134" y="463.792" fill="#DADFA1" width="50.191" height="50.18"/>
		<text transform="matrix(1.0003 0 0 1 386.125 499.2617)" fill="#231F20" font-family="'Calibri-Bold'" font-size="26.5879">Sm</text>
		<text transform="matrix(1.0003 0 0 1 389.6758 509.7656)" fill="#231F20" font-family="'Calibri-Bold'" font-size="6.3864">Sama­rium</text>
	</g>
	<g>
		<g>
			<text transform="matrix(1.0003 0 0 1 395.8301 475.7041)" fill="#231F20" font-family="'Calibri-Bold'" font-size="14.5974">62</text>
		</g>
	</g>
</g>
<g>
	<g>
		<rect x="430.15" y="463.792" fill="#DADFA1" width="50.191" height="50.18"/>
		<text transform="matrix(1.0003 0 0 1 441.6211 499.2617)" fill="#231F20" font-family="'Calibri-Bold'" font-size="26.5879">Eu</text>
		<text transform="matrix(1.0003 0 0 1 442.25 509.7656)" fill="#231F20" font-family="'Calibri-Bold'" font-size="6.3864">Europ­ium</text>
	</g>
	<g>
		<g>
			<text transform="matrix(1.0003 0 0 1 447.8457 475.7041)" fill="#231F20" font-family="'Calibri-Bold'" font-size="14.5974">63</text>
		</g>
	</g>
</g>
<g>
	<g>
		<rect x="482.167" y="463.792" fill="#DADFA1" width="50.189" height="50.18"/>
		<text transform="matrix(1.0003 0 0 1 491.6504 499.2617)" fill="#231F20" font-family="'Calibri-Bold'" font-size="26.5879">Gd</text>
		<text transform="matrix(1.0003 0 0 1 491.7793 509.7656)" fill="#231F20" font-family="'Calibri-Bold'" font-size="6.3864">Gadolin­ium</text>
	</g>
	<g>
		<g>
			<text transform="matrix(1.0003 0 0 1 499.8613 475.7041)" fill="#231F20" font-family="'Calibri-Bold'" font-size="14.5974">64</text>
		</g>
	</g>
</g>
<g>
	<g>
		<rect x="534.184" y="463.792" fill="#DADFA1" width="50.193" height="50.18"/>
		<text transform="matrix(1.0003 0 0 1 545.5576 499.2617)" fill="#231F20" font-family="'Calibri-Bold'" font-size="26.5879">Tb</text>
		<text transform="matrix(1.0003 0 0 1 548.082 509.7656)" fill="#231F20" font-family="'Calibri-Bold'" font-size="6.3864">Ter­bium</text>
	</g>
	<g>
		<g>
			<text transform="matrix(1.0003 0 0 1 551.8789 475.7041)" fill="#231F20" font-family="'Calibri-Bold'" font-size="14.5974">65</text>
		</g>
	</g>
</g>
<g>
	<g>
		<rect x="586.199" y="463.792" fill="#DADFA1" width="50.191" height="50.18"/>
		<text transform="matrix(1.0003 0 0 1 596.6143 499.2617)" fill="#231F20" font-family="'Calibri-Bold'" font-size="26.5879">Dy</text>
		<text transform="matrix(1.0003 0 0 1 595.4971 509.7656)" fill="#231F20" font-family="'Calibri-Bold'" font-size="6.3864">Dyspro­sium</text>
	</g>
	<g>
		<g>
			<text transform="matrix(1.0003 0 0 1 603.8936 475.7041)" fill="#231F20" font-family="'Calibri-Bold'" font-size="14.5974">66</text>
		</g>
	</g>
</g>
<g>
	<g>
		<rect x="638.214" y="463.792" fill="#DADFA1" width="50.192" height="50.18"/>
		<text transform="matrix(1.0003 0 0 1 647.7725 499.2617)" fill="#231F20" font-family="'Calibri-Bold'" font-size="26.5879">Ho</text>
		<text transform="matrix(1.0003 0 0 1 651.0391 509.7656)" fill="#231F20" font-family="'Calibri-Bold'" font-size="6.3864">Hol­mium</text>
	</g>
	<g>
		<g>
			<text transform="matrix(1.0003 0 0 1 655.9111 475.7041)" fill="#231F20" font-family="'Calibri-Bold'" font-size="14.5974">67</text>
		</g>
	</g>
</g>
<g>
	<g>
		<rect x="690.233" y="463.792" fill="#DADFA1" width="50.189" height="50.18"/>
		<text transform="matrix(1.0003 0 0 1 704.1143 499.2617)" fill="#231F20" font-family="'Calibri-Bold'" font-size="26.5879">Er</text>
		<text transform="matrix(1.0003 0 0 1 705.7637 509.7656)" fill="#231F20" font-family="'Calibri-Bold'" font-size="6.3864">Erbium</text>
	</g>
	<g>
		<g>
			<text transform="matrix(1.0003 0 0 1 707.9268 475.7041)" fill="#231F20" font-family="'Calibri-Bold'" font-size="14.5974">68</text>
		</g>
	</g>
</g>
<g>
	<g>
		<rect x="742.248" y="463.792" fill="#DADFA1" width="50.194" height="50.18"/>
		<text transform="matrix(1.0003 0 0 1 749.9414 499.2617)" fill="#231F20" font-family="'Calibri-Bold'" font-size="26.5879">Tm</text>
		<text transform="matrix(1.0003 0 0 1 756.3926 509.7656)" fill="#231F20" font-family="'Calibri-Bold'" font-size="6.3864">Thulium</text>
	</g>
	<g>
		<g>
			<text transform="matrix(1.0003 0 0 1 759.9443 475.7041)" fill="#231F20" font-family="'Calibri-Bold'" font-size="14.5974">69</text>
		</g>
	</g>
</g>
<g>
	<g>
		<rect x="794.266" y="463.792" fill="#DADFA1" width="50.19" height="50.18"/>
		<text transform="matrix(1.0003 0 0 1 805.3154 499.2617)" fill="#231F20" font-family="'Calibri-Bold'" font-size="26.5879">Yb</text>
		<text transform="matrix(1.0003 0 0 1 805.9902 509.7656)" fill="#231F20" font-family="'Calibri-Bold'" font-size="6.3864">Ytter­bium</text>
	</g>
	<g>
		<g>
			<text transform="matrix(1.0003 0 0 1 811.96 475.7041)" fill="#231F20" font-family="'Calibri-Bold'" font-size="14.5974">70</text>
		</g>
	</g>
</g>
<g>
	<g>
		<rect x="846.281" y="463.792" fill="#DADFA1" width="50.191" height="50.18"/>
		<text transform="matrix(1.0003 0 0 1 858.6172 499.2617)" fill="#231F20" font-family="'Calibri-Bold'" font-size="26.5879">Lu</text>
		<text transform="matrix(1.0003 0 0 1 859.3545 509.7656)" fill="#231F20" font-family="'Calibri-Bold'" font-size="6.3864">Lute­tium</text>
	</g>
	<g>
		<g>
			<text transform="matrix(1.0003 0 0 1 863.9775 475.7041)" fill="#231F20" font-family="'Calibri-Bold'" font-size="14.5974">71</text>
		</g>
	</g>
</g>
<g>
	<g>
		<rect x="170.068" y="338.461" fill="#DADFA1" width="50.19" height="50.178"/>
		<text transform="matrix(1.0003 0 0 1 182.5674 372.9092)" fill="#231F20" font-family="'Calibri-Bold'" font-size="26.5879">Hf</text>
		<text transform="matrix(1.0003 0 0 1 183.6904 383.4111)" fill="#231F20" font-family="'Calibri-Bold'" font-size="6.3864">Haf­nium</text>
	</g>
	<g>
		<g>
			<text transform="matrix(1.0003 0 0 1 187.7646 350.3721)" fill="#231F20" font-family="'Calibri-Bold'" font-size="14.5974">72</text>
		</g>
	</g>
</g>
<g>
	<g>
		<rect x="222.085" y="338.461" fill="#DADFA1" width="50.19" height="50.178"/>
		<text transform="matrix(1.0003 0 0 1 234.0303 372.9092)" fill="#231F20" font-family="'Calibri-Bold'" font-size="26.5879">Ta</text>
		<text transform="matrix(1.0003 0 0 1 234.4658 383.4111)" fill="#231F20" font-family="'Calibri-Bold'" font-size="6.3864">Tanta­lum</text>
	</g>
	<g>
		<g>
			<text transform="matrix(1.0003 0 0 1 239.7803 350.3721)" fill="#231F20" font-family="'Calibri-Bold'" font-size="14.5974">73</text>
		</g>
	</g>
</g>
<g>
	<g>
		<rect x="274.102" y="338.461" fill="#DADFA1" width="50.19" height="50.178"/>
		<text transform="matrix(1.0003 0 0 1 287.1445 372.9092)" fill="#231F20" font-family="'Calibri-Bold'" font-size="26.5879">W</text>
		<text transform="matrix(1.0003 0 0 1 286.9092 383.4111)" fill="#231F20" font-family="'Calibri-Bold'" font-size="6.3864">Tung­sten</text>
	</g>
	<g>
		<g>
			<text transform="matrix(1.0003 0 0 1 291.7969 350.3721)" fill="#231F20" font-family="'Calibri-Bold'" font-size="14.5974">74</text>
		</g>
	</g>
</g>
<g>
	<g>
		<rect x="326.117" y="338.461" fill="#DADFA1" width="50.194" height="50.178"/>
		<text transform="matrix(1.0003 0 0 1 337.0322 372.9092)" fill="#231F20" font-family="'Calibri-Bold'" font-size="26.5879">Re</text>
		<text transform="matrix(1.0003 0 0 1 339.2227 383.4111)" fill="#231F20" font-family="'Calibri-Bold'" font-size="6.3864">Rhe­nium</text>
	</g>
	<g>
		<g>
			<text transform="matrix(1.0003 0 0 1 343.8125 350.3721)" fill="#231F20" font-family="'Calibri-Bold'" font-size="14.5974">75</text>
		</g>
	</g>
</g>
<g>
	<g>
		<rect x="378.134" y="338.461" fill="#DADFA1" width="50.191" height="50.178"/>
		<text transform="matrix(1.0003 0 0 1 388.9307 372.9092)" fill="#231F20" font-family="'Calibri-Bold'" font-size="26.5879">Os</text>
		<text transform="matrix(1.0003 0 0 1 392.04 383.4111)" fill="#231F20" font-family="'Calibri-Bold'" font-size="6.3864">Os­mium</text>
	</g>
	<g>
		<g>
			<text transform="matrix(1.0003 0 0 1 395.8301 350.3721)" fill="#231F20" font-family="'Calibri-Bold'" font-size="14.5974">76</text>
		</g>
	</g>
</g>
<g>
	<g>
		<rect x="430.15" y="338.461" fill="#DADFA1" width="50.191" height="50.178"/>
		<text transform="matrix(1.0003 0 0 1 446.9717 372.9092)" fill="#231F20" font-family="'Calibri-Bold'" font-size="26.5879">Ir</text>
		<text transform="matrix(1.0003 0 0 1 445.6035 383.4111)" fill="#231F20" font-family="'Calibri-Bold'" font-size="6.3864">Iridium</text>
	</g>
	<g>
		<g>
			<text transform="matrix(1.0003 0 0 1 447.8447 350.3721)" fill="#231F20" font-family="'Calibri-Bold'" font-size="14.5974">77</text>
		</g>
	</g>
</g>
<g>
	<g>
		<rect x="482.167" y="338.461" fill="#DADFA1" width="50.189" height="50.178"/>
		<text transform="matrix(1.0003 0 0 1 495.5742 372.9092)" fill="#231F20" font-family="'Calibri-Bold'" font-size="26.5879">Pt</text>
		<text transform="matrix(1.0003 0 0 1 495.2451 383.4111)" fill="#231F20" font-family="'Calibri-Bold'" font-size="6.3864">Plat­inum</text>
	</g>
	<g>
		<g>
			<text transform="matrix(1.0003 0 0 1 499.8613 350.3721)" fill="#231F20" font-family="'Calibri-Bold'" font-size="14.5974">78</text>
		</g>
	</g>
</g>
<g>
	<g>
		<rect x="534.184" y="338.461" fill="#DADFA1" width="50.193" height="50.178"/>
		<text transform="matrix(1.0003 0 0 1 544.083 372.9092)" fill="#231F20" font-family="'Calibri-Bold'" font-size="26.5879">Au</text>
		<text transform="matrix(1.0003 0 0 1 552.9678 383.4111)" fill="#231F20" font-family="'Calibri-Bold'" font-size="6.3864">Gold</text>
	</g>
	<g>
		<g>
			<text transform="matrix(1.0003 0 0 1 551.8779 350.3721)" fill="#231F20" font-family="'Calibri-Bold'" font-size="14.5974">79</text>
		</g>
	</g>
</g>
<g>
	<g>
		<rect x="586.199" y="338.461" fill="#DADFA1" width="50.191" height="50.178"/>
		<text transform="matrix(1.0003 0 0 1 596.5986 372.9092)" fill="#231F20" font-family="'Calibri-Bold'" font-size="26.5879">Hg</text>
		<text transform="matrix(1.0003 0 0 1 600.002 383.4111)" fill="#231F20" font-family="'Calibri-Bold'" font-size="6.3864">Mer­cury</text>
	</g>
	<g>
		<g>
			<text transform="matrix(1.0003 0 0 1 603.8945 350.3721)" fill="#231F20" font-family="'Calibri-Bold'" font-size="14.5974">80</text>
		</g>
	</g>
</g>
<g>
	<g>
		<rect x="638.214" y="338.461" fill="#DADFA1" width="50.192" height="50.178"/>
		<text transform="matrix(1.0003 0 0 1 653.46 373.9316)" fill="#231F20" font-family="'Calibri-Bold'" font-size="26.5879">Tl</text>
		<text transform="matrix(1.0003 0 0 1 651.7129 384.4336)" fill="#231F20" font-family="'Calibri-Bold'" font-size="6.3864">Thallium</text>
	</g>
	<g>
		<g>
			<text transform="matrix(1.0003 0 0 1 655.9111 350.3721)" fill="#231F20" font-family="'Calibri-Bold'" font-size="14.5974">81</text>
		</g>
	</g>
</g>
<g>
	<g>
		<rect x="690.233" y="338.461" fill="#DADFA1" width="50.189" height="50.178"/>
		<text transform="matrix(1.0003 0 0 1 701.1133 373.9316)" fill="#231F20" font-family="'Calibri-Bold'" font-size="26.5879">Pb</text>
		<text transform="matrix(1.0003 0 0 1 709.0186 384.4336)" fill="#231F20" font-family="'Calibri-Bold'" font-size="6.3864">Lead</text>
	</g>
	<g>
		<g>
			<text transform="matrix(1.0003 0 0 1 707.9287 350.3721)" fill="#231F20" font-family="'Calibri-Bold'" font-size="14.5974">82</text>
		</g>
	</g>
</g>
<g>
	<g>
		<rect x="742.248" y="338.461" fill="#DADFA1" width="50.194" height="50.178"/>
		<text transform="matrix(1.0003 0 0 1 756.6221 373.9316)" fill="#231F20" font-family="'Calibri-Bold'" font-size="26.5879">Bi</text>
		<text transform="matrix(1.0003 0 0 1 756.3008 384.4336)" fill="#231F20" font-family="'Calibri-Bold'" font-size="6.3864">Bis­muth</text>
	</g>
	<g>
		<g>
			<text transform="matrix(1.0003 0 0 1 759.9443 350.3721)" fill="#231F20" font-family="'Calibri-Bold'" font-size="14.5974">83</text>
		</g>
	</g>
</g>
<g>
	<g>
		<rect x="794.266" y="338.461" fill="#DADFA1" width="50.19" height="50.178"/>
		<text transform="matrix(1.0003 0 0 1 805.1328 373.9316)" fill="#231F20" font-family="'Calibri-Bold'" font-size="26.5879">Po</text>
		<text transform="matrix(1.0003 0 0 1 806.5713 384.4336)" fill="#231F20" font-family="'Calibri-Bold'" font-size="6.3864">Polo­nium</text>
	</g>
	<g>
		<g>
			<text transform="matrix(1.0003 0 0 1 811.96 350.3721)" fill="#231F20" font-family="'Calibri-Bold'" font-size="14.5974">84</text>
		</g>
	</g>
</g>
<g>
	<g>
		<rect x="846.281" y="338.461" fill="#DADFA1" width="50.191" height="50.178"/>
		<text transform="matrix(1.0003 0 0 1 858.708 372.9092)" fill="#231F20" font-family="'Calibri-Bold'" font-size="26.5879">At</text>
		<text transform="matrix(1.0003 0 0 1 860.2314 383.4111)" fill="#231F20" font-family="'Calibri-Bold'" font-size="6.3864">Asta­tine</text>
	</g>
	<g>
		<g>
			<text transform="matrix(1.0003 0 0 1 863.9775 350.3721)" fill="#231F20" font-family="'Calibri-Bold'" font-size="14.5974">85</text>
		</g>
	</g>
</g>
<g>
	<g>
		<rect x="898.3" y="338.461" fill="#DADFA1" width="50.188" height="50.178"/>
		<text transform="matrix(1.0003 0 0 1 908.7695 372.9092)" fill="#231F20" font-family="'Calibri-Bold'" font-size="26.5879">Rn</text>
		<text transform="matrix(1.0003 0 0 1 914.8125 383.4111)" fill="#231F20" font-family="'Calibri-Bold'" font-size="6.3864">Radon</text>
	</g>
	<g>
		<g>
			<text transform="matrix(1.0003 0 0 1 915.9932 350.3721)" fill="#231F20" font-family="'Calibri-Bold'" font-size="14.5974">86</text>
		</g>
	</g>
</g>
<g>
	<g>
		<g>
			<rect x="14.02" y="130.447" fill="#DADFA1" width="50.191" height="50.179"/>
			<text transform="matrix(1.0003 0 0 1 30.2236 164.8955)" fill="#231F20" font-family="'Calibri-Bold'" font-size="26.5879">Li</text>
			<g>
				<g>
					<text transform="matrix(1.0003 0 0 1 35.4141 142.3574)" fill="#231F20" font-family="'Calibri-Bold'" font-size="14.5974">3</text>
				</g>
			</g>
		</g>
		<text transform="matrix(1.0003 0 0 1 29.001 175.3965)" fill="#231F20" font-family="'Calibri-Bold'" font-size="6.3864">Lith­ium</text>
	</g>
	<g>
		<rect x="14.02" y="182.449" fill="#DADFA1" width="50.191" height="50.182"/>
		<text transform="matrix(1.0003 0 0 1 23.79 216.8984)" fill="#231F20" font-family="'Calibri-Bold'" font-size="26.5879">Na</text>
		<text transform="matrix(1.0003 0 0 1 29.0166 227.4004)" fill="#231F20" font-family="'Calibri-Bold'" font-size="6.3864">So­dium</text>
		<g>
			<g>
				<text transform="matrix(1.0003 0 0 1 31.7129 194.3604)" fill="#231F20" font-family="'Calibri-Bold'" font-size="14.5974">11</text>
			</g>
		</g>
	</g>
	<g>
		<rect x="14.02" y="234.454" fill="#DADFA1" width="50.191" height="50.181"/>
		<text transform="matrix(1.0003 0 0 1 31.8408 268.9014)" fill="#231F20" font-family="'Calibri-Bold'" font-size="26.5879">K</text>
		<text transform="matrix(1.0003 0 0 1 25.3086 279.4043)" fill="#231F20" font-family="'Calibri-Bold'" font-size="6.3864">Potas­sium</text>
		<g>
			<g>
				<text transform="matrix(1.0003 0 0 1 31.7129 246.3643)" fill="#231F20" font-family="'Calibri-Bold'" font-size="14.5974">19</text>
			</g>
		</g>
	</g>
	<g>
		<rect x="14.02" y="286.457" fill="#DADFA1" width="50.191" height="50.179"/>
		<text transform="matrix(1.0003 0 0 1 24.4912 320.9043)" fill="#231F20" font-family="'Calibri-Bold'" font-size="26.5879">Rb</text>
		<text transform="matrix(1.0003 0 0 1 26.2314 331.4082)" fill="#231F20" font-family="'Calibri-Bold'" font-size="6.3864">Rubid­ium</text>
		<g>
			<g>
				<text transform="matrix(1.0003 0 0 1 31.7129 298.3691)" fill="#231F20" font-family="'Calibri-Bold'" font-size="14.5974">37</text>
			</g>
		</g>
	</g>
	<g>
		<rect x="14.02" y="338.461" fill="#DADFA1" width="50.191" height="50.178"/>
		<text transform="matrix(1.0003 0 0 1 26.7695 372.9092)" fill="#231F20" font-family="'Calibri-Bold'" font-size="26.5879">Cs</text>
		<text transform="matrix(1.0003 0 0 1 27.8076 383.4111)" fill="#231F20" font-family="'Calibri-Bold'" font-size="6.3864">Cae­sium</text>
		<g>
			<g>
				<text transform="matrix(1.0003 0 0 1 31.7129 350.3721)" fill="#231F20" font-family="'Calibri-Bold'" font-size="14.5974">55</text>
			</g>
		</g>
	</g>
	<g>
		<rect x="14.02" y="390.465" fill="#DADFA1" width="50.191" height="50.179"/>
		<text transform="matrix(1.0003 0 0 1 28.2822 424.9121)" fill="#231F20" font-family="'Calibri-Bold'" font-size="26.5879">Fr</text>
		<text transform="matrix(1.0003 0 0 1 26.7285 435.4141)" fill="#231F20" font-family="'Calibri-Bold'" font-size="6.3864">Fran­cium</text>
		<g>
			<g>
				<text transform="matrix(1.0003 0 0 1 31.7129 402.373)" fill="#231F20" font-family="'Calibri-Bold'" font-size="14.5974">87</text>
			</g>
		</g>
	</g>
</g>
<g>
	<g>
		<rect x="66.035" y="130.447" fill="#7DD9EF" width="50.191" height="50.179"/>
		<text transform="matrix(1.0003 0 0 1 76.9824 164.8955)" fill="#231F20" font-family="'Calibri-Bold'" font-size="26.5879">Be</text>
		<text transform="matrix(1.0003 0 0 1 78.3574 175.3965)" fill="#231F20" font-family="'Calibri-Bold'" font-size="6.3864">Beryl­lium</text>
		<g>
			<g>
				<text transform="matrix(1.0003 0 0 1 87.4316 142.3574)" fill="#231F20" font-family="'Calibri-Bold'" font-size="14.5974">4</text>
			</g>
		</g>
	</g>
	<g>
		<rect x="66.035" y="182.449" fill="#7DD9EF" width="50.191" height="50.182"/>
		<text transform="matrix(1.0003 0 0 1 73.2031 216.8984)" fill="#231F20" font-family="'Calibri-Bold'" font-size="26.5879">Mg</text>
		<text transform="matrix(1.0003 0 0 1 75.4941 227.4004)" fill="#231F20" font-family="'Calibri-Bold'" font-size="6.3864">Magne­sium</text>
		<g>
			<g>
				<text transform="matrix(1.0003 0 0 1 83.7314 194.3604)" fill="#231F20" font-family="'Calibri-Bold'" font-size="14.5974">12</text>
			</g>
		</g>
	</g>
	<g>
		<rect x="66.035" y="234.454" fill="#7DD9EF" width="50.191" height="50.181"/>
		<text transform="matrix(1.0003 0 0 1 77.5273 268.9014)" fill="#231F20" font-family="'Calibri-Bold'" font-size="26.5879">Ca</text>
		<text transform="matrix(1.0003 0 0 1 80.585 279.4043)" fill="#231F20" font-family="'Calibri-Bold'" font-size="6.3864">Cal­cium</text>
		<g>
			<g>
				<text transform="matrix(1.0003 0 0 1 83.7314 246.3643)" fill="#231F20" font-family="'Calibri-Bold'" font-size="14.5974">20</text>
			</g>
		</g>
	</g>
	<g>
		<rect x="66.035" y="286.457" fill="#7DD9EF" width="50.191" height="50.179"/>
		<text transform="matrix(1.0003 0 0 1 80.1172 320.9043)" fill="#231F20" font-family="'Calibri-Bold'" font-size="26.5879">Sr</text>
		<text transform="matrix(1.0003 0 0 1 77.7051 331.4082)" fill="#231F20" font-family="'Calibri-Bold'" font-size="6.3864">Stront­ium</text>
		<g>
			<g>
				<text transform="matrix(1.0003 0 0 1 83.7314 298.3691)" fill="#231F20" font-family="'Calibri-Bold'" font-size="14.5974">38</text>
			</g>
		</g>
	</g>
	<g>
		<rect x="66.035" y="338.461" fill="#7DD9EF" width="50.191" height="50.178"/>
		<text transform="matrix(1.0003 0 0 1 77.1123 372.7178)" fill="#231F20" font-family="'Calibri-Bold'" font-size="26.5879">Ba</text>
		<text transform="matrix(1.0003 0 0 1 81.4707 383.4111)" fill="#231F20" font-family="'Calibri-Bold'" font-size="6.3864">Barium</text>
		<g>
			<g>
				<text transform="matrix(1.0003 0 0 1 83.7314 350.3721)" fill="#231F20" font-family="'Calibri-Bold'" font-size="14.5974">56</text>
			</g>
		</g>
	</g>
	<g>
		<rect x="66.035" y="390.465" fill="#7DD9EF" width="50.191" height="50.179"/>
		<text transform="matrix(1.0003 0 0 1 77.0791 424.9121)" fill="#231F20" font-family="'Calibri-Bold'" font-size="26.5879">Ra</text>
		<text transform="matrix(1.0003 0 0 1 80.8848 435.4141)" fill="#231F20" font-family="'Calibri-Bold'" font-size="6.3864">Ra­dium</text>
		<g>
			<g>
				<text transform="matrix(1.0003 0 0 1 83.7314 402.373)" fill="#231F20" font-family="'Calibri-Bold'" font-size="14.5974">88</text>
			</g>
		</g>
	</g>
</g>
<g>
	<g>
		<rect x="118.052" y="390.465" fill="#DADFA1" width="50.192" height="50.179"/>
		<text transform="matrix(1.0003 0 0 1 122.8066 407.0762)" fill="#231F20" font-family="'Calibri-Bold'" font-size="14.3165">89-103</text>
	</g>
	<text transform="matrix(1.0003 0 0 1 127.7451 422.0244)" fill="#231F20" font-family="'Calibri-Bold'" font-size="10.9481">Ac-Lr</text>
	<text transform="matrix(1.0003 0 0 1 124.0098 432.708)" fill="#231F20" font-family="'Calibri-Bold'" font-size="8.9028">Actinide</text>
</g>
<g>
	<g>
		<rect x="118.052" y="515.796" fill="#DADFA1" width="50.192" height="50.178"/>
		<text transform="matrix(1.0003 0 0 1 129.5234 551.2676)" fill="#231F20" font-family="'Calibri-Bold'" font-size="26.5879">Ac</text>
		<text transform="matrix(1.0003 0 0 1 131.1348 561.7686)" fill="#231F20" font-family="'Calibri-Bold'" font-size="6.3864">Actin­ium</text>
	</g>
	<g>
		<g>
			<text transform="matrix(1.0003 0 0 1 135.748 527.7061)" fill="#231F20" font-family="'Calibri-Bold'" font-size="14.5974">89</text>
		</g>
	</g>
</g>
<g>
	<g>
		<rect x="170.068" y="515.796" fill="#DADFA1" width="50.19" height="50.178"/>
		<text transform="matrix(1.0003 0 0 1 181.4434 551.2676)" fill="#231F20" font-family="'Calibri-Bold'" font-size="26.5879">Th</text>
		<text transform="matrix(1.0003 0 0 1 183.8594 561.7686)" fill="#231F20" font-family="'Calibri-Bold'" font-size="6.3864">Thor­ium</text>
	</g>
	<g>
		<g>
			<text transform="matrix(1.0003 0 0 1 187.7646 527.7061)" fill="#231F20" font-family="'Calibri-Bold'" font-size="14.5974">90</text>
		</g>
	</g>
</g>
<g>
	<g>
		<rect x="222.085" y="515.796" fill="#DADFA1" width="50.19" height="50.178"/>
		<text transform="matrix(1.0003 0 0 1 233.5361 551.2676)" fill="#231F20" font-family="'Calibri-Bold'" font-size="26.5879">Pa</text>
		<text transform="matrix(1.0003 0 0 1 229.8652 561.7686)" fill="#231F20" font-family="'Calibri-Bold'" font-size="6.3864">Protac­tinium</text>
	</g>
	<g>
		<g>
			<text transform="matrix(1.0003 0 0 1 239.7803 527.7061)" fill="#231F20" font-family="'Calibri-Bold'" font-size="14.5974">91</text>
		</g>
	</g>
</g>
<g>
	<g>
		<rect x="274.102" y="515.796" fill="#DADFA1" width="50.19" height="50.178"/>
		<text transform="matrix(1.0003 0 0 1 290.5137 551.2676)" fill="#231F20" font-family="'Calibri-Bold'" font-size="26.5879">U</text>
		<text transform="matrix(1.0003 0 0 1 287.5273 561.7686)" fill="#231F20" font-family="'Calibri-Bold'" font-size="6.3864">Ura­nium</text>
	</g>
	<g>
		<g>
			<text transform="matrix(1.0003 0 0 1 291.7969 527.7061)" fill="#231F20" font-family="'Calibri-Bold'" font-size="14.5974">92</text>
		</g>
	</g>
</g>
<g>
	<g>
		<rect x="326.117" y="515.796" fill="#DADFA1" width="50.194" height="50.178"/>
		<text transform="matrix(1.0003 0 0 1 335.3174 551.2676)" fill="#231F20" font-family="'Calibri-Bold'" font-size="26.5879">Np</text>
		<text transform="matrix(1.0003 0 0 1 336.0947 561.7686)" fill="#231F20" font-family="'Calibri-Bold'" font-size="6.3864">Neptu­nium</text>
	</g>
	<g>
		<g>
			<text transform="matrix(1.0003 0 0 1 343.8125 527.7061)" fill="#231F20" font-family="'Calibri-Bold'" font-size="14.5974">93</text>
		</g>
	</g>
</g>
<g>
	<g>
		<rect x="378.134" y="515.796" fill="#DADFA1" width="50.191" height="50.178"/>
		<text transform="matrix(1.0003 0 0 1 389.0146 551.2676)" fill="#231F20" font-family="'Calibri-Bold'" font-size="26.5879">Pu</text>
		<text transform="matrix(1.0003 0 0 1 389.335 561.7686)" fill="#231F20" font-family="'Calibri-Bold'" font-size="6.3864">Pluto­nium</text>
	</g>
	<g>
		<g>
			<text transform="matrix(1.0003 0 0 1 395.8301 527.7061)" fill="#231F20" font-family="'Calibri-Bold'" font-size="14.5974">94</text>
		</g>
	</g>
</g>
<g>
	<g>
		<rect x="430.15" y="515.796" fill="#DADFA1" width="50.191" height="50.178"/>
		<text transform="matrix(1.0003 0 0 1 436.3682 551.2676)" fill="#231F20" font-family="'Calibri-Bold'" font-size="26.5879">Am</text>
		<text transform="matrix(1.0003 0 0 1 440.6895 561.7686)" fill="#231F20" font-family="'Calibri-Bold'" font-size="6.3864">Ameri­cium</text>
	</g>
	<g>
		<g>
			<text transform="matrix(1.0003 0 0 1 447.8457 527.7061)" fill="#231F20" font-family="'Calibri-Bold'" font-size="14.5974">95</text>
		</g>
	</g>
</g>
<g>
	<g>
		<rect x="482.167" y="515.796" fill="#DADFA1" width="50.189" height="50.178"/>
		<text transform="matrix(1.0003 0 0 1 489.4063 551.2676)" fill="#231F20" font-family="'Calibri-Bold'" font-size="26.5879">Cm</text>
		<text transform="matrix(1.0003 0 0 1 497.5645 561.7686)" fill="#231F20" font-family="'Calibri-Bold'" font-size="6.3864">Curium</text>
	</g>
	<g>
		<g>
			<text transform="matrix(1.0003 0 0 1 499.8613 527.7061)" fill="#231F20" font-family="'Calibri-Bold'" font-size="14.5974">96</text>
		</g>
	</g>
</g>
<g>
	<g>
		<rect x="534.184" y="515.796" fill="#DADFA1" width="50.193" height="50.178"/>
		<text transform="matrix(1.0003 0 0 1 545.4404 551.2676)" fill="#231F20" font-family="'Calibri-Bold'" font-size="26.5879">Bk</text>
		<text transform="matrix(1.0003 0 0 1 545.6621 561.7686)" fill="#231F20" font-family="'Calibri-Bold'" font-size="6.3864">Berkel­ium</text>
	</g>
	<g>
		<g>
			<text transform="matrix(1.0003 0 0 1 551.8789 527.7061)" fill="#231F20" font-family="'Calibri-Bold'" font-size="14.5974">97</text>
		</g>
	</g>
</g>
<g>
	<g>
		<rect x="586.199" y="515.796" fill="#DADFA1" width="50.191" height="50.178"/>
		<text transform="matrix(1.0003 0 0 1 600.0488 551.2676)" fill="#231F20" font-family="'Calibri-Bold'" font-size="26.5879">Cf</text>
		<text transform="matrix(1.0003 0 0 1 595.7246 561.7686)" fill="#231F20" font-family="'Calibri-Bold'" font-size="6.3864">Califor­nium</text>
	</g>
	<g>
		<g>
			<text transform="matrix(1.0003 0 0 1 603.8936 527.7061)" fill="#231F20" font-family="'Calibri-Bold'" font-size="14.5974">98</text>
		</g>
	</g>
</g>
<g>
	<g>
		<rect x="690.233" y="515.796" fill="#DADFA1" width="50.189" height="50.178"/>
		<text transform="matrix(1.0003 0 0 1 698.4063 551.2676)" fill="#231F20" font-family="'Calibri-Bold'" font-size="26.5879">Fm</text>
		<text transform="matrix(1.0003 0 0 1 703.3643 561.7686)" fill="#231F20" font-family="'Calibri-Bold'" font-size="6.3864">Fer­mium</text>
	</g>
	<g>
		<g>
			<text transform="matrix(1.0003 0 0 1 704.2266 527.7061)" fill="#231F20" font-family="'Calibri-Bold'" font-size="14.5974">100</text>
		</g>
	</g>
</g>
<g>
	<g>
		<rect x="638.214" y="515.796" fill="#DADFA1" width="50.192" height="50.178"/>
		<text transform="matrix(1.0003 0 0 1 651.5195 551.2676)" fill="#231F20" font-family="'Calibri-Bold'" font-size="26.5879">Es</text>
		<text transform="matrix(1.0003 0 0 1 647.6104 561.7686)" fill="#231F20" font-family="'Calibri-Bold'" font-size="6.3864">Einstei­nium</text>
	</g>
	<g>
		<g>
			<text transform="matrix(1.0003 0 0 1 655.9111 527.7061)" fill="#231F20" font-family="'Calibri-Bold'" font-size="14.5974">99</text>
		</g>
	</g>
</g>
<g>
	<g>
		<rect x="742.248" y="515.796" fill="#DADFA1" width="50.194" height="50.178"/>
		<text transform="matrix(1.0003 0 0 1 748.584 551.2676)" fill="#231F20" font-family="'Calibri-Bold'" font-size="26.5879">Md</text>
		<text transform="matrix(1.0003 0 0 1 748.8477 561.7686)" fill="#231F20" font-family="'Calibri-Bold'" font-size="6.3864">Mende­levium</text>
	</g>
	<g>
		<g>
			<text transform="matrix(1.0003 0 0 1 756.2432 527.7061)" fill="#231F20" font-family="'Calibri-Bold'" font-size="14.5974">101</text>
		</g>
	</g>
</g>
<g>
	<g>
		<rect x="794.266" y="515.796" fill="#DADFA1" width="50.19" height="50.178"/>
		<text transform="matrix(1.0003 0 0 1 803.4512 551.2676)" fill="#231F20" font-family="'Calibri-Bold'" font-size="26.5879">No</text>
		<text transform="matrix(1.0003 0 0 1 806.2754 561.7686)" fill="#231F20" font-family="'Calibri-Bold'" font-size="6.3864">Nobel­ium</text>
	</g>
	<g>
		<g>
			<text transform="matrix(1.0003 0 0 1 808.2607 527.7061)" fill="#231F20" font-family="'Calibri-Bold'" font-size="14.5974">102</text>
		</g>
	</g>
</g>
<g>
	<g>
		<rect x="846.281" y="515.796" fill="#DADFA1" width="50.191" height="50.178"/>
		<text transform="matrix(1.0003 0 0 1 861.0264 551.2676)" fill="#231F20" font-family="'Calibri-Bold'" font-size="26.5879">Lr</text>
		<text transform="matrix(1.0003 0 0 1 855.1191 561.7686)" fill="#231F20" font-family="'Calibri-Bold'" font-size="6.3864">Lawren­cium</text>
	</g>
	<g>
		<g>
			<text transform="matrix(1.0003 0 0 1 860.2764 527.7061)" fill="#231F20" font-family="'Calibri-Bold'" font-size="14.5974">103</text>
		</g>
	</g>
</g>
<g>
	<g>
		<rect x="170.068" y="390.465" fill="#DADFA1" width="50.19" height="50.179"/>
		<text transform="matrix(1.0003 0 0 1 183.4688 424.9121)" fill="#231F20" font-family="'Calibri-Bold'" font-size="26.5879">Rf</text>
		<text transform="matrix(1.0003 0 0 1 175.3535 435.4141)" fill="#231F20" font-family="'Calibri-Bold'" font-size="6.3864">Ruther­fordium</text>
	</g>
	<g>
		<g>
			<text transform="matrix(1.0003 0 0 1 184.0635 402.373)" fill="#231F20" font-family="'Calibri-Bold'" font-size="14.5974">104</text>
		</g>
	</g>
</g>
<g>
	<g>
		<rect x="222.085" y="390.465" fill="#DADFA1" width="50.19" height="50.179"/>
		<text transform="matrix(1.0003 0 0 1 231.6602 424.9121)" fill="#231F20" font-family="'Calibri-Bold'" font-size="26.5879">Db</text>
		<text transform="matrix(1.0003 0 0 1 234.8682 435.4141)" fill="#231F20" font-family="'Calibri-Bold'" font-size="6.3864">Dub­nium</text>
	</g>
	<g>
		<g>
			<text transform="matrix(1.0003 0 0 1 236.0801 402.373)" fill="#231F20" font-family="'Calibri-Bold'" font-size="14.5974">105</text>
		</g>
	</g>
</g>
<g>
	<g>
		<rect x="274.102" y="390.465" fill="#DADFA1" width="50.19" height="50.179"/>
		<text transform="matrix(1.0003 0 0 1 286.6035 424.9121)" fill="#231F20" font-family="'Calibri-Bold'" font-size="26.5879">Sg</text>
		<text transform="matrix(1.0003 0 0 1 283.2646 435.4141)" fill="#231F20" font-family="'Calibri-Bold'" font-size="6.3864">Sea­borgium</text>
	</g>
	<g>
		<g>
			<text transform="matrix(1.0003 0 0 1 288.0967 402.373)" fill="#231F20" font-family="'Calibri-Bold'" font-size="14.5974">106</text>
		</g>
	</g>
</g>
<g>
	<g>
		<rect x="326.117" y="390.465" fill="#DADFA1" width="50.194" height="50.179"/>
		<text transform="matrix(1.0003 0 0 1 336.6221 424.9121)" fill="#231F20" font-family="'Calibri-Bold'" font-size="26.5879">Bh</text>
		<text transform="matrix(1.0003 0 0 1 339.6992 435.4141)" fill="#231F20" font-family="'Calibri-Bold'" font-size="6.3864">Bohr­ium</text>
	</g>
	<g>
		<g>
			<text transform="matrix(1.0003 0 0 1 340.1123 402.373)" fill="#231F20" font-family="'Calibri-Bold'" font-size="14.5974">107</text>
		</g>
	</g>
</g>
<g>
	<g>
		<rect x="378.134" y="390.465" fill="#DADFA1" width="50.191" height="50.179"/>
		<text transform="matrix(1.0003 0 0 1 389.5352 424.9121)" fill="#231F20" font-family="'Calibri-Bold'" font-size="26.5879">Hs</text>
		<text transform="matrix(1.0003 0 0 1 391.9326 435.4141)" fill="#231F20" font-family="'Calibri-Bold'" font-size="6.3864">Has­sium</text>
	</g>
	<g>
		<g>
			<text transform="matrix(1.0003 0 0 1 392.1299 402.373)" fill="#231F20" font-family="'Calibri-Bold'" font-size="14.5974">108</text>
		</g>
	</g>
</g>
<g>
	<g>
		<rect x="430.15" y="390.465" fill="#DADFA1" width="50.191" height="50.179"/>
		<text transform="matrix(1.0003 0 0 1 439.0117 424.9121)" fill="#231F20" font-family="'Calibri-Bold'" font-size="26.5879">Mt</text>
		<text transform="matrix(1.0003 0 0 1 439.3389 435.4141)" fill="#231F20" font-family="'Calibri-Bold'" font-size="6.3864">Meit­nerium</text>
	</g>
	<g>
		<g>
			<text transform="matrix(1.0003 0 0 1 444.1445 402.373)" fill="#231F20" font-family="'Calibri-Bold'" font-size="14.5974">109</text>
		</g>
	</g>
</g>
<g>
	<g>
		<rect x="482.167" y="390.465" fill="#DADFA1" width="50.189" height="50.179"/>
		<text transform="matrix(1.0003 0 0 1 493.5732 424.9121)" fill="#231F20" font-family="'Calibri-Bold'" font-size="26.5879">Ds</text>
		<text transform="matrix(1.0003 0 0 1 488.0234 435.4141)" fill="#231F20" font-family="'Calibri-Bold'" font-size="6.3864">Darm­stadtium</text>
	</g>
	<g>
		<g>
			<text transform="matrix(1.0003 0 0 1 496.1602 402.373)" fill="#231F20" font-family="'Calibri-Bold'" font-size="14.5974">110</text>
		</g>
	</g>
</g>
<g>
	<g>
		<rect x="534.184" y="390.465" fill="#DADFA1" width="50.193" height="50.179"/>
		<text transform="matrix(1.0003 0 0 1 545.4863 424.9121)" fill="#231F20" font-family="'Calibri-Bold'" font-size="26.5879">Rg</text>
		<text transform="matrix(1.0003 0 0 1 541.3398 435.4141)" fill="#231F20" font-family="'Calibri-Bold'" font-size="6.3864">Roent­genium</text>
	</g>
	<g>
		<g>
			<text transform="matrix(1.0003 0 0 1 548.1777 402.373)" fill="#231F20" font-family="'Calibri-Bold'" font-size="14.5974">111</text>
		</g>
	</g>
</g>
<g>
	<g>
		<rect x="586.199" y="390.465" fill="#DADFA1" width="50.191" height="50.179"/>
		<text transform="matrix(1.0003 0 0 1 597.1201 424.9121)" fill="#231F20" font-family="'Calibri-Bold'" font-size="26.5879">Cn</text>
		<text transform="matrix(1.0003 0 0 1 594.4375 435.4141)" fill="#231F20" font-family="'Calibri-Bold'" font-size="6.3864">Coper­nicium</text>
	</g>
	<g>
		<g>
			<text transform="matrix(1.0003 0 0 1 600.1953 402.373)" fill="#231F20" font-family="'Calibri-Bold'" font-size="14.5974">112</text>
		</g>
	</g>
</g>
<g>
	<g>
		<rect x="638.214" y="390.465" fill="#DADFA1" width="50.192" height="50.179"/>
		<text transform="matrix(1.0003 0 0 1 642.8838 425.9346)" fill="#231F20" font-family="'Calibri-Bold'" font-size="26.5879">Uut</text>
		<text transform="matrix(1.0003 0 0 1 648.6846 436.4365)" fill="#231F20" font-family="'Calibri-Bold'" font-size="6.3864">Unun­trium</text>
	</g>
	<g>
		<g>
			<text transform="matrix(1.0003 0 0 1 652.2109 402.373)" fill="#231F20" font-family="'Calibri-Bold'" font-size="14.5974">113</text>
		</g>
	</g>
</g>
<g>
	<g>
		<rect x="690.233" y="390.465" fill="#DADFA1" width="50.189" height="50.179"/>
		<text transform="matrix(1.0003 0 0 1 705.9561 425.9346)" fill="#231F20" font-family="'Calibri-Bold'" font-size="26.5879">Fl</text>
		<text transform="matrix(1.0003 0 0 1 701.9482 436.4365)" fill="#231F20" font-family="'Calibri-Bold'" font-size="6.3864">Flerov­ium</text>
	</g>
	<g>
		<g>
			<text transform="matrix(1.0003 0 0 1 704.2275 402.373)" fill="#231F20" font-family="'Calibri-Bold'" font-size="14.5974">114</text>
		</g>
	</g>
</g>
<g>
	<g>
		<rect x="742.248" y="390.465" fill="#DADFA1" width="50.194" height="50.179"/>
		<text transform="matrix(1.0003 0 0 1 744.3896 425.9346)" fill="#231F20" font-family="'Calibri-Bold'" font-size="26.5879">Uup</text>
		<text transform="matrix(1.0003 0 0 1 748.8389 436.4365)" fill="#231F20" font-family="'Calibri-Bold'" font-size="6.3864">Unun­pentium</text>
	</g>
	<g>
		<g>
			<text transform="matrix(1.0003 0 0 1 756.2432 402.373)" fill="#231F20" font-family="'Calibri-Bold'" font-size="14.5974">115</text>
		</g>
	</g>
</g>
<g>
	<g>
		<rect x="794.266" y="390.465" fill="#DADFA1" width="50.19" height="50.179"/>
		<text transform="matrix(1.0003 0 0 1 807.4443 425.9346)" fill="#231F20" font-family="'Calibri-Bold'" font-size="26.5879">Lv</text>
		<text transform="matrix(1.0003 0 0 1 802.3633 436.4365)" fill="#231F20" font-family="'Calibri-Bold'" font-size="6.3864">Liver­morium</text>
	</g>
	<g>
		<g>
			<text transform="matrix(1.0003 0 0 1 808.2607 402.373)" fill="#231F20" font-family="'Calibri-Bold'" font-size="14.5974">116</text>
		</g>
	</g>
</g>
<g>
	<g>
		<rect x="846.281" y="390.465" fill="#DADFA1" width="50.191" height="50.179"/>
		<text transform="matrix(1.0003 0 0 1 850.2539 424.9121)" fill="#231F20" font-family="'Calibri-Bold'" font-size="26.5879">Uus</text>
		<text transform="matrix(1.0003 0 0 1 853.3115 435.4141)" fill="#231F20" font-family="'Calibri-Bold'" font-size="6.3864">Unun­septium</text>
	</g>
	<g>
		<g>
			<text transform="matrix(1.0003 0 0 1 860.2764 402.373)" fill="#231F20" font-family="'Calibri-Bold'" font-size="14.5974">117</text>
		</g>
	</g>
</g>
<g>
	<g>
		<rect x="898.3" y="390.465" fill="#DADFA1" width="50.188" height="50.179"/>
		<text transform="matrix(1.0003 0 0 1 900.4268 424.9121)" fill="#231F20" font-family="'Calibri-Bold'" font-size="26.5879">Uuo</text>
		<text transform="matrix(1.0003 0 0 1 906.8701 435.4141)" fill="#231F20" font-family="'Calibri-Bold'" font-size="6.3864">Unun­octium</text>
	</g>
	<g>
		<g>
			<text transform="matrix(1.0003 0 0 1 912.293 402.373)" fill="#231F20" font-family="'Calibri-Bold'" font-size="14.5974">118</text>
		</g>
	</g>
</g>
<g>
	<text transform="matrix(1.0003 0 0 1 32.6201 75.1299)" fill="#6D6B6B" font-family="'ArialMT'" font-size="14.3165">IA</text>
</g>
<g>
	<text transform="matrix(1.0003 0 0 1 78.7061 125.9209)" fill="#6D6B6B" font-family="'ArialMT'" font-size="14.3165">IIA</text>
</g>
<g>
	<text transform="matrix(1.0003 0 0 1 131.6104 229.8857)" fill="#6D6B6B" font-family="'ArialMT'" font-size="14.3165">IIIB</text>
</g>
<g>
	<text transform="matrix(1.0003 0 0 1 185.0244 229.8857)" fill="#6D6B6B" font-family="'ArialMT'" font-size="14.3165">IVB</text>
</g>
<g>
	<text transform="matrix(1.0003 0 0 1 234.749 229.8857)" fill="#6D6B6B" font-family="'ArialMT'" font-size="14.3165">VB</text>
</g>
<g>
	<text transform="matrix(1.0003 0 0 1 287.7754 229.8857)" fill="#6D6B6B" font-family="'ArialMT'" font-size="14.3165">VIB</text>
</g>
<g>
	<text transform="matrix(1.0003 0 0 1 337.6045 229.8857)" fill="#6D6B6B" font-family="'ArialMT'" font-size="14.3165">VIIB</text>
</g>
<g>
	<text transform="matrix(1.0003 0 0 1 434.3232 214.0352)" fill="#6D6B6B" font-family="'ArialMT'" font-size="14.3165">VIIIB</text>
</g>
<g>
	<text transform="matrix(1.0003 0 0 1 602.4873 229.8857)" fill="#6D6B6B" font-family="'ArialMT'" font-size="14.3165">IIB</text>
</g>
<g>
	<text transform="matrix(1.0003 0 0 1 548.5303 229.8857)" fill="#6D6B6B" font-family="'ArialMT'" font-size="14.3165">IB</text>
</g>
<g>
	<text transform="matrix(1.0003 0 0 1 652.1533 126.6025)" fill="#6D6B6B" font-family="'ArialMT'" font-size="14.3165">IIIA</text>
</g>
<g>
	<text transform="matrix(1.0003 0 0 1 706.5918 126.6025)" fill="#6D6B6B" font-family="'ArialMT'" font-size="14.3165">IVA</text>
</g>
<g>
	<text transform="matrix(1.0003 0 0 1 758.3594 126.6025)" fill="#6D6B6B" font-family="'ArialMT'" font-size="14.3165">VA</text>
</g>
<g>
	<text transform="matrix(1.0003 0 0 1 805.8086 126.6025)" fill="#6D6B6B" font-family="'ArialMT'" font-size="14.3165">VIA</text>
</g>
<g>
	<text transform="matrix(1.0003 0 0 1 852.917 126.6025)" fill="#6D6B6B" font-family="'ArialMT'" font-size="14.3165">VIIA</text>
</g>
<g>
	<text transform="matrix(1.0003 0 0 1 913.665 74.791)" fill="#6D6B6B" font-family="'ArialMT'" font-size="14.3165">VIIIA</text>
</g>
<polyline fill="none" stroke="#6D6B6B" stroke-width="1.0227" stroke-miterlimit="10" points="397.437,234.017 397.437,220.967 
	509.818,220.967 509.818,234.555 "/>
</svg>
