selector,english_word,engmeaning,nepali_word,nepmeaning,image
marbles,marble,,गुच्‍चा,,
shopkeeper,shopkeeper,,पसले,,
price,price,,मूल्‍य,,
unknown,unknown,,,थाहा छैन,
value,value,,मान,,
represent,represent,,,एउटाको ठाउँमा अर्कोलाई राख्‍नु,
replace,replace,,,को सट्टामा लेख्‍नु,
phrase,phrase,,,छोटो वाक्‍य,
ordinary,ordinary,,साधारण,,
formed,form,,बन्‍नु,,
