selector,english_word,engmeaning,nepali_word,nepmeaning,image
nutrients,nutrient,,पोषण,,
function,function,,काम गर्नु,,
improved,improve,,सुधार्नु,,
concentration,concentration,,ध्यान दिनु,,
patterns,pattern,,"नमुना, तरिका",,
sufficient,sufficient,,पर्याप्त मात्रामा,,
regularly,regularly,,नियमित,,
quickly,quickly,,छिट्टै,,
wounds,wound,,घाउ,,
repair,repair,,मर्मत गर्नु,,
enough,enough,,पुग्ने गरी,,
portion,portion,,"भाग, केही अंश",,
excessive amount,excessive amount,,धेरै मात्रा,,
essential,essential,,आवश्यक,,
mental development,mental development,,मानसिक विकास,,
proportion,proportion,,अनुपात,,
necessary,necessary,,जरूरी,,
maintain,maintain,,"सम्भाल्नु, कायम राख्नु",,
imbalanced diet,imbalanced diet,,असन्तुलित खाना,,
required,required,,आवश्यक,,
properly,properly,,उचित ढङ्गले,,
malnutrition,malnutrition,,कुपोषण,,
Deficiency,Deficiency,,कमी,,
night blindness,night blindness,,रतन्धो,रातमा आँखा नदेख्‍ने  रोग,
marasmus,marasmus,,सुकेनास,जीउ सुक्ने रोग,
reduce,reduce,,घटाउनु,,
significantly,significant,,अर्थपूर्ण,,
swelling,swell,,सुनिनु,,
treated,treat,,उपचार गर्नु,,
anemia,anemia,,रक्तअल्पता,रगतमा हेमोग्लोबिनको मात्रा कम भएको अवस्था,
pale skin,pale skin,,,छाला पहेँलो हुनु,
shortness of breathe,shortness of breathe,,,श्वास फेर्न गाह्रो हुनु,
spinach,spinach,,पालुङ्गो,,
coriander,coriander,,धनियाँ,,
calcium,calcium,,क्याल्सियम,शरीरको लागि चाहिने एक प्रकारको खनिज पदार्थ,
tooth ache,tooth ache,,दाँत दुख्नु,,
fermented leaves,fermented leave,,गुन्द्रुक,,
almond,almond,,हाडे बदाम,,
walnuts,walnut,,ओखर,,
avoid,avoid,,वास्ता नगर्नु,,
possible,possible,,सम्भावना,,
