selector,english_word,engmeaning,nepali_word,nepmeaning,image
respect,respect,,सम्मान गर्नु,,
litter,litter,,फोहोर गर्नु,,
waste,waste,,खेर फाल्नु,,
conversation,conversation,,कुराकानी,,
pay attention,pay attention,,ध्यान दिनु,,
follow,follow,,पालना गर्नु,,
assignments,assignment,,कार्य,,
cheat ,cheat,,चोर्नु,,
disturb,disturb,,बिथोल्नु,,
studying,study,,पढ्नु,,
received,receive,,पाउनु,,
District Officer,District Officer,,जिल्ला अधिकारी,,
maintain,maintain,,कायम राख्नु,,
health level,health level,,स्वास्थ्य स्तर,,
citizens,citizen,,नागरिक,,
current,current,,वर्तमान,,
increase,increase,,बढ्नु,,
decrease,decrease,,घट्नु,,
advice,advice,,सल्लाह,,
greet ,greet,,अभिवादन गर्नु,,
restoring,restore,,पुनर्स्थापना गर्नु,पहिलेको जस्तो पार्नु,
