<?xml version="1.0" encoding="utf-8"?>
<!-- Generator: Adobe Illustrator 15.0.0, SVG Export Plug-In . SVG Version: 6.00 Build 0)  -->
<!DOCTYPE svg PUBLIC "-//W3C//DTD SVG 1.1//EN" "http://www.w3.org/Graphics/SVG/1.1/DTD/svg11.dtd">
<svg version="1.1" id="Layer_1" xmlns="http://www.w3.org/2000/svg" xmlns:xlink="http://www.w3.org/1999/xlink" x="0px" y="0px"
	 width="687.804px" height="687.804px" viewBox="131.763 0.001 687.804 687.804"
	 enable-background="new 131.763 0.001 687.804 687.804" xml:space="preserve">
<ellipse id="water" fill="#1799D3" cx="475.665" cy="343.903" rx="343.902" ry="343.902"/>
<g id="land">
	<path id="land04" fill="#92D14F" d="M781.036,502.19c-3.723-2.555-7.711-4.934-11.549-6.521
		c-12.915-5.344-25.385-9.574-38.303-9.129c-12.915,0.445-15.586-3.564-19.596,2.895c-4.01,6.457-3.117,22.27-14.695,24.721
		c-11.581,2.447-38.524,0.666-46.766,0.666c-8.239,0-14.698,1.783-15.144,4.676c-0.444,2.896-1.112,27.391,6.905,36.744
		c8.015,9.352,16.924,22.27,26.053,26.055c9.132,3.785,26.055,12.469,35.632,15.365c0.954,0.289,2.089,0.561,3.304,0.822
		C736.947,571.157,762.14,538.571,781.036,502.19z"/>
	<path id="land03" fill="#92D14F" d="M188.949,224.885c6.681,3.116,6.013-7.794,10.244-15.144c4.232-7.348,2.894-6.682,14.919,1.337
		c12.026,8.017,6.458,23.604,19.151,41.196c12.692,17.592,17.371,18.928,33.404,25.609c16.03,6.68,24.273,14.252,24.717,20.933
		c0.446,6.68-6.236,12.248-11.579,17.814c-5.344,5.567-14.698,12.024-20.488,18.259c-5.788,6.236-4.009,10.022-5.343,23.606
		c-1.337,13.584,2.003,21.379,4.675,29.617c2.672,8.238,5.792,7.57,11.359,7.793c5.568,0.223,14.473,7.795,20.484,16.035
		c6.012,8.238,9.353,6.9,13.586,8.904c4.231,2.004,11.132,8.463,19.818,18.482c8.686,10.021,2.449,22.938-0.223,36.744
		c-2.671,13.807-13.807,35.631-14.029,42.088c-0.223,6.459,2.449,11.58,2.449,16.701c0,5.123-1.782,14.92-4.676,24.717
		c-2.894,9.801-4.676,13.363-6.014,18.707c-1.335,5.344,5.123,9.799,9.132,10.912c4.007,1.113,8.015-1.783,8.459-4.678
		c0.448-2.895,9.8-24.496,12.473-30.063c2.672-5.566,18.259-4.23,21.153-5.789c2.895-1.559,7.126-10.021,11.357-19.598
		c4.232-9.574,12.693-24.271,15.367-30.063c2.671-5.789,7.57-17.369,16.479-25.164c8.905-7.793,15.586-11.803,21.598-15.588
		c6.012-3.785,16.479-18.705,19.82-26.053c3.341-7.35,9.133-9.131,12.472-10.912c3.34-1.781,12.692-5.344,19.152-6.902
		c6.457-1.561,6.679-4.23,6.234-8.686c-0.447-4.455-12.695-19.818-16.925-24.717c-4.229-4.9-7.793-1.113-17.816-1.34
		c-10.019-0.223-17.812,1.563-18.037-0.889c-0.221-2.449,0.225-9.576-1.779-11.137c-2.005-1.557-8.687-3.34-15.588-5.119
		c-6.902-1.783-14.476-14.029-18.928-24.941c-4.453-10.912-12.694-18.039-20.042-27.836c-7.35-9.798-35.407-24.051-41.865-26.277
		c-6.458-2.227-15.588,4.231-19.151,4.453c-3.564,0.223-13.362-2.227-17.593-4.898c-4.23-2.672-14.251-20.486-23.828-32.957
		c-9.574-12.471-15.365-25.609-18.705-31.176c-3.34-5.567,3.786-12.471,5.791-13.139c2.002-0.668,21.822-0.223,25.386,5.345
		c3.562,5.567-0.669,14.028,2.226,18.705c2.894,4.677,14.474,14.029,19.597,14.252c5.122,0.223,5.788-2.45,1.113-14.252
		c-4.676-11.802-2.227-25.387-0.445-30.729c1.779-5.346,22.491-8.24,31.621-13.808c9.13-5.567,9.797-13.138,13.584-21.601
		c3.786-8.462,28.28-22.49,31.397-26.277c3.12-3.785,1.338-4.452-6.012-8.016c-7.346-3.564-32.288-3.786-38.746-5.566
		c-6.459-1.783-11.135-7.127-15.589-7.795c-4.454-0.669-18.261,9.575-26.5,14.474c-8.239,4.901-4.455-22.269-3.118-36.965
		c1.338-14.696-6.012-15.143-9.129-20.264c-1.074-1.765-3.608-3.338-6.463-4.649c-39.065,29.296-71.681,66.714-95.364,109.744
		c1.845,7.884,4.257,18.123,5.182,20.278C180.71,201.726,182.268,221.767,188.949,224.885z"/>
	<path id="land02" fill="#92D14F" d="M645.624,48.085c-7.641-0.954-10.316-4.582-11.463-4.582s-7.83,0.763-13.752,2.864
		c-5.921,2.102-16.238,9.168-27.507,16.809c-11.269,7.641-13.942,5.35-18.908,5.54c-4.967,0.191,1.528-13.562,4.009-19.292
		c2.486-5.73,1.72-13.563-0.38-21.394c-2.101-7.83-11.653,0.955-15.472,4.393c-3.821,3.438-3.057,5.541-2.483,11.651
		c0.572,6.114,4.776,22.54,6.684,25.597c1.911,3.057-6.875-1.719-14.132-4.775c-7.261-3.057-14.326-8.023-20.439-13.944
		c-6.111-5.921-9.17-6.112-13.563-7.448c-4.392-1.338-11.651,0-19.099,0.382c-7.452,0.381-17.192,10.123-20.439,14.516
		c-3.246,4.394-7.448,11.843-7.448,14.899c0,3.058,5.922,4.202,8.594,6.494c2.675,2.293,2.484,6.111,1.338,8.596
		s-3.82,5.539-3.439,10.124c0.383,4.584,8.216,13.753,14.519,14.707c6.304,0.957,6.494,0.191,13.561-4.773
		c7.07-4.968,23.115-20.058,28.845-20.058c5.732,0,12.224,5.158,13.371,7.258c1.146,2.103,3.82,13.371-4.204,16.811
		c-8.021,3.438-5.728,2.291-7.257,5.157c-1.527,2.866-4.585,11.651-6.493,15.473c-1.91,3.819-14.518-6.876-17.574-6.688
		c-3.057,0.191-17.764,9.935-18.721,13.944c-0.954,4.011,3.248,15.091,2.867,21.203c-0.383,6.112-1.721,5.539-7.259,8.787
		c-5.54,3.246-15.281,4.201-17.191,6.877c-1.907,2.672,0,9.74,2.675,17.954s8.404,12.798,12.989,14.326
		c4.584,1.527,30.943-4.396,37.056-4.585c6.114-0.193,6.306-4.584,6.306-9.358c0-4.776-4.776-14.136-9.551-16.047
		c-4.776-1.909-5.348-2.293-4.394-6.494c0.956-4.202,16.044-13.562,17.953-15.663c1.911-2.101,4.203,0.382,5.924,1.147
		c1.719,0.763,20.82,19.29,25.213,27.122c4.393,7.832,7.447,9.361,14.325,8.788c6.876-0.573,0.573-9.17-1.146-13.563
		c-1.72-4.392-8.213-15.854-8.213-19.864c0-4.01,4.391-6.686,4.391-6.686s1.529,1.338,2.103,3.821
		c0.572,2.482,11.651,18.144,18.526,20.245c6.877,2.101,7.069,0,16.619-0.573c9.55-0.573,11.46-3.246,16.81-5.348
		c5.349-2.102,38.584-3.057,46.224-1.146c7.64,1.91,1.528,4.013-5.919,6.304c-7.453,2.292-19.295,4.011-25.596,4.394
		c-6.306,0.383-14.709,2.101-15.092,5.73c-0.385,3.629,4.966,6.113,14.519,11.079c9.55,4.966,26.551,19.675,39.348,20.63
		c12.799,0.955,20.055-9.934,25.979-12.035c5.92-2.1,4.583,8.214,8.596,15.473c4.01,7.258,7.83,6.877,17.001,12.416
		c9.169,5.54,14.134,7.258,35.718,6.494c13.983-0.495,25.606-2.988,32.083-4.688c-3.476-10.649-7.457-21.068-11.916-31.231
		c-6.29,0.163-11.262-0.342-20.358-0.182c-10.89,0.188-12.991,0.571-16.044,0.382c-3.058-0.193-0.192-5.922,1.336-9.36
		c1.529-3.438,18.146-1.72,24.068-1.146c1.533,0.149,3.785,0.103,6.245-0.093C756.563,134.12,709.513,82.872,651.399,48.254
		C649.744,48.367,647.855,48.366,645.624,48.085z"/>
	<path id="land01" fill="#92D14F" d="M644.455,410.161c2.767-5.535,1.663-37.363,0-46.498c-1.659-9.133,14.395-21.311,21.037-23.524
		c6.644-2.216,29.061-8.579,36.533-9.966c7.472-1.383,16.33-1.938,20.757-12.729c4.431-10.794-6.365-19.65-10.239-24.078
		c-3.875-4.43-20.76,4.15-33.215,3.597c-12.453-0.552-21.863-12.177-37.085-22.418c-15.225-10.241-27.125-20.481-39.856-26.017
		c-12.73-5.535-20.757-4.152-23.802-4.152s-6.645-4.15-9.964-10.518c-3.323-6.365-6.09-8.025-9.411-5.536
		c-3.321,2.491-18.543,13.563-24.91,16.331c-6.365,2.768-26.569-7.197-33.765-11.07c-7.196-3.875-16.33-6.09-16.33-6.09
		c-23.525,1.938-32.105,13.01-35.706,17.16c-3.597,4.151-7.194,19.097-8.023,24.357c-0.834,5.258-5.261,30.167-3.875,41.238
		c1.383,11.07,6.917,16.883,12.731,17.99c5.811,1.105,21.863,1.66,27.122,1.936c5.261,0.278,8.579,8.857,19.93,11.625
		c11.347,2.769,5.809-3.598,20.479-1.659c14.669,1.938,11.9,11.901,12.454,18.542c0.555,6.645,6.92,49.268,7.197,59.23
		s-6.643,9.41-7.751,11.348c-1.106,1.938,1.106,4.43,6.643,13.838c5.537,9.412,4.984,11.625,0.831,23.527
		c-4.15,11.9-9.411,21.035-7.75,25.463c1.659,4.428,13.009,10.52,21.036,8.58c8.024-1.938,12.453-19.375,14.945-21.865
		s11.624,0.277,20.48,0.83c8.857,0.553,9.411-0.553,12.455-3.875c3.047-3.322,18.542-29.893,20.204-36.811
		c1.662-6.92,10.518-17.16,15.776-22.973C638.643,410.163,641.687,415.698,644.455,410.161z"/>
</g>
<path id="arctic" fill="#F0EFEE" d="M661.025,613.104c-5.694-1.199-16.792,8.996-20.989,11.994
	c-4.196,2.998-5.396-0.299-13.492-3.598c-8.099-3.299-8.098,4.797-10.496,7.197c-2.4,2.396-27.289,26.688-32.687,31.484
	c-5.397,4.801-33.588-0.896-44.981-2.697c-11.396-1.801-30.588-6.6-47.681-8.396c-17.091-1.799-37.182,16.191-52.776,20.09
	c-15.594,3.898-49.78-17.393-62.673-24.59c-12.894-7.193-29.087-14.994-37.784-17.992c-8.696-2.998-21.591,4.199-24.59,11.098
	c-1.242,2.859-1.806,5.314-1.73,8.27c48.869,26.674,104.924,41.84,164.522,41.84c75.999,0,146.228-24.674,203.153-66.418
	c-2.427-1.117-4.773-2.174-6.398-2.885C667.623,616.405,666.725,614.303,661.025,613.104z"/>
</svg>
