<?xml version="1.0" encoding="utf-8"?>
<!DOCTYPE svg PUBLIC "-//W3C//DTD SVG 1.1//EN" "http://www.w3.org/Graphics/SVG/1.1/DTD/svg11.dtd">
<svg version="1.1" id="Layer_1" xmlns="http://www.w3.org/2000/svg" xmlns:xlink="http://www.w3.org/1999/xlink" x="0px" y="0px"
	 width="960px" height="580px" viewBox="0 0 960 580" enable-background="new 0 0 960 580" xml:space="preserve">
<path opacity="0.8" fill="#007CB7" d="M873.661,371.732h-318.63V519.42c0,0.002,0,0.002,0,0.002
	c15.525-15.35,80.14-26.863,157.525-26.863c85.271,0,155.022,13.98,160.688,31.666c-0.001-0.003-0.003-0.006-0.003-0.01h0.419
	V371.732z"/>
<path fill="none" stroke="#333333" stroke-width="6.1667" stroke-miterlimit="10" d="M887.253,291.576
	c0-12.905-78.041-23.371-174.312-23.371c-96.27,0-174.311,10.465-174.311,23.371"/>
<path opacity="0.8" fill="#AFD6EA" stroke="#333333" stroke-width="6.1667" stroke-linejoin="round" stroke-miterlimit="10" d="
	M552.365,522.943c0.205-0.41,0.463-0.816,0.735-1.223C552.824,522.127,552.572,522.533,552.365,522.943z"/>
<path opacity="0.8" fill="#AFD6EA" stroke="#333333" stroke-width="6.1667" stroke-linejoin="round" stroke-miterlimit="10" d="
	M553.527,521.117c0.261-0.344,0.556-0.686,0.865-1.025C554.083,520.432,553.79,520.773,553.527,521.117z"/>
<path opacity="0.8" fill="#AFD6EA" stroke="#333333" stroke-width="6.1667" stroke-linejoin="round" stroke-miterlimit="10" d="
	M551.681,524.752c0.119-0.48,0.303-0.957,0.516-1.432C551.982,523.795,551.802,524.271,551.681,524.752z"/>
<path opacity="0.8" fill="#AFD6EA" stroke="#333333" stroke-width="6.1667" stroke-linejoin="round" stroke-miterlimit="10" d="
	M873.5,525.209c0.082,0.447,0.161,0.892,0.161,1.34C873.661,526.099,873.595,525.654,873.5,525.209z"/>
<path opacity="0.8" fill="#AFD6EA" stroke="#333333" stroke-width="6.1667" stroke-linejoin="round" stroke-miterlimit="10" d="
	M551.455,526.549c0-0.549,0.074-1.092,0.195-1.634C551.525,525.455,551.455,526,551.455,526.549z"/>
<path fill="#AFD6EA" stroke="#333333" stroke-width="6.1667" stroke-linejoin="round" stroke-miterlimit="10" d="M554.393,520.092
	c0.204-0.224,0.411-0.447,0.636-0.669C554.804,519.646,554.597,519.868,554.393,520.092z"/>
<path fill="#AFD6EA" stroke="#333333" stroke-width="6.1667" stroke-linejoin="round" stroke-miterlimit="10" d="M551.65,524.915
	c0.012-0.055,0.017-0.11,0.03-0.163C551.667,524.805,551.662,524.86,551.65,524.915z"/>
<path fill="#AFD6EA" stroke="#333333" stroke-width="6.1667" stroke-linejoin="round" stroke-miterlimit="10" d="M873.5,525.209
	c-0.06-0.328-0.151-0.656-0.255-0.984C873.349,524.553,873.431,524.882,873.5,525.209z"/>
<path fill="#AFD6EA" stroke="#333333" stroke-width="6.1667" stroke-linejoin="round" stroke-miterlimit="10" d="M552.196,523.32
	c0.057-0.126,0.105-0.252,0.169-0.377C552.302,523.068,552.253,523.194,552.196,523.32z"/>
<path fill="#AFD6EA" stroke="#333333" stroke-width="6.1667" stroke-linejoin="round" stroke-miterlimit="10" d="M553.101,521.721
	c0.137-0.201,0.271-0.402,0.427-0.604C553.372,521.318,553.237,521.518,553.101,521.721z"/>
<path fill="#61BEED" stroke="#333333" stroke-width="6.1667" stroke-linejoin="round" stroke-miterlimit="10" d="M712.557,492.559
	c-77.386,0-142,11.514-157.528,26.864c-0.225,0.222-0.432,0.445-0.636,0.669c-0.31,0.34-0.604,0.682-0.865,1.025
	c-0.155,0.201-0.29,0.402-0.427,0.604c-0.272,0.406-0.53,0.813-0.735,1.223c-0.063,0.125-0.112,0.251-0.169,0.377
	c-0.213,0.475-0.396,0.951-0.516,1.432c-0.014,0.053-0.019,0.108-0.03,0.163c-0.121,0.542-0.195,1.085-0.195,1.634
	c0,18.771,72.127,33.99,161.102,33.99c88.978,0,161.104-15.219,161.104-33.99c0-0.448-0.079-0.893-0.161-1.34
	c-0.069-0.327-0.151-0.656-0.255-0.984C867.579,506.539,797.827,492.559,712.557,492.559z"/>
<path id="circuit" fill="none" stroke="#231F20" stroke-width="7.6938" stroke-linejoin="round" stroke-miterlimit="10" d="M649.176,184.993
	c-4.301-55.895-71.951-86.896-117.466,11.905c-52.834,114.686-139.649,158.358-139.649,158.358
	c-157.865,57.007-244.216-55.034-257.975-95.451s34.598-45.394,34.598-45.394c29.438,51.776,86.239,86,153.212,70.187
	C401.824,265.726,521.91,43.966,636.278,57.725c114.369,13.759,147.047,122.969,147.047,122.969">
</path>






<g>
	<path fill="#999999" d="M764.671,162.404v-0.378C764.671,162.026,764.479,162.183,764.671,162.404z"/>
	<path fill="#999999" d="M796.859,162.026v0.662C797.427,162.328,796.859,162.026,796.859,162.026z"/>
		<path id ="test" fill="#BBC9C9" d="M790.348,163.684c-2.218,0.122-5.131,0.198-8.981,0.198c-2.983,0-5.439-0.046-7.463-0.123
		c-7.12-0.272-8.871-0.933-9.232-1.355v351.174c0,0,2.337,2.325,9.232,3.293c1.809,0.254,3.913,0.42,6.392,0.42
		c4.414,0,7.654-0.34,10.053-0.811c5.555-1.094,6.512-2.902,6.512-2.902v-350.89C796.309,163.04,794.657,163.447,790.348,163.684z">
		</path>
	
	
	
	
	
	
	
	
	
	<circle id="animIdforSet" fill="#4862A3" cx="780" cy="500" r="22" stroke="#000">
	

	
	
	
	 <animateTransform attributeName="transform"
                          attributeType="XML"
                          type="translate"
                          from="0 0"
                          to="-45 0"
                          dur="1.5s"
						  begin="0s"
                          repeatCount="indefinite"
						  />
	
	<set id="show" attributeName="visibility" attributeType="CSS" to="visible" begin="0s; hide.end" dur="1.5s" fill="freeze"/>
	 
	 <set id="hide" attributeName="visibility" attributeType="CSS" to="hidden" begin="show.end" dur="1.5s" fill="freeze"/>
	
	</circle>
	
	
<text id="zn" x="765" y="505" fill="white">Zn++
	
	
	
	 <animateTransform attributeName="transform"
                          attributeType="XML"
                          type="translate"
                          from="0 0"
                          to="-45 0"
                          dur="1.5s"
						  begin="0s"
						  fill="#ffffff"
                          repeatCount="indefinite"/>
						  
						  
						  
						   <style type="text/css" >
							<![CDATA[

							text#zn {
							
							fill: #fff;
							font-family:arial;
							font-weight:bold;
							font-size:17px;
							
							}
  

      ]]>
    </style>
						  

	<set id="show" attributeName="visibility" attributeType="CSS" to="visible" begin="0s; hide.end" dur="1.5s" fill="freeze"/>
	 
	 <set id="hide" attributeName="visibility" attributeType="CSS" to="hidden" begin="show.end" dur="1.5s" fill="freeze"/>
						  
	
</text>
	
	
	
	
	
	<!--zn minus-->
	<circle id="test01" fill="#F8FE00" cx="780" cy="390" r="10" stroke="#333">
	
		
	
	</circle>
	
	
	
<text id="minus" x="774" y="400" fill="white" style="font-size:40px;">-
	
	 						  
						  
						   <style type="text/css" >
							<![CDATA[

							text#minus {
							
							fill:   #000;
							}
  

      ]]>
    </style>
						  

						  
	
</text>
	
	<!--zn minus-->
	<circle id="test01" fill="#F8FE00" cx="780" cy="440" r="10" stroke="#333">
	
	
	<!--<animateTransform attributeName="transform"
                          attributeType="XML"
                          type="translate"
                          from="0 0"
                          to=" 0 -305"
                          dur="2s"
						  begin="-4.5s"
                          repeatCount="indefinite"/>-->
	
	
	</circle>
	
	
	
	<text id="minus" x="774" y="449" fill="white" style="font-size:40px;">-
	
	 <!--<animateTransform attributeName="transform"
                          attributeType="XML"
                          type="translate"
                          from="0 0"
                          to="0 -305"
                          dur="2s"
						  begin="-4.5s"
						  fill="#ffffff"
                          repeatCount="indefinite"/>-->
						  
						  
						  
						   <style type="text/css" >
							<![CDATA[

							text#minus {
							
							fill:   #000;
							}
  

      ]]>
    </style>
						  

						  
	
</text>
	

	
	<!--hydrogen plus-->
	<circle id="test01" fill="#F8FE00" cx="735" cy="500" r="13" stroke="#000">
	
	
	<animateTransform attributeName="transform"
                          attributeType="XML"
                          type="translate"
                          from="0 0"
                          to=" -100 0"
                          dur="2.5s"
						  begin="-2s"
                          repeatCount="indefinite"/>
	
	
	</circle>
	
	
	<text id="hydrogen" x="726" y="505" fill="white" style="font-size:17px;">H+
	
	 <animateTransform attributeName="transform"
                          attributeType="XML"
                          type="translate"
                          from="0 0"
                          to=" -100 0"
                          dur="2.5s"
						  begin="-2s"
						  fill="#ffffff"
                          repeatCount="indefinite"/>
						  
						  
						  
						   <style type="text/css" >
							<![CDATA[

							text#hydrogen {
							
							fill:   #000;
							font-family:arial;
							}
  

      ]]>
    </style>
						  

						  
	
</text>
	
	
	
	
	<!--hydrogen plus-->
	<circle id="test01" fill="#F8FE00" cx="735" cy="500" r="13" stroke="#000">
	
	
	<animateTransform attributeName="transform"
                          attributeType="XML"
                          type="translate"
                          from="0 0"
                          to=" -100 0"
                          dur="2.5s"
						  begin="-3s"
                          repeatCount="indefinite"/>
	
	
	</circle>
	
	<text id="hydrogen" x="726" y="505" fill="white" style="font-size:17px;">H+
	
	 <animateTransform attributeName="transform"
                          attributeType="XML"
                          type="translate"
                          from="0 0"
                          to=" -100 0"
                          dur="2.5s"
						  begin="-3s"
						  fill="#ffffff"
                          repeatCount="indefinite"/>
						  
						  
						  
						   <style type="text/css" >
							<![CDATA[

							text#hydrogen {
							
							fill:   #000;
							font-family:arial;
							font-weight:bold;
							}
  

      ]]>
    </style>
						  

						  
	
</text>
	
		
	
	
	
	
		
</g>



<!--copper rod-->


<g id="blink" stroke-width="3" stroke="#F1A30F">

  <animate
            attributeType="XML"
            attributeName="stroke"
            values="#F1A30F;#000;#F1A30F;#F1A30F"
            dur="0.8s"
            repeatCount="indefinite"/>
      

	<path fill="#DC9570" d="M626.36,162.404v-0.378C626.36,162.026,626.17,162.183,626.36,162.404z" />
	<path fill="#DC9570" d="M658.549,162.026v0.662C659.115,162.328,658.549,162.026,658.549,162.026z"/>
		<path fill="#DC9570" d="M652.037,163.684c-2.219,0.122-5.131,0.198-8.98,0.198c-2.985,0-5.44-0.046-7.466-0.123
		c-7.119-0.272-8.869-0.933-9.23-1.355v351.174c0,0,2.336,2.325,9.23,3.293c1.81,0.254,3.914,0.42,6.393,0.42
		c4.415,0,7.654-0.34,10.054-0.811c5.556-1.094,6.512-2.902,6.512-2.902v-350.89C657.997,163.04,656.346,163.447,652.037,163.684z">
		</path>

	
<!--positive -->	
	<circle fill="#F8FE00" cx="640" cy="500" r="10" stroke="#000" stroke-width="1px">
	
	
	
	 <animateTransform attributeName="transform"
                          attributeType="XML"
                          type="translate"
                          from="0 0"
                          to="0 -180"
                          dur="1.5s"
						  begin="0s"
                          repeatCount="indefinite"/>
	
	
	</circle>
	
	
	
	
<text  stroke="none" id="positive" x="632" y="511" fill="white" style="font-size:30px;">+
	
	 <animateTransform attributeName="transform"
                          attributeType="XML"
                          type="translate"
                          from="0 0"
                          to="0 -180"
                          dur="1.5s"
						  begin="0s"
						  fill="#ffffff"
                          repeatCount="indefinite"/>
						  
						  
						  
						   <style type="text/css" >
							<![CDATA[

							text#positive {
							
							fill:   #000;
							font-family:arial;
							
							
							}
  

      ]]>
    </style>
						  

						  
	
</text>
	
<!--positive -->	
	<circle fill="#F8FE00" cx="640" cy="500" r="10" stroke="#000" stroke-width="1px" >
	
	
	
	 <animateTransform attributeName="transform"
                          attributeType="XML"
                          type="translate"
                          from="0 0"
                          to="0 -180"
                          dur="1.5s"
						  begin="-1s"
                          repeatCount="indefinite"/>
	
	
	</circle>
	
	
	<text id="positive" stroke="none" x="632" y="511" fill="white" style="font-size:30px;">+
	
	 <animateTransform attributeName="transform"
                          attributeType="XML"
                          type="translate"
                          from="0 0"
                          to="0 -180"
                          dur="1.5s"
						  begin="-1s"
						  fill="#ffffff"
                          repeatCount="indefinite"/>
						  
						  
						  
						   <style type="text/css" >
							<![CDATA[

							text#positive {
							
							fill:   #000;
							font-family:arial;
							
							
							}
  

      ]]>
    </style>
						  

						  
	
</text>
	
		

	
	
	
	
	

	

	
</g>
<g>
	<path fill="#FCFDFF" d="M202.112,146.863c-0.034,0.045-0.056,0.093-0.099,0.137c-11.643,13.569-21.1,26.332-21.268,35.982
		c-0.134,7.525-0.665,15.42-13.039,20.996c-18.465,6.152-39.878,6.021-55.994,0.879c-14.369-5.624-14.952-13.949-15.086-21.875
		c-0.164-9.281-8.92-21.441-19.933-34.414c-9.756-10.497-15.787-23.591-16.231-37.935c-1.145-36.346,33.852-65.396,78.181-65.396
		s79.315,29.05,78.179,65.396C216.395,124.209,210.968,136.674,202.112,146.863z"/>
	
		<radialGradient id="SVGID_1_" cx="344.2461" cy="179.2744" r="14.1512" gradientTransform="matrix(1.3318 0 0 1.1826 -320.2052 34.0167)" gradientUnits="userSpaceOnUse">
		<stop  offset="0.491" style="stop-color:#000000"/>
		<stop  offset="1" style="stop-color:#FFFFFF"/>
	</radialGradient>
	<path fill="url(#SVGID_1_)" d="M151.201,253.061c-3.428,3.015-6.193,4.576-11.69,4.576l0,0c-6.221,0-9.813-1.916-11.688-4.576
		l-5.956-6.191c-1.945-5.14,7.724-10.449,17.645-10.449l0,0c9.926,0,18.187,6.367,16.239,11.51L151.201,253.061z"/>
	<path fill="#363636" d="M155.676,228.625l-16.165,2.424l-16.168-2.424c0,0-14.97,10.752-10.463,14.73
		c4.47,3.968,12.726,6.949,18.076,8.023c3.935,0.911,12.613,0.798,17.105,0c5.163-0.966,13.617-4.055,18.085-8.023
		C170.646,239.377,155.676,228.625,155.676,228.625z"/>
	<path fill="#898BA2" d="M139.463,208.901c-15.953,0-30.577-3.538-35.712-7.666c0.389,3.269,1.12,9.48,1.147,9.815
		c0.105,1.316,3.384,1.411,3.596,3.501c0.196,1.991-2.448,1.617-2.233,3.523c0.215,1.883,2.811,1.622,3.133,3.351
		c0.388,2.072-2.416,1.733-2.195,3.715c0.225,1.957,2.96,1.745,3.146,3.544c0.185,1.783-2.601,1.212-2.354,3.451
		c0.223,1.959,2.682,1.484,2.882,3.448c0.204,1.936-2.464,1.665-2.146,4.434c0.186,1.645,3.585,3.626,8.546,5.275
		c6.05,2.002,28.008,5.824,44.56-0.137c5.405-1.936,8.993-5.66,9.19-7.359c0.323-2.819-2.372-2.546-2.171-4.512
		c0.207-1.99,2.689-1.509,2.91-3.5c0.253-2.281-2.557-1.706-2.364-3.515c0.188-1.833,2.947-1.624,3.17-3.601
		c0.226-2.014-2.599-1.675-2.215-3.791c0.34-1.754,2.952-1.489,3.172-3.403c0.224-1.947-2.448-1.558-2.249-3.581
		c0.218-2.136,3.523-2.235,3.637-3.571c0.022-0.34,0.568-4.937,0.865-7.461C170.409,205.613,155.974,208.901,139.463,208.901z"/>
	<path fill="#D9D8DC" d="M175.252,200.161c0,5.329-15.882,9.644-35.476,9.644c-19.591,0-35.471-4.315-35.471-9.644
		c0-5.315,15.88-9.626,35.471-9.626C159.37,190.534,175.252,194.846,175.252,200.161z"/>
	<defs>
		<filter id="Adobe_OpacityMaskFilter" filterUnits="userSpaceOnUse" x="117.688" y="208.849" width="25.118" height="39.347">
			<feColorMatrix  type="matrix" values="1 0 0 0 0  0 1 0 0 0  0 0 1 0 0  0 0 0 1 0"/>
		</filter>
	</defs>
	<mask maskUnits="userSpaceOnUse" x="117.688" y="208.849" width="25.118" height="39.347" id="SVGID_2_">
		<g filter="url(#Adobe_OpacityMaskFilter)">
			
				<linearGradient id="SVGID_3_" gradientUnits="userSpaceOnUse" x1="123.8003" y1="266.2412" x2="152.6064" y2="266.2412" gradientTransform="matrix(1 0.0501 0 1 0 -39.8801)">
				<stop  offset="0" style="stop-color:#FFFFFF"/>
				<stop  offset="1" style="stop-color:#000000"/>
			</linearGradient>
			<polygon fill="url(#SVGID_3_)" points="154.076,262.724 113.512,260.922 113.512,203.403 154.076,205.206 			"/>
		</g>
	</mask>
	<path mask="url(#SVGID_2_)" fill="#FFFFFF" d="M142.807,211.132c-15.805,0.784-25.118-2.284-25.118-2.284s0.086,9.354,0.086,9.729
		c-0.018,1.087,1.155,1.219,1.155,2.97c-0.003,1.689-0.949,1.324-0.949,2.958c0,1.638,0.961,1.45,1.023,2.973
		c0.053,1.845-0.983,1.492-0.983,3.277c0,1.776,1.049,1.633,1.049,3.3c0,1.657-1.049,1.075-1.049,3.194
		c0,1.877,0.983,1.469,0.983,3.37c0,1.886-1.645,1.659,0.125,3.785c2.904,3.494,15.124,4.193,18.424,3.604
		c2.635-0.472,5.059-1.404,5.059-4.167c0-2.766-1.036-2.55-1.036-4.446c0-1.899,0.971-1.398,0.971-3.274
		c0-2.12-1.045-1.636-1.045-3.293c0-1.658,1.045-1.423,1.045-3.201c0-1.778-1.03-1.531-0.971-3.369
		c0.052-1.511,1.018-1.242,1.018-2.877c0-1.633-0.95-1.356-0.95-3.046c0-1.748,1.171-1.778,1.16-2.866
		C142.803,217.099,142.807,215.97,142.807,211.132z"/>
	<linearGradient id="SVGID_4_" gradientUnits="userSpaceOnUse" x1="100.6318" y1="226.3896" x2="179.3971" y2="226.3896">
		<stop  offset="0" style="stop-color:#898BA2"/>
		<stop  offset="0.0121" style="stop-color:#83859B"/>
		<stop  offset="0.0956" style="stop-color:#5B5C6C"/>
		<stop  offset="0.179" style="stop-color:#3A3B45"/>
		<stop  offset="0.261" style="stop-color:#212127"/>
		<stop  offset="0.3413" style="stop-color:#0F0F11"/>
		<stop  offset="0.4189" style="stop-color:#040404"/>
		<stop  offset="0.491" style="stop-color:#000000"/>
		<stop  offset="0.5708" style="stop-color:#030304"/>
		<stop  offset="0.6509" style="stop-color:#0E0E10"/>
		<stop  offset="0.7312" style="stop-color:#1F1F24"/>
		<stop  offset="0.8118" style="stop-color:#373741"/>
		<stop  offset="0.8925" style="stop-color:#555765"/>
		<stop  offset="0.9723" style="stop-color:#7B7C91"/>
		<stop  offset="1" style="stop-color:#898BA2"/>
	</linearGradient>
	<path fill="url(#SVGID_4_)" d="M169.397,226.272c0.054-0.514,0.314-0.869,0.671-1.16c-5.82,3.817-13.572,5.398-20.676,6.292
		c-16.56,2.069-32.975-0.536-40.425-4.327c0.667,0.381,1.294,0.785,1.377,1.609c0.089,0.817-0.453,1.133-1.041,1.46
		c5.291,3.098,15.181,5.398,27.284,5.398c4.496,0,9.054-0.252,13.355-0.797c6.632-0.819,14.344-2.982,20.803-6.812
		C170.059,227.527,169.294,227.239,169.397,226.272z M149.943,221.553c7.317-0.916,15.82-3.254,22.562-7.769
		c-0.645-0.425-1.332-0.817-1.229-1.888c0.058-0.59,0.364-1.018,0.754-1.374c-0.018,0.022-0.043,0.024-0.06,0.042
		c-6.358,4.545-15.315,6.735-22.577,7.646c-17.594,2.201-35.023-0.886-41.713-5.047c0.428,0.345,0.75,0.775,0.814,1.389
		c0.077,0.729-0.233,1.136-0.645,1.462c0.101,0.068,0.201,0.143,0.307,0.215c4.918,3.451,15.397,6.118,28.432,6.118
		C141.084,222.348,145.642,222.097,149.943,221.553z M168.852,233.286c0.062-0.587,0.325-0.97,0.669-1.244
		c-6.083,3.49-13.761,5.275-20.128,6.07c-15.653,1.958-31.18-0.256-39.131-3.711c0.317,0.274,0.551,0.632,0.61,1.184
		c0.091,0.821-0.347,1.25-0.848,1.681c5.441,2.883,14.988,4.991,26.563,4.991c4.496,0,9.054-0.254,13.355-0.793
		c6.301-0.789,13.6-2.839,19.872-6.373C169.274,234.615,168.755,234.184,168.852,233.286z M107.337,219.548
		c0.086,0.055,0.167,0.109,0.256,0.155c-0.074-0.058-0.159-0.1-0.238-0.155C107.354,219.548,107.347,219.548,107.337,219.548z
		 M171.807,217.339c-0.227,0.065-0.427,0.172-0.634,0.32c-6.357,4.533-14.519,6.236-21.78,7.142
		c-16.82,2.109-33.506-0.621-40.776-4.503c0.38,0.271,0.685,0.608,0.777,1.128c0.166,0.884-0.252,1.328-0.759,1.707
		c5.089,3.297,15.312,5.813,27.953,5.813c4.496,0,9.054-0.256,13.355-0.788c6.897-0.865,14.959-3.143,21.571-7.268
		c-0.662-0.457-1.362-0.884-1.162-2.01C170.513,218.075,171.144,217.694,171.807,217.339z"/>
	<linearGradient id="SVGID_5_" gradientUnits="userSpaceOnUse" x1="102.5029" y1="226.2915" x2="177.0751" y2="226.2915">
		<stop  offset="0" style="stop-color:#898BA2"/>
		<stop  offset="0.0267" style="stop-color:#82849A"/>
		<stop  offset="0.1379" style="stop-color:#696A7C"/>
		<stop  offset="0.2475" style="stop-color:#575866"/>
		<stop  offset="0.3535" style="stop-color:#4D4D59"/>
		<stop  offset="0.452" style="stop-color:#494955"/>
		<stop  offset="1" style="stop-color:#898BA2"/>
	</linearGradient>
	<path fill="url(#SVGID_5_)" d="M149.943,232.848c5.44-0.685,11.59-2.266,17.183-4.926c1.693-1.053,1.036-1.966-1.351-1.311
		c-5.226,2.291-10.824,3.705-15.832,4.328c-4.302,0.53-8.859,0.788-13.355,0.788c-9.274,0-17.239-1.355-22.841-3.368
		c-0.06-0.02-0.109-0.02-0.166-0.034c-2.069-0.667-4.196-0.304-2.246,0.96c5.594,2.551,14.557,4.354,25.253,4.354
		C141.084,233.64,145.642,233.381,149.943,232.848z M165.815,233.313c-0.106,0.04-0.202,0.049-0.292,0.06
		c-5.162,2.252-10.667,3.661-15.58,4.277c-4.302,0.535-8.859,0.794-13.355,0.794c-9.238,0-17.178-1.346-22.776-3.363
		c-2.117-0.539-3.592,0.135-0.915,1.566c5.623,2.203,13.936,3.705,23.691,3.705c4.496,0,9.054-0.258,13.355-0.794
		c5.453-0.681,11.658-2.318,17.294-5.037C169.137,233.301,167.925,232.636,165.815,233.313z M167.394,212.819
		c-5.64,2.681-11.884,4.228-17.45,4.921c-4.302,0.54-8.859,0.794-13.355,0.794c-10.188,0-18.792-1.633-24.415-3.995
		c-0.146-0.019-0.284-0.054-0.403-0.099c-2.445-0.968-4.28-0.554-1.585,1.098c5.469,2.836,14.943,4.904,26.403,4.904
		c4.496,0,9.054-0.258,13.355-0.796c6.292-0.783,13.454-2.63,19.638-6.009C171.97,211.792,169.439,212.034,167.394,212.819z
		 M166.29,219.856c-0.1,0.034-0.174,0.045-0.254,0.064c-5.308,2.354-11.002,3.783-16.093,4.418
		c-4.302,0.542-8.859,0.796-13.355,0.796c-9.493,0-17.602-1.423-23.213-3.528c-0.09-0.023-0.166-0.026-0.265-0.06
		c-2.561-0.783-3.629-0.128-2.062,0.988c5.563,2.64,14.646,4.495,25.539,4.495c4.496,0,9.054-0.245,13.355-0.784
		c5.866-0.734,12.563-2.502,18.503-5.547C170.086,219.658,168.762,218.997,166.29,219.856z"/>
	<defs>
		<filter id="Adobe_OpacityMaskFilter_1_" filterUnits="userSpaceOnUse" x="145.894" y="204.758" width="27.116" height="45.671">
			<feColorMatrix  type="matrix" values="1 0 0 0 0  0 1 0 0 0  0 0 1 0 0  0 0 0 1 0"/>
		</filter>
	</defs>
	<mask maskUnits="userSpaceOnUse" x="145.894" y="204.758" width="27.116" height="45.671" id="SVGID_6_">
		<g filter="url(#Adobe_OpacityMaskFilter_1_)">
			<linearGradient id="SVGID_7_" gradientUnits="userSpaceOnUse" x1="153.9453" y1="225.4932" x2="190.2102" y2="225.4932">
				<stop  offset="0" style="stop-color:#FFFFFF"/>
				<stop  offset="1" style="stop-color:#000000"/>
			</linearGradient>
			<rect x="134.499" y="188.479" fill="url(#SVGID_7_)" width="49.142" height="74.029"/>
		</g>
	</mask>
	<path mask="url(#SVGID_6_)" fill="#1D1D29" d="M167.303,207.312c-0.065,2.11-0.219,4.585-0.21,4.836
		c0.044,1.163-3.283,2.466-3.274,4.343c0.002,1.804,2.721,0.247,2.721,1.992c0,1.755-2.575,2.324-2.721,3.952
		c-0.18,1.98,2.595,0.83,2.595,2.742c0,1.906-2.962,2.397-2.962,4.175c0,1.776,2.962,0.512,2.962,2.774
		c0,2.013-2.839,2.109-2.839,4.145c0,2.04,2.251-0.047,2.251,2.915c0,2.962-5.506,6.177-16.539,10.169
		c-1.228,0.439-2.352,0.796-3.393,1.076c2.067-0.17,5.61-0.779,9.017-1.943c8.541-2.925,14.442-7.576,15.639-10.163
		c1.274-2.733-2.644-1.972-2.644-4.003c0-2.032,2.644-2.962,2.644-4.97c0-2.262-2.24,0.217-2.24-1.564
		c0-1.77,2.363-3.235,2.363-5.142c0-1.897-2.33,0.083-2.163-1.897c0.142-1.62,3.247-3.475,3.247-5.234
		c0-1.748-3.07,0.695-3.072-1.102c-0.008-1.874,3.353-3.46,3.303-4.626c-0.007-0.397,1.023-5.026,1.023-5.026L167.303,207.312z"/>
	<defs>
		<filter id="Adobe_OpacityMaskFilter_2_" filterUnits="userSpaceOnUse" x="107.84" y="205.602" width="28.145" height="45.923">
			<feColorMatrix  type="matrix" values="1 0 0 0 0  0 1 0 0 0  0 0 1 0 0  0 0 0 1 0"/>
		</filter>
	</defs>
	<mask maskUnits="userSpaceOnUse" x="107.84" y="205.602" width="28.145" height="45.923" id="SVGID_8_">
		<g filter="url(#Adobe_OpacityMaskFilter_2_)">
			
				<linearGradient id="SVGID_9_" gradientUnits="userSpaceOnUse" x1="1853.6807" y1="227.623" x2="1889.9448" y2="227.623" gradientTransform="matrix(-1 0 0 1 1979.4141 0)">
				<stop  offset="0" style="stop-color:#FFFFFF"/>
				<stop  offset="1" style="stop-color:#000000"/>
			</linearGradient>
			<rect x="96.039" y="192.323" fill="url(#SVGID_9_)" width="49.141" height="70.599"/>
		</g>
	</mask>
	<path mask="url(#SVGID_8_)" d="M107.84,205.602l4.748,2.129c0.009,2.054,0.009,6.925,0,7.164c-0.045,1.107,3.146,1.193,3.137,2.982
		c-0.007,1.726-2.581,1.392-2.581,3.069c0,1.672,2.618,1.432,2.761,2.973c0.17,1.89-2.624,1.587-2.624,3.395
		c0,1.826,2.825,1.631,2.825,3.328c0,1.698-2.825,1.147-2.825,3.305c0,1.916,2.624,1.452,2.624,3.395
		c0,1.944-3.215,1.723-1.567,4.147c1.365,2,4.6,4.626,15.633,8.432c1.222,0.42,4.977,1.331,6.015,1.604
		c-2.063-0.158-4.443-0.425-7.69-1.49c-12.422-4.087-18.77-8.441-18.894-10.259c-0.188-2.824,2.893-1.803,2.893-3.736
		c0-1.939-2.645-1.926-3.367-3.638c-0.859-2.02,3.561-0.071,3.123-2.886c-0.263-1.669-2.887-2.237-3.727-4.054
		c-0.785-1.684,3.021-0.479,2.851-2.361c-0.145-1.549-2.851-2.908-2.851-4.583c0-1.677,2.516-0.091,2.53-1.813
		c0-1.777-2.696-2.945-2.648-4.061c0.009-0.389-0.354-5.846-0.354-5.846L107.84,205.602z"/>
	<defs>
		<filter id="Adobe_OpacityMaskFilter_3_" filterUnits="userSpaceOnUse" x="138.629" y="207.945" width="25.859" height="44.19">
			<feColorMatrix  type="matrix" values="1 0 0 0 0  0 1 0 0 0  0 0 1 0 0  0 0 0 1 0"/>
		</filter>
	</defs>
	<mask maskUnits="userSpaceOnUse" x="138.629" y="207.945" width="25.859" height="44.19" id="SVGID_10_">
		<g filter="url(#Adobe_OpacityMaskFilter_3_)">
			<linearGradient id="SVGID_11_" gradientUnits="userSpaceOnUse" x1="176.6333" y1="228.311" x2="145.8888" y2="228.311">
				<stop  offset="0" style="stop-color:#FFFFFF"/>
				<stop  offset="1" style="stop-color:#000000"/>
			</linearGradient>
			<rect x="126.706" y="193.217" fill="url(#SVGID_11_)" width="49.139" height="70.188"/>
		</g>
	</mask>
	<path mask="url(#SVGID_10_)" fill="#BAE3EC" d="M159.437,209.444l-0.133,1.186c-0.015,2.047-0.02,4.783,0,5.024
		c0.028,1.104-3.15,1.186-3.144,2.954c0,1.723,2.587,1.399,2.587,3.052c0,1.665-2.625,1.433-2.763,2.968
		c-0.178,1.881,2.631,1.569,2.631,3.375c0,1.811-2.833,1.615-2.833,3.303c0,1.682,2.833,1.146,2.833,3.3
		c0,1.893-2.631,1.435-2.631,3.362c0,1.931,2.807,1.659,2.807,4.476c0,2.799-4.643,7.478-16.316,9.082
		c-1.287,0.175-2.805,0.162-3.846,0.425c2.646,0.319,5.773,0.319,10.472-0.75c9.585-2.18,14.423-6.775,14.423-9.582
		c0-2.808-2.815-2.535-2.815-4.463c0-1.93,2.632-1.478,2.632-3.373c0-2.15-2.823-1.61-2.823-3.294c0-1.684,2.823-1.497,2.823-3.298
		c0-1.805-2.808-1.505-2.632-3.377c0.153-1.543,2.764-1.303,2.764-2.965c0-1.657-2.583-1.343-2.583-3.054
		c-0.007-1.771,3.181-1.851,3.135-2.96c-0.009-0.378,0.465-6.888,0.465-6.888L159.437,209.444z"/>
	<defs>
		<filter id="Adobe_OpacityMaskFilter_4_" filterUnits="userSpaceOnUse" x="132.217" y="210.014" width="25.25" height="41.682">
			<feColorMatrix  type="matrix" values="1 0 0 0 0  0 1 0 0 0  0 0 1 0 0  0 0 0 1 0"/>
		</filter>
	</defs>
	<mask maskUnits="userSpaceOnUse" x="132.217" y="210.014" width="25.25" height="41.682" id="SVGID_12_">
		<g filter="url(#Adobe_OpacityMaskFilter_4_)">
			<linearGradient id="SVGID_13_" gradientUnits="userSpaceOnUse" x1="137.7437" y1="231.1357" x2="165.866" y2="231.1357">
				<stop  offset="0" style="stop-color:#FFFFFF"/>
				<stop  offset="1" style="stop-color:#000000"/>
			</linearGradient>
			<rect x="109.358" y="199" fill="url(#SVGID_13_)" width="57.296" height="64.272"/>
		</g>
	</mask>
	<path mask="url(#SVGID_12_)" fill="#1C3342" d="M157.467,210.014l-10.481,1.248c0,0,0.055,6.138,0.065,6.518
		c0.048,1.09-2.529,1.445-2.524,3.201c0.006,1.696,1.347,1.716,1.347,3.367c0,1.646-1.384,1.058-1.522,2.593
		c-0.175,1.856,1.387,1.896,1.387,3.691c0,1.787-1.588,1.25-1.588,2.921c0,1.671,1.588,1.488,1.588,3.602
		c0,1.881-1.387,1.096-1.387,2.998c0,1.919,2.327,2.076,1.56,4.774c-1.021,3.603-4.155,5.204-8.722,6.065
		c-1.855,0.349-5.801,0.42-4.815,0.107c2.114,0.455,7.777,1.077,14.435,0c7.221-1.178,10.144-4.604,10.144-7.384
		c0-2.79-2.81-2.521-2.81-4.43c0-1.913,2.631-1.454,2.631-3.338c0-2.127-2.821-1.6-2.821-3.262c0-1.676,2.821-1.483,2.821-3.273
		c0-1.791-2.802-1.491-2.631-3.342c0.146-1.529,2.763-1.297,2.763-2.938c0-1.653-2.575-1.324-2.585-3.021
		c-0.006-1.759,3.182-1.847,3.138-2.939C157.44,216.792,157.467,210.014,157.467,210.014z"/>
	<path fill="#1D1D29" d="M175.777,200.864c-5.368,4.749-19.804,8.038-36.314,8.038c-15.953,0-30.577-3.538-35.712-7.666
		c0.027,0.24,0.06,0.491,0.09,0.754c3.132,4.113,11.994,10.031,37.243,10.031c19.978,0,30.109-4.811,34.521-9.707
		C175.668,201.791,175.726,201.298,175.777,200.864z"/>
	<path fill="#F4F5F5" d="M133.406,224.124c20.67,0,25.025-4.268,19.078-3.524c-8.676,1.073-11.023,1.321-18.734,1.122
		c-7.648-0.193-11.459-0.769-15.806-1.696C112.084,218.779,118.421,224.124,133.406,224.124z M152.484,227.201
		c-8.676,1.077-11.023,1.318-18.734,1.124c-7.648-0.195-11.459-0.779-15.806-1.695c-5.86-1.246,0.477,4.098,15.462,4.098
		C154.076,230.728,158.432,226.458,152.484,227.201z M152.484,233.809c-8.676,1.071-11.023,1.311-18.734,1.114
		c-7.648-0.194-11.459-0.772-15.806-1.69c-5.86-1.254,0.477,4.09,15.462,4.09C154.076,237.323,158.432,233.063,152.484,233.809z
		 M152.484,240.401c-8.676,1.082-11.023,1.324-18.734,1.122c-7.648-0.195-11.459-0.768-15.806-1.69
		c-5.86-1.253,0.477,4.092,15.462,4.092C154.076,243.925,158.432,239.675,152.484,240.401z"/>
	<defs>
		<filter id="Adobe_OpacityMaskFilter_5_" filterUnits="userSpaceOnUse" x="136.101" y="45.578" width="75.857" height="148.65">
			<feColorMatrix  type="matrix" values="1 0 0 0 0  0 1 0 0 0  0 0 1 0 0  0 0 0 1 0"/>
		</filter>
	</defs>
	<mask maskUnits="userSpaceOnUse" x="136.101" y="45.578" width="75.857" height="148.65" id="SVGID_14_">
		<g filter="url(#Adobe_OpacityMaskFilter_5_)">
			<linearGradient id="SVGID_15_" gradientUnits="userSpaceOnUse" x1="233.1084" y1="126.0718" x2="156.744" y2="128.2414">
				<stop  offset="0" style="stop-color:#FFFFFF"/>
				<stop  offset="1" style="stop-color:#000000"/>
			</linearGradient>
			<rect x="135.835" y="36.897" fill="url(#SVGID_15_)" width="92.876" height="181.236"/>
		</g>
	</mask>
	<path mask="url(#SVGID_14_)" fill="#D9D8DC" d="M140.701,45.633v-0.015c-0.646-0.016-1.296-0.04-1.949-0.04
		c-0.108,0-0.214,0-0.332,0c-0.102,0-0.212,0-0.318,0c-0.659,0-1.301,0.024-1.954,0.04v0.015c-0.011,0-0.026,0-0.047,0
		c40.195,1.141,70.56,28.824,68.356,61.793c-0.801,11.909-5.968,26.376-13.859,35.758c-6.217,7.387-23.644,20.144-25.021,40.835
		l-0.181,2.698c-0.249,3.652-1.926,5.995-4.558,7.511c10.02-0.118,17.931-1.648,17.931-9.941v-2.64
		c0-20.344,16.292-32.876,21.915-40.138c7.14-9.227,11.273-23.445,11.273-35.15C211.958,73.951,180.287,46.745,140.701,45.633z"/>
	<defs>
		<filter id="Adobe_OpacityMaskFilter_6_" filterUnits="userSpaceOnUse" x="65.544" y="45.578" width="75.859" height="148.65">
			<feColorMatrix  type="matrix" values="1 0 0 0 0  0 1 0 0 0  0 0 1 0 0  0 0 0 1 0"/>
		</filter>
	</defs>
	<mask maskUnits="userSpaceOnUse" x="65.544" y="45.578" width="75.859" height="148.65" id="SVGID_16_">
		<g filter="url(#Adobe_OpacityMaskFilter_6_)">
			
				<linearGradient id="SVGID_17_" gradientUnits="userSpaceOnUse" x1="1935.6309" y1="126.0718" x2="1859.2711" y2="128.2413" gradientTransform="matrix(-1 0 0 1 1980.0313 0)">
				<stop  offset="0" style="stop-color:#FFFFFF"/>
				<stop  offset="1" style="stop-color:#000000"/>
			</linearGradient>
			<rect x="48.797" y="36.897" fill="url(#SVGID_17_)" width="92.87" height="181.236"/>
		</g>
	</mask>
	<path mask="url(#SVGID_16_)" fill="#D9D8DC" d="M136.801,45.633v-0.015c0.647-0.016,1.295-0.04,1.951-0.04c0.111,0,0.211,0,0.324,0
		s0.213,0,0.329,0c0.657,0,1.296,0.024,1.949,0.04v0.015c0.016,0,0.031,0,0.049,0c-40.188,1.141-70.553,28.824-68.356,61.793
		c0.802,11.909,5.97,26.376,13.86,35.758c6.219,7.387,23.643,20.144,25.025,40.835l0.179,2.698c0.242,3.652,1.923,5.995,4.563,7.511
		c-10.031-0.118-17.946-1.648-17.946-9.941v-2.64c0-20.344-16.282-32.876-21.906-40.138c-7.145-9.227-11.277-23.445-11.277-35.15
		C65.544,73.951,97.218,46.745,136.801,45.633z"/>
	<g>
		<rect x="125.479" y="143.03" fill="#D9D8DC" width="22.782" height="54.688"/>
		<rect x="132.686" y="170.448" fill="#D9D8DC" width="8.186" height="26.708"/>
		<rect x="132.592" y="97.333" fill="#D9D8DC" width="8.186" height="43.386"/>
		<path fill="#D9D8DC" d="M141.406,171.435c0,1.623-2.069,2.937-4.632,2.937c-2.552,0-4.624-1.314-4.624-2.937
			c0-1.632,2.072-2.946,4.624-2.946C139.337,168.489,141.406,169.803,141.406,171.435z"/>
		<path fill="#D9D8DC" d="M140.951,97.172c0,1.615-2.071,2.936-4.632,2.936c-2.554,0-4.626-1.32-4.626-2.936
			c0-1.636,2.072-2.94,4.626-2.94C138.88,94.232,140.951,95.536,140.951,97.172z"/>
		<path fill="#D9D8DC" d="M148.436,143.241c0,2.24-5.18,4.046-11.577,4.046c-6.377,0-11.555-1.806-11.555-4.046
			c0-2.246,5.178-4.072,11.555-4.072C143.256,139.168,148.436,140.995,148.436,143.241z"/>
		<path fill="#D9D8DC" d="M127.621,140.546c0,0-15.272-49.998-19.938-59.887l-1.375-3.961"/>
		<path fill="#D9D8DC" d="M145.923,140.754c0,0,9.88-38.752,17.659-55.31l3.752-8.963"/>
		<line fill="#D9D8DC" x1="139.881" y1="95.135" x2="154.616" y2="64.405"/>
		<line fill="#D9D8DC" x1="132.648" y1="94.721" x2="118.563" y2="64.514"/>
		<polyline fill="none" stroke="#D9D8DC" stroke-width="1.805" stroke-miterlimit="10" points="106.856,80.342 121.492,69.615 
			151.777,69.825 166.05,80.028 		"/>
		<path fill="#D9D8DC" d="M120.574,68.464c0,0,2.745-1.14,3.568,0.949c0.824,2.07-1.55,3.325-1.55,3.325"/>
		<path fill="#D9D8DC" d="M152.785,68.156c0,0-4.395-1.145-4.214,1.257c0.184,2.388,2.288,3.432,2.288,3.432"/>
	</g>
	<linearGradient id="SVGID_18_" gradientUnits="userSpaceOnUse" x1="139.5122" y1="-108.9575" x2="139.5122" y2="267.442">
		<stop  offset="0" style="stop-color:#B9E4F3"/>
		<stop  offset="1" style="stop-color:#C2B59B"/>
	</linearGradient>
	<path fill="url(#SVGID_18_)" d="M139.511,42.6c-44.538,0-80.642,29.152-80.642,65.104c0,14.472,5.857,27.838,15.76,38.647
		c11.258,13.506,20.252,26.278,20.252,36.119c0,10.226,0.698,19.896,27.468,25.581c6.998,1.484,27.421,1.484,34.418,0
		c26.768-5.685,27.472-15.354,27.472-25.581c0-10.236,9.721-23.642,21.605-37.734c0.038-0.045,0.07-0.093,0.107-0.141
		c8.95-10.49,14.204-23.197,14.204-36.89C220.155,71.752,184.048,42.6,139.511,42.6z M201.737,145.228
		c-0.031,0.043-0.061,0.088-0.092,0.124c-11.421,13.313-20.694,25.817-20.854,35.287c-0.128,7.377-0.648,15.123-12.778,20.591
		c-18.106,6.023-39.099,5.893-54.895,0.849c-14.094-5.504-14.662-13.676-14.794-21.44c-0.164-9.098-8.745-21.018-19.543-33.737
		c-9.562-10.291-15.479-23.131-15.91-37.189c-1.121-35.631,33.183-64.119,76.64-64.119c43.456,0,77.761,28.488,76.644,64.119
		C215.74,123.023,210.416,135.24,201.737,145.228z"/>
	
		<radialGradient id="SVGID_19_" cx="344.5317" cy="78.5811" r="64.1185" gradientTransform="matrix(1.3318 0 0 1.1826 -320.2052 34.0167)" gradientUnits="userSpaceOnUse">
		<stop  offset="0" style="stop-color:#FFFBD4;stop-opacity:0.2"/>
		<stop  offset="1" style="stop-color:#FFF100;stop-opacity:0.45"/>
	</radialGradient>
	<path fill="url(#SVGID_19_)" d="M202.112,146.863c-0.034,0.045-0.056,0.093-0.099,0.137c-11.643,13.569-21.1,26.332-21.268,35.982
		c-0.134,7.525-0.665,15.42-13.039,20.996c-18.465,6.152-39.878,6.021-55.994,0.879c-14.369-5.624-14.952-13.949-15.086-21.875
		c-0.164-9.281-8.92-21.441-19.933-34.414c-9.756-10.497-15.787-23.591-16.231-37.935c-1.145-36.346,33.852-65.396,78.181-65.396
		s79.315,29.05,78.179,65.396C216.395,124.209,210.968,136.674,202.112,146.863z"/>
</g>
<!-- <g>
	<path fill="#FCFDFF" d="M202.112,146.863c-0.034,0.045-0.056,0.093-0.099,0.137c-11.643,13.569-21.1,26.332-21.268,35.982
		c-0.134,7.525-0.665,15.42-13.039,20.996c-18.465,6.152-39.878,6.021-55.994,0.879c-14.369-5.624-14.952-13.949-15.086-21.875
		c-0.164-9.281-8.92-21.441-19.933-34.414c-9.756-10.497-15.787-23.591-16.231-37.935c-1.145-36.346,33.852-65.396,78.181-65.396
		s79.315,29.05,78.179,65.396C216.395,124.209,210.968,136.674,202.112,146.863z"/>
	
		<radialGradient id="SVGID_20_" cx="344.2461" cy="179.2744" r="14.1512" gradientTransform="matrix(1.3318 0 0 1.1826 -320.2052 34.0167)" gradientUnits="userSpaceOnUse">
		<stop  offset="0.491" style="stop-color:#000000"/>
		<stop  offset="1" style="stop-color:#FFFFFF"/>
	</radialGradient>
	<path fill="url(#SVGID_20_)" d="M151.201,253.061c-3.428,3.015-6.193,4.576-11.69,4.576l0,0c-6.221,0-9.813-1.916-11.688-4.576
		l-5.956-6.191c-1.945-5.14,7.724-10.449,17.645-10.449l0,0c9.926,0,18.187,6.367,16.239,11.51L151.201,253.061z"/>
	<path fill="#363636" d="M155.676,228.625l-16.165,2.424l-16.168-2.424c0,0-14.97,10.752-10.463,14.73
		c4.47,3.968,12.726,6.949,18.076,8.023c3.935,0.911,12.613,0.798,17.105,0c5.163-0.966,13.617-4.055,18.085-8.023
		C170.646,239.377,155.676,228.625,155.676,228.625z"/>
	<path fill="#898BA2" d="M139.463,208.901c-15.953,0-30.577-3.538-35.712-7.666c0.389,3.269,1.12,9.48,1.147,9.815
		c0.105,1.316,3.384,1.411,3.596,3.501c0.196,1.991-2.448,1.617-2.233,3.523c0.215,1.883,2.811,1.622,3.133,3.351
		c0.388,2.072-2.416,1.733-2.195,3.715c0.225,1.957,2.96,1.745,3.146,3.544c0.185,1.783-2.601,1.212-2.354,3.451
		c0.223,1.959,2.682,1.484,2.882,3.448c0.204,1.936-2.464,1.665-2.146,4.434c0.186,1.645,3.585,3.626,8.546,5.275
		c6.05,2.002,28.008,5.824,44.56-0.137c5.405-1.936,8.993-5.66,9.19-7.359c0.323-2.819-2.372-2.546-2.171-4.512
		c0.207-1.99,2.689-1.509,2.91-3.5c0.253-2.281-2.557-1.706-2.364-3.515c0.188-1.833,2.947-1.624,3.17-3.601
		c0.226-2.014-2.599-1.675-2.215-3.791c0.34-1.754,2.952-1.489,3.172-3.403c0.224-1.947-2.448-1.558-2.249-3.581
		c0.218-2.136,3.523-2.235,3.637-3.571c0.022-0.34,0.568-4.937,0.865-7.461C170.409,205.613,155.974,208.901,139.463,208.901z"/>
	<path fill="#D9D8DC" d="M175.252,200.161c0,5.329-15.882,9.644-35.476,9.644c-19.591,0-35.471-4.315-35.471-9.644
		c0-5.315,15.88-9.626,35.471-9.626C159.37,190.534,175.252,194.846,175.252,200.161z"/>
	<defs>
		<filter id="Adobe_OpacityMaskFilter_7_" filterUnits="userSpaceOnUse" x="117.688" y="208.849" width="25.118" height="39.347">
			<feColorMatrix  type="matrix" values="1 0 0 0 0  0 1 0 0 0  0 0 1 0 0  0 0 0 1 0"/>
		</filter>
	</defs>
	<mask maskUnits="userSpaceOnUse" x="117.688" y="208.849" width="25.118" height="39.347" id="SVGID_21_">
		<g filter="url(#Adobe_OpacityMaskFilter_7_)">
			
				<linearGradient id="SVGID_22_" gradientUnits="userSpaceOnUse" x1="123.8003" y1="266.2412" x2="152.6064" y2="266.2412" gradientTransform="matrix(1 0.0501 0 1 0 -39.8801)">
				<stop  offset="0" style="stop-color:#FFFFFF"/>
				<stop  offset="1" style="stop-color:#000000"/>
			</linearGradient>
			<polygon fill="url(#SVGID_22_)" points="154.076,262.724 113.512,260.922 113.512,203.403 154.076,205.206 			"/>
		</g>
	</mask>
	<path mask="url(#SVGID_21_)" fill="#FFFFFF" d="M142.807,211.132c-15.805,0.784-25.118-2.284-25.118-2.284s0.086,9.354,0.086,9.729
		c-0.018,1.087,1.155,1.219,1.155,2.97c-0.003,1.689-0.949,1.324-0.949,2.958c0,1.638,0.961,1.45,1.023,2.973
		c0.053,1.845-0.983,1.492-0.983,3.277c0,1.776,1.049,1.633,1.049,3.3c0,1.657-1.049,1.075-1.049,3.194
		c0,1.877,0.983,1.469,0.983,3.37c0,1.886-1.645,1.659,0.125,3.785c2.904,3.494,15.124,4.193,18.424,3.604
		c2.635-0.472,5.059-1.404,5.059-4.167c0-2.766-1.036-2.55-1.036-4.446c0-1.899,0.971-1.398,0.971-3.274
		c0-2.12-1.045-1.636-1.045-3.293c0-1.658,1.045-1.423,1.045-3.201c0-1.778-1.03-1.531-0.971-3.369
		c0.052-1.511,1.018-1.242,1.018-2.877c0-1.633-0.95-1.356-0.95-3.046c0-1.748,1.171-1.778,1.16-2.866
		C142.803,217.099,142.807,215.97,142.807,211.132z"/>
	<linearGradient id="SVGID_23_" gradientUnits="userSpaceOnUse" x1="100.6318" y1="226.3896" x2="179.3971" y2="226.3896">
		<stop  offset="0" style="stop-color:#898BA2"/>
		<stop  offset="0.0121" style="stop-color:#83859B"/>
		<stop  offset="0.0956" style="stop-color:#5B5C6C"/>
		<stop  offset="0.179" style="stop-color:#3A3B45"/>
		<stop  offset="0.261" style="stop-color:#212127"/>
		<stop  offset="0.3413" style="stop-color:#0F0F11"/>
		<stop  offset="0.4189" style="stop-color:#040404"/>
		<stop  offset="0.491" style="stop-color:#000000"/>
		<stop  offset="0.5708" style="stop-color:#030304"/>
		<stop  offset="0.6509" style="stop-color:#0E0E10"/>
		<stop  offset="0.7312" style="stop-color:#1F1F24"/>
		<stop  offset="0.8118" style="stop-color:#373741"/>
		<stop  offset="0.8925" style="stop-color:#555765"/>
		<stop  offset="0.9723" style="stop-color:#7B7C91"/>
		<stop  offset="1" style="stop-color:#898BA2"/>
	</linearGradient>
	<path fill="url(#SVGID_23_)" d="M169.397,226.272c0.054-0.514,0.314-0.869,0.671-1.16c-5.82,3.817-13.572,5.398-20.676,6.292
		c-16.56,2.069-32.975-0.536-40.425-4.327c0.667,0.381,1.294,0.785,1.377,1.609c0.089,0.817-0.453,1.133-1.041,1.46
		c5.291,3.098,15.181,5.398,27.284,5.398c4.496,0,9.054-0.252,13.355-0.797c6.632-0.819,14.344-2.982,20.803-6.812
		C170.059,227.527,169.294,227.239,169.397,226.272z M149.943,221.553c7.317-0.916,15.82-3.254,22.562-7.769
		c-0.645-0.425-1.332-0.817-1.229-1.888c0.058-0.59,0.364-1.018,0.754-1.374c-0.018,0.022-0.043,0.024-0.06,0.042
		c-6.358,4.545-15.315,6.735-22.577,7.646c-17.594,2.201-35.023-0.886-41.713-5.047c0.428,0.345,0.75,0.775,0.814,1.389
		c0.077,0.729-0.233,1.136-0.645,1.462c0.101,0.068,0.201,0.143,0.307,0.215c4.918,3.451,15.397,6.118,28.432,6.118
		C141.084,222.348,145.642,222.097,149.943,221.553z M168.852,233.286c0.062-0.587,0.325-0.97,0.669-1.244
		c-6.083,3.49-13.761,5.275-20.128,6.07c-15.653,1.958-31.18-0.256-39.131-3.711c0.317,0.274,0.551,0.632,0.61,1.184
		c0.091,0.821-0.347,1.25-0.848,1.681c5.441,2.883,14.988,4.991,26.563,4.991c4.496,0,9.054-0.254,13.355-0.793
		c6.301-0.789,13.6-2.839,19.872-6.373C169.274,234.615,168.755,234.184,168.852,233.286z M107.337,219.548
		c0.086,0.055,0.167,0.109,0.256,0.155c-0.074-0.058-0.159-0.1-0.238-0.155C107.354,219.548,107.347,219.548,107.337,219.548z
		 M171.807,217.339c-0.227,0.065-0.427,0.172-0.634,0.32c-6.357,4.533-14.519,6.236-21.78,7.142
		c-16.82,2.109-33.506-0.621-40.776-4.503c0.38,0.271,0.685,0.608,0.777,1.128c0.166,0.884-0.252,1.328-0.759,1.707
		c5.089,3.297,15.312,5.813,27.953,5.813c4.496,0,9.054-0.256,13.355-0.788c6.897-0.865,14.959-3.143,21.571-7.268
		c-0.662-0.457-1.362-0.884-1.162-2.01C170.513,218.075,171.144,217.694,171.807,217.339z"/>
	<linearGradient id="SVGID_24_" gradientUnits="userSpaceOnUse" x1="102.5029" y1="226.2915" x2="177.0751" y2="226.2915">
		<stop  offset="0" style="stop-color:#898BA2"/>
		<stop  offset="0.0267" style="stop-color:#82849A"/>
		<stop  offset="0.1379" style="stop-color:#696A7C"/>
		<stop  offset="0.2475" style="stop-color:#575866"/>
		<stop  offset="0.3535" style="stop-color:#4D4D59"/>
		<stop  offset="0.452" style="stop-color:#494955"/>
		<stop  offset="1" style="stop-color:#898BA2"/>
	</linearGradient>
	<path fill="url(#SVGID_24_)" d="M149.943,232.848c5.44-0.685,11.59-2.266,17.183-4.926c1.693-1.053,1.036-1.966-1.351-1.311
		c-5.226,2.291-10.824,3.705-15.832,4.328c-4.302,0.53-8.859,0.788-13.355,0.788c-9.274,0-17.239-1.355-22.841-3.368
		c-0.06-0.02-0.109-0.02-0.166-0.034c-2.069-0.667-4.196-0.304-2.246,0.96c5.594,2.551,14.557,4.354,25.253,4.354
		C141.084,233.64,145.642,233.381,149.943,232.848z M165.815,233.313c-0.106,0.04-0.202,0.049-0.292,0.06
		c-5.162,2.252-10.667,3.661-15.58,4.277c-4.302,0.535-8.859,0.794-13.355,0.794c-9.238,0-17.178-1.346-22.776-3.363
		c-2.117-0.539-3.592,0.135-0.915,1.566c5.623,2.203,13.936,3.705,23.691,3.705c4.496,0,9.054-0.258,13.355-0.794
		c5.453-0.681,11.658-2.318,17.294-5.037C169.137,233.301,167.925,232.636,165.815,233.313z M167.394,212.819
		c-5.64,2.681-11.884,4.228-17.45,4.921c-4.302,0.54-8.859,0.794-13.355,0.794c-10.188,0-18.792-1.633-24.415-3.995
		c-0.146-0.019-0.284-0.054-0.403-0.099c-2.445-0.968-4.28-0.554-1.585,1.098c5.469,2.836,14.943,4.904,26.403,4.904
		c4.496,0,9.054-0.258,13.355-0.796c6.292-0.783,13.454-2.63,19.638-6.009C171.97,211.792,169.439,212.034,167.394,212.819z
		 M166.29,219.856c-0.1,0.034-0.174,0.045-0.254,0.064c-5.308,2.354-11.002,3.783-16.093,4.418
		c-4.302,0.542-8.859,0.796-13.355,0.796c-9.493,0-17.602-1.423-23.213-3.528c-0.09-0.023-0.166-0.026-0.265-0.06
		c-2.561-0.783-3.629-0.128-2.062,0.988c5.563,2.64,14.646,4.495,25.539,4.495c4.496,0,9.054-0.245,13.355-0.784
		c5.866-0.734,12.563-2.502,18.503-5.547C170.086,219.658,168.762,218.997,166.29,219.856z"/>
	<defs>
		<filter id="Adobe_OpacityMaskFilter_8_" filterUnits="userSpaceOnUse" x="145.894" y="204.758" width="27.116" height="45.671">
			<feColorMatrix  type="matrix" values="1 0 0 0 0  0 1 0 0 0  0 0 1 0 0  0 0 0 1 0"/>
		</filter>
	</defs>
	<mask maskUnits="userSpaceOnUse" x="145.894" y="204.758" width="27.116" height="45.671" id="SVGID_25_">
		<g filter="url(#Adobe_OpacityMaskFilter_8_)">
			<linearGradient id="SVGID_26_" gradientUnits="userSpaceOnUse" x1="153.9453" y1="225.4932" x2="190.2102" y2="225.4932">
				<stop  offset="0" style="stop-color:#FFFFFF"/>
				<stop  offset="1" style="stop-color:#000000"/>
			</linearGradient>
			<rect x="134.499" y="188.479" fill="url(#SVGID_26_)" width="49.142" height="74.029"/>
		</g>
	</mask>
	<path mask="url(#SVGID_25_)" fill="#1D1D29" d="M167.303,207.312c-0.065,2.11-0.219,4.585-0.21,4.836
		c0.044,1.163-3.283,2.466-3.274,4.343c0.002,1.804,2.721,0.247,2.721,1.992c0,1.755-2.575,2.324-2.721,3.952
		c-0.18,1.98,2.595,0.83,2.595,2.742c0,1.906-2.962,2.397-2.962,4.175c0,1.776,2.962,0.512,2.962,2.774
		c0,2.013-2.839,2.109-2.839,4.145c0,2.04,2.251-0.047,2.251,2.915c0,2.962-5.506,6.177-16.539,10.169
		c-1.228,0.439-2.352,0.796-3.393,1.076c2.067-0.17,5.61-0.779,9.017-1.943c8.541-2.925,14.442-7.576,15.639-10.163
		c1.274-2.733-2.644-1.972-2.644-4.003c0-2.032,2.644-2.962,2.644-4.97c0-2.262-2.24,0.217-2.24-1.564
		c0-1.77,2.363-3.235,2.363-5.142c0-1.897-2.33,0.083-2.163-1.897c0.142-1.62,3.247-3.475,3.247-5.234
		c0-1.748-3.07,0.695-3.072-1.102c-0.008-1.874,3.353-3.46,3.303-4.626c-0.007-0.397,1.023-5.026,1.023-5.026L167.303,207.312z"/>
	<defs>
		<filter id="Adobe_OpacityMaskFilter_9_" filterUnits="userSpaceOnUse" x="107.84" y="205.602" width="28.145" height="45.923">
			<feColorMatrix  type="matrix" values="1 0 0 0 0  0 1 0 0 0  0 0 1 0 0  0 0 0 1 0"/>
		</filter>
	</defs>
	<mask maskUnits="userSpaceOnUse" x="107.84" y="205.602" width="28.145" height="45.923" id="SVGID_27_">
		<g filter="url(#Adobe_OpacityMaskFilter_9_)">
			
				<linearGradient id="SVGID_28_" gradientUnits="userSpaceOnUse" x1="1853.6807" y1="227.623" x2="1889.9448" y2="227.623" gradientTransform="matrix(-1 0 0 1 1979.4141 0)">
				<stop  offset="0" style="stop-color:#FFFFFF"/>
				<stop  offset="1" style="stop-color:#000000"/>
			</linearGradient>
			<rect x="96.039" y="192.323" fill="url(#SVGID_28_)" width="49.141" height="70.599"/>
		</g>
	</mask>
	<path mask="url(#SVGID_27_)" d="M107.84,205.602l4.748,2.129c0.009,2.054,0.009,6.925,0,7.164
		c-0.045,1.107,3.146,1.193,3.137,2.982c-0.007,1.726-2.581,1.392-2.581,3.069c0,1.672,2.618,1.432,2.761,2.973
		c0.17,1.89-2.624,1.587-2.624,3.395c0,1.826,2.825,1.631,2.825,3.328c0,1.698-2.825,1.147-2.825,3.305
		c0,1.916,2.624,1.452,2.624,3.395c0,1.944-3.215,1.723-1.567,4.147c1.365,2,4.6,4.626,15.633,8.432
		c1.222,0.42,4.977,1.331,6.015,1.604c-2.063-0.158-4.443-0.425-7.69-1.49c-12.422-4.087-18.77-8.441-18.894-10.259
		c-0.188-2.824,2.893-1.803,2.893-3.736c0-1.939-2.645-1.926-3.367-3.638c-0.859-2.02,3.561-0.071,3.123-2.886
		c-0.263-1.669-2.887-2.237-3.727-4.054c-0.785-1.684,3.021-0.479,2.851-2.361c-0.145-1.549-2.851-2.908-2.851-4.583
		c0-1.677,2.516-0.091,2.53-1.813c0-1.777-2.696-2.945-2.648-4.061c0.009-0.389-0.354-5.846-0.354-5.846L107.84,205.602z"/>
	<defs>
		<filter id="Adobe_OpacityMaskFilter_10_" filterUnits="userSpaceOnUse" x="138.629" y="207.945" width="25.859" height="44.19">
			<feColorMatrix  type="matrix" values="1 0 0 0 0  0 1 0 0 0  0 0 1 0 0  0 0 0 1 0"/>
		</filter>
	</defs>
	<mask maskUnits="userSpaceOnUse" x="138.629" y="207.945" width="25.859" height="44.19" id="SVGID_29_">
		<g filter="url(#Adobe_OpacityMaskFilter_10_)">
			<linearGradient id="SVGID_30_" gradientUnits="userSpaceOnUse" x1="176.6333" y1="228.311" x2="145.8888" y2="228.311">
				<stop  offset="0" style="stop-color:#FFFFFF"/>
				<stop  offset="1" style="stop-color:#000000"/>
			</linearGradient>
			<rect x="126.706" y="193.217" fill="url(#SVGID_30_)" width="49.139" height="70.188"/>
		</g>
	</mask>
	<path mask="url(#SVGID_29_)" fill="#BAE3EC" d="M159.437,209.444l-0.133,1.186c-0.015,2.047-0.02,4.783,0,5.024
		c0.028,1.104-3.15,1.186-3.144,2.954c0,1.723,2.587,1.399,2.587,3.052c0,1.665-2.625,1.433-2.763,2.968
		c-0.178,1.881,2.631,1.569,2.631,3.375c0,1.811-2.833,1.615-2.833,3.303c0,1.682,2.833,1.146,2.833,3.3
		c0,1.893-2.631,1.435-2.631,3.362c0,1.931,2.807,1.659,2.807,4.476c0,2.799-4.643,7.478-16.316,9.082
		c-1.287,0.175-2.805,0.162-3.846,0.425c2.646,0.319,5.773,0.319,10.472-0.75c9.585-2.18,14.423-6.775,14.423-9.582
		c0-2.808-2.815-2.535-2.815-4.463c0-1.93,2.632-1.478,2.632-3.373c0-2.15-2.823-1.61-2.823-3.294c0-1.684,2.823-1.497,2.823-3.298
		c0-1.805-2.808-1.505-2.632-3.377c0.153-1.543,2.764-1.303,2.764-2.965c0-1.657-2.583-1.343-2.583-3.054
		c-0.007-1.771,3.181-1.851,3.135-2.96c-0.009-0.378,0.465-6.888,0.465-6.888L159.437,209.444z"/>
	<defs>
		<filter id="Adobe_OpacityMaskFilter_11_" filterUnits="userSpaceOnUse" x="132.217" y="210.014" width="25.25" height="41.682">
			<feColorMatrix  type="matrix" values="1 0 0 0 0  0 1 0 0 0  0 0 1 0 0  0 0 0 1 0"/>
		</filter>
	</defs>
	<mask maskUnits="userSpaceOnUse" x="132.217" y="210.014" width="25.25" height="41.682" id="SVGID_31_">
		<g filter="url(#Adobe_OpacityMaskFilter_11_)">
			<linearGradient id="SVGID_32_" gradientUnits="userSpaceOnUse" x1="137.7437" y1="231.1357" x2="165.866" y2="231.1357">
				<stop  offset="0" style="stop-color:#FFFFFF"/>
				<stop  offset="1" style="stop-color:#000000"/>
			</linearGradient>
			<rect x="109.358" y="199" fill="url(#SVGID_32_)" width="57.296" height="64.272"/>
		</g>
	</mask>
	<path mask="url(#SVGID_31_)" fill="#1C3342" d="M157.467,210.014l-10.481,1.248c0,0,0.055,6.138,0.065,6.518
		c0.048,1.09-2.529,1.445-2.524,3.201c0.006,1.696,1.347,1.716,1.347,3.367c0,1.646-1.384,1.058-1.522,2.593
		c-0.175,1.856,1.387,1.896,1.387,3.691c0,1.787-1.588,1.25-1.588,2.921c0,1.671,1.588,1.488,1.588,3.602
		c0,1.881-1.387,1.096-1.387,2.998c0,1.919,2.327,2.076,1.56,4.774c-1.021,3.603-4.155,5.204-8.722,6.065
		c-1.855,0.349-5.801,0.42-4.815,0.107c2.114,0.455,7.777,1.077,14.435,0c7.221-1.178,10.144-4.604,10.144-7.384
		c0-2.79-2.81-2.521-2.81-4.43c0-1.913,2.631-1.454,2.631-3.338c0-2.127-2.821-1.6-2.821-3.262c0-1.676,2.821-1.483,2.821-3.273
		c0-1.791-2.802-1.491-2.631-3.342c0.146-1.529,2.763-1.297,2.763-2.938c0-1.653-2.575-1.324-2.585-3.021
		c-0.006-1.759,3.182-1.847,3.138-2.939C157.44,216.792,157.467,210.014,157.467,210.014z"/>
	<path fill="#1D1D29" d="M175.777,200.864c-5.368,4.749-19.804,8.038-36.314,8.038c-15.953,0-30.577-3.538-35.712-7.666
		c0.027,0.24,0.06,0.491,0.09,0.754c3.132,4.113,11.994,10.031,37.243,10.031c19.978,0,30.109-4.811,34.521-9.707
		C175.668,201.791,175.726,201.298,175.777,200.864z"/>
	<path fill="#F4F5F5" d="M133.406,224.124c20.67,0,25.025-4.268,19.078-3.524c-8.676,1.073-11.023,1.321-18.734,1.122
		c-7.648-0.193-11.459-0.769-15.806-1.696C112.084,218.779,118.421,224.124,133.406,224.124z M152.484,227.201
		c-8.676,1.077-11.023,1.318-18.734,1.124c-7.648-0.195-11.459-0.779-15.806-1.695c-5.86-1.246,0.477,4.098,15.462,4.098
		C154.076,230.728,158.432,226.458,152.484,227.201z M152.484,233.809c-8.676,1.071-11.023,1.311-18.734,1.114
		c-7.648-0.194-11.459-0.772-15.806-1.69c-5.86-1.254,0.477,4.09,15.462,4.09C154.076,237.323,158.432,233.063,152.484,233.809z
		 M152.484,240.401c-8.676,1.082-11.023,1.324-18.734,1.122c-7.648-0.195-11.459-0.768-15.806-1.69
		c-5.86-1.253,0.477,4.092,15.462,4.092C154.076,243.925,158.432,239.675,152.484,240.401z"/>
	<defs>
		<filter id="Adobe_OpacityMaskFilter_12_" filterUnits="userSpaceOnUse" x="136.101" y="45.578" width="75.857" height="148.65">
			<feColorMatrix  type="matrix" values="1 0 0 0 0  0 1 0 0 0  0 0 1 0 0  0 0 0 1 0"/>
		</filter>
	</defs>
	<mask maskUnits="userSpaceOnUse" x="136.101" y="45.578" width="75.857" height="148.65" id="SVGID_33_">
		<g filter="url(#Adobe_OpacityMaskFilter_12_)">
			<linearGradient id="SVGID_34_" gradientUnits="userSpaceOnUse" x1="233.1084" y1="126.0718" x2="156.744" y2="128.2414">
				<stop  offset="0" style="stop-color:#FFFFFF"/>
				<stop  offset="1" style="stop-color:#000000"/>
			</linearGradient>
			<rect x="135.835" y="36.897" fill="url(#SVGID_34_)" width="92.876" height="181.236"/>
		</g>
	</mask>
	<path mask="url(#SVGID_33_)" fill="#D9D8DC" d="M140.701,45.633v-0.015c-0.646-0.016-1.296-0.04-1.949-0.04
		c-0.108,0-0.214,0-0.332,0c-0.102,0-0.212,0-0.318,0c-0.659,0-1.301,0.024-1.954,0.04v0.015c-0.011,0-0.026,0-0.047,0
		c40.195,1.141,70.56,28.824,68.356,61.793c-0.801,11.909-5.968,26.376-13.859,35.758c-6.217,7.387-23.644,20.144-25.021,40.835
		l-0.181,2.698c-0.249,3.652-1.926,5.995-4.558,7.511c10.02-0.118,17.931-1.648,17.931-9.941v-2.64
		c0-20.344,16.292-32.876,21.915-40.138c7.14-9.227,11.273-23.445,11.273-35.15C211.958,73.951,180.287,46.745,140.701,45.633z"/>
	<defs>
		<filter id="Adobe_OpacityMaskFilter_13_" filterUnits="userSpaceOnUse" x="65.544" y="45.578" width="75.859" height="148.65">
			<feColorMatrix  type="matrix" values="1 0 0 0 0  0 1 0 0 0  0 0 1 0 0  0 0 0 1 0"/>
		</filter>
	</defs>
	<mask maskUnits="userSpaceOnUse" x="65.544" y="45.578" width="75.859" height="148.65" id="SVGID_35_">
		<g filter="url(#Adobe_OpacityMaskFilter_13_)">
			
				<linearGradient id="SVGID_36_" gradientUnits="userSpaceOnUse" x1="1935.6309" y1="126.0718" x2="1859.2711" y2="128.2413" gradientTransform="matrix(-1 0 0 1 1980.0313 0)">
				<stop  offset="0" style="stop-color:#FFFFFF"/>
				<stop  offset="1" style="stop-color:#000000"/>
			</linearGradient>
			<rect x="48.797" y="36.897" fill="url(#SVGID_36_)" width="92.87" height="181.236"/>
		</g>
	</mask>
	<path mask="url(#SVGID_35_)" fill="#D9D8DC" d="M136.801,45.633v-0.015c0.647-0.016,1.295-0.04,1.951-0.04c0.111,0,0.211,0,0.324,0
		s0.213,0,0.329,0c0.657,0,1.296,0.024,1.949,0.04v0.015c0.016,0,0.031,0,0.049,0c-40.188,1.141-70.553,28.824-68.356,61.793
		c0.802,11.909,5.97,26.376,13.86,35.758c6.219,7.387,23.643,20.144,25.025,40.835l0.179,2.698c0.242,3.652,1.923,5.995,4.563,7.511
		c-10.031-0.118-17.946-1.648-17.946-9.941v-2.64c0-20.344-16.282-32.876-21.906-40.138c-7.145-9.227-11.277-23.445-11.277-35.15
		C65.544,73.951,97.218,46.745,136.801,45.633z"/>
	<g>
		<rect x="125.479" y="143.03" fill="#D9D8DC" width="22.782" height="54.688"/>
		<rect x="132.686" y="170.448" fill="#D9D8DC" width="8.186" height="26.708"/>
		<rect x="132.592" y="97.333" fill="#D9D8DC" width="8.186" height="43.386"/>
		<path fill="#D9D8DC" d="M141.406,171.435c0,1.623-2.069,2.937-4.632,2.937c-2.552,0-4.624-1.314-4.624-2.937
			c0-1.632,2.072-2.946,4.624-2.946C139.337,168.489,141.406,169.803,141.406,171.435z"/>
		<path fill="#D9D8DC" d="M140.951,97.172c0,1.615-2.071,2.936-4.632,2.936c-2.554,0-4.626-1.32-4.626-2.936
			c0-1.636,2.072-2.94,4.626-2.94C138.88,94.232,140.951,95.536,140.951,97.172z"/>
		<path fill="#D9D8DC" d="M148.436,143.241c0,2.24-5.18,4.046-11.577,4.046c-6.377,0-11.555-1.806-11.555-4.046
			c0-2.246,5.178-4.072,11.555-4.072C143.256,139.168,148.436,140.995,148.436,143.241z"/>
		<path fill="#D9D8DC" d="M127.621,140.546c0,0-15.272-49.998-19.938-59.887l-1.375-3.961"/>
		<path fill="#D9D8DC" d="M145.923,140.754c0,0,9.88-38.752,17.659-55.31l3.752-8.963"/>
		<line fill="#D9D8DC" x1="139.881" y1="95.135" x2="154.616" y2="64.405"/>
		<line fill="#D9D8DC" x1="132.648" y1="94.721" x2="118.563" y2="64.514"/>
		<polyline fill="none" stroke="#D9D8DC" stroke-width="1.805" stroke-miterlimit="10" points="106.856,80.342 121.492,69.615 
			151.777,69.825 166.05,80.028 		"/>
		<path fill="#D9D8DC" d="M120.574,68.464c0,0,2.745-1.14,3.568,0.949c0.824,2.07-1.55,3.325-1.55,3.325"/>
		<path fill="#D9D8DC" d="M152.785,68.156c0,0-4.395-1.145-4.214,1.257c0.184,2.388,2.288,3.432,2.288,3.432"/>
	</g>
	<linearGradient id="SVGID_37_" gradientUnits="userSpaceOnUse" x1="139.5122" y1="-108.9575" x2="139.5122" y2="267.442">
		<stop  offset="0" style="stop-color:#B9E4F3"/>
		<stop  offset="1" style="stop-color:#C2B59B"/>
	</linearGradient>
	<path fill="url(#SVGID_37_)" d="M139.511,42.6c-44.538,0-80.642,29.152-80.642,65.104c0,14.472,5.857,27.838,15.76,38.647
		c11.258,13.506,20.252,26.278,20.252,36.119c0,10.226,0.698,19.896,27.468,25.581c6.998,1.484,27.421,1.484,34.418,0
		c26.768-5.685,27.472-15.354,27.472-25.581c0-10.236,9.721-23.642,21.605-37.734c0.038-0.045,0.07-0.093,0.107-0.141
		c8.95-10.49,14.204-23.197,14.204-36.89C220.155,71.752,184.048,42.6,139.511,42.6z M201.737,145.228
		c-0.031,0.043-0.061,0.088-0.092,0.124c-11.421,13.313-20.694,25.817-20.854,35.287c-0.128,7.377-0.648,15.123-12.778,20.591
		c-18.106,6.023-39.099,5.893-54.895,0.849c-14.094-5.504-14.662-13.676-14.794-21.44c-0.164-9.098-8.745-21.018-19.543-33.737
		c-9.562-10.291-15.479-23.131-15.91-37.189c-1.121-35.631,33.183-64.119,76.64-64.119c43.456,0,77.761,28.488,76.644,64.119
		C215.74,123.023,210.416,135.24,201.737,145.228z"/>
	
		<radialGradient id="SVGID_38_" cx="344.5317" cy="78.5811" r="64.1185" gradientTransform="matrix(1.3318 0 0 1.1826 -320.2052 34.0167)" gradientUnits="userSpaceOnUse">
		<stop  offset="0" style="stop-color:#FFFBD4;stop-opacity:0.2"/>
		<stop  offset="1" style="stop-color:#FFFFFF;stop-opacity:0.45"/>
	</radialGradient>
	<path fill="url(#SVGID_38_)" d="M202.112,146.863c-0.034,0.045-0.056,0.093-0.099,0.137c-11.643,13.569-21.1,26.332-21.268,35.982
		c-0.134,7.525-0.665,15.42-13.039,20.996c-18.465,6.152-39.878,6.021-55.994,0.879c-14.369-5.624-14.952-13.949-15.086-21.875
		c-0.164-9.281-8.92-21.441-19.933-34.414c-9.756-10.497-15.787-23.591-16.231-37.935c-1.145-36.346,33.852-65.396,78.181-65.396
		s79.315,29.05,78.179,65.396C216.395,124.209,210.968,136.674,202.112,146.863z"/>
</g> -->

<g>
	<g>
		<path opacity="0.7" fill="#99CCFF" d="M873.661,371.732h-318.63V519.42c-2.326,2.3-3.576,4.684-3.576,7.129
			c0,18.771,72.127,33.99,161.102,33.99c88.978,0,161.104-15.219,161.104-33.99c0-0.785-0.173-1.562-0.419-2.334h0.419V371.732z"/>
		<path fill="none" stroke="#333333" stroke-width="6.1667" stroke-linejoin="round" stroke-miterlimit="10" d="M559.451,302.659
			l-4.42,0.026V519.42c-2.326,2.3-3.576,4.684-3.576,7.129c0,18.771,72.127,33.99,161.102,33.99
			c88.978,0,161.104-15.219,161.104-33.99c0-0.785-0.173-1.562-0.419-2.334h0.419V300.707h-0.226
			c-26.523,8.369-88.394,14.238-160.494,14.238C646.585,314.945,588.9,309.974,559.451,302.659z"/>
	</g>
	<path fill="none" stroke="#333333" stroke-width="6.1667" stroke-miterlimit="10" d="M538.631,291.576
		c0,4.01,7.543,7.785,20.82,11.083c29.449,7.314,87.134,12.286,153.49,12.286c72.101,0,133.971-5.869,160.494-14.238
		c8.891-2.805,13.817-5.89,13.817-9.131"/>
</g>
</svg>
