selector,english_word,engmeaning,nepali_word,nepmeaning,image
dirt ,dirt,,फोहोर,,
dust ,dust ,,धुलो,,
germs,germ,,किटाणु,बिरामी बनाउने किरा,
sick,sick,,बिरामी ,,
protect ,protect,,बचाउनु,रक्षा गर्नु,
cleanliness,cleanliness,,सरसफाइ,,
tidy,tidy,,सुग्घर,,
meal,meal,,खाना,,
fingernails,fingernails,,,हातको नङ,
toenails,toenails,,,खुट्टाको नङ,
barefooted,barefoot,,खाली खुट्टा,जुत्ता नलगाएको खुट्टा,
lice ,lice,,जुम्रा,,
roll,roll,,गुल्टिनु,,
mud,mud,,माटो,,
