{
  "pac": {
    "lesson_name": "Prime and composite numbers",
    "about_the_lesson_content": {
      "en": "Prime number is a positive number that has exactly two positive divisors. All the positive numbers other than prime numbers, except 1, are composite numbers. This E-Paath lesson includes the basic concept of prime and composite numbers, including the terms “factors” and “prime factors”.",
      "np": "दुई धनात्मक गुणनखण्डहरू मात्र भएको सङ्ख्यालाई रूढ सङ्ख्या भनिन्छ। रूढ सङ्ख्या र 1 बाहेक अन्य सबै धनात्मक सङ्ख्याहरू संयुक्त सङ्ख्याहरू हुन्। यो ई-पाठले रूढ र संयुक्‍त सङ्ख्याको आधारभूत अवधारणा समावेश गरेको छ। साथै “गुणनखण्डहरू” र “रूढ गुणनखण्डहरू” पनि समावेश गरेको छ।"
    },
    "curricular_requirement_content": {
      "en": "Seven periods have been allocated for prime and composite numbers. About 4% of the final exam questions will be based on prime and composite numbers. ",
      "np": "यो पाठको लागि सात घन्टी दिइएको छ। अन्‍तिम परीक्षामा प्रश्‍नहरूको लगभग 4% रूढ र संयुक्‍त सङ्ख्याहरूमा आधारित हुनेछ।"
    },
    "prerequisites_content": {
      "paragraph": {
        "en": "Students should be familiar with division and multiplication. They should identify the terms “divisor”, ”dividend”, “quotient” and “remainder” as well as the corresponding numbers between 1 and 99. ",
        "np": "विद्यार्थीहरू सङ्ख्याको भाग र गुणनसँग परिचित हुनुपर्छ। विद्यार्थीहरूले 1 देखि 99 सम्मको सङ्ख्याहरूको भाजक, भागफल, भाज्य र शेष पहिचान गर्न सक्नुपर्छ।"
      },
      "chapter_links": {}
    },
    "lesson_guidelines_content": {
      "en": {
        "paragraph": "Teachers may add or subtract a day based on the level of students. ",
        "list": [
          "Section 1(prime and composite numbers): Teachers should provide more examples of prime and composite numbers. Teacher should go through section 1.",
          "Section 2 (prime and composite numbers): Teachers should provide more examples until every student understands this concept. teachers should go through section 2.",
          "Sections 3 and 4 (comparing divisors of prime and composite numbers): Teachers should provide more examples until every student understands this concept. ",
          "Section 5 (prime factors): Teachers should provide more examples until every student understands this concept. ",
          "Section 6 (prime factorization): Review factors and prime factors before moving on to Section 6. ",
          "Students need more practice with the concept of prime and composite numbers. They can either go through the textbook or review the E-Paath chapter independently. "
        ]
      },
      "np": {
        "paragraph": "शिक्षकहरूले विद्यार्थीको स्तर अनुसार एक दिन थप्‍न वा घटाउन सक्छन्।  ",
        "list": [
          "भाग 1 (रूढ र संयुक्‍त सङ्ख्याहरू): शिक्षकहरूले रूढ र संयुक्‍त सङ्ख्याहरूको थप उदाहरण दिन सक्छन्। शिक्षकहरू पहिलो भागमा मात्र जान सक्छन्।",
          "भाग 2 (रूढ र संयुक्‍त सङ्ख्याहरू): प्रत्येक विद्यार्थीले यस अवधारणालाई नबुझेसम्म, शिक्षकहरूले थप उदाहरणहरू दिन सक्छन्। शिक्षकहरू भाग 2 मा मात्र जान सक्छन्।",
          "भागहरू 3 र 4 (रूढ र संयुक्‍त सङ्ख्याहरूको भाजकहरूको तुलना): प्रत्येक विद्यार्थीले यस अवधारणालाई नबुझेसम्म, शिक्षकहरूले थप उदाहरणहरू दिन सक्छन्।",
          "भाग 5 (रूढ गुणनखण्डहरू): प्रत्येक विद्यार्थीले यस अवधारणालाई नबुझेसम्म, शिक्षकहरूले थप उदाहरणहरू दिन सक्छन्।",
          "भाग 6 (रूढ खण्डीकरण): भाग 6 मा अगाडि बढ्नु अघि गुणनखण्डहरू र रूढ गुणनखण्डहरूको  समीक्षा गर्न सकिन्छ।",
          "रूढ र संयुक्‍त सङ्ख्याहरूको आधारभूत अवधारणासम्बन्धी, विद्यार्थीहरूलाई धेरै अभ्यास चाहिन्छ। उनीहरूले पाठ्यपुस्तक वा ई-पाठ बाट स्वतन्त्र रूपमा अभ्यास गर्न सक्छन्।"
        ]
      }
    },
    "related_activities_content": {
      "en": {
        "paragraph": "",
        "list": [
          "Students can practice problems from the textbook and E-Paath exercises for homework. ",
          "Teachers can provide additional prime factorization problems for students to practice in class or at home.  "
        ]
      },
      "np": {
        "paragraph": "",
        "list": [
          "विद्यार्थीहरूले गृहकार्यको लागि पाठ्यपुस्तक र ई-पाठ अभ्यासहरूको समस्याहरू हल गर्न सक्छन्।",
          "शिक्षकले कक्षा वा घरमा अभ्यास गर्न रूढ र संयुक्‍त सङ्ख्याहरू सम्बन्धी अतिरिक्त समस्याहरू दिन सकिन्छ।"
        ]
      }
    },
    "evaluation_content": {
      "en": {
        "paragraph": " ",
        "list": ["", ""]
      },
      "np": {
        "paragraph": " ",
        "list": ["", ""]
      }
    }
  },
  "fcc": {
    "lesson_name": "Fractions",
    "about_the_lesson_content": {
      "en": "In this E-Paath lesson, students will be able to convert two unlike fractions into like fractions. Students will then be able to compare fractions based on their values. ",
      "np": "यस ई-पाठमा विद्यार्थीहरूले कुनै दुई असमान हर भएका भिन्‍नहरूलाई समान हर भएको भिन्‍नहरूमा परिवर्तन गरी ठुलो वा सानो भिन्‍न तुलना गरेर पत्‍ता लगाउन सक्षम हुनेछन्। "
    },
    "curricular_requirement_content": {
      "en": "Six periods have been allocated for fractions. About 3% of the final exam questions will be based on fractions. ",
      "np": "यस पाठको लागि छ घन्टी दिइएको छ। अन्‍तिम परीक्षामा प्रश्‍नहरूको लगभग 3% भिन्‍नमा आधारित हुनेछ।"
    },
    "prerequisites_content": {
      "paragraph": {
        "en": "Students should have mastered the basic concept of fractions before being introduced to this advanced E-Paath lesson. They should also be able to compare numbers, and arrange a given set of numbers in ascending and descending orders. ",
        "np": "विद्यार्थीहरूले यो पाठ सुरु गर्नु अघि भिन्‍नको आधारभूत अवधारणाहरू जानेको हुनुपर्दछ साथै सङ्ख्याहरूको तुलना गरी घट्दो वा बढ्दो क्रममा मिलाउन सक्नुपर्छ।"
      },
      "chapter_links": {
        "chapter_link_data1": {
          "grade": "2",
          "id": "fra",
          "breadcrumb_data": {
            "en": " Grade 2 ≻ Fraction",
            "np": " कक्षा २ ≻ भिन्‍न "
          }
        },
        "chapter_link_data2": {
          "grade": "3",
          "id": "frc",
          "breadcrumb_data": {
            "en": " Grade 3 ≻ Fractions",
            "np": "कक्षा ३ ≻ भिन्‍न"
          }
        }
      }
    },
    "lesson_guidelines_content": {
      "en": {
        "paragraph": "Teachers may add or subtract a day based on the level of students. ",
        "list": [
          "Teachers could refer to the story from Grade 3’s E-Paath fraction or create their own story. Then go through this lesson’s first two sections. ",
          "Sections 3 and 4 (like and unlike fractions). Teachers should provide more examples until every student understands this concept. ",
          "Sections 5 and 6 (comparing fractions and conversion of unlike to like fraction). Teachers should provide more examples until every student understands this concept. ",
          "Students need more practice with these fraction concepts. They can either go through the textbook or review the E-Paath chapters independently. "
        ]
      },
      "np": {
        "paragraph": "शिक्षकहरूले विद्यार्थीको स्तर अनुसार एक दिन थप्‍न वा घटाउन सक्छन्।  ",
        "list": [
          "शिक्षकले कक्षा 3 को “भिन्‍न” ई-पाठको कथा समीक्षा गर्न वा आफ्नै कथा सिर्जना गर्न सक्छन्। त्यसपछि विधार्थीहरूले यो ई-पाठको पहिलो दुई भागहरू अध्ययन गर्न सक्छन्।",
          "भागहरू 3 र 4: (समान र असमान हर भएका भिन्‍नहरू): प्रत्येक विद्यार्थीले यस अवधारणालाई नबुझेसम्म, शिक्षकहरूले थप उदाहरणहरू दिन सकिन्छ।",
          "भागहरू 5 र 6: (समान र असमान हर भएका भिन्‍नहरूको तुलना र रूपान्तरण): प्रत्येक विद्यार्थीले यस अवधारणालाई नबुझेसम्म, शिक्षकहरूले थप उदाहरणहरू दिन सकिन्छ।",
          "भिन्‍नसम्बन्धी अवधारणाहरू जान्‍नको लागि धेरै अभ्यास चाहिन्छ। उनीहरूले पाठ्यपुस्तक वा ई-पाठ बाट स्वतन्‍त्र रूपमा अभ्यास गर्न सक्छन्। "
        ]
      }
    },
    "related_activities_content": {
      "en": {
        "paragraph": "",
        "list": [
          "Ask students to write a story similar to the Grade 3 E-Paath lesson that includes like and unlike fractions.",
          "Students can practice problems from the textbook for homework. ",
          "Teachers can provide additional fraction problems for students to practice in class or at home.  "
        ]
      },
      "np": {
        "paragraph": "",
        "list": [
          "विधार्थीहरूलाई कक्षा 3 को “भिन्‍न” ई-पाठको जस्तै छोटो कथा लेख्‍न लगाउन सकिन्छ जसमा समान र असमान हर भएका भिन्‍नहरू समावेश हुनुपर्छ।",
          "विद्यार्थीहरूले गृहकार्यको लागि पाठ्यपुस्तकको समस्याहरू अभ्यास गर्न सक्छन्।",
          "शिक्षकले कक्षा वा घरमा अभ्यास गर्न भिन्‍नसम्बन्धी अतिरिक्त समस्याहरू दिन सकिन्छ।"
        ]
      }
    },
    "evaluation_content": {
      "en": {
        "paragraph": " ",
        "list": ["", ""]
      },
      "np": {
        "paragraph": " ",
        "list": ["", ""]
      }
    }
  },
  "st4": {
    "lesson_name": "Set",
    "about_the_lesson_content": {
      "en": "This E-Paath is an elaboration and a build-up to the concept of Sets introduced in Grade 2 and Grade 3. Students are introduced how to write a set notation.",
      "np": " अन्‍य यो ई-पाठमा समूहकाआधारभूत जानकारीहरू सिकाइएको छ। साथै विद्यार्थीहरूले समूह सम्‍बन्‍धी विभिन्‍न चिह्‍नहरूको पनि जानकारी पाउनेछन्। यहाँ समूहलाई समूह सङ्‍केतमा लेख्‍न पनि सिकाइएको छ।"
    },
    "curricular_requirement_content": {
      "en": " Nine periods have been allocated for Sets. About 5% of the final exam questions will be based on this topic. ",
      "np": "यो पाठको लागि नौ घन्टी दिइएको छ। साथै यो पाठले पाठ्‍यक्रमको करिब ५% पाठ्‍यभार ओगटेको छ। "
    },
    "prerequisites_content": {
      "paragraph": {
        "en": "Teachers can refer to the following E-Paath for review, specially for students who might have missed these lessons in previous years. ",
        "np": "यो ई-पाठ सुरु गर्नुपूर्व विद्यार्थीहरूले समूह सङ्‍केतहरू जानेको हुनुपर्दछ। तल दिइएको ई-पाठ समीक्षा पछि यो ई-पाठ पढ्दा विद्यार्थीहरूलाई उपयोगी हुन्‍छ। "
      },
      "chapter_links": {
        "chapter_link_data1": {
          "grade": "2",
          "id": "set",
          "breadcrumb_data": {
            "en": "Grade 2 > Set",
            "np": "कक्षा २ > समूह"
          }
        }
      }
    },
    "lesson_guidelines_content": {
      "en": {
        "paragraph": "At least four days should be allocated for this E-Paath lesson. ",
        "list": [
          "Day 1: (Sections 1): This section provides an introduction to Sets in order to refresh the memory of students. To support students emerging understanding, teachers should provide more examples. ",
          "Day 2: (Section 2, DIY): This interactive DIY will be useful as a follow-up and review.",
          "Day 3: (Section 3): A new concept, Set Notations, are introduced in this section. Since it involves numbers, symbols as well as language skills, students may need more examples and practice. ",
          "Day 4: (Section 4, DIY): A more advanced DIY to test students’ critical understanding. \n\nDuring the few extra periods allocated for Sets, students should practice more problems which have personal connections. "
        ]
      },
      "np": {
        "paragraph": "समूहको सामान्‍य अवधारणाको समीक्षा सहित पाठ सुरु गरिएको छ। ई-पाठको तेस्रो पृष्‍ठ निकै महत्‍वपूर्ण छ किनकि यसमा समूहलाई समूह सङ्‍केतहरू प्रयोग गरी सूचीकरण विधिमा लेख्‍न सिकाइएको छ।",
        "list": [
          "(पृष्‍ठ १); यो पृष्‍ठमा विद्यार्थीहरूको समिक्षाको रूपमा समूहको पूनः परिचय दिइएको छ। यहाँ शिक्षकले थप उदाहरणहरू दिनु पर्दछ।",
          "(पृष्‍ठ २ आफैँ गर); बिषयवस्‍तु दोहोर्‍याउन तथा अभ्‍यास गर्न यो अन्‍तरक्रियात्‍मक आफैँ गर निकै उपयोगी हुन्‍छ।",
          "(पृष्‍ठ ३); यो पृष्‍ठमा समूह सङ्‍केत सम्‍बन्‍धी नयाँ धारणाहरू दिइएको छ। यसमा समूहलाई समूह सङ्‍केतहरू प्रयोग गरी सूचीकरण विधिमा लेख्‍न सिकाइएको छ। साथै यसमा सङ्‍ख्‍याहरू, सङ्‍केतहरू तथा वाक्‍यहरू समावेश भएकोले विद्यार्थीहरूलाई थप उदाहरण र अभ्‍यासको आवश्‍यक पर्छ।",
          "(पृष्‍ठ ४ आफैँ गर); यो आफैँ गर अलि जटिल भएकोले विद्यार्थीहरूलाई जाँच्‍न सकिन्‍छ।"
        ]
      }
    },
    "related_activities_content": {
      "en": {
        "paragraph": "",
        "list": [
          "The basic concept of Sets might be easy for Grade 4 students. But the new concept, “Set Notation” might be tricky. Practical examples using realee will help students. ",
          "Students can work in partnerships to create and solve problems which include Sets and Set Notations. "
        ]
      },
      "np": {
        "paragraph": "",
        "list": [
          "कक्षा ४ का विद्यार्थीहरूलाई समूहको सामान्‍य अवधारणाहरू सहज लाग्‍न सक्‍छ तर सङ्‍केतहरूको प्रयोगमा कठिनाई हुन सक्‍छ त्यसैले प्रयोगात्‍मक क्रियाकलाप गरेर बुझाउन सकिन्‍छ। ",
          "विद्यार्थीहरूलाई विभिन्‍न समूहमा विभाजन गरेर समूह सङ्‍केतहरू सम्‍बन्‍धी प्रश्‍नोत्‍तर गर्न सकिन्‍छ।"
        ]
      }
    },
    "evaluation_content": {
      "en": {
        "paragraph": " ",
        "list": ["", ""]
      },
      "np": {
        "paragraph": " ",
        "list": ["", ""]
      }
    }
  },
  "cub": {
    "lesson_name": "Solid shapes",
    "about_the_lesson_content": {
      "en": "Students will be taught how to describe solid shapes by using geometric terms such as vertices, edges, vertices and surfaces. Students will also be able to name and identify various solid shapes and conduct discussions about their properties. ",
      "np": "यो ई-पाठमा ठोस आकृतिहरूलाई कुना, किनारा र सतहहरू प्रयोग गरेर व्‍याख्‍या गर्न सिकाइएको छ। विद्यार्थीहरूले विभिन्‍न ठोस आकृतिहरूका कुना, किनारा र सतहहरु चिन्‍न सक्‍ने छन्। साथै उनीहरूले विभिन्‍न ठोस आकृतिहरू चिन्‍न र तिनीहरूका विशेषताहरू छलफल गर्ने छन्।"
    },
    "curricular_requirement_content": {
      "en": "Seventeen periods have been allocated for Geometry. About 9% of the final exam questions will be based on this topic. “Solid Shapes” is one out of three objectives within Geometry outlined in the curriculum. That means, about 6 periods should be allocated to Solid Shapes and about 3% of the final questions will be based on it. ",
      "np": "कक्षा ४ को ज्‍यामितिको लागि सत्र घन्टी दिइएको छ। ज्‍यामिति भित्र जम्‍मा तीनओटा पाठहरू भएकोले शिक्षकले आवश्‍यकता अनुसार यो पाठको लगि समय छुट्‍याउन सकिन्‍छ। यो पाठले पाठ्‍यक्रमको करिब ३% पाठ्‍यभार ओगटेको छ।"
    },
    "prerequisites_content": {
      "paragraph": {
        "en": "Teachers can refer to the following two E-Paaths for review, specially for students who might have missed these lessons in previous years. ",
        "np": "यो ई-पाठ सुरु गर्नुपूर्व विद्यार्थीहरूले तल दिइएका ई-पाठहरूको समीक्षा गर्दा उपयोगी हुन सक्‍छ। विशेष गरी अघिल्‍ला कक्षामा यी पाठहरू छुटाएकाहरूको लागि अझै उपयोगी हुन सक्‍छ।"
      },
      "chapter_links": {
        "chapter_link_data1": {
          "grade": "2",
          "id": "geo",
          "breadcrumb_data": {
            "en": "Grade 2 > Geometric Shapes",
            "np": "कक्षा २ > ज्यामितीय आकारहरू"
          }
        },
        "chapter_link_data2": {
          "grade": "3",
          "id": "lsg",
          "breadcrumb_data": {
            "en": "Grade 3 > Line Segments",
            "np": "कक्षा ३ >  \n                        रेखाखण्डहरू"
          }
        }
      }
    },
    "lesson_guidelines_content": {
      "en": {
        "paragraph": "Section 1: Rectangles and Cuboids: This section makes connections between rectangles (a two-dimensional shape) and cuboids (a three-dimensional shape). Students are also given examples of cuboids from real life. \n\nSection 2, Squares and Cubes: This section makes connections between squares (a two-dimensional shape) and cuboids (a three-dimensional shape). Students are also given examples of cuboids from real life. \n\nProperties of Cuboids: An animation clearly demonstrates the numbers of surfaces, edges and vertices of cuboids. Students could identify cuboids from the classroom (dusters, books, boxes) and hold these objects to count the various properties. \n\nDay 4: (Properties of Cubes): An animation clearly demonstrates the numbers of surfaces, edges and vertices of cubes. Students could identify cubes from the classroom and hold these objects to count the various properties. ",
        "list": []
      },
      "np": {
        "paragraph": "पहिलो पृष्‍ठमा आयतबाट कसरी षड्मुखा बन्‍छ भनेर देखाइएको छ। त्यसैगरी दोस्रो पृष्‍ठमा वर्गबाट कसरी घन बन्‍छ भनेर देखाइएको छ। त्यसैगरी पृष्‍ठ तीन र चारमा क्रमशः षड्मुखा र घनका विशेषताहरू सिकाइएको छ। यहाँ वास्‍तविक जस्‍तै लाग्‍ने षड्मुखा र घन बनाइएको छ। जसमा आफ्‍नो आवश्‍यकता अनुसार आकृतिलाई कुनैपनि दिशामा घुमाउन र रोक्‍न सकिन्‍छ। साथै यसमा भएका कुना, किनारा र सतहहरु सहजै चिन्‍न र गन्‍ति गर्न सकिन्‍छ।",
        "list": []
      }
    },
    "related_activities_content": {
      "en": {
        "paragraph": "",
        "list": [
          "Students could write descriptive sentences about solid shapes. This will help with memory and with writing skills. For example: A cube has eight vertices. ",
          "Students could think of and even bring cubes and cuboids from their home to share with classmates. "
        ]
      },
      "np": {
        "paragraph": "",
        "list": [
          "विद्यार्थीहरूले ठोस आकृतिहरूको बारेमा व्‍याख्‍या गर्न सक्‍नेछन्। जसले उनीहरूको लेख्‍ने कलाको विकास हुन्‍छ। उदाहरणको लागिः घनमा ८ कुनाहरू हुन्‍छन्।  ",
          "विद्यार्थीहरूले आ-आफ्‍नो घरमा भएका षड्मुखा र घन कक्षामा ल्‍याएर साथी-भाइ सँग छलफल गर्न सकिन्‍छ। "
        ]
      }
    },
    "evaluation_content": {
      "en": {
        "paragraph": " ",
        "list": ["", ""]
      },
      "np": {
        "paragraph": " ",
        "list": ["", ""]
      }
    }
  },
  "pe4": {
    "lesson_name": "Percentage",
    "about_the_lesson_content": {
      "en": "This E-Paath introduces students to the basic idea of percentage. Students will be able to use the percentage symbol (%) and translate fractions with 100 denominator into a percentage.",
      "np": "यस ई-पाठमा विद्यार्थीहरूलाई प्रतिशतको आधारभूत धारणाहरू सिकाइएको छ। यहाँ उनीहरूले हर सय भएको उपयुक्त भिन्‍नलाई प्रतिशतमा बदल्‍न तथा प्रतिशत (%) चिह्‍नको प्रयोग गर्न पनि सक्‍ने अपेक्षा गरिएको छ। "
    },
    "curricular_requirement_content": {
      "en": "Six periods have been allocated for Percentage and about 3% of the final exam questions will be based on this topic. ",
      "np": "कक्षा ४ को “प्रतिशत” को लागि ६ घन्टी दिइएको छ। यस शीर्षकले परिक्षामा ३% ओगट्ने छ।"
    },
    "prerequisites_content": {
      "paragraph": {
        "en": " Students must be familiar with fractions and decimal numbers before they are introduced to this E-Paath. The following chapters can be used for review. ",
        "np": "यो पाठ सुरु गर्नु अघि विद्यार्थीहरूलाई भिन्‍न र दशमलव सङ्‍ख्‍याको राम्रो ज्ञान हुनुपर्दछ। तल दिइएका ई-पाठहरूको समीक्षा गरेर पाठ सुरु गर्नु उपयोगी हुन्छ।"
      },
      "chapter_links": {
        "chapter_link_data1": {
          "grade": "3",
          "id": "frc",
          "breadcrumb_data": {
            "en": "Grade 3 > Fractions",
            "np": "कक्षा ३ > भिन्‍न"
          }
        },
        "chapter_link_data2": {
          "grade": "3",
          "id": "dcn",
          "breadcrumb_data": {
            "en": "Grade 3 > Decimal numbers",
            "np": "कक्षा ३ > दशमलव सङ्ख्या"
          }
        },
        "chapter_link_data3": {
          "grade": "4",
          "id": "fcc",
          "breadcrumb_data": {
            "en": "Grade 4 > Fraction",
            "np": "कक्षा ४ > भिन्‍न"
          }
        }
      }
    },
    "lesson_guidelines_content": {
      "en": {
        "paragraph": "Day 1: (Section 1 and 2 - Introduction and DIY): This section introduces the concept using visuals and interactive activities. Students are able to click on the number of square and denote the percentage of shaded boxes.  \n\nDay 2: (Section 2 and 3 - Relation to Fractions and DIY): These sections explain the relationship between fractions (with a denominator of 100) and decimals. \n\nDay 3: (Relation to Decimals and DIY): Students are shown how decimals and fractions are related to percentage.  ",
        "list": []
      },
      "np": {
        "paragraph": "यस ई-पाठको पहिलो र दोस्रो पृष्‍ठमा अन्‍तरक्रियात्मक क्रियाकलाप राखिएको छ। विद्यार्थीहरूले आफूले चाहेको वर्गहरूमा क्‍लिक गर्न सक्‍छन् जहाँ छायाँ पारिएको सङ्‍ख्‍याले जम्‍मा प्रतिशत जनाउँछ। तेस्रो र चौँथो पृष्‍ठमा प्रतिशत, भिन्‍न र दशमलव बिचको सम्‍बन्‍ध देखाइएको छ (हर सय भएको मात्र)।",
        "list": []
      }
    },
    "related_activities_content": {
      "en": {
        "paragraph": "",
        "list": [
          "Students can do more hands-on activities using paper and color pencils. For example, similar to the E-Paath, teachers can provide graph paper to students. They can create a box with 100 small squares and color in their own percentage. They can label their artwork with a fraction, decimal and percentage. ",
          "Teachers can also design word problems for students with questions like: I have 100 eggs. My husband ate 15. What percentage of the eggs did he eat? "
        ]
      },
      "np": {
        "paragraph": "",
        "list": [
          "विद्यार्थीहरूले कापी, ग्राफ कापी, कलम र रङहरू प्रयोग गरी ई-पाठमा भएजस्तै क्रियाकलाप गर्न सक्‍छन्। उनीहरूले सयओटा वर्गहरू बनाएर आफूलाई मन लागेको प्रतिशत जनाउने वर्गहरूमा रङ लगाउन सक्‍छन्।",
          "शिक्षकले विभिन्‍न शाब्‍दिक समस्‍याहरू मौखिक सोध्‍न सक्‍छन् जस्तैः मसँग १०० अण्‍डाहरू थियो। जसमध्‍ये १५ ओटा मेरो श्रीमानले खानुभयो भने उहाँले जम्‍मा  कति प्रतिशत अण्‍डा खानुभयो?"
        ]
      }
    },
    "evaluation_content": {
      "en": {
        "paragraph": " ",
        "list": ["", ""]
      },
      "np": {
        "paragraph": " ",
        "list": ["", ""]
      }
    }
  },
  "ang": {
    "lesson_name": "Angles",
    "about_the_lesson_content": {
      "en": "Students are expected to construct angles between 0 degrees and 180 degrees in Grade 4. This E-Paath primarily focuses on that objective. They are also introduced to protractors, the measuring tool. ",
      "np": "यस ई-पाठमा विद्यार्थीहरूले ० देखि १८० डिग्री बिचको कोणहरू रचना गर्ने अपेक्षा गरिन्छ। यसका साथै कोणमापकको परिचय र प्रयोगको बारेमा समेत यो पाठले अभिप्रेरित गर्न सक्ने छ।"
    },
    "curricular_requirement_content": {
      "en": "Seventeen periods have been allocated for Geometry in Grade 4. The knowledge of angles as well as identifying and constructing different kinds of angles takes up almost two third of this unit. Accordingly, teachers should allocate about twelve periods for “Angles”.",
      "np": "कक्षा ४ को ज्‍यामिति पाठको लागि सत्र घन्टी दिइएको छ। जसमा कोणहरूको ज्ञान साथै विभिन्‍न प्रकारका कोणहरूको पहिचान र रचनाले यस पाठको लगभग दुई तिहाई भाग लिन्‍छ। शिक्षकले \"कोणहरू\" को लागि लगभग बाह्र घन्टी छुट्‍याउनुपर्छ।"
    },
    "prerequisites_content": {
      "paragraph": {
        "en": "Teachers should refer to the following Grade 3 E-Paath for review, specially for students who might have missed the lesson in the previous year.",
        "np": "यस पाठ पढाउनुपूर्व विद्यार्थीहरूलाई कोणबारे सामान्य जानकारी हुनु आवश्यक हुन्छ। तल दिइएको कक्षा ३ को पाठ पढिसकेपछि यो ई-पाठ पढ्दा विद्यार्थीहरूलाई उपयोगी हुन्‍छ। "
      },
      "chapter_links": {
        "chapter_link_data1": {
          "grade": "3",
          "id": "ang",
          "breadcrumb_data": {
            "en": "Grade 3 > Angles",
            "np": "कक्षा ३ > कोण"
          }
        }
      }
    },
    "lesson_guidelines_content": {
      "en": {
        "paragraph": "This E-Paath will be very helpful for teachers and students who may not have access to measuring tools such as the protractor. Students are introduced to the measuring tool and shown how to measure and construct angles by using a protractor. Students will be able to identify the various parts of a protractor and learn how to place a protractor while measuring angles. ",
        "list": []
      },
      "np": {
        "paragraph": "यो ई-पाठ शिक्षक र विद्यार्थीहरूको लागि उपयोगी हुनसक्‍छ जोसँग कोणमापक जस्‍ता उपकरण छैन। यहाँ कोण, कोणमापक र कोणमापकको प्रयोगले कोण नाप्‍न तथा रचना गर्न सिकाइएको छ। विद्यार्थीहरूले कोणमापकको विभिन्‍न भागहरू चिन्‍न सक्‍छन् साथै कोण मापन गर्दा कोणमापकलाई कसरी राख्‍ने भनेर समेत सिक्‍न सक्‍छन्।",
        "list": []
      }
    },
    "related_activities_content": {
      "en": {
        "paragraph": "",
        "list": [
          "Even though this E-Paath provides a very useful demonstration of the primary concept - measuring angles using a protractor - it is always helpful for students if they use actual protractors and learn to measure angles. Teachers should do their best to provide a hands-on opportunity."
        ]
      },
      "np": {
        "paragraph": "",
        "list": [
          "यो ई-पाठले कोणमापक र कोणमापकको प्रयोगले कोण नाप्‍न तथा रचना गर्न सिकाइएको भएतापनि विद्यार्थीहरूले वास्‍तविक कोणमापकको माध्‍यमबाट कापीमा बनाईएका विभिन्‍न कोणहरू मापन गर्ने क्रियाकलाप गर्न सकिन्‍छ। शिक्षकहरूले विभिन्‍न कोणहरूको मापन गर्ने अवसर दिएर क्रियाकलाप गराउन सकिन्‍छ। "
        ]
      }
    },
    "evaluation_content": {
      "en": {
        "paragraph": " ",
        "list": ["", ""]
      },
      "np": {
        "paragraph": " ",
        "list": ["", ""]
      }
    }
  },
  "ron": {
    "lesson_name": "Rounding off numbers",
    "about_the_lesson_content": {
      "en": "Students are taught how to round up and round down numbers in this E-Paath. ",
      "np": "यस ई-पाठमा विद्यार्थीहरूलाई कुनै सङ्ख्यालाई नजिकको माथिल्‍लो वा तल्‍लो शून्‍य अङ्कित सङ्ख्यामा बदल्न सिकाइएको छ। यो प्रक्रियालाई शून्‍यान्‍त भनिन्‍छ।"
    },
    "curricular_requirement_content": {
      "en": "Thirty-four periods have been allocated for Numeracy in Grade 4. “Rounding off numbers” is an important component within this unit. Teachers should plan their time accordingly. ",
      "np": "कक्षा ४ को “सङ्‍ख्‍याको ज्ञान” को लागि ३४ घन्टी दिइएको छ। “सङ्‍ख्‍याको ज्ञान” भित्र ४ ओटा पाठहरू छन्। “सङ्ख्याहरूको शून्यान्त” लाई विद्यार्थीहरूको आवश्‍यकता अनुसार समय दिएर सिकाउन सकिन्‍छ।"
    },
    "prerequisites_content": {
      "paragraph": {
        "en": "Students must have a good number sense before being introduced to this E-Paath. The following Grade 2 lesson is a useful reference. ",
        "np": "यो पाठ सुरु गर्नु अघि विद्यार्थीहरूलाई सङ्‍ख्‍याको राम्रो ज्ञान हुनुपर्दछ। तल दिइएको कक्षा २ को ई-पाठको समीक्षा गर्नु उपयोगी हुन्छ।"
      },
      "chapter_links": {
        "chapter_link_data1": {
          "grade": "2",
          "id": "odn",
          "breadcrumb_data": {
            "en": "Grade 2 > Order of Numbers",
            "np": "कक्षा २ > सङ्ख्याहरूको क्रम"
          }
        }
      }
    },
    "lesson_guidelines_content": {
      "en": {
        "paragraph": "An elephant has walks up a hill from a banana shop and then walks down to a watermelon shop. The starting point is marked 0, the midway point, or the top of the hill, is marked 5 and the watermelon shop is marked 10. The elephant gets tired at point 7 downhill. A question pops up: Which one is nearer? The banana shop? Or the watermelon shop? Students get to select their choice. The concept of rounding up and rounding down is introduced to students using this fun example. That’s why this E-Paath is very useful to engage students with this math concept and make the lesson interesting. In a similar fashion, students will also be able to round up or round down two digit and three digit numbers. ",
        "list": []
      },
      "np": {
        "paragraph": "यस ई-पाठमा एउटा हात्ती केरा पसलबाट खर्बुजा पसल जानको लागि पहाड चढ्‍छ। जहाँ सुरुको बिन्‍दु ०, पहाडको टुप्पो ५, अन्‍तिम बिन्‍दु १० दिइएको छ। जस्‍तै हात्ती बिन्‍दु ८ मा पुगेर म त थकित भएछु भन्‍छ। अनि प्रश्‍न आउँछ कुन पसल नजिक छ? केरा पसल वा खर्बुजा पसल? विद्यार्थीहरूले क्‍लिक गर्छन्। यसरी निकै रमाइलो क्रियाकलापबाट कुनै सङ्ख्यालाई नजिकको माथिल्‍लो वा तल्‍लो शून्‍य अङ्कित सङ्ख्यामा बदल्न सिकाइएको छ। यसरी उनीहरूले दुई वा तीन अङ्‍कका सङ्ख्यालाई पनि सजिलै नजिकको दश वा सयमा शून्‍यान्‍त गर्न सक्‍छन्।",
        "list": []
      }
    },
    "related_activities_content": {
      "en": {
        "paragraph": "",
        "list": [
          "Students will still need practice when it comes to rounding. Teachers can orally quiz students periodically so that the ideas remain fresh. "
        ]
      },
      "np": {
        "paragraph": "",
        "list": [
          "विद्यार्थीहरूले शून्‍यान्‍त सम्‍बन्‍धि थप अभ्‍यास गर्न सक्‍छन्। शिक्षकले विभिन्‍न समयमा शून्‍यान्‍त सम्‍बन्‍धि मौखिक प्रश्‍नहरू सोध्‍न सकिन्‍छ। "
        ]
      }
    },
    "evaluation_content": {
      "en": {
        "paragraph": " ",
        "list": ["", ""]
      },
      "np": {
        "paragraph": " ",
        "list": ["", ""]
      }
    }
  },
  "lut": {
    "lesson_name": "Algebra: Like and Unlike terms",
    "about_the_lesson_content": {
      "en": "Students are introduced to the concept of like and unlike terms in algebraic equations. ",
      "np": "यस ई-पाठमा विद्यार्थीहरूलाई सजातीय र विजातीय पद चिन्‍न सिकाइएको छ। साथै सजातीय पदहरू जोड्‍न र घटाउन पनि सिकाइएको छ।"
    },
    "curricular_requirement_content": {
      "en": "Nineteen periods have been allocated for algebra in Grade 4. “Like and Unlike terms” is an important component within this unit. Teachers should plan their time accordingly. ",
      "np": "कक्षा ४ को “बीजगणित” को लागि १९ घन्टी दिइएको छ। “सजातीय र विजातीय पद” लाई विद्यार्थीहरूको आवश्‍यकता अनुसार समय दिएर सिकाउन सकिन्‍छ।"
    },
    "prerequisites_content": {
      "paragraph": {
        "en": "Students should be familiar with the following two E-Paaths before they are introduced to Like and Unlike terms in algebra.  ",
        "np": "विद्यार्थीहरूलाई बीजगणितका बारेमा सामान्‍य धारणाहरू थाहा भएको हुनुपर्नेछ। यो पाठ सुरु गर्नु अघि तल दिइएका ई-पाठहरूको समीक्षा गर्नु उपयोगी हुन्छ।"
      },
      "chapter_links": {
        "chapter_link_data1": {
          "grade": "3",
          "id": "aba",
          "breadcrumb_data": {
            "en": "Grade 3 > Algebra",
            "np": "कक्षा ३ > बीजगणित"
          }
        },
        "chapter_link_data2": {
          "grade": "4",
          "id": "ag1",
          "breadcrumb_data": {
            "en": "Grade 4 > Algebra: Variable and Constant",
            "np": "कक्षा ४ > बीजगणित: चल र अचल"
          }
        }
      }
    },
    "lesson_guidelines_content": {
      "en": {
        "paragraph": "Using apples and bananas, students are introduced to the idea that like terms (in this case, two different amounts of apples) can be added whereas unlike terms (apples and bananas) cannot be added. This E-Paath is a follow-up to the Grade 3 Algebra E-Paath and the Grade 4 E-Paath about variables and constants. Students are shown how to resolve expressions that have like terms and what to do with expressions that have unlike terms. ",
        "list": []
      },
      "np": {
        "paragraph": "यस ई-पाठमा स्‍याउ र केराको प्रयोगबाट सजातीय र विजातीय पद चिन्‍न सिकाइएको छ। स्‍याउहरूलाई दुईओटा झोलामा राखिए पनि तिनीहरू एकै खालका वस्‍तु हुन्। यिनीहरू \"सजातीय वस्‍तु\" हुन्। तर स्‍याउ र केरा एउटै झोलामा राखिए पनि तिनीहरू फरक वस्‍तु हुन् अर्थात् विजातीय वस्‍तु हुन्। सजातीय वस्‍तुहरू जोड्‍न वा घटाउन सकिन्‍छ भने विजातीय वस्‍तुहरू जोड्‍न वा घटाउन सकिँदैन। यहाँ सजातीय र विजातीय पद भएको अभिव्‍यञ्‍जकलाई कसरी सरलीकरण गर्न सकिन्‍छ देखाइएको छ।",
        "list": []
      }
    },
    "related_activities_content": {
      "en": {
        "paragraph": "",
        "list": [
          "Students could come up with word problems similar to the ones presented in this E-Paath. They can use different kinds of fruits (or other objects) and different numbers. ",
          "If students are allowed to illustrate their word problems, they might be more engaged in the activities. They can also work in partnerships or groups. "
        ]
      },
      "np": {
        "paragraph": "",
        "list": [
          "विद्यार्थीहरूले ई-पाठमा भएजस्तै शाब्‍दिक समस्‍याहरू बनाएर छलफल गर्न सक्‍छन्। उनीहरूले विभिन्‍न फलफूल र सङ्‍ख्‍याहरू प्रयोग गर्न सक्‍छन्। ",
          "विद्यार्थीहरूलाई आफ्‍नै शाब्‍दिक समस्‍याहरू बनाउन लगाएर छलफल गराउँदा क्रियाकलापमा व्‍यस्‍त रहने तथा समूहमा आ-आफ्‍ना विचारहरू आदान-प्रदान हुन्‍छ।"
        ]
      }
    },
    "evaluation_content": {
      "en": {
        "paragraph": " ",
        "list": ["", ""]
      },
      "np": {
        "paragraph": " ",
        "list": ["", ""]
      }
    }
  },
  "ag1": {
    "lesson_name": "Algebra: Variable and Constant",
    "about_the_lesson_content": {
      "en": "This E-Paath introduces students to the basic concept of variables and constants in algebraic equations. Students will also understand the term “coefficient”. ",
      "np": "यस ई-पाठमा विद्यार्थीहरूलाई चल, अचल र गुणाङ्‍कको आधारभूत अवधारणा बुझाउने प्रयास गरिएको छ।"
    },
    "curricular_requirement_content": {
      "en": "Nineteen periods have been allocated for Algebra in Grade 4. “Variables and Constants” are one out of several objectives in algebra. Teachers should plan their time accordingly.",
      "np": "कक्षा ४ को “बीजगणित” को लागि १९ घन्टी दिइएको छ। चल र अचललाई विद्यार्थीहरूको आवश्‍यकता अनुसार समय दिएर सिकाउन सकिन्‍छ।"
    },
    "prerequisites_content": {
      "paragraph": {
        "en": " It will help students if they have already been introduced to algebraic equations. Teachers could refer to the following Grade 3 chapter for review.",
        "np": "यदि विद्यार्थीहरू बीजीय समीकरणसँग परिचित छन् भने उनीहरूलाई यो ई-पाठ सजिलो हुन सक्‍छ। यो पाठ सुरु गर्नु अघि तल दिइएको कक्षा ३ को ई-पाठः “बीजगणित” को समीक्षा गर्नु उपयोगी हुन्छ।"
      },
      "chapter_links": {
        "chapter_link_data1": {
          "grade": "3",
          "id": "aba",
          "breadcrumb_data": {
            "en": "Grade 3 > Algebra",
            "np": "कक्षा ३ > बीजगणित"
          }
        }
      }
    },
    "lesson_guidelines_content": {
      "en": {
        "paragraph": "This E-Paath teaches students that a symbol or a letter can be used to signify a number whose value might change (over time). For example, “w” is often used to indicate someone’s weight, which might change over time. As opposed to variables, constants are fixed entities such as a number or a standard weight whose value does not change. Students will be able to test their understanding in two different DIYs. They will also learn about coefficients. ",
        "list": []
      },
      "np": {
        "paragraph": "यस ई-पाठमा कुनै सङ्‍ख्‍या जसको निश्‍चित मान थाहा हुँदैन ती सङ्‍ख्‍यालाई जनाउन कुनै सङ्केत वा अक्षर प्रयोग गर्न सिकाइएको छ। उदाहरणको लागि कसैको तौल जनाउन w प्रयोग गर्न सकिन्‍छ। जुन समय समयमा परिवर्तन हुन सक्‍छ। ‘आफैँ गर’ खण्डबाट विद्यार्थीहरूले अभ्‍यास गर्न सक्‍छन्। यहाँ गुणाङ्‍कको सामान्‍य परिचय समेत दिइएको छ।",
        "list": []
      }
    },
    "related_activities_content": {
      "en": {
        "paragraph": "",
        "list": [
          "Since algebra is an abstract concept, students will need a lot of practice with pen and paper. Various examples involving different scenarios will deepen their understanding. "
        ]
      },
      "np": {
        "paragraph": "",
        "list": [
          "यो बीजगणितको आधारभूत अवधारणा भएकोले विद्यार्थीहरू कापी र कलम प्रयोग गरेर थप अभ्‍यास गर्न सक्‍छन्।"
        ]
      }
    },
    "evaluation_content": {
      "en": {
        "paragraph": " ",
        "list": ["", ""]
      },
      "np": {
        "paragraph": " ",
        "list": ["", ""]
      }
    }
  },
  "ate": {
    "lesson_name": "Algebra: Terms and Expressions",
    "about_the_lesson_content": {
      "en": "This E-Paath teaches students that algebra equations have terms and expressions. A term is a usually a combination of numbers and variables. An expression may have more than one term as well as a mathematical function, such as addition, subtraction, multiplication or division. ",
      "np": "यस ई-पाठमा विद्यार्थीहरूलाई अभिव्‍यञ्‍जकमा पद र बहुपदहरू चिन्‍न सिकाइएको छ। चल र अचल राशि मिलेर पद बन्‍छ भने एक वा एक भन्‍दा धेरै पदहरू मिलेर अभिव्‍यञ्‍जक बन्‍छ। पदहरूको बिचमा ‘+’ वा ‘–’ छ भने त्यसलाई बहुपद भनिन्‍छ। "
    },
    "curricular_requirement_content": {
      "en": "Nineteen periods have been allocated for Algebra in Grade 4. Along with learning to solve equations, students should also be familiar with terms and expressions. This is one of the objectives in algebra. Teachers should plan their periods accordingly. ",
      "np": "कक्षा ४ को “बीजगणित” को लागि १९ घन्टी दिइएको छ। “पद र अभिव्‍यञ्‍जक” लाई विद्यार्थीहरूको आवश्‍यकता अनुसार समय दिएर सिकाउन सकिन्‍छ।"
    },
    "prerequisites_content": {
      "paragraph": {
        "en": "Students should be introduced to simple algebra equations as well as to the concept of variables and constants before being introduced to this E-Paath. Teachers could refer to the following two Grade 4 chapters for review. ",
        "np": "विद्यार्थीहरूलाई बीजगणितका बारेमा सामान्‍य धारणाहरू थाहा भएको हुनुपर्नेछ। यो पाठ सुरु गर्नु अघि तल दिइएका ई-पाठहरूको समीक्षा गर्नु उपयोगी हुन्छ।"
      },
      "chapter_links": {
        "chapter_link_data1": {
          "grade": "4",
          "id": "ag4",
          "breadcrumb_data": {
            "en": "Grade 4 > Algebra: Equations",
            "np": "कक्षा ४ > बीजगणित: (भाग-१)"
          }
        },
        "chapter_link_data2": {
          "grade": "4",
          "id": "ag1",
          "breadcrumb_data": {
            "en": "Grade 4 > Algebra: Variable and Constant",
            "np": "कक्षा ४ > बीजगणित: चल र अचल"
          }
        }
      }
    },
    "lesson_guidelines_content": {
      "en": {
        "paragraph": "This E-Paath teaches students that algebra equations are usually made of terms and expressions. These words are mathematical references. Using various examples, students become familiar with these concepts, as well as with the words monominial expressions (that includes one term), binomial expressions (that includes two terms) and trinominial expressions (that use three terms). Expressions that have more than three terms are called polynomial expressions. ",
        "list": []
      },
      "np": {
        "paragraph": "यस ई-पाठमा एक वा एकभन्‍दा धेरै पदहरू मिलेर अभिव्‍यञ्‍जक तथा एक वा एकभन्‍दा धेरै अभिव्‍यञ्‍जक मिलेर बीजीय समीकरण बन्‍छ भनेर सिकाइएको छ। जहाँ विद्यार्थीहरूले अभिव्‍यञ्‍जकमा पद र बहुपदहरू चिन्‍न सक्‍नेछन्। साथै कुनै पनि अभिव्‍यञ्‍जकको मान प्रतिस्थापन गरेर निकाल्न सक्‍नेछन्। एक मात्र पद भएको अभिव्‍यञ्‍जकलाई एक पदीय, दुई पदहरू भएको लाई दुई पदीय तथा तीन पद भएको लाई तीन पदीय अभिव्‍यञ्‍जक भनिन्‍छ।",
        "list": []
      }
    },
    "related_activities_content": {
      "en": {
        "paragraph": "",
        "list": [
          "This E-Paath teaches mathematical jargons and mathematical words often used in algebra. Students should be comfortable with abstract algebra equations and with solving algebra problems before being introduced to this E-Paath. They should be comfortable with the two other E-Paaths suggested in the prerequisite section. Once they have mastered them, they will be comfortable with this E-Paath. In addition, they should have regular practice with terms and expressions as outlined in the textbook. "
        ]
      },
      "np": {
        "paragraph": "",
        "list": [
          "यो ई-पाठले गणितीय शब्‍दहरू सिकाउँछ। विद्यार्थीहरू बीजीय समीकरणहरू हल गर्नु अघि बीजगणितका सामान्‍य शब्‍दावलीसँग परिचित भएको हुनुपर्छ। साथै पूर्व आवश्‍यकतामा दिइएको दुई ई-पाठहरूसँग पनि परिचित भएको हुनुपर्छ। यहाँ दैनिक जीवनमा प्रयोग हुने भन्‍दा फरक शब्‍दहरू प्रयोग हुने हुँदा नियमित अभ्‍यास गर्न/गराउन सकिन्‍छ।"
        ]
      }
    },
    "evaluation_content": {
      "en": {
        "paragraph": " ",
        "list": ["", ""]
      },
      "np": {
        "paragraph": " ",
        "list": ["", ""]
      }
    }
  },
  "ag4": {
    "lesson_name": "Algebra: Equation",
    "about_the_lesson_content": {
      "en": " In this E-Paath, students will be able to use simple algebraic equations using the inspection method (that requires an educated guess) and the hit and trial method that allows them to replace variables with different numbers to solve equations.",
      "np": "यस ई-पाठमा विद्यार्थीहरू प्रत्यक्ष अवलोकन विधि र बारम्‍बार अभ्‍यास विधिको प्रयोगबाट सामान्‍य बीजीय समीकरणको हल गर्न सक्षम हुनेछन्। उनीहरूले यहाँ चलको मान अनुमान गर्न पनि सक्‍नेछन्।"
    },
    "curricular_requirement_content": {
      "en": "Nineteen periods have been allocated for Algebra in Grade 4. Solving equations that have a variable using two different methods is one out of several objectives in algebra. Teachers should plan their time accordingly.",
      "np": "यस ई-पाठमा विद्यार्थीहरू प्रत्यक्ष अवलोकन विधि र बारम्‍बार अभ्‍यास विधिको प्रयोगबाट सामान्‍य बीजीय समीकरणको हल गर्न सक्षम हुनेछन्। उनीहरूले यहाँ चलको मान अनुमान गर्न पनि सक्‍नेछन्।"
    },
    "prerequisites_content": {
      "paragraph": {
        "en": "It will help students if they have already been introduced to the concept of variables and constants. Teachers could refer to the following Grade 4 chapter for review. ",
        "np": "यो पाठ सुरु गर्नु अघि चल र अचलको बारेमा सामान्‍य धारणाहरू थाहा भएको हुनुपर्नेछ। तल दिइएको कक्षा ४ को ई-पाठ: “चल र अचल” समीक्षा गर्नु उपयोगी हुन्छ।"
      },
      "chapter_links": {
        "chapter_link_data1": {
          "grade": "4",
          "id": "ag1",
          "breadcrumb_data": {
            "en": "Grade 4 > Algebra: Variable and Constant",
            "np": "कक्षा ४ > बीजगणित: चल र अचल"
          }
        }
      }
    },
    "lesson_guidelines_content": {
      "en": {
        "paragraph": "This E-Paath teaches students that algebra equations that have a variable can be solved using the inspection method or the hit and trial method. Students test out their answers using the two methods. These methods can be used to solve equations that uses different mathematical functions such as addition, subtraction, multiplication and division. ",
        "list": []
      },
      "np": {
        "paragraph": "यस ई-पाठले विद्यार्थीहरूलाई प्रत्यक्ष अवलोकन विधि र बारम्‍बार अभ्‍यास विधिको प्रयोगबाट सामान्‍य बीजीय समीकरणको हल गर्न सिकाउनेछ। विद्यार्थीहरूले आफ्‍नो उत्‍तरहरू दुई तरिकाबाट जाँच्‍न सक्‍नेछन्। गणितका आधारभूत क्रियाहरू: जोड, घटाउ, गुणन र भागको प्रयोग गरेर समीकरणको हल गर्न सक्‍नेछन्।",
        "list": []
      }
    },
    "related_activities_content": {
      "en": {
        "paragraph": "",
        "list": [
          "Before solving abstract algebra equations, it will be very helpful to students if they have experience with concrete materials. For example, students can play math games using stones and sticks or cubes and blocks. Two students could be given a fixed number of stones. One student hides some stones and the other student has to guess how many stones was hidden by counting the stones that were not hidden. Say, the partners started with 20 stones. One student hid 13 stones. The student then counts the remaining stones, which is 7. They can guess how many stones were hidden by subtracting 7 from 20. This is an example of a concrete math game that will help them move towards the abstract representation (20 - x = 13; x = ?). "
        ]
      },
      "np": {
        "paragraph": "",
        "list": [
          "विद्यार्थीहरूले समीकरण हल गर्नु अघि ठोस वस्‍तुसँग खेल्‍ने अनुभव भएमा बढी उपयोगी हुन सक्‍छ। उनीहरूले ढुङ्‍गा, लौरो, घन र ब्‍लकहरू प्रयोग गरेर खेल खेल्‍न सक्‍छन्। उदाहरणको लागिः दुई जना विद्यार्थीहरूलाई केही ढुङ्‍गाहरू दिने र एक जनाले ती ढुङ्‍गाहरूबाट केही ढुङ्‍गा लुकाउने। त्यसपछि अर्को विद्यार्थीलाई नलुकाइएको ढुङ्‍गा गनेर कति ढुङ्‍गा लुकाइएको छ अनुमान गर्न लगाउने। जस्तै; सुरुमा २० ढुङ्‍गा ल्‍याइएको थियो। जसमा एक जनाले १३ ओटा ढुङ्‍गा लुकायो। अब कसरी १३ ओटा ढुङ्‍गा नै लुकायो? भनेर पत्‍ता लगाउनको लागि बाँकी ढुङ्‍गा गन्‍न लगाउन सकिन्‍छ। जहाँ ७ ओटा भेटिन्छ, अब सुरुको ढुङ्‍गाबाट बाँकी ढुङ्‍गा घटाएर लुकाइएको ढुङ्‍गा पत्‍ता लगाउन सकिन्‍छ। \nअर्थात् (20 – x = 13, x = ?, x = 20 – 7 = 13)"
        ]
      }
    },
    "evaluation_content": {
      "en": {
        "paragraph": " ",
        "list": ["", ""]
      },
      "np": {
        "paragraph": " ",
        "list": ["", ""]
      }
    }
  },
  "bab": {
    "lesson_name": "Bill and budget",
    "about_the_lesson_content": {
      "en": "This math concept - and the E-Paath lesson - has a strong practical link since it deals with bills. Students will be able to identify various parts of the bill and also make simple calculations.",
      "np": "यो ई-पाठ बिलसँग सम्‍बन्धित भएकोले बिल र बजेट सम्‍बन्‍धी अवधारणालाई व्यावहारिक रूपमा स्पष्ट बनाउँछ। विद्यार्थीहरूले बिलको विभिन्‍न भागहरू पहिचान गर्नुका साथै साधारण हिसाब गर्न सक्षम हुनेछन्।"
    },
    "curricular_requirement_content": {
      "en": "Seven periods have been allocated to this unit.",
      "np": "यो पाठको लागि सात घन्टी दिइएको छ। "
    },
    "prerequisites_content": {
      "paragraph": {
        "en": "Students should have mastered basic addition (involving two and three digits) and should also be familiar with money. Teachers could also refer to the following Grade 3 unit for review. ",
        "np": "विद्यार्थीहरू आधारभूत जोड (दुई र तीन अङ्‍क समावेश भएको) गर्न सक्षम हुनुपर्नेछ। साथै पैसासँग पनि परिचित हुनुपर्छ। यो पाठ सुरु गर्नु अघि तल दिइएको कक्षा ३ को “बिल र बजेट” ई-पाठ समीक्षा गर्नु उपयोगी हुन्छ।"
      },
      "chapter_links": {
        "chapter_link_data1": {
          "grade": "3",
          "id": "bab",
          "breadcrumb_data": {
            "en": "Grade 3 ≻ Bill and Budget",
            "np": "कक्षा ३ ≻ बिल र बजेट"
          }
        }
      }
    },
    "lesson_guidelines_content": {
      "en": {
        "paragraph": "In this E-Paath, students are given a virtual shopping experience. Users will have an option of selecting a particular geographic area and then selecting the type and number of items they want to buy from different stores. This kind of learning experience increases student engagement, which in turn could make the concepts stick.",
        "list": []
      },
      "np": {
        "paragraph": "यस ई-पाठमा विद्यार्थीहरूलाई किनमेल गर्ने अनुभव प्रदान गरिएको छ। ई-पाठको दोस्रो पृष्‍ठ निकै रोचक छ जहाँ आफूलाई मन लागेको भौगोलिक क्षेत्र छनोट गर्न सकिन्‍छ। त्यसपछि विभिन्‍न प्रकारका पसलहरू मध्ये कुनै एक पसल छानेर किनमेल गर्न सकिनेछ। जसले विद्यार्थीहरूलाई किनमेलको अनुभवको प्रदान गर्नुको साथै पाठमा व्‍यस्‍त बनाउन सकिन्‍छ। ",
        "list": []
      }
    },
    "related_activities_content": {
      "en": {
        "paragraph": "",
        "list": [
          "Since the main idea of the lesson has a direct connection to the lives of students, have them bring bills from home. Students can share these examples and then write short ‘story problems’ involving the bills. Partners can solve each other’s problems.",
          "Students can also create their own bills and work with partners to solve the problems.",
          " Teachers can provide additional problems for students to practice in class or at home. "
        ]
      },
      "np": {
        "paragraph": "",
        "list": [
          "यो पाठ विद्यार्थीहरूको दैनिकीसँग सम्‍बन्धित भएकाले, उनीहरूले घरमा प्रयोग भएका बिलहरू ल्याउन सक्छन्। विद्यार्थीहरूले यी उदाहरणहरू छलफल गरी बिल सम्‍बन्धी ‘कथागत समस्‍याहरू’ बनाउन सक्‍छन्। यी समस्‍याहरूलाई विद्यार्थीहरूले एक अर्कासँग मिलेर हल गर्न सक्‍छन्।",
          "विद्यार्थीहरूले पनि आफैँ बिलहरू बनाउन र साथीसँग मिलेर समस्या हल गर्न सक्छन्।",
          "शिक्षकहरूले कक्षा वा घरमा अभ्यास गर्न थप प्रश्‍नहरू दिन सक्छन्।"
        ]
      }
    },
    "evaluation_content": {
      "en": {
        "paragraph": " ",
        "list": ["", ""]
      },
      "np": {
        "paragraph": " ",
        "list": ["", ""]
      }
    }
  }
}
