selector,english_word,engmeaning,nepali_word,nepmeaning,image
motion,motion,,चाल,,
force,force,,बल,,
notices,notice,,हेक्का राख्‍नु ,,
swing,swing,,पिङ,,
farther,far,,टाढा,,
kicking,kick,,,खुट्‍टाले हान्‍नु,
slide,slide,,चिप्‍लेटी,,
wonders,wonder,,सोच्‍नु,,
after a while,after a while,,,एकछिन पछि,
observe,observe,,हेर्नु,अवलोकन गर्नु,
forth,forth,,अगाडि,,
random,random,,जथाभावी,,
circular,circular,,गोलाकार,,
catapult,catapult,,गुलेली,,
rest ,rest ,,स्थिर रहनु,नचली बस्‍नु,
measured,measure,,नाप लिनु,,
abbreviated,abbreviate,,छोटकरीमा,शब्दको सानो रुप,
hook,hook,,अङ्कुशे,सामानहरू उचाल्‍न प्रयोग हुने बाङ्गो अङ्कुश,
streches,strech,,तन्काउनु,,
Interaction,interact,,अन्तरक्रिया गर्नु,,
gravity,gravity,,गुरुत्‍व बल,पृथ्वीले वस्तुलाई आफूतिर तान्‍ने बल,
friction,friction,,घर्षण,,
multiple,multiple,,,दुई वा दुईभन्‍दा बढि,
influence,influence,,प्रभाव,असर,
prevents,prevent,,रोक्‍नु,,
hill,hill,,पहाड,,
pedal,pedal,,,साइकलको एक भाग,
frequency,frequency,,आवृति,,
