selector,english_word,engmeaning,nepali_word,nepmeaning,image
kind,kind,,,दयालु,
keep in mind,keep in mind,,,सम्झनुपर्ने,
out of sight,out of sight,,,नदेखिने,
headache,headache,,,टाउको दुख्&#8205नु,
silently,silent,,,चुपचापसँग,
noisy,noise,,,हल्ला गर्ने,
scream,scream,,,चिच्याउनु,
yell,yell,,,तिखो वा ठुलो स्वरले कराउनु,
quietly,quiet,,,"हल्ला नगरीकन, शान्त भावले",
nursed,nurse,,,स्याहार सुसार गर्नु,
cheers,cheers,,,हौसला दिनु,
patience,patience,,,"धैर्य",
faults,fault,,,गल्ती,
pray,pray,,,प्रार्थना गर्नु,
indeed,indeed,,,साँच्चै,
trouble,trouble,,,दु:ख दिनु,
helpless,helpless,,,"असहाय, केही गर्न नसक्ने अवस्था ",
heard,hear,,,सुन्नु,
please,please,to make happy,,"खुसी पार्नु",
Hover,hover,,,"कर्सरले छुनु वा देखाउनु",
