selector,english_word,engmeaning,nepali_word,nepmeaning,image
collection,collect,,संग्रह,जम्मा गर्नु वा हुनु,
elements,element,,सदस्य,,
papaya,papaya,,मेवा,,
lady's finger,lady's finger,,चिप्ले भ्यान्टा,,
"bringel,",bringle,,भ्यान्टा,,
objects,object,,वस्तु,,
review,review,,समिक्षा ,फेरी हेर्नु,
container,container,,भाँडो,ठुलो बाकस,container.jpg
basically,basically,,सामान्यतय,,
notation,notation,,सङ्केत,,
curly ,curl,,घुमेको,,
