<?xml version="1.0" encoding="utf-8"?>
<!-- Generator: Adobe Illustrator 15.0.0, SVG Export Plug-In . SVG Version: 6.00 Build 0)  -->
<!DOCTYPE svg PUBLIC "-//W3C//DTD SVG 1.1//EN" "http://www.w3.org/Graphics/SVG/1.1/DTD/svg11.dtd">
<svg version="1.1" id="Layer_1" xmlns="http://www.w3.org/2000/svg" xmlns:xlink="http://www.w3.org/1999/xlink" x="0px" y="0px"
	 width="337.18px" height="580.237px" viewBox="0 0 337.18 580.237" enable-background="new 0 0 337.18 580.237"
	 xml:space="preserve">

<path class="root svgbtn" fill="#E1DE80" stroke="#231F20" stroke-width="0.2924" stroke-miterlimit="10" d="M111.834,460.105
	c0,0,1.552,6.531,0.577,12.963c-0.975,6.434,1.364,6.627-4.874,11.5c-6.236,4.873-11.888,10.135-16.566,11.111
	c-4.679,0.974-5.263,0.779-10.136,1.363c-4.873,0.586-5.848,0.584-10.136,1.559c-4.288,0.977-7.017,2.73-10.72,3.899
	s-4.289,1.169-8.576,1.169c-4.288,0-4.093-0.78-6.627,0.195c-2.533,0.976-2.339,1.754-0.974,1.754c1.364,0,8.966,0.39,9.551,0.584
	c0.585,0.196-4.288,1.562-6.822,3.119c-2.533,1.56-9.551,6.435-10.331,7.797c-0.778,1.364,2.34,0.391,2.34,0.391
	s7.406-5.459,12.279-7.018s6.822-3.314,11.5-4.873c4.679-1.559,14.813-5.068,15.982-2.923c0,0-2.923,2.145-5.652,5.068
	c-2.729,2.923-6.432,8.573-6.627,10.134s0.78,1.948,1.56,0.585c0.779-1.364,0.585-3.703,7.017-7.991
	c6.432-4.289,4.483-4.481,7.602-6.822c3.118-2.338,5.067-2.338,11.109-4.092c6.042-1.755,9.357-6.434,11.695-7.603
	c2.339-1.169,5.263-2.534,6.042,1.56c0.78,4.094,2.339,10.525,0.975,12.668c-1.365,2.146,0.78,3.705-5.068,6.043
	c-5.847,2.34-5.263,3.313-9.355,4.093c-4.094,0.78-4.873,1.755-8.576,1.755s-5.263-0.195-8.966-0.195
	c-3.703,0-6.627,0.391-6.627,0.391l2.534,1.559c0,0,2.923,1.949,5.263,1.755c2.339-0.196,7.992-0.196,5.067,0.974
	c-2.923,1.17-4.677,0.782-7.796,2.729c-3.119,1.948-7.211,5.066-10.33,6.627c-3.119,1.56-6.237,1.56-7.992,2.73
	c-1.754,1.168-0.584,1.167,1.755,0.777c2.338-0.389,7.211-0.779,10.135-2.339c2.924-1.559,4.873-4.872,5.068-2.533
	c0.195,2.339-0.39,7.211-0.975,7.992c-0.585,0.779,1.559-0.195,2.728-2.535c1.17-2.339,0.781-3.313,2.73-5.652
	c1.948-2.338,4.092-4.873,5.457-5.847c1.365-0.975,5.068-0.585,11.89-2.729c6.822-2.145,15.008-7.018,15.008-7.991
	c0-0.975,2.339,7.213,1.755,9.746c-0.585,2.533-0.39,4.095-3.119,6.237c-2.729,2.144-5.847,3.703-7.602,5.457
	c-1.754,1.755-2.533,4.094-5.847,5.264c-3.314,1.17-5.458,1.947-7.602,2.144c-2.146,0.194-6.043,2.924-7.992,5.068
	c-1.948,2.144-2.144,3.509-2.144,3.509s2.924-1.171,5.458-2.73c2.533-1.559,6.822-3.899,5.847-1.169
	c-0.975,2.729-2.338,6.238-3.118,7.212s1.559,1.561,3.508,0.195c1.949-1.365,1.559-3.703,3.313-6.043
	c1.754-2.339,3.508-4.289,5.652-5.263s7.991-5.261,9.551-6.821c1.559-1.56,3.704-5.652,4.873,1.754
	c1.17,7.408,2.144,10.914,0.779,15.593s0.196,5.846-3.118,8.575c-3.314,2.73-3.314,1.756-3.898,5.459
	c-0.584,3.704-0.194,7.211-0.194,7.211s0.974,2.729,1.364-0.779s2.34-8.187,3.314-6.627c0.975,1.56,1.364,3.12,1.364,6.823
	c0,3.702,0.195,5.065,0.779,5.456c0.585,0.391,1.169-7.018,1.169-7.018s0.391-10.914,1.56-13.449
	c1.169-2.533,1.755-8.964,3.898-7.99c2.145,0.975,4.288,1.754,9.746,4.677c5.458,2.925,4.093,1.171,2.144,0
	c-1.949-1.168-10.721-7.599-12.669-12.667c-1.949-5.068-1.17-14.62-1.364-17.738s2.339-3.703,5.847-1.949s8.577,4.874,11.5,6.238
	c2.924,1.363,3.118,2.337,4.677,1.948c1.56-0.39,0.976-1.365,4.679-0.585c3.703,0.779,4.483,0.974,5.847,1.17
	c1.365,0.194,1.364-0.975-0.195-2.145c-1.559-1.169-6.237-3.117-9.745-3.313c-3.509-0.195-1.364,0.391-3.509-0.195
	c-2.145-0.585-7.406-6.821-16.373-8.575c-0.975-0.392-0.78-10.917-0.78-11.501c0-0.585,5.263-0.391,17.737,2.924
	s22.805,7.795,30.016,11.109c7.212,3.314,7.212,3.119,9.941,4.094c2.729,0.975,1.754-0.779,1.949-1.364
	c0.194-0.585-4.873-3.508,3.117-1.169c7.992,2.339,13.449,2.533,13.449,2.533s-11.889-4.482-16.177-5.068
	c-4.289-0.584-11.306-2.729-13.059-3.704c-1.755-0.973-10.721-2.924-7.992-4.093c2.729-1.169,3.703-1.169,5.652-1.559
	c1.949-0.389,0.78-2.729-3.508-2.339s-17.542-2.338-22.219-2.729c-4.679-0.391-17.737-1.169-19.297-4.288s-3.899-9.745-3.119-12.863
	c0.78-3.12,2.145-11.11,4.874-9.941c2.728,1.17,12.475,4.092,16.958,4.678c4.482,0.585,6.431,1.17,12.083,1.17
	c5.653,0,8.965-0.391,11.696,2.533c2.728,2.923,3.508,3.703,4.873,7.407c1.363,3.703,0.974,4.873,3.896,7.212
	c2.925,2.339,7.992,3.704,8.577,4.093c0.585,0.391,2.145-0.585-0.585-2.339c-2.729-1.754-5.847-5.458-5.847-5.458
	s0.779-1.17,6.041,1.755c5.264,2.923,7.212,2.923,7.212,2.923s-5.651-3.702-8.186-5.066c-2.534-1.366-9.356-6.823-9.552-8.966
	c-0.194-2.145,3.314-3.703,5.459-2.729c2.144,0.975,11.89,2.924,15.787,4.483c3.898,1.558,7.991,1.558,9.551,1.558
	c1.559,0,4.287-0.583,7.991,1.364c3.704,1.95,6.237,3.704,9.161,3.704s0.779-1.558-1.17-2.533c-1.948-0.977-5.457-3.899-8.965-4.874
	c-3.509-0.973-12.67-1.756-9.746-3.703c2.923-1.948,6.236-1.363,10.135-1.948s1.56-2.534-0.779-2.534s-7.99,2.34-11.89,3.119
	c-3.898,0.779-7.212,1.754-8.771,0.974s-3.897-2.924-9.355-3.509c-5.458-0.584-5.263-0.582-13.254-0.974s-11.89-1.754-18.126-3.119
	c-6.238-1.365-17.153-5.068-19.881-8.382c-2.729-3.313-3.003-4.582-3.978-9.26"/>
<g class="fruitgrp svgbtn">
	<g>
		<g>
			<linearGradient id="SVGID_1_" gradientUnits="userSpaceOnUse" x1="14.1567" y1="93.501" x2="89.5657" y2="127.3636">
				<stop  offset="0" style="stop-color:#B05751"/>
				<stop  offset="0.097" style="stop-color:#418840"/>
				<stop  offset="0.5394" style="stop-color:#6D983F"/>
				<stop  offset="0.6011" style="stop-color:#72953F"/>
				<stop  offset="0.6919" style="stop-color:#7E8D42"/>
				<stop  offset="0.8005" style="stop-color:#8F7E47"/>
				<stop  offset="0.9218" style="stop-color:#A36A4E"/>
				<stop  offset="1" style="stop-color:#B05751"/>
			</linearGradient>
			<path  class="fruit" fill="url(#SVGID_1_)" d="M80.752,126.655c3.905,0.647,11.516,2.7,16.351,4.05c0.108-0.039,0.17-0.063,0.17-0.063
				s-4.678-2.242-5.117-2.491c-0.439-0.249-6.141-4.236-7.749-5.108c-1.607-0.871-1.315-2.615-3.216-3.113
				c-1.9-0.499-3.363-0.249-4.095-0.747c-0.73-0.499-1.899-2.368-3.655-2.492c-1.754-0.125-2.777,0.124-3.216-0.997
				c-0.438-1.123-2.631-1.62-4.24-1.993c-1.607-0.374-3.069-0.5-4.239-1.619c-1.169-1.121-3.362-2.242-3.948-3.114
				c-0.585-0.872-2.777,0-4.678-0.498c-1.9-0.499-2.777-1.37-4.679-1.495c-1.899-0.125-3.508-0.624-5.262-1.744
				c-1.755-1.121-2.924-2.99-4.679-3.488c-1.754-0.498-4.532-0.748-7.017-1.993c-2.485-1.246-7.457-3.238-9.503-4.237
				c-2.046-0.994-8.333-2.241-8.333-2.241c-0.022,0.029-0.02,0.083-0.026,0.129c11.754,6.461,34.758,19.037,41.838,22.42
				C65.11,120.427,74.758,125.658,80.752,126.655z"/>
			<linearGradient id="SVGID_2_" gradientUnits="userSpaceOnUse" x1="13.9653" y1="90.2178" x2="90.2988" y2="136.2178">
				<stop  offset="0" style="stop-color:#B05751"/>
				<stop  offset="0.097" style="stop-color:#418840"/>
				<stop  offset="1" style="stop-color:#B05751"/>
			</linearGradient>
			<path class="fruit" fill="url(#SVGID_2_)" d="M80.752,126.655c-5.994-0.997-15.643-6.229-25.292-10.838c-7.08-3.383-30.083-15.959-41.838-22.42
				c-0.073,0.559,0.993,2.324,2.073,3.359c1.17,1.122,1.901,2.118,2.923,2.99c1.024,0.871,2.047,1.62,3.948,2.739
				c1.9,1.121,2.193,2.618,3.655,3.614c1.462,0.997,2.632,2.242,3.655,2.99c1.023,0.747,4.824,2.864,6.433,3.984
				c1.607,1.122,2.192,1.744,4.386,2.617c2.193,0.872,2.485,1.495,6.139,2.741c3.655,1.246,2.486,1.868,3.801,2.118
				c1.316,0.249,6.14,3.486,8.333,4.235c2.193,0.746,5.702,1.121,6.725,1.37c1.024,0.249,5.848,3.114,7.456,3.364
				c1.609,0.249,6.433,1.993,8.626,1.993c2.194,0,7.895-0.499,9.941,0c1.781,0.433,4.665-0.546,5.386-0.81
				C92.269,129.355,84.657,127.303,80.752,126.655z"/>
		</g>
		<linearGradient id="SVGID_3_" gradientUnits="userSpaceOnUse" x1="31.6787" y1="117.0117" x2="95.8638" y2="117.0117">
			<stop  offset="0" style="stop-color:#B05751"/>
			<stop  offset="0.097" style="stop-color:#418840"/>
			<stop  offset="0.5394" style="stop-color:#6D983F"/>
			<stop  offset="0.6011" style="stop-color:#72953F"/>
			<stop  offset="0.6919" style="stop-color:#7E8D42"/>
			<stop  offset="0.8005" style="stop-color:#8F7E47"/>
			<stop  offset="0.9218" style="stop-color:#A36A4E"/>
			<stop  offset="1" style="stop-color:#B05751"/>
		</linearGradient>
		<path class="fruit" fill="url(#SVGID_3_)" d="M95.717,130.674c-0.014,0-0.028-0.002-0.042-0.007c-0.103-0.03-10.378-3.113-16.293-4.096
			c-4.398-0.732-11.144-4.149-18.285-7.768c-2.599-1.317-5.286-2.679-7.888-3.922c-9.542-4.559-21.337-11.191-21.456-11.258
			c-0.07-0.039-0.095-0.128-0.056-0.198c0.04-0.071,0.128-0.099,0.199-0.056c0.117,0.066,11.904,6.693,21.438,11.248
			c2.605,1.245,5.294,2.607,7.895,3.925c7.121,3.607,13.846,7.016,18.201,7.739c5.934,0.986,16.227,4.074,16.33,4.105
			c0.078,0.022,0.121,0.104,0.098,0.182C95.838,130.633,95.78,130.674,95.717,130.674z"/>
		<g opacity="0.4">
			<g>
				<g opacity="0.7">
					<ellipse fill="#556A2F" cx="31.282" cy="105.956" rx="1.319" ry="1.124"/>
				</g>
				<g opacity="0.7">
					<ellipse fill="#556A2F" cx="38.898" cy="110.369" rx="1.319" ry="1.123"/>
				</g>
				<g opacity="0.7">
					<ellipse fill="#556A2F" cx="36.461" cy="103.361" rx="1.319" ry="1.122"/>
				</g>
				<g opacity="0.7">
					<ellipse fill="#556A2F" cx="29.861" cy="102.148" rx="1.319" ry="1.124"/>
				</g>
				<g opacity="0.7">
					
						<ellipse transform="matrix(0.8865 0.4628 -0.4628 0.8865 48.3073 -0.4585)" fill="#556A2F" cx="25.088" cy="98.233" rx="1.319" ry="0.668"/>
				</g>
				<g opacity="0.7">
					<ellipse fill="#556A2F" cx="26.713" cy="102.495" rx="1.32" ry="1.123"/>
				</g>
				<g opacity="0.7">
					<ellipse fill="#556A2F" cx="45.397" cy="108.205" rx="1.319" ry="1.125"/>
				</g>
				<g opacity="0.7">
					<ellipse fill="#556A2F" cx="56.16" cy="112.445" rx="1.319" ry="1.124"/>
				</g>
				<g opacity="0.7">
					<ellipse fill="#556A2F" cx="66.417" cy="116.858" rx="1.319" ry="1.124"/>
				</g>
				<g opacity="0.7">
					<ellipse fill="#556A2F" cx="61.238" cy="115.129" rx="1.319" ry="1.123"/>
				</g>
				<g opacity="0.7">
					<ellipse fill="#556A2F" cx="72.103" cy="119.887" rx="1.32" ry="1.124"/>
				</g>
				<g opacity="0.7">
					<ellipse fill="#556A2F" cx="78.602" cy="122.396" rx="1.319" ry="1.125"/>
				</g>
				<g opacity="0.7">
					<ellipse fill="#556A2F" cx="84.593" cy="125.425" rx="1.319" ry="1.124"/>
				</g>
				<g opacity="0.7">
					<ellipse fill="#556A2F" cx="80.023" cy="128.886" rx="1.319" ry="1.124"/>
				</g>
				<g opacity="0.7">
					<path fill="#556A2F" d="M75.961,127.156c0,0.62-0.59,1.123-1.319,1.123s-1.319-0.503-1.319-1.123
						c0-0.623,0.591-1.125,1.319-1.125S75.961,126.533,75.961,127.156z"/>
				</g>
				<g opacity="0.7">
					<ellipse fill="#556A2F" cx="67.432" cy="124.473" rx="1.319" ry="1.123"/>
				</g>
				<g opacity="0.7">
					<ellipse fill="#556A2F" cx="62.254" cy="122.311" rx="1.319" ry="1.123"/>
				</g>
				<g opacity="0.7">
					<ellipse fill="#556A2F" cx="57.278" cy="120.146" rx="1.319" ry="1.124"/>
				</g>
				<g opacity="0.7">
					<ellipse fill="#556A2F" cx="51.287" cy="117.292" rx="1.319" ry="1.123"/>
				</g>
				<g opacity="0.7">
					<ellipse fill="#556A2F" cx="47.123" cy="114.954" rx="1.319" ry="1.124"/>
				</g>
				<g opacity="0.7">
					<ellipse fill="#556A2F" cx="42.452" cy="112.532" rx="1.319" ry="1.124"/>
				</g>
				<g opacity="0.7">
					<ellipse fill="#556A2F" cx="34.836" cy="108.378" rx="1.319" ry="1.124"/>
				</g>
			</g>
		</g>
		
	</g>
	<g>
		<g>
			
				<linearGradient id="SVGID_4_" gradientUnits="userSpaceOnUse" x1="-4734.7524" y1="112.501" x2="-4659.3442" y2="146.3632" gradientTransform="matrix(-1 0 0 1 -4525.957 0)">
				<stop  offset="0" style="stop-color:#B05751"/>
				<stop  offset="0.097" style="stop-color:#418840"/>
				<stop  offset="0.5394" style="stop-color:#6D983F"/>
				<stop  offset="0.6011" style="stop-color:#72953F"/>
				<stop  offset="0.6919" style="stop-color:#7E8D42"/>
				<stop  offset="0.8005" style="stop-color:#8F7E47"/>
				<stop  offset="0.9218" style="stop-color:#A36A4E"/>
				<stop  offset="1" style="stop-color:#B05751"/>
			</linearGradient>
			<path class="fruit" fill="url(#SVGID_4_)" d="M142.201,145.655c-3.905,0.647-11.516,2.7-16.351,4.05c-0.108-0.039-0.17-0.063-0.17-0.063
				s4.678-2.242,5.117-2.491c0.439-0.249,6.141-4.236,7.749-5.108c1.607-0.871,1.315-2.615,3.216-3.113
				c1.9-0.499,3.363-0.249,4.095-0.747c0.73-0.499,1.899-2.368,3.655-2.492c1.754-0.125,2.777,0.124,3.216-0.997
				c0.438-1.123,2.631-1.62,4.24-1.993c1.607-0.374,3.069-0.5,4.239-1.619c1.169-1.121,3.362-2.242,3.948-3.114
				c0.585-0.872,2.777,0,4.678-0.498c1.9-0.499,2.777-1.37,4.68-1.495c1.898-0.125,3.508-0.624,5.262-1.744
				c1.754-1.121,2.924-2.99,4.678-3.488s4.533-0.748,7.018-1.993c2.485-1.246,7.457-3.238,9.504-4.237
				c2.046-0.994,8.332-2.241,8.332-2.241c0.022,0.029,0.021,0.083,0.026,0.129c-11.755,6.461-34.759,19.037-41.838,22.42
				C157.843,139.427,148.195,144.658,142.201,145.655z"/>
			
				<linearGradient id="SVGID_5_" gradientUnits="userSpaceOnUse" x1="-4734.9453" y1="109.2183" x2="-4658.6118" y2="155.2183" gradientTransform="matrix(-1 0 0 1 -4525.957 0)">
				<stop  offset="0" style="stop-color:#B05751"/>
				<stop  offset="0.097" style="stop-color:#418840"/>
				<stop  offset="1" style="stop-color:#B05751"/>
			</linearGradient>
			<path class="fruit" fill="url(#SVGID_5_)" d="M142.201,145.655c5.994-0.997,15.643-6.229,25.292-10.838c7.079-3.383,30.083-15.959,41.838-22.42
				c0.073,0.559-0.993,2.324-2.073,3.359c-1.17,1.122-1.9,2.118-2.923,2.99c-1.024,0.871-2.048,1.62-3.948,2.739
				c-1.9,1.121-2.193,2.618-3.654,3.614c-1.462,0.997-2.633,2.242-3.655,2.99c-1.023,0.747-4.824,2.864-6.433,3.984
				c-1.607,1.122-2.193,1.744-4.387,2.617c-2.192,0.872-2.484,1.495-6.139,2.741c-3.655,1.246-2.486,1.868-3.801,2.118
				c-1.316,0.249-6.141,3.486-8.333,4.235c-2.193,0.746-5.702,1.121-6.725,1.37c-1.024,0.249-5.848,3.114-7.456,3.364
				c-1.609,0.249-6.433,1.993-8.626,1.993c-2.194,0-7.895-0.499-9.941,0c-1.781,0.433-4.665-0.546-5.386-0.81
				C130.685,148.355,138.296,146.303,142.201,145.655z"/>
		</g>
		
			<linearGradient id="SVGID_6_" gradientUnits="userSpaceOnUse" x1="-4717.2319" y1="136.0117" x2="-4653.0469" y2="136.0117" gradientTransform="matrix(-1 0 0 1 -4525.957 0)">
			<stop  offset="0" style="stop-color:#B05751"/>
			<stop  offset="0.097" style="stop-color:#418840"/>
			<stop  offset="0.5394" style="stop-color:#6D983F"/>
			<stop  offset="0.6011" style="stop-color:#72953F"/>
			<stop  offset="0.6919" style="stop-color:#7E8D42"/>
			<stop  offset="0.8005" style="stop-color:#8F7E47"/>
			<stop  offset="0.9218" style="stop-color:#A36A4E"/>
			<stop  offset="1" style="stop-color:#B05751"/>
		</linearGradient>
		<path class="fruit" fill="url(#SVGID_6_)" d="M127.236,149.674c0.014,0,0.028-0.002,0.042-0.007c0.103-0.03,10.378-3.113,16.293-4.096
			c4.398-0.732,11.144-4.149,18.285-7.768c2.599-1.317,5.286-2.679,7.889-3.922c9.542-4.559,21.337-11.191,21.455-11.258
			c0.07-0.039,0.096-0.128,0.056-0.198c-0.04-0.071-0.128-0.099-0.199-0.056c-0.118,0.066-11.904,6.693-21.438,11.248
			c-2.605,1.245-5.294,2.607-7.894,3.925c-7.121,3.607-13.846,7.016-18.201,7.739c-5.934,0.986-16.227,4.074-16.33,4.105
			c-0.078,0.022-0.121,0.104-0.098,0.182C127.115,149.633,127.173,149.674,127.236,149.674z"/>
		<g opacity="0.4">
			<g>
				<g opacity="0.7">
					<ellipse fill="#556A2F" cx="191.671" cy="124.956" rx="1.318" ry="1.124"/>
				</g>
				<g opacity="0.7">
					<ellipse fill="#556A2F" cx="184.055" cy="129.369" rx="1.319" ry="1.123"/>
				</g>
				<g opacity="0.7">
					<ellipse fill="#556A2F" cx="186.492" cy="122.361" rx="1.319" ry="1.122"/>
				</g>
				<g opacity="0.7">
					<ellipse fill="#556A2F" cx="193.092" cy="121.148" rx="1.319" ry="1.124"/>
				</g>
				<g opacity="0.7">
					
						<ellipse transform="matrix(-0.8864 0.4628 -0.4628 -0.8864 427.5216 129.5729)" fill="#556A2F" cx="197.865" cy="117.233" rx="1.319" ry="0.668"/>
				</g>
				<g opacity="0.7">
					<ellipse fill="#556A2F" cx="196.24" cy="121.495" rx="1.319" ry="1.123"/>
				</g>
				<g opacity="0.7">
					<ellipse fill="#556A2F" cx="177.556" cy="127.205" rx="1.319" ry="1.125"/>
				</g>
				<g opacity="0.7">
					<ellipse fill="#556A2F" cx="166.793" cy="131.445" rx="1.319" ry="1.124"/>
				</g>
				<g opacity="0.7">
					<ellipse fill="#556A2F" cx="156.536" cy="135.858" rx="1.319" ry="1.124"/>
				</g>
				<g opacity="0.7">
					<ellipse fill="#556A2F" cx="161.716" cy="134.129" rx="1.319" ry="1.123"/>
				</g>
				<g opacity="0.7">
					<ellipse fill="#556A2F" cx="150.85" cy="138.887" rx="1.32" ry="1.124"/>
				</g>
				<g opacity="0.7">
					<ellipse fill="#556A2F" cx="144.351" cy="141.396" rx="1.319" ry="1.125"/>
				</g>
				<g opacity="0.7">
					<ellipse fill="#556A2F" cx="138.36" cy="144.425" rx="1.319" ry="1.124"/>
				</g>
				<g opacity="0.7">
					<ellipse fill="#556A2F" cx="142.93" cy="147.886" rx="1.319" ry="1.124"/>
				</g>
				<g opacity="0.7">
					<path fill="#556A2F" d="M146.992,146.156c0,0.62,0.59,1.123,1.319,1.123s1.319-0.503,1.319-1.123
						c0-0.623-0.591-1.125-1.319-1.125S146.992,145.533,146.992,146.156z"/>
				</g>
				<g opacity="0.7">
					<ellipse fill="#556A2F" cx="155.521" cy="143.473" rx="1.319" ry="1.123"/>
				</g>
				<g opacity="0.7">
					<ellipse fill="#556A2F" cx="160.699" cy="141.311" rx="1.319" ry="1.123"/>
				</g>
				<g opacity="0.7">
					<ellipse fill="#556A2F" cx="165.675" cy="139.146" rx="1.319" ry="1.124"/>
				</g>
				<g opacity="0.7">
					<ellipse fill="#556A2F" cx="171.666" cy="136.292" rx="1.319" ry="1.123"/>
				</g>
				<g opacity="0.7">
					<ellipse fill="#556A2F" cx="175.83" cy="133.954" rx="1.319" ry="1.124"/>
				</g>
				<g opacity="0.7">
					<ellipse fill="#556A2F" cx="180.501" cy="131.532" rx="1.319" ry="1.124"/>
				</g>
				<g opacity="0.7">
					<ellipse fill="#556A2F" cx="188.117" cy="127.378" rx="1.319" ry="1.124"/>
				</g>
			</g>
		</g>
		<path class="fruit" fill="#85AB3F" d="M124.165,151.127c0,0,0.254-0.215,1.5-0.359c1.248-0.146,1.839-0.348,2.063-0.703
			c0.223-0.356-0.063-1.234-0.719-1.297c-1.175-0.112-3.088,0.667-3.422,0.984C122.587,150.705,124.165,151.127,124.165,151.127z"/>
	</g>
</g>

<g class="leafgrp svgbtn">
	<g>
		<path class="leaf" fill="#81B040" d="M96.941,209.353c-3.035-3.916-6.558-3.132-14.291-12.137s-19.087-11.747-24.47-15.759
			c-3.056-2.277-7.336-5.311-10.472-7.508c-0.087-0.004-0.126,0.019-0.101,0.068c0.196,0.392,2.153,4.11,4.111,6.949
			c1.958,2.838,3.035,3.916,9.887,6.754c6.851,2.838,5.285,3.622,7.341,5.678s0.685,4.404,4.11,7.83
			c3.426,3.427,4.895,2.741,9.593,4.699s8.32,9.786,12.529,14.779c4.209,4.992,6.363,4.698,9.494,5.58
			c3.133,0.882,3.72,1.761,3.72,1.761l0.071-0.481c-0.719-2.655-1.933-6.548-3.008-8.229
			C103.891,216.892,99.976,213.269,96.941,209.353z"/>
		<path class="leaf" fill="#678C3C" d="M107.807,212.29c-1.175-2.643-2.937-3.23-5.286-5.873c-2.349-2.643-7.145-6.461-9.593-8.907
			c-2.447-2.447-10.962-6.754-14.976-9.006c-4.014-2.25-12.333-6.264-14.977-8.025c-2.643-1.764-9.2-4.112-10.571-4.797
			c-1.195-0.599-4.103-1.716-4.695-1.732c3.135,2.197,7.416,5.23,10.472,7.508c5.383,4.012,16.736,6.754,24.47,15.759
			s11.256,8.221,14.291,12.137c3.034,3.916,6.949,7.539,8.515,9.984c1.076,1.682,2.29,5.574,3.008,8.229l1.3-8.817
			C109.765,218.749,108.981,214.933,107.807,212.29z"/>
	</g>
	<g>
		<g>
			<path class="leaf" fill="#81B040" d="M250.867,241.273c-0.885-0.502-2.92,0.643-4.563,1.594c-2.164,1.253-2.619-1.821-4.896-2.391
				c-2.277-0.57-5.238-1.024-7.63-1.707c-2.392-0.685-6.377,0.227-8.427,1.023c-2.05,0.798-2.277,2.051-3.416,5.01
				c-1.139,2.962-1.594,0.912-3.53,1.367c-1.936,0.457-2.847,1.937-4.44,4.556c-1.596,2.618-4.213,4.782-5.238,6.947
				c-1.024,2.163-2.961-1.026-3.529-2.848c-0.57-1.822-2.733,3.529-4.328,5.923c-1.594,2.391-3.074,3.414-6.264,7.174
				c-3.188,3.758-2.162,9.109-3.757,11.842c-1.594,2.733-4.214,2.165-6.377,2.507s-1.479,2.96-2.391,5.351
				c-0.911,2.393-2.001,13.867-2.961,15.26c-1.349,1.957-1.214,2.879-0.364,3.215c1.388-1.572,5.387-5.968,15.85-16.767
				C208.092,275.408,238.945,251.582,250.867,241.273z"/>
			<path class="leaf" fill="#678C3C" d="M250.867,241.273c-11.922,10.309-42.775,34.135-56.263,48.056c-10.463,10.799-14.462,15.194-15.85,16.767
				c2.021,0.801,8.106-1.733,8.106-1.733c3.075-2.961,5.238-2.164,8.427-3.872c3.189-1.709,4.099-1.595,8.313-2.164
				c4.213-0.568,3.531-1.138,5.466-2.392c1.937-1.253,0.683-2.733,0.683-5.01c0-2.277,1.139-1.708,4.101-2.277
				c2.96-0.567,3.53,0.569,5.238,0.569s2.392,0.455,3.644,0.569c1.253,0.114,2.051-1.367,2.278-3.531
				c0.228-2.162-1.025-2.731-1.253-4.213c-0.229-1.481,1.139-1.025,3.416-1.025s3.074,0.228,7.289-0.341
				c4.213-0.568,4.668-4.1,5.465-5.581s-0.684-3.188-2.506-4.44c-1.821-1.252-1.139-2.391,0.114-4.101
				c1.254-1.708,4.441-2.506,6.036-4.213c1.594-1.706,0.683-3.188,0.683-4.555c0-1.367,1.481-3.872,3.075-5.011
				c1.594-1.14,2.505-2.619,3.644-4.1c1.138-1.482,0.342-4.1,0.342-6.377C251.314,241.752,251.147,241.433,250.867,241.273z"/>
		</g>
		
			<path class="leaf" opacity="0.4" fill="none" stroke="#8CB83F" stroke-width="0.5" stroke-linecap="round" stroke-linejoin="round" stroke-miterlimit="10" d="
			M179.86,302.9c3.062-4.459,7.36-7.52,11.032-14.688c3.671-7.17,6.995-9.967,7.082-10.579s0.612-6.208,0.612-7.433
			c0-1.224,1.836,0.963,1.836,2.974s1.049,4.37,3.234,2.098s3.585-3.323,9.006-7.956s3.934-6.382,4.196-7.694
			c0.262-1.313,0.612-2.799,0.699-5.334c0.088-2.536,0.962-3.497,0.962-3.497l0.961,0.263c0,0,0.787,4.022,0.787,5.246
			c0,1.223-0.961,4.545,0.875,3.584c1.836-0.962,3.06-1.049,5.771-3.41c2.71-2.36,3.847-3.061,5.595-6.032
			c1.75-2.973,2.624-6.908,2.624-6.908s0.699,5.072,1.136,5.072c0.438,0,2.36-0.001,5.597-0.699
			c3.235-0.699,5.944-2.448,5.944-2.448s-2.272,2.272-6.994,4.284c-4.721,2.01-8.043,5.421-10.143,7.081
			c-2.098,1.661-7.431,4.896-6.032,5.334c1.399,0.438,1.749-0.35,6.032-1.049c4.285-0.7,10.055-2.011,8.395-0.524
			c-1.661,1.486-1.75,2.359-6.471,3.059c-4.721,0.701-8.131,0.961-10.404,1.836s-4.634,1.664-8.307,3.848
			c-3.672,2.186-4.547,3.673-6.732,6.383s-2.271,5.771-1.136,4.983s2.71-2.098,6.12-3.321c3.41-1.225,0.787-0.874,8.219-2.361
			c7.432-1.486,7.956-1.137,10.404-1.137c2.447,0-6.032,2.449-11.104,4.283c-5.071,1.837-12.328,3.498-15.389,5.859
			c-3.06,2.361-12.153,10.054-14.863,12.24c-2.711,2.186-5.158,6.383-7.432,7.956"/>
	</g>
	<g>
		<g>
			<path class="leaf" fill="#678C3C" d="M170.474,219.962c9.83-7.326,23.885-15.783,33.132-19.531c-0.995-0.712-3.45-0.471-5.46,0.172
				c-2.847,0.912-3.074,0.911-9.566,0.457c-6.491-0.456-3.302,0.341-7.629,0.682c-4.327,0.342-3.416,0.456-10.135,0.569
				c-6.719,0.112-11.843,4.327-15.373,7.061c-3.53,2.732-6.491,7.402-9.566,8.313c-3.075,0.91-2.733,6.264-5.01,10.478
				c-2.277,4.214-5.58,8.199-7.402,11.159s-2.2,5.259-2.505,6.264c-0.151,0.494,0.014,0.744,0.397,0.813
				c2.137-1.416,6.068-4.192,10.99-8.443C149.862,231.463,158.403,228.96,170.474,219.962z"/>
			<path class="leaf" fill="#81B040" d="M203.605,200.431c-9.247,3.748-23.302,12.205-33.132,19.531c-12.071,8.998-20.611,11.501-28.128,17.992
				c-4.922,4.251-8.854,7.027-10.99,8.443c1.642,0.301,7.337-2.73,9.739-4.116c2.96-1.708,4.212-2.506,9.565-4.668
				c5.352-2.164,6.719-1.823,10.704-3.645c3.986-1.821,7.289-0.798,11.16-2.05c3.872-1.253,5.58-4.556,9.338-6.605
				c3.758-2.049,5.579-2.847,8.086-3.415c2.505-0.568,3.757-1.14,5.352-1.937c1.595-0.798,0.911-1.822,1.48-3.188
				s-2.847-3.417-2.392-3.759c0.456-0.342,1.479-1.479,2.732-2.618c1.254-1.14,6.035-6.264,6.833-8.541
				C204.188,201.186,204.021,200.728,203.605,200.431z"/>
		</g>
		
			<path class="leaf" opacity="0.4" fill="none" stroke="#8CB83F" stroke-width="0.2924" stroke-linecap="round" stroke-linejoin="round" stroke-miterlimit="10" d="
			M131.896,245.241c0,0,1.433-1.492,4.58-4.203c3.148-2.709,9.18-7.344,11.017-9.879c1.836-2.536,4.197-1.924,7.344-7.082
			s5.857-6.906,7.344-9.968c1.486-3.06,3.147-4.984,2.886-4.109s-2.798,7.956-1.137,7.956s3.322-1.136,6.819-3.147
			c3.498-2.01,6.645-4.283,8.831-5.857s4.284-3.499,4.634-2.187s2.273,1.486,4.021,1.049c1.749-0.438,4.372-1.397,6.471-2.098
			c2.098-0.7,4.021-1.662,4.021-1.662s-8.305,5.159-9.967,6.034c-1.661,0.874-2.623,2.186-0.699,2.535
			c1.923,0.35,1.836,1.662,2.622,1.923c0.787,0.262-3.934,0.173-6.12,0.087c-2.186-0.087-3.06-0.174-5.683,0.963
			c-2.624,1.137-7.52,2.886-10.667,4.809c-3.147,1.924-0.7,2.1,1.836,2.011c2.536-0.087,5.071-0.176,7.344,0.088
			c2.273,0.263-6.382,2.099-8.393,2.099c-2.012,0-3.235-0.439-6.033,1.66c-2.798,2.099-7.869,3.934-10.317,5.596
			c-2.448,1.662-4.896,3.41-7.607,5.159c-2.71,1.748-6.315,4.18-8.326,5.228C134.707,243.293,131.896,245.241,131.896,245.241z"/>
	</g>
	<g>
		<g>
			<path class="leaf" fill="#81B040" d="M77.327,276.988c-12.475-7.797-26.703-21.635-37.422-28.067c-9.547-5.728-21.098-14.218-31.221-15.738
				c-0.493,0.543-0.84,1.058-0.939,1.51c-0.39,1.753,2.533,5.067,4.092,7.405c1.56,2.34,0.779,7.017,1.949,10.332
				c1.169,3.314,0.975,1.753,2.729,3.896c1.755,2.144-2.729,4.679,4.483,5.848c7.211,1.17,2.924,0.391,4.873,1.17
				c1.95,0.779,1.95,2.339,3.704,2.729c1.755,0.39,4.873,0.391,7.991,0.976c3.12,0.584,2.534,3.313,0.585,4.092
				c-1.949,0.781-7.602,3.119-9.161,4.679c-1.559,1.561,1.169,3.509,3.508,4.679c2.339,1.169,3.899,0.193,9.551-0.392
				c5.652-0.585,0.39,4.289,1.754,7.017c1.364,2.729,2.339,0.392,4.482-0.389c2.145-0.779,6.822-4.482,8.188-4.289
				c1.364,0.195,1.559,2.534,3.898,2.146c2.338-0.39,3.508-1.561,5.847-2.729c2.339-1.171,2.339,0,3.508,1.168
				c1.17,1.17,1.17,1.755,3.509,2.145c2.339,0.392,1.365-1.754,5.263-1.561c3.898,0.194,0.779,3.509-1.949,6.629
				c-2.729,3.118-2.729,4.482-1.559,5.262c1.169,0.78,1.948-0.584,3.896-1.754c1.95-1.17,4.484-2.143,11.306-2.534
				c6.823-0.392,6.042,0.392,6.042,0.392c1.523,0.962,2.083,0.496,2.223-0.456C95.818,289.249,87.563,283.386,77.327,276.988z"/>
			<path class="leaf" fill="#678C3C" d="M77.327,276.988c10.236,6.397,18.491,12.261,21.129,14.163c0.199-1.362-0.469-3.729-0.469-4.418
				c0-1.17,0.195-12.864-0.585-14.229c-0.779-1.364-4.288,2.924-6.627,5.069c-2.338,2.145-1.365,0.193-5.067-2.534
				c-3.703-2.729-5.263-3.313-6.627-5.067c-1.364-1.755-1.56-6.044-1.56-8.771c0-2.729-0.975-8.577-1.56-10.915
				c-0.585-2.34-2.338-6.042-4.093-7.992c-1.753-1.95-3.898-3.509-5.847-5.457c-1.95-1.95-3.313,7.602-4.873,10.33
				c-1.559,2.73-3.703-9.161-6.042-13.059c-2.338-3.898-3.509,0.585-5.262-0.976c-1.755-1.559-2.534-4.482-3.12-6.821
				c-0.584-2.34-4.677-0.975-7.601-0.779c-2.925,0.195-5.068-1.17-7.991-2.339c-2.924-1.17-3.898,2.533-7.212,4.287
				c-3.314,1.755-2.924-0.389-5.652-0.974c-2.729-0.586-1.755,0.585-3.898,2.144c-1.594,1.157-4.261,2.962-5.687,4.533
				c10.124,1.521,21.674,10.011,31.221,15.738C50.624,255.354,64.852,269.191,77.327,276.988z"/>
		</g>
		
			<path class="leaf" opacity="0.4" fill="none" stroke="#8CB83F" stroke-width="0.2924" stroke-linecap="round" stroke-linejoin="round" stroke-miterlimit="10" d="
			M95.209,290.047c-2.099-1.397-6.001-3.668-11.335-6.467s-6.645-3.937-9.792-5.422c-3.149-1.484-3.847-1.136-8.656-1.31
			c-4.81-0.175-6.558-1.575-9.18-0.264c-2.623,1.312-5.333,2.973-6.12,4.11c-0.788,1.135-1.574,0.873-1.574,0.873
			s1.661-3.322,2.01-3.848c0.351-0.523-0.175-1.572-5.333-1.047c-5.158,0.523-9.706-0.177-10.754-0.177s6.646-2.185,10.23-2.185
			s4.721-0.876,8.83-0.352c4.11,0.526,10.579-0.875,11.629-0.786c1.049,0.088-8.131-7.344-13.464-9.442
			c-5.334-2.098-5.509-2.273-11.105-2.273c-5.595,0-8.044-0.262-12.065-0.262c-4.021,0-2.798-2.099-0.437-2.099
			c2.361,0,9.793-0.524,12.591-0.612c2.798-0.088,5.595-1.399,6.12-1.05c0.524,0.35,0.263-0.175-6.907-3.146
			c-7.17-2.974-7.52-4.022-11.629-4.984s-5.771-1.66-7.694-1.66s-3.935-0.175-3.935-0.175s6.12-2.535,6.995-2.799
			c0.875-0.263,1.662-1.399-1.836-2.624c-3.498-1.224-7.781-2.885-8.481-3.409c-0.699-0.523-2.272-1.924-2.272-1.924
			s6.207,0.876,8.131,2.1c1.925,1.224,4.372,1.486,5.858,2.099s1.137-2.359,0.699-5.246c-0.437-2.886,1.661-4.81,2.011-5.597
			c0.351-0.786,1.137,1.924,1.312,4.285c0.175,2.359,0.438,5.421,1.399,6.558c0.961,1.135,7.082,7.692,11.716,10.403
			c4.634,2.712,7.519,5.771,7.606,3.236c0.088-2.535,2.798-6.82-3.498-11.192c-6.294-4.37-6.556-6.732-10.229-9.181
			c-3.673-2.447-4.022-3.061-3.848-3.585s3.672,1.138,4.896,2.274c1.225,1.136,3.41,2.623,5.159,4.197
			c1.748,1.573,1.136-3.147,1.048-3.41c-0.087-0.264,0.613,4.719,2.536,6.994c1.924,2.272,5.596,6.12,5.945,8.48
			c0.351,2.361-1.661,4.634,1.487,7.17c3.147,2.535,4.547,3.497,7.87,5.857c3.322,2.361,7.344,7.694,7.781,5.508
			c0.437-2.186-2.011-6.207-2.274-11.19c-0.262-4.983-0.874-10.405-0.698-12.066c0.175-1.66,2.36,5.859,2.71,7.171
			c0.35,1.31,0.961,4.807,2.272,6.993c1.313,2.187,1.924,2.624,2.973,5.422c1.05,2.797,3.41,5.506,5.509,8.218
			c2.098,2.712,2.797,3.936,5.246,6.034c2.448,2.098,6.47,5.945,8.568,7.257c2.098,1.311,2.71,2.622,2.71,2.622l0.829,1.288"/>
	</g>
	<g>
		<g>
			<path class="leaf" fill="#6C983F" d="M333.226,345.701c0.18-1.378,0.019-2.92-0.631-4.572c-2.145-5.458-19.881-14.618-24.754-18.127
				c-4.872-3.508-1.949-4.678-1.559-6.433c0.389-1.754-5.458-0.389-7.797-0.584s-3.703-6.044-4.483-8.382
				c-0.78-2.339-9.745-4.094-12.474-4.287c-2.729-0.194-9.356-7.797-9.94-8.967c-0.585-1.169-9.356,3.314-9.356,3.314
				s-1.364-2.535-2.534-3.314c-1.169-0.78-5.263,0.196-7.017-2.144c-1.755-2.339-4.288-0.974-6.822,0.975
				c-2.533,1.947-4.482,5.263-8.186,6.627s-5.458,0.974-7.212,4.483c-1.755,3.507-3.509,4.093-5.849,5.652
				c-2.338,1.561-2.533-2.146-3.896-2.534c-1.364-0.39-2.535,1.95-7.213,3.119s-6.042-2.534-9.355-3.313
				c-3.314-0.781-1.754,4.482-4.094,9.746c-2.339,5.262-4.092,1.753-6.626,3.702c-2.534,1.948-0.391,5.458-1.755,9.356
				c-1.363,3.897-5.452,4.34-7.597,5.898c-2.145,1.56-1.563,4.432-1.563,4.432c0.005,0.128,0.023,0.246,0.049,0.361
				c3.984-1.63,10.734-3.874,20.807-5.626C219.646,332.256,282.663,327.339,333.226,345.701z"/>
			<path class="leaf" fill="#81B040" d="M203.368,335.085c-10.072,1.752-16.822,3.996-20.807,5.626c0.871,3.935,13.065,0.796,14.959,0.418
				c1.949-0.391,5.848,0.585,11.305,1.365c5.458,0.779,6.043,3.898,9.355,6.625c3.313,2.729,5.848,8.188,9.941,9.162
				c4.093,0.976,3.703-1.949,6.236-3.898c2.534-1.95,4.679,3.898,9.551,5.068c4.873,1.17,3.704-0.976,5.068-2.924
				c1.364-1.949,2.729-2.729,6.432-1.95c3.703,0.78,7.213,4.679,14.229,5.652c7.018,0.975,6.628,0.78,11.891,0.78
				s5.066-0.975,8.771-1.754c3.703-0.78,4.678,0.779,7.99,1.169s4.873,0.196,7.407-0.584c2.533-0.78,4.483-3.705,8.966-4.874
				s3.703,0,6.237-1.169c2.533-1.17,3.703-0.975,7.212-1.948c2.445-0.68,4.697-2.973,5.113-6.148
				C282.663,327.339,219.646,332.256,203.368,335.085z"/>
		</g>
		
			<path fill="none" stroke="#8CB83F" stroke-width="0.5847" stroke-linecap="round" stroke-linejoin="round" stroke-miterlimit="10" d="
			M209.262,334.387c4.036,2.597,10.603,4.281,12.875,8.805c1.392,2.769,1.718,5.866,4.186,8.11"/>
		
			<path fill="none" stroke="#8CB83F" stroke-width="0.5847" stroke-linecap="round" stroke-linejoin="round" stroke-miterlimit="10" d="
			M228.676,332.916c2.048,0.485,4.528,3.008,6.063,4.407c1.927,1.757,3.142,3.854,4.445,6.062c0.869,1.47,1.812,2.933,2.291,4.541
			c0.349,1.172,0.392,2.16,1.173,3.08"/>
		
			<path fill="none" stroke="#8CB83F" stroke-width="0.5847" stroke-linecap="round" stroke-linejoin="round" stroke-miterlimit="10" d="
			M254.854,333.505c1.625,1.575,3.555,2.67,4.938,4.557c1.307,1.784,1.889,3.849,2.743,5.854c1.542,3.609,3.626,6.423,5.556,9.739"
			/>
		
			<path fill="none" stroke="#8CB83F" stroke-width="0.5847" stroke-linecap="round" stroke-linejoin="round" stroke-miterlimit="10" d="
			M276.328,334.093c3.383,3.387,6.659,7.787,8.705,12.056c0.866,1.807,2.491,6.893,4.973,6.917"/>
		
			<path fill="none" stroke="#8CB83F" stroke-width="0.5847" stroke-linecap="round" stroke-linejoin="round" stroke-miterlimit="10" d="
			M294.712,336.151c1.213,0.297,1.827,2.688,2.49,3.679c1.283,1.914,2.73,3.668,4.143,5.492c1.806,2.332,3.39,4.603,5.428,6.715"/>
		
			<path fill="none" stroke="#8CB83F" stroke-width="0.5847" stroke-linecap="round" stroke-linejoin="round" stroke-miterlimit="10" d="
			M315.009,341.152c3.396,1.613,5.568,5.18,8.836,6.654c1.435,0.648,3.129,0.182,4.549,0.848"/>
		
			<path fill="none" stroke="#8CB83F" stroke-width="0.5847" stroke-linecap="round" stroke-linejoin="round" stroke-miterlimit="10" d="
			M315.009,340.123c0.588-1.153,5.84-1.23,7.347-1.474c1.633-0.265,3.821-0.428,5.302-1.027"/>
		
			<path fill="none" stroke="#8CB83F" stroke-width="0.5847" stroke-linecap="round" stroke-linejoin="round" stroke-miterlimit="10" d="
			M295.007,335.122c0.574-1.536,2.791-2.711,3.828-4.004c0.735-0.916,1.103-2.08,1.761-3.026c1.329-1.913,3.837-2.052,5.884-2.823"
			/>
		
			<path fill="none" stroke="#8CB83F" stroke-width="0.5847" stroke-linecap="round" stroke-linejoin="round" stroke-miterlimit="10" d="
			M276.034,333.21c1.351-2.553,5.559-3.598,7.738-5.405c1.713-1.418,2.649-3.21,3.992-4.895c1.537-1.928,2.784-3.898,4.153-5.878"/>
		
			<path fill="none" stroke="#8CB83F" stroke-width="0.5847" stroke-linecap="round" stroke-linejoin="round" stroke-miterlimit="10" d="
			M255.002,331.74c-0.167-1.199,1.173-2.21,1.837-3.05c1.968-2.482,3.521-5.259,5.486-7.755c2.367-3.013,5.518-4.801,8.528-7.025
			c1.572-1.163,3.71-2.209,4.997-3.668c0.749-0.853,1.047-2.243,1.949-2.917"/>
		
			<path fill="none" stroke="#8CB83F" stroke-width="0.5847" stroke-linecap="round" stroke-linejoin="round" stroke-miterlimit="10" d="
			M228.382,332.327c0.72-0.911,0.835-2.488,1.35-3.566c1.013-2.123,2.32-4.056,3.977-5.739c3.287-3.341,7.235-5.638,10.303-9.266
			c1.877-2.217,4.175-3.929,6.03-6.137c0.892-1.06,1.634-2.314,2.755-3.089"/>
		
			<path fill="none" stroke="#8CB83F" stroke-width="0.5847" stroke-linecap="round" stroke-linejoin="round" stroke-miterlimit="10" d="
			M209.114,332.768c1.518-5.422,6.935-8.946,10.856-12.47c2.69-2.417,4.406-5.269,6.499-8.119"/>
	</g>
	<g>
		<g>
			<path class="leaf" fill="#81B040" d="M19.438,367.622c-8.14-4.885-7.446-8.271-13.357-9.71c-0.805,1.227-1.251,2.85-1.846,5.033
				c-1.17,4.288-0.39,6.821,1.754,11.304c2.144,4.482,8.185,8.771,12.084,12.085c3.898,3.314-1.364,1.363-2.534,2.729
				c-1.169,1.365-3.703,1.365-1.754,3.118c1.95,1.755,4.093,2.34,6.627,4.484c2.533,2.144,3.703,4.092,5.847,4.677
				c2.144,0.584,1.56,0.195,7.601,0.584c6.043,0.391,1.949,1.951,0.976,2.924c-0.974,0.976-3.898,2.534,0.39,5.848
				c4.288,3.313,4.482,2.145,11.305,2.924c6.822,0.78,7.406,0.78,7.406,2.924s-2.923,5.652-1.559,7.212
				c1.364,1.561,4.678-0.78,10.135-2.339s12.28-3.314,12.28-3.314c1.431,1.101,2.193,0.74,2.546-0.4
				c-6.954-6.128-24.539-20.85-32.173-27.86C35.615,381.071,29.183,373.469,19.438,367.622z"/>
			<path class="leaf" fill="#678C3C" d="M80.64,388.283c0.195-3.509-3.703-1.364-8.771-1.949s-0.39-7.603,1.169-11.695
				c1.56-4.093-4.872-2.533-5.262-4.872c-0.391-2.34-2.145-5.264-2.729-8.382c-0.585-3.119-5.263-1.949-7.017,0.584
				c-1.755,2.534-3.898,8.382-6.433,10.721s-2.924-6.627-4.093-10.525c-1.17-3.897-1.364-1.559-4.288-2.339
				s-3.119-5.067-3.119-7.406s-3.313,1.755-5.262,3.898c-1.948,2.144-7.213-1.171-10.525-2.924c-3.313-1.755-5.848-0.39-7.992,0.195
				c-2.145,0.585-2.534,0.585-6.432,1.754c-1.916,0.574-3.028,1.386-3.807,2.569c5.911,1.438,5.217,4.825,13.357,9.71
				c9.746,5.847,16.178,13.449,25.728,22.221c7.634,7.011,25.219,21.732,32.173,27.86c0.899-2.898-0.847-10.84-0.987-12.657
				c-0.195-2.533,0.974-6.433,2.923-9.746C81.226,391.985,80.445,391.791,80.64,388.283z"/>
		</g>
		
			<path class="leaf" opacity="0.4" fill="none" stroke="#8CB83F" stroke-width="0.2924" stroke-linecap="round" stroke-linejoin="round" stroke-miterlimit="10" d="
			M77.319,412.034c-0.24-0.432-4.459-5.136-6.433-6.781c-1.972-1.645,4.439-5.098,4.933-7.07c0.494-1.972-0.493-3.288-0.493-3.288
			s-0.986,1.643-1.644,3.123c-0.658,1.481-3.782,5.755-5.755,4.769c-1.973-0.985-1.644-3.451-4.439-6.247
			c-2.796-2.795-2.96,0.822-2.96-8.878c0-9.701,0.494-23.019,0.494-23.019s-1.644,6.575-2.138,9.371
			c-0.493,2.795,2.138,20.224-0.164,20.388c-2.301,0.165-2.63,0.33-7.07-4.604c-4.44-4.933-3.946-3.945-6.741-10.029
			c-2.795-6.084-6.741-19.894-6.741-17.428c0,2.465,2.958,12.661,3.781,15.619c0.822,2.959,3.781,10.688-1.315,4.934
			c-5.097-5.755-12.66-10.688-15.455-14.305c-2.795-3.618-6.249-11.182-7.892-12.003c-1.644-0.822-3.125,0.328-1.973,1.15
			s3.125,4.274,4.769,7.563c1.644,3.289,4.11,4.438,0.492,3.945c-3.616-0.494-10.357-4.109-9.206-2.466
			c1.15,1.645,6.248,2.301,8.384,3.617c2.138,1.316,4.44,2.468,2.138,2.796c-2.302,0.327-5.755,0.821-7.069,2.137
			c-1.315,1.315-3.617,2.302,0.493,2.302c4.111,0,5.59-1.314,9.207,0.164c3.618,1.479,8.715,3.288,13.154,6.578
			c4.44,3.288,7.399,6.247,4.111,5.425c-3.289-0.822-9.866-0.987-12.989,0s-5.591,2.138-4.275,2.467
			c1.316,0.329,2.302,0.329,6.741,0.329s11.509-0.494,14.305,0.821c2.795,1.316,7.398,3.618,9.536,6.412
			c2.138,2.795,3.288,3.946,0.329,4.111c-2.959,0.164-8.386,1.81-10.03,2.63c-1.644,0.822-4.438,2.138-0.986,1.479
			c3.454-0.657-0.328-1.315,6.906-1.315s7.563,0.164,9.701,0.986c2.137,0.822,3.452,1.48,4.768,3.782
			c1.315,2.302,3.617,3.124,0.658,4.111c-2.96,0.985-8.551,1.972-8.551,1.972s2.138,0.328,5.591,0
			c3.453-0.329,8.878-0.986,8.878-0.986l3.866,1.525"/>
	</g>
	<g>
		<path class="leaf" fill="#6C983F" d="M131.905,91.441c2.188-3.327,8.098-19.902,8.427-21.494c0.186-0.896,0.551-3.031,0.835-4.723
			c-0.019-0.036-0.032-0.085-0.051-0.12c0,0-2.709,4.17-5.731,8.912c-3.022,4.74-3.625,4.188-5.553,10.677
			c-1.928,6.486-4.032,15.754-5.141,17.3c-1.109,1.545-2.041,2.583-2.456,3.121c-0.215,0.277-0.012,0.668,0.331,0.969
			c0.752-0.735,1.784-1.796,2.581-2.794C126.564,101.513,129.717,94.771,131.905,91.441z"/>
		<path class="leaf" fill="#9EC33D" d="M141.167,65.225c-0.284,1.691-0.649,3.826-0.835,4.723c-0.329,1.592-6.24,18.167-8.427,21.494
			c-2.188,3.329-5.34,10.071-6.759,11.848c-0.796,0.998-1.829,2.059-2.581,2.794c0.319,0.283,0.762,0.487,1.107,0.442
			c0.714-0.091,5.905-4.529,8.228-7.922c2.324-3.395,5.18-8.308,7.133-14.216C140.965,78.543,142.821,68.458,141.167,65.225z"/>
	</g>
</g>
<g class="flowergrp svgbtn">
	<g>
		<g>
			<path class="flower" fill="#FEDC00" stroke="#DAB227" stroke-width="0.2924" stroke-miterlimit="10" d="M152.102,267.305
				c0,0-1.915,8.363,4.837,10.631c0,0,4.484,3.075,3.124-5.692C158.702,263.475,152.756,266.045,152.102,267.305z"/>
			<path  class="flower" fill="#FEDC00" stroke="#DAB227" stroke-width="0.2924" stroke-miterlimit="10" d="M171.113,272.201
				c0,0,2.851,4.743-7.198,6.029c0,0-6.673,1.743-4.648-3.229C161.291,270.031,170.139,271.487,171.113,272.201z"/>
			<path  class="flower" fill="#FEDC00" stroke="#DAB227" stroke-width="0.2924" stroke-miterlimit="10" d="M161.068,263.289
				c0,0-6.48,5.623-2.367,11.438c0,0,1.807,5.128,5.881-2.753C168.657,264.092,162.34,262.658,161.068,263.289z"/>
			<path  class="flower" fill="#85AB3F" d="M153.791,276.332c0,0,0.597,5.096,3.443,6.702c0,0,3.995,3.765,8.217-4.957
				C165.45,278.077,158.198,273.072,153.791,276.332z"/>
		</g>
		<g>
			<path  class="flower" fill="#EDE813" stroke="#DAD024" stroke-width="0.2924" stroke-miterlimit="10" d="M76.094,173.392
				c0,0,4.216,6.169,9.854,2.842c0,0,4.755-1.302-1.746-5.454C77.699,166.629,75.684,172.209,76.094,173.392z"/>
			<path  class="flower" fill="#EDE813" stroke="#DAD024" stroke-width="0.2924" stroke-miterlimit="10" d="M91.005,163.155
				c0,0,4.825,0.791-0.555,8.45c0,0-2.998,5.602-4.958,1.323C83.533,168.651,89.942,163.411,91.005,163.155z"/>
			<path  class="flower" fill="#EDE813" stroke="#DAD024" stroke-width="0.2924" stroke-miterlimit="10" d="M79.041,164.894
				c0,0-0.374,7.72,5.924,8.264c0,0,4.427,1.733,1.856-5.642C84.252,160.14,79.421,163.653,79.041,164.894z"/>
			<path  class="flower" fill="#85AB3F" d="M82.967,177.468c0,0,3.659,2.546,6.456,1.521c0,0,4.9-0.563,1.876-8.529
				C91.299,170.46,83.586,172.545,82.967,177.468z"/>
		</g>
	</g>
	<g>
		<g>
			<path class="flower" fill="#EDE813" stroke="#DAD024" stroke-width="0.5847" stroke-miterlimit="10" d="M100.551,5.863
				c0,0-1.771,7.258,4.473,9.229c0,0,4.146,2.666,2.889-4.944C106.654,2.536,101.157,4.767,100.551,5.863z"/>
			<path class="flower" fill="#EDE813" stroke="#DAD024" stroke-width="0.5847" stroke-miterlimit="10" d="M118.132,10.111
				c0,0,2.634,4.118-6.657,5.236c0,0-6.17,1.514-4.299-2.804C109.049,8.228,117.23,9.492,118.132,10.111z"/>
			<path class="flower" fill="#EDE813" stroke="#DAD024" stroke-width="0.5847" stroke-miterlimit="10" d="M108.843,2.375
				c0,0-5.993,4.882-2.188,9.929c0,0,1.67,4.452,5.438-2.39C115.86,3.073,110.019,1.827,108.843,2.375z"/>
			<path class="flower" fill="#85AB3F" d="M102.114,13.699c0,0,0.552,4.423,3.183,5.817c0,0,3.693,3.271,7.598-4.304
				C112.895,15.213,106.188,10.869,102.114,13.699z"/>
		</g>
		<g>
			<path class="flower" fill="#EDE813" stroke="#DAD024" stroke-width="0.5847" stroke-miterlimit="10" d="M80.056,60.092
				c0.215-1.757-6.076-6.223-10.671-7.133c-4.596-0.912-6.67,0.908-6.374,3.186c0.297,2.278,0.741,5.313,3.706,6.072
				s6.522,1.975,9.338,2.126C78.87,64.494,79.907,61.307,80.056,60.092z"/>
			<path class="flower" fill="#EDE813" stroke="#DAD024" stroke-width="0.5847" stroke-miterlimit="10" d="M86.465,62.545
				c0,0,0.138-1.507,4.108-4.245c3.97-2.738,7.393-6.022,6.982-9.72c-0.411-3.697-2.191-7.121-4.381-6.983
				c-2.19,0.138-7.805,1.917-9.036,4.381c-1.231,2.465-2.601,3.425-2.601,7.395S81.537,63.093,86.465,62.545z"/>
			<path class="flower" fill="#EDE813" stroke="#DAD024" stroke-width="0.5847" stroke-miterlimit="10" d="M84.336,69.015
				c0,0,1.611-1.444,6.379-2.168c4.77-0.72,9.285-2.176,10.535-5.68c1.25-3.501,1.149-7.358-0.881-8.195
				c-2.028-0.836-7.854-1.696-10.041-0.019c-2.187,1.676-3.839,1.938-5.577,5.506C83.012,62.028,80.802,64.451,84.336,69.015z"/>
			<path class="flower" fill="#EDE813" stroke="#DAD024" stroke-width="0.5847" stroke-miterlimit="10" d="M83.179,62.408c0,0,0.548,0,0.548-5.751
				c0-5.75,1.096-7.667,1.233-10.131c0.137-2.464-1.507-7.53-4.108-7.257c-2.601,0.274-9.993,6.708-8.625,10.131
				c1.369,3.424,2.464,6.983,4.928,9.722C79.62,61.86,81.946,62.955,83.179,62.408z"/>
			<path class="flower" fill="#EDE813" stroke="#DAD024" stroke-width="0.5847" stroke-miterlimit="10" d="M75.766,60.798
				c0,0-4.519-1.098-8.077,0.272c-3.56,1.369-6.845,2.19-7.393,4.382c-0.548,2.19-0.821,7.394,1.232,8.215
				c2.054,0.82,4.106,1.231,5.75-1.097c1.643-2.327,0.273-3.559,5.202-4.791C77.409,66.547,83.022,65.315,75.766,60.798z"/>
			<path class="flower" fill="#EDE813" stroke="#DAD024" stroke-width="0.5847" stroke-miterlimit="10" d="M82.119,65.033
				c0,0-4.518-1.097-8.078,0.273c-3.559,1.369-6.845,2.189-7.393,4.381c-0.547,2.189-0.821,7.394,1.233,8.216
				c2.053,0.821,4.105,1.23,5.75-1.097c1.643-2.327,0.274-3.56,5.203-4.791C83.763,70.783,89.376,69.551,82.119,65.033z"/>
			
				<ellipse class="flower" transform="matrix(0.6432 -0.7657 0.7657 0.6432 -19.5084 85.3138)" fill="#D87D2A" stroke="#CA992C" stroke-width="0.2924" stroke-miterlimit="10" cx="81.787" cy="63.589" rx="1.847" ry="3.43"/>
			<path class="flower" fill="#85AB3F" d="M92.371,75.457c0,0-2.053,0.823-5.749-1.094c-3.697-1.918-3.972-2.19-4.245-3.561
				c-0.273-1.369,2.601-6.846,6.023-4.928c3.423,1.916,5.614,5.611,5.34,7.119C93.467,74.5,92.371,75.457,92.371,75.457z"/>
		</g>
		<g>
			<g>
				<g>
					<g>
						<path class="flower" fill="#EDE813" d="M96.459,22.02c-1.506-1.917-3.97-6.297-5.613-7.938c-1.643-1.644-3.833-2.603-5.203-4.109
							c-1.369-1.506-0.821,1.644-0.821,3.561c0,0.039-0.002,0.069-0.004,0.105c0.967,1.809,2.141,3.811,3.016,4.687
							c1.78,1.779,5.202,2.326,6.572,4.792c0.914,1.645,2.07,3.713,2.738,4.91c0.395-0.433,0.752-0.83,0.958-1.077
							C98.787,26.128,97.965,23.938,96.459,22.02z"/>
						<path class="flower" fill="none" stroke="#DAD024" stroke-width="0.5847" stroke-miterlimit="10" d="M96.459,22.02
							c-1.506-1.917-3.97-6.297-5.613-7.938c-1.643-1.644-3.833-2.603-5.203-4.109c-1.369-1.506-0.821,1.644-0.821,3.561
							c0,0.039-0.002,0.069-0.004,0.105c0.967,1.809,2.141,3.811,3.016,4.687c1.78,1.779,5.202,2.326,6.572,4.792
							c0.914,1.645,2.07,3.713,2.738,4.91c0.395-0.433,0.752-0.83,0.958-1.077C98.787,26.128,97.965,23.938,96.459,22.02z"/>
					</g>
					<g>
						<path class="flower" fill="#EDE813" d="M93.037,26.949c-1.096-0.958-5.066-4.107-6.572-5.75c-1.106-1.207-3.685-4.108-4.979-5.566
							c-0.496,1.092-1.421,0.452-2.139,2.006c-0.822,1.779,1.368,2.055,3.012,3.561c1.642,1.505,6.571,7.394,8.076,8.762
							c1.506,1.368,4.519,0.41,4.655,0.273c0,0,0.239-0.253,0.569-0.604C94.881,28.783,93.72,27.546,93.037,26.949z"/>
						<path class="flower" fill="none" stroke="#DAD024" stroke-width="0.5847" stroke-miterlimit="10" d="M93.037,26.949
							c-1.096-0.958-5.066-4.107-6.572-5.75c-1.106-1.207-3.685-4.108-4.979-5.566c-0.496,1.092-1.421,0.452-2.139,2.006
							c-0.822,1.779,1.368,2.055,3.012,3.561c1.642,1.505,6.571,7.394,8.076,8.762c1.506,1.368,4.519,0.41,4.655,0.273
							c0,0,0.239-0.253,0.569-0.604C94.881,28.783,93.72,27.546,93.037,26.949z"/>
					</g>
					<g>
						<path class="flower" fill="#EDE813" d="M87.834,18.324c-0.875-0.876-2.049-2.878-3.016-4.687c-0.033,1.721-0.831-0.124-1.502-0.927
							c-0.685-0.821-1.232,0.409-1.643,2.328c-0.052,0.242-0.115,0.437-0.188,0.594c1.294,1.458,3.873,4.359,4.979,5.566
							c1.506,1.643,5.477,4.792,6.572,5.75c0.683,0.597,1.844,1.834,2.622,2.681c0.414-0.441,0.976-1.045,1.485-1.604
							c-0.668-1.197-1.824-3.266-2.738-4.91C93.036,20.65,89.614,20.104,87.834,18.324z"/>
						<path class="flower" fill="none" stroke="#DAD024" stroke-width="0.5847" stroke-miterlimit="10" d="M87.834,18.324
							c-0.875-0.876-2.049-2.878-3.016-4.687c-0.033,1.721-0.831-0.124-1.502-0.927c-0.685-0.821-1.232,0.409-1.643,2.328
							c-0.052,0.242-0.115,0.437-0.188,0.594c1.294,1.458,3.873,4.359,4.979,5.566c1.506,1.643,5.477,4.792,6.572,5.75
							c0.683,0.597,1.844,1.834,2.622,2.681c0.414-0.441,0.976-1.045,1.485-1.604c-0.668-1.197-1.824-3.266-2.738-4.91
							C93.036,20.65,89.614,20.104,87.834,18.324z"/>
					</g>
				</g>
			</g>
			<path class="flower" fill="#85AB3F" d="M100.681,31.972c0,0-0.8-3.379-2.578-5.022c0,0-3.97,1.095-3.012,3.285
				c0.958,2.191,2.602,3.286,3.971,3.286L100.681,31.972z"/>
		</g>
		<g>
			<path class="flower" fill="#EDE813" stroke="#DAD024" stroke-width="0.5847" stroke-miterlimit="10" d="M141.811,39.443
				c1.597,0.762,7.832-3.782,10.156-7.85c2.324-4.067,1.258-6.614-0.996-7.057c-2.254-0.443-5.273-0.986-6.936,1.584
				c-1.661,2.568-3.944,5.555-4.983,8.178C138.013,36.92,140.707,38.917,141.811,39.443z"/>
			<path class="flower" fill="#EDE813" stroke="#DAD024" stroke-width="0.5847" stroke-miterlimit="10" d="M137.447,44.739
				c0,0,1.386,0.61,2.719,5.245c1.333,4.634,3.36,8.924,6.996,9.709c3.635,0.787,7.447,0.188,8.014-1.935
				c0.565-2.119,0.664-8.007-1.282-9.96c-1.945-1.95-2.419-3.553-6.184-4.815C143.947,41.721,138.493,39.893,137.447,44.739z"/>
			<path class="flower" fill="#EDE813" stroke="#DAD024" stroke-width="0.5847" stroke-miterlimit="10" d="M131.988,40.667
				c0,0,0.859,1.985,0.029,6.735c-0.833,4.752-0.889,9.496,2.035,11.794c2.924,2.299,6.613,3.429,8.051,1.77
				c1.437-1.656,4.104-6.908,3.21-9.513c-0.895-2.607-0.618-4.256-3.448-7.04C139.034,41.631,137.44,38.764,131.988,40.667z"/>
			<path class="flower" fill="#EDE813" stroke="#DAD024" stroke-width="0.5847" stroke-miterlimit="10" d="M138.621,41.669
				c0,0-0.174,0.519,5.277,2.347c5.452,1.828,6.922,3.476,9.214,4.389c2.294,0.915,7.621,0.967,8.187-1.586
				c0.567-2.555-3.184-11.609-6.864-11.398c-3.679,0.209-7.404,0.115-10.784,1.582C140.272,38.468,138.493,40.326,138.621,41.669z"
				/>
			<path class="flower" fill="#EDE813" stroke="#DAD024" stroke-width="0.5847" stroke-miterlimit="10" d="M142.505,35.152
				c0,0,2.476-3.935,2.31-7.746c-0.167-3.81,0.099-7.186-1.804-8.401c-1.903-1.216-6.75-3.13-8.181-1.443
				c-1.432,1.686-2.475,3.502-0.79,5.799c1.685,2.298,3.288,1.393,2.89,6.458C136.532,34.881,135.914,40.596,142.505,35.152z"/>
			<path class="flower" fill="#EDE813" stroke="#DAD024" stroke-width="0.5847" stroke-miterlimit="10" d="M136.469,39.829
				c0,0,2.476-3.937,2.31-7.745c-0.167-3.811,0.099-7.187-1.804-8.402c-1.902-1.216-6.75-3.129-8.18-1.441
				c-1.432,1.685-2.475,3.5-0.79,5.798c1.684,2.299,3.287,1.391,2.89,6.456C130.495,39.56,129.879,45.272,136.469,39.829z"/>
			
				<ellipse class="flower" transform="matrix(0.5213 0.8534 -0.8534 0.5213 100.1493 -98.5828)" fill="#D87D2A" stroke="#DAB227" stroke-width="0.2924" stroke-miterlimit="10" cx="137.943" cy="39.974" rx="1.848" ry="3.429"/>
			<path class="flower" fill="#85AB3F" d="M123.892,46.531c0,0-0.104-1.811,2.35-4.184c2.455-2.375,2.739-2.518,3.875-2.373
				s4.645,3.807,2.262,5.969c-2.383,2.16-5.828,2.9-6.927,2.295C124.351,47.633,123.892,46.531,123.892,46.531z"/>
		</g>
	</g>
</g>
<path class="stem svgbtn" fill="none" stroke="#231F20" stroke-miterlimit="10" d="M26.086,459.908c0,0,70.75,0,99,0s71.75,0,91.5,0"/>
<path class="stem svgbtn" fill="#78A440" d="M125.859,359.825c-3.897-7.602-5.651-32.16-4.677-43.465c0.974-11.306-0.391-39.566-0.391-44.83
	c0-5.263-4.288-14.619-5.848-19.491c-1.558-4.874-1.363-11.891-1.363-16.958c0-5.066-0.78-23.585-0.78-32.55
	s1.949-26.898,1.364-29.821c-0.584-2.924-0.584-9.94-1.364-15.593c-0.781-5.652,1.169-14.425,2.144-18.713
	s2.145-15.397,2.145-22.024s-2.339-6.627-2.729-10.526c-0.391-3.897-2.339-21.245-1.17-35.277
	c1.17-14.034-1.364-20.272-1.364-20.272c-3.898-6.432-2.924-17.736-2.729-21.245c0.195-3.507-0.779-10.524-0.779-10.524h-1.755
	c0,0-0.779,15.203-0.974,20.076c-0.195,4.872,0.974,1.364,1.364,4.482c0.39,3.119,3.119,14.813,2.339,24.364
	c-0.78,9.551-1.364,13.254-1.364,13.839c0,0.584-2.729,1.169-2.729,1.949s1.56,1.755,2.729,7.406
	c1.169,5.652,3.704,20.854,3.704,27.482s-1.754,18.127-2.144,22.61c-0.391,4.483-0.975,13.059-0.975,19.491
	c0,6.431,0.975,34.11,0.779,37.813c-0.195,3.702,0.975,18.518-0.39,25.923c-1.365,7.407-0.584,16.958-0.194,25.533
	c0.39,8.576,8.771,28.263,8.576,32.357c-0.194,4.093-2.729,14.618-2.144,24.753c0.585,10.137,0.39,15.008-0.39,25.924
	s2.924,19.491,4.093,27.482c1.169,7.992,0.584,15.982-2.144,24.364c-2.729,8.381-6.433,22.999-7.407,29.821
	c-0.974,6.823-1.755,24.753-1.169,33.524c0.584,8.771,3.118,10.721,3.313,12.475h13.059c0-9.745-3.509-10.721-5.457-15.008
	c-1.949-4.287-2.534-5.264-3.119-19.88c-0.584-14.62,7.017-36.84,11.11-47.171c0.194-0.49,0.382-0.949,0.569-1.408l-1.316-16.594
	C126.011,360.022,125.859,359.825,125.859,359.825z"/>
<g>
	<path fill="#78A440" d="M86.78,178.265c0,0,6.579,9.063,9.501,15.495c2.924,6.433,7.017,10.964,8.625,16.811
		c1.608,5.849,3.947,9.648,3.947,9.648l1.315-2.484c0,0-0.73-8.479-2.777-13.302c-2.046-4.825-11.973-17.854-14.18-24.414
		c-0.638-1.897-1.436-3.668-1.436-3.668"/>
	<g>
			<polyline fill="#78A440" points="105.625,37.773 100.293,31.33 99.061,33.521 105.572,39.854 		"/>
			<path fill="#78A440" d="M133.295,363.313c18.5-1.241,33.485-16.812,49.872-26.194l3.211,4.143
				c-11.949,16.396-34.984,19.735-51.357,30.259c-1.169,0-7.312,4.867-7.637,5.538"/>
			<path fill="#78A440" d="M157.24,282.056c0,0-8.332,23.974-9.063,29.821c-0.731,5.848-2.31,18.23-2.31,18.23
				s2.199-3.506,3.368-4.383s1.28-5.077,3.62-14.14c2.339-9.063,6.871-26.021,7.017-27.629
				C160.018,282.347,157.24,282.056,157.24,282.056z"/>
			<path fill="#78A440" d="M115.699,303.077c0,0-7.169-4.372-11.016-7.608c-3.847-3.233-6.469-6.381-6.469-6.381l-2.031,2.439
				c0,0,3.429,4.991,5.44,6.479c2.011,1.486,6.208,6.207,8.656,8.48s4.984,5.07,4.984,5.07"/>
			<path fill="#78A440" d="M115.962,255.163c0.961-0.787,1.574-0.962,4.634-3.496c3.061-2.536,7.781-6.121,8.743-6.733
				c0.962-0.611,3.76-1.011,3.76-1.011s-0.961,4.771-3.147,5.907c-2.187,1.138-4.722,3.586-6.47,4.809
				c-1.749,1.225-5.945,5.071-5.945,5.071"/>
			<path fill="#78A440" d="M108.429,450.142c-0.33-0.493-5.59-4.603-10.359-9.536c-4.768-4.932-15.29-14.631-19.072-18.25
				c-3.868-3.7-3.851-3.721-4.314-4.415c0,0,3.13,3.585,2.472-7.267l31.123,28.604"/>
			<path fill="#78A440" d="M125.281,100.741c0,0-2.191,3.834-3.697,5.339c-1.505,1.505-4.791,4.518-5.476,4.653
				c-0.685,0.138,0.137,4.109,0.137,4.109s1.369-0.138,3.286-2.328c1.916-2.189,5.75-7.668,6.024-8.489
				c0.272-0.82,1.505-2.6,1.505-2.6L125.281,100.741z"/>
			<path fill="#78A440" d="M105.986,82.681c0,0-3.914-3.159-5.556-4.939c-1.643-1.78-7.667-5.888-7.667-5.888l-1.369,2.465
				c0,0,6.845,5.065,9.036,6.571c2.19,1.506,5.146,3.116,5.146,3.116"/>
			<path fill="#78A440" d="M112.488,56.732c0,0,3.901-2.59,6.111-3.581c2.21-0.993,8.019-5.399,8.019-5.399l-1.902-2.081
				c0,0-6.979,4.88-9.103,6.478c-2.125,1.598-4.422,3.716-4.422,3.716"/>
			<polygon fill="#78A440" points="98.647,130.455 110.833,134.485 109.983,138.449 98.21,131.83 		"/>
			<polygon fill="#78A440" points="124.306,149.455 112.554,153.502 112.616,155.814 112.859,157.535 124.743,150.83 		"/>
			<path fill="#78A440" d="M178.283,304.844c-2.729,2.729-17.729,15.415-23.966,17.947c-6.237,2.534-6.626,3.703-11.89,13.84
				c-5.262,10.137-11.889,18.906-13.643,21.83c-1.129,1.881-2.014,1.905-2.502,1.684l1.316,16.594
				c3.757-9.202,6.095-12.141,6.837-14.184c0.78-2.146,6.627-14.425,8.966-19.491c2.339-5.067,7.212-9.356,10.525-12.085
				c3.313-2.73,11.501-8.188,15.983-10.915c4.483-2.729,10.982-13.885,10.982-13.885L178.283,304.844z"/>
	</g>
</g>
</svg>
