<?xml version="1.0" encoding="utf-8"?>
<!DOCTYPE svg PUBLIC "-//W3C//DTD SVG 1.1//EN" "http://www.w3.org/Graphics/SVG/1.1/DTD/svg11.dtd">
<svg version="1.1" id="Layer_1" xmlns="http://www.w3.org/2000/svg" xmlns:xlink="http://www.w3.org/1999/xlink" x="0px" y="0px"
	 width="100%" height="100%" viewBox="0 0 750 470" enable-background="new 0 0 750 470" xml:space="preserve">
<g id="objectraydiagram">	
	<linearGradient id="SVGID_1_" gradientUnits="userSpaceOnUse" x1="3117.8638" y1="-3651.0767" x2="3117.8638" y2="-3549.2185" gradientTransform="matrix(1 0 0 1 -3031.2871 3825.4326)">
			<stop  offset="0" style="stop-color:#74380F"/>
			<stop  offset="1" style="stop-color:#A77E00"/>
	</linearGradient>
	<rect x="74.911" y="179.985" fill="url(#SVGID_1_)" width="23.33" height="78.224"/>
		
	<linearGradient id="SVGID_2_" gradientUnits="userSpaceOnUse" x1="3117.8618" y1="-3741.4404" x2="3117.8618" y2="-3632.2446" gradientTransform="matrix(1 0 0 1 -3031.2871 3825.4326)">
	<stop  offset="0.0112" style="stop-color:#799C3C"/>
	<stop  offset="1" style="stop-color:#AEBB00"/>
	</linearGradient>
	<path fill="url(#SVGID_2_)" d="M133.564,138.311c1.245-2.861,1.937-6.02,1.937-9.328c0-12.033-9.071-21.964-20.828-23.494
	c-2.464-13.747-13.528-24.122-26.801-24.122c-13.213,0-24.24,10.271-26.771,23.925c-0.186-0.002-0.372-0.01-0.558-0.01
	c-13.246,0-23.988,10.611-23.988,23.701c0,3.521,0.786,6.857,2.182,9.864c-7.3,4.848-12.103,13.088-12.103,22.434
	c0,14.913,12.232,27.007,27.323,27.007c5.838,0,11.239-1.816,15.677-4.897c4.721,3.853,10.775,6.163,17.378,6.163
	c6.412,0,12.298-2.188,16.964-5.845c4.348,2.885,9.586,4.579,15.22,4.579c15.089,0,27.32-12.094,27.32-27.007
	C146.516,151.579,141.341,143.075,133.564,138.311z"/>
</g>
<g id="imageraydiagram">
	<g>
		<g>
		<path fill="none" stroke="#8E5B09" stroke-width="1.8586" stroke-miterlimit="10" d="M413.761,232.179
		c-0.226-0.093-0.446-0.192-0.663-0.299v0.728"/>

		<line fill="none" stroke="#8E5B09" stroke-width="1.8586" stroke-miterlimit="10" stroke-dasharray="1.391,1.391,1.391,1.391" x1="413.098" y1="233.999" x2="413.098" y2="238.868"/>

		<line fill="none" stroke="#8E5B09" stroke-width="1.8586" stroke-miterlimit="10" stroke-dasharray="1.391,1.391,1.391,1.391,1.391,1.391" x1="413.098" y1="239.563" x2="413.098" y2="255.56"/>
		<polyline fill="none" stroke="#8E5B09" stroke-width="1.8586" stroke-miterlimit="10" points="413.098,256.255 413.098,256.983 
		413.826,256.983 			"/>

		<line fill="none" stroke="#8E5B09" stroke-width="1.8586" stroke-miterlimit="10" stroke-dasharray="1.5288,1.5288,1.5288,1.5288" x1="415.354" y1="256.983" x2="420.706" y2="256.983"/>
		<polyline fill="none" stroke="#8E5B09" stroke-width="1.8586" stroke-miterlimit="10" points="421.469,256.983 422.198,256.983 
		422.198,256.255 			"/>

		<line fill="none" stroke="#8E5B09" stroke-width="1.8586" stroke-miterlimit="10" stroke-dasharray="1.3814,1.3814,1.3814,1.3814" x1="422.198" y1="254.874" x2="422.198" y2="250.039"/>

		<line fill="none" stroke="#8E5B09" stroke-width="1.8586" stroke-miterlimit="10" stroke-dasharray="1.3814,1.3814,1.3814,1.3814,1.3814,1.3814" x1="422.198" y1="249.348" x2="422.198" y2="233.461"/>
		<path fill="none" stroke="#8E5B09" stroke-width="1.8586" stroke-miterlimit="10" d="M422.198,232.771v-0.728
		c-0.221,0.1-0.445,0.191-0.674,0.275"/>

		<path fill="none" stroke="#8E5B09" stroke-width="1.8586" stroke-miterlimit="10" stroke-dasharray="1.5883,1.5883,1.5883,1.5883" d="
		M419.999,232.757c-0.705,0.146-1.434,0.224-2.182,0.224c-1.158,0-2.27-0.187-3.312-0.527"/>
		</g>
	</g>
	<g>
		<g>
		<path fill="none" stroke="#83AF23" stroke-width="1.8586" stroke-miterlimit="10" d="M436.582,213.292
		c-0.197-0.141-0.399-0.275-0.606-0.402c0.096-0.222,0.184-0.448,0.262-0.679"/>

		<path fill="none" stroke="#83AF23" stroke-width="1.8586" stroke-miterlimit="10" stroke-dasharray="1.4274,1.4274,1.4274,1.4274" d="
		M436.592,210.829c0.091-0.52,0.139-1.053,0.139-1.598c0-1.17-0.219-2.29-0.615-3.321"/>

		<path fill="none" stroke="#83AF23" stroke-width="1.8586" stroke-miterlimit="10" stroke-dasharray="1.4274,1.4274,1.4274,1.4274,1.4274,1.4274" d="
		M435.833,205.254c-1.131-2.369-3.242-4.187-5.813-4.937"/>
		<path fill="none" stroke="#83AF23" stroke-width="1.8586" stroke-miterlimit="10" d="M429.323,200.143
		c-0.236-0.05-0.476-0.091-0.718-0.122c-0.043-0.24-0.093-0.478-0.147-0.713"/>

		<path fill="none" stroke="#83AF23" stroke-width="1.8586" stroke-miterlimit="10" stroke-dasharray="1.2635,1.2635,1.2635,1.2635" d="
		M428.102,198.095c-0.498-1.433-1.244-2.729-2.18-3.828"/>

		<path fill="none" stroke="#83AF23" stroke-width="1.8586" stroke-miterlimit="10" stroke-dasharray="1.2635,1.2635,1.2635,1.2635,1.2635,1.2635" d="
		M425.5,193.797c-1.911-2.005-4.499-3.236-7.349-3.236c-4.717,0-8.724,3.379-10.124,8.06"/>
		<path fill="none" stroke="#83AF23" stroke-width="1.8586" stroke-miterlimit="10" d="M407.861,199.23
		c-0.058,0.234-0.108,0.472-0.153,0.712l-0.215-0.003c-0.172,0-0.343,0.005-0.512,0.014"/>

		<path fill="none" stroke="#83AF23" stroke-width="1.8586" stroke-miterlimit="10" stroke-dasharray="1.581,1.581,1.581,1.581" d="
		M405.414,200.169c-1.847,0.416-3.485,1.374-4.737,2.697"/>

		<path fill="none" stroke="#83AF23" stroke-width="1.8586" stroke-miterlimit="10" stroke-dasharray="1.581,1.581,1.581,1.581,1.581,1.581" d="
		M400.157,203.463c-1.264,1.584-2.02,3.588-2.02,5.768c0,0.847,0.114,1.666,0.328,2.446"/>
		<path fill="none" stroke="#83AF23" stroke-width="1.8586" stroke-miterlimit="10" d="M398.708,212.426
		c0.084,0.229,0.178,0.452,0.279,0.672c-0.203,0.135-0.399,0.276-0.592,0.424"/>

		<path fill="none" stroke="#83AF23" stroke-width="1.8586" stroke-miterlimit="10" stroke-dasharray="1.3966,1.3966,1.3966,1.3966" d="
		M397.347,214.446c-1.144,1.147-2.023,2.554-2.546,4.122"/>

		<path fill="none" stroke="#83AF23" stroke-width="1.8586" stroke-miterlimit="10" stroke-dasharray="1.3966,1.3966,1.3966,1.3966,1.3966,1.3966" d="
		M394.604,219.238c-0.221,0.849-0.338,1.739-0.338,2.656c0,5.848,4.77,10.589,10.656,10.589c1.764,0,3.429-0.428,4.893-1.182"/>
		<path fill="none" stroke="#83AF23" stroke-width="1.8586" stroke-miterlimit="10" d="M410.428,230.96
		c0.207-0.125,0.411-0.257,0.609-0.396c0.188,0.153,0.38,0.3,0.578,0.439"/>

		<path fill="none" stroke="#83AF23" stroke-width="1.8586" stroke-miterlimit="10" stroke-dasharray="1.1829,1.1829,1.1829,1.1829" d="
		M412.618,231.63c0.158,0.087,0.318,0.17,0.48,0.25c1.059,0.521,2.215,0.876,3.437,1.023"/>

		<path fill="none" stroke="#83AF23" stroke-width="1.8586" stroke-miterlimit="10" stroke-dasharray="1.1829,1.1829,1.1829,1.1829,1.1829,1.1829" d="
		M417.124,232.958c0.229,0.015,0.46,0.022,0.693,0.022c1.562,0,3.044-0.336,4.381-0.938c0.398-0.179,0.785-0.382,1.156-0.607"/>
		<path fill="none" stroke="#83AF23" stroke-width="1.8586" stroke-miterlimit="10" d="M423.85,231.116
		c0.199-0.137,0.395-0.28,0.584-0.43c0.201,0.135,0.407,0.263,0.617,0.383"/>

		<path fill="none" stroke="#83AF23" stroke-width="1.8586" stroke-miterlimit="10" stroke-dasharray="1.4041,1.4041,1.4041,1.4041" d="
		M426.312,231.686c1.25,0.514,2.62,0.797,4.058,0.797c0.256,0,0.511-0.009,0.763-0.026"/>

		<path fill="none" stroke="#83AF23" stroke-width="1.8586" stroke-miterlimit="10" stroke-dasharray="1.4041,1.4041,1.4041,1.4041,1.4041,1.4041" d="
		M431.827,232.385c5.197-0.706,9.201-5.135,9.201-10.491c0-3.295-1.516-6.238-3.892-8.179"/>
		</g>
	</g>
</g>
<g>	
	<line fill="none" stroke="#666666" stroke-width="3.8791" stroke-miterlimit="10" x1="4.599" y1="259.438" x2="743.586" y2="259.438"/>
	<path fill="#0DF1FF" d="M392.206,461.252c-44.1-55.21-70.468-125.207-70.468-201.363c0-76.212,26.417-147.009,70.576-202.267
	h-16.285c-44.541,55.351-71.211,125.69-71.211,202.267c0,76.157,26.373,146.152,70.476,201.363H392.206z"/>

	<line fill="none" stroke="#666666" stroke-width="4.9872" stroke-linecap="round" stroke-linejoin="round" stroke-miterlimit="10" x1="623.424" y1="273.197" x2="623.424" y2="245.678"/>

	<line fill="none" stroke="#666666" stroke-width="4.9872" stroke-linecap="round" stroke-linejoin="round" stroke-miterlimit="10" x1="459.95" y1="273.197" x2="459.95" y2="245.678"/>
	<path fill="#00A7FF" fill="#231F20" d="M380.879,461.252c-46.262-56.651-71.725-128.059-71.725-201.363c0-73.674,25.728-145.483,72.448-202.267
	h-11.13c-45.186,57.431-69.991,128.951-69.991,202.267c0,72.952,24.554,144.078,69.299,201.363H380.879z"/>
</g>
<g>
	<text transform="matrix(1 0 0 -1 614.0376 282.9985)" font-family="'MyriadPro-Regular'" font-size="23.7903">C</text>
	<text transform="matrix(1 0 0 1 454.0239 296.9624)" font-family="'MyriadPro-Regular'" font-size="23.7903">F</text>
</g>
<g>
	<g>
		<g id="dottedgreenray">
			<line fill="none" stroke="#008C44" stroke-width="1.4869" stroke-miterlimit="10" x1="336.291" y1="163.26" x2="337.466" y2="163.652"/>
		
			<line fill="none" stroke="#008C44" stroke-width="1.4869" stroke-miterlimit="10" stroke-dasharray="2.4871,2.4871,2.4871,2.4871" x1="339.826" y1="164.437" x2="348.086" y2="167.186"/>
		
			<line fill="none" stroke="#008C44" stroke-width="1.4869" stroke-miterlimit="10" stroke-dasharray="2.4871,2.4871,2.4871,2.4871,2.4871,2.4871" x1="349.266" y1="167.579" x2="645.432" y2="266.142"/>
		
			<line fill="none" stroke="#008C44" stroke-width="1.4869" stroke-miterlimit="10" x1="646.612" y1="266.535" x2="647.788" y2="266.926"/>
		</g>
	</g>
	<g>
		<g id="dottedredray">
			<line fill="none" stroke="#ED1C24" stroke-width="1.4869" stroke-miterlimit="10" x1="471.135" y1="279.538" x2="470.506" y2="278.47"/>

			<line fill="none" stroke="#ED1C24" stroke-width="1.4869" stroke-miterlimit="10" stroke-dasharray="2.5,2.5,2.5,2.5" x1="469.237" y1="276.316" x2="464.794" y2="268.778"/>

			<line fill="none" stroke="#ED1C24" stroke-width="1.4869" stroke-miterlimit="10" stroke-dasharray="2.5,2.5,2.5,2.5,2.5,2.5" x1="464.16" y1="267.701" x2="365.784" y2="100.78"/>

			<line fill="none" stroke="#ED1C24" stroke-width="1.4869" stroke-miterlimit="10" x1="365.149" y1="99.703" x2="364.521" y2="98.635"/>
		</g>
	</g>
</g>
<g>
	<g id="greenarrowgroup">
		<polyline fill="none" stroke="#008C44" stroke-width="1.4869" stroke-miterlimit="10" points="290.027,156.025 283.737,146.42 
			295.2,145.776 	"/>
		<polyline fill="none" stroke="#008C44" stroke-width="1.4869" stroke-miterlimit="10" points="191.12,108.896 197.326,118.554 
			185.857,119.099 	"/>
	</g>
	<g id="redarrowgroup">
		<polyline fill="none" stroke="#ED1C24" stroke-width="1.4869" stroke-miterlimit="10" points="246.795,75.156 256.716,80.932 
			246.754,86.637 	"/>
		<polyline fill="none" stroke="#ED1C24" stroke-width="1.4869" stroke-miterlimit="10" points="314.151,26.894 314.912,15.441 
			324.451,21.824 	"/>
	</g>
</g>
<polyline id="redray" fill="none" stroke="#ED1C24" stroke-width="1.4869" stroke-miterlimit="10" points="85.088,81.057 353.426,81.057 
	310.25,7.456 "/>
<polyline id="greenray" fill="none" stroke="#008C44" stroke-width="1.4869" stroke-miterlimit="10" points="84.751,81.081 87.167,81.876 
	317.345,157.746 "/>
</svg>
