<?xml version="1.0" encoding="utf-8"?>
<!DOCTYPE svg PUBLIC "-//W3C//DTD SVG 1.1//EN" "http://www.w3.org/Graphics/SVG/1.1/DTD/svg11.dtd">
<svg version="1.1" id="Layer_1" xmlns="http://www.w3.org/2000/svg" xmlns:xlink="http://www.w3.org/1999/xlink" x="0px" y="0px" width="785.277px" height="88.25px" viewBox="600 0 300 88.25" enable-background="new 0 0 785.277 88.25" xml:space="preserve">
<text transform="matrix(1 0 0 1 411.7354 49.9316)"><tspan x="0" y="0" fill="#007DC5" font-family="'Arial-BoldMT'" font-size="22">Mg</tspan><tspan x="30.891" y="8.055" fill="#00A651" font-family="'Arial-BoldMT'" font-size="18.795">1</tspan><tspan x="41.344" y="8.055" font-family="'Arial-BoldMT'" font-size="18.795"> </tspan><tspan x="46.565" y="0" fill="#00A651" font-family="'Arial-BoldMT'" font-size="22">Cl</tspan><tspan x="70.73" y="8.055" fill="#007DC5" font-family="'Arial-BoldMT'" font-size="18.795">1</tspan></text>
<text transform="matrix(1 0 0 1 711.7314 56.6455)"><tspan x="0" y="0" fill="#007DC5" font-family="'Arial-BoldMT'" font-size="22">Mg</tspan><tspan x="37" y="0" fill="#00A651" font-family="'Arial-BoldMT'" font-size="22">Cl</tspan><tspan x="60" y="8.055" fill="#007DC5" font-family="'Arial-BoldMT'" font-size="18.795">2</tspan></text>
<g>
	<text transform="matrix(1 0 0 1 17.457 71.3379)" fill="#007DC5" font-family="'Arial-BoldMT'" font-size="22">Mg</text>
	<text transform="matrix(1 0 0 1 163.5518 71.3379)" fill="#00A651" font-family="'Arial-BoldMT'" font-size="22">Cl</text>
</g>
<g>
	<!-- <path fill="none" stroke="#231F20" stroke-width="0.75" stroke-miterlimit="10" d="M176.422,28.599l-121.5,50"/> -->
	<text x="168.9141" y="26.4072" fill="#00A651" font-family="'Arial-BoldMT'" font-size="22">1</text>
</g>
<g>
	<!-- <path fill="none" stroke="#231F20" stroke-width="0.75" stroke-miterlimit="10" d="M36.922,28.099l156,52"/> -->
	<text x="26.1836" y="26.4072" fill="#007DC5" font-family="'Arial-BoldMT'" font-size="22">1</text>
</g>
</svg>
