<?xml version="1.0" encoding="utf-8"?>
<!DOCTYPE svg PUBLIC "-//W3C//DTD SVG 1.1//EN" "http://www.w3.org/Graphics/SVG/1.1/DTD/svg11.dtd">
<svg version="1.1" id="Layer_1" xmlns="http://www.w3.org/2000/svg" xmlns:xlink="http://www.w3.org/1999/xlink" x="0px" y="0px"
     width="464px" height="453px" viewBox="0 0 464 453" enable-background="new 0 0 464 453" xml:space="preserve">
<g>
    <circle fill="#FFFDE9" stroke="#F58220" stroke-width="2.52" stroke-miterlimit="10" cx="234" cy="219.999" r="73.4"/>
    <text transform="matrix(1 0 0 1 193.3008 204.8945)" fill="#2B7F03" font-family="'Helvetica-Narrow-Bold'" font-size="43">17 p</text>
    <text transform="matrix(1 0 0 1 193.3008 264.4141)" fill="#0A7CD6" font-family="'Helvetica-Narrow-Bold'" font-size="43">18 n</text>
</g>
<path id="orbit1" fill="none" stroke="#0095DA" stroke-width="3" stroke-miterlimit="10" d="M234.295,94.021
    c70.127,0,126.977,56.849,126.977,126.976s-56.85,126.976-126.977,126.976s-126.976-56.849-126.976-126.976
    S164.168,94.021,234.295,94.021z"/>
<path id="orbit3" fill="none" stroke="#0095DA" stroke-width="3" stroke-miterlimit="10" d="M233.999,23.574
    c109.035,0,197.426,88.391,197.426,197.426s-88.391,197.426-197.426,197.426S36.573,330.035,36.573,221
    S124.964,23.574,233.999,23.574z"/>
<path id="orbit2" fill="none" stroke="#0095DA" stroke-width="3" stroke-miterlimit="10" d="M234.295,58.797
    c89.581,0,162.201,72.62,162.201,162.201s-72.62,162.201-162.201,162.201S72.094,310.579,72.094,220.998
    S144.714,58.797,234.295,58.797z"/>
<g transform="translate(-47.439 -39.509)">
    <circle fill="#F8878B" stroke="#AF2E38" stroke-width="0.96" stroke-miterlimit="10" cx="47.439" cy="39.509" r="13.65"/>  
    <rect x="39.333" y="37.108" transform="matrix(-0.9999 0.0136 -0.0136 -0.9999 95.4088 78.3675)" fill="#231F20" width="16.21" height="4.8"/>
    <animateMotion dur="12s" begin="0s" repeatCount="indefinite">
            <mpath xlink:href="#orbit1"/>
    </animateMotion>
</g>
<g transform="translate(-47.439 -39.509)">
    <circle fill="#F8878B" stroke="#AF2E38" stroke-width="0.96" stroke-miterlimit="10" cx="47.439" cy="39.509" r="13.65"/>  
    <rect x="39.333" y="37.108" transform="matrix(-0.9999 0.0136 -0.0136 -0.9999 95.4088 78.3675)" fill="#231F20" width="16.21" height="4.8"/>
    <animateMotion dur="12s" begin="-6s" repeatCount="indefinite">
            <mpath xlink:href="#orbit1"/>
    </animateMotion>
</g>
<g transform="translate(-47.439 -39.509)">
    <circle fill="#F8878B" stroke="#AF2E38" stroke-width="0.96" stroke-miterlimit="10" cx="47.439" cy="39.509" r="13.65"/>  
    <rect x="39.333" y="37.108" transform="matrix(-0.9999 0.0136 -0.0136 -0.9999 95.4088 78.3675)" fill="#231F20" width="16.21" height="4.8"/>
    <animateMotion dur="12s" begin="-3s" repeatCount="indefinite">
            <mpath xlink:href="#orbit2"/>
    </animateMotion>
</g>
<g transform="translate(-47.439 -39.509)">
    <circle fill="#F8878B" stroke="#AF2E38" stroke-width="0.96" stroke-miterlimit="10" cx="47.439" cy="39.509" r="13.65"/>  
    <rect x="39.333" y="37.108" transform="matrix(-0.9999 0.0136 -0.0136 -0.9999 95.4088 78.3675)" fill="#231F20" width="16.21" height="4.8"/>
    <animateMotion dur="12s" begin="-6s" repeatCount="indefinite">
            <mpath xlink:href="#orbit2"/>
    </animateMotion>
</g>
<g transform="translate(-47.439 -39.509)">
    <circle fill="#F8878B" stroke="#AF2E38" stroke-width="0.96" stroke-miterlimit="10" cx="47.439" cy="39.509" r="13.65"/>  
    <rect x="39.333" y="37.108" transform="matrix(-0.9999 0.0136 -0.0136 -0.9999 95.4088 78.3675)" fill="#231F20" width="16.21" height="4.8"/>
    <animateMotion dur="12s" begin="-9s" repeatCount="indefinite">
            <mpath xlink:href="#orbit2"/>
    </animateMotion>
</g>
<g transform="translate(-47.439 -39.509)">
    <circle fill="#F8878B" stroke="#AF2E38" stroke-width="0.96" stroke-miterlimit="10" cx="47.439" cy="39.509" r="13.65"/>  
    <rect x="39.333" y="37.108" transform="matrix(-0.9999 0.0136 -0.0136 -0.9999 95.4088 78.3675)" fill="#231F20" width="16.21" height="4.8"/>
    <animateMotion dur="12s" begin="0s" repeatCount="indefinite">
            <mpath xlink:href="#orbit2"/>
    </animateMotion>
</g>
<g transform="translate(-47.439 -39.509)">
    <circle fill="#F8878B" stroke="#AF2E38" stroke-width="0.96" stroke-miterlimit="10" cx="47.439" cy="39.509" r="13.65"/>  
    <rect x="39.333" y="37.108" transform="matrix(-0.9999 0.0136 -0.0136 -0.9999 95.4088 78.3675)" fill="#231F20" width="16.21" height="4.8"/>
    <animateMotion dur="12s" begin="-1.5s" repeatCount="indefinite">
            <mpath xlink:href="#orbit2"/>
    </animateMotion>
</g>
<g transform="translate(-47.439 -39.509)">
    <circle fill="#F8878B" stroke="#AF2E38" stroke-width="0.96" stroke-miterlimit="10" cx="47.439" cy="39.509" r="13.65"/>  
    <rect x="39.333" y="37.108" transform="matrix(-0.9999 0.0136 -0.0136 -0.9999 95.4088 78.3675)" fill="#231F20" width="16.21" height="4.8"/>
    <animateMotion dur="12s" begin="-4.5s" repeatCount="indefinite">
            <mpath xlink:href="#orbit2"/>
    </animateMotion>
</g>
<g transform="translate(-47.439 -39.509)">
    <circle fill="#F8878B" stroke="#AF2E38" stroke-width="0.96" stroke-miterlimit="10" cx="47.439" cy="39.509" r="13.65"/>  
    <rect x="39.333" y="37.108" transform="matrix(-0.9999 0.0136 -0.0136 -0.9999 95.4088 78.3675)" fill="#231F20" width="16.21" height="4.8"/>
    <animateMotion dur="12s" begin="-7.5s" repeatCount="indefinite">
            <mpath xlink:href="#orbit2"/>
    </animateMotion>
</g>
<g transform="translate(-47.439 -39.509)">
    <circle fill="#F8878B" stroke="#AF2E38" stroke-width="0.96" stroke-miterlimit="10" cx="47.439" cy="39.509" r="13.65"/>  
    <rect x="39.333" y="37.108" transform="matrix(-0.9999 0.0136 -0.0136 -0.9999 95.4088 78.3675)" fill="#231F20" width="16.21" height="4.8"/>
    <animateMotion dur="12s" begin="-10.5s" repeatCount="indefinite">
            <mpath xlink:href="#orbit2"/>
    </animateMotion>
</g>
<g transform="translate(-47.439 -39.509)">
    <circle fill="#F8878B" stroke="#AF2E38" stroke-width="0.96" stroke-miterlimit="10" cx="47.439" cy="39.509" r="13.65"/>  
    <rect x="39.333" y="37.108" transform="matrix(-0.9999 0.0136 -0.0136 -0.9999 95.4088 78.3675)" fill="#231F20" width="16.21" height="4.8"/>
    <animateMotion dur="12s" begin="0s" repeatCount="indefinite">
            <mpath xlink:href="#orbit3"/>
    </animateMotion>
</g>
<g transform="translate(-47.439 -39.509)">
    <circle fill="#F8878B" stroke="#AF2E38" stroke-width="0.96" stroke-miterlimit="10" cx="47.439" cy="39.509" r="13.65"/>  
    <rect x="39.333" y="37.108" transform="matrix(-0.9999 0.0136 -0.0136 -0.9999 95.4088 78.3675)" fill="#231F20" width="16.21" height="4.8"/>
    <animateMotion dur="12s" begin="-1.7s" repeatCount="indefinite">
            <mpath xlink:href="#orbit3"/>
    </animateMotion>
</g>
<g transform="translate(-47.439 -39.509)">
    <circle fill="#F8878B" stroke="#AF2E38" stroke-width="0.96" stroke-miterlimit="10" cx="47.439" cy="39.509" r="13.65"/>  
    <rect x="39.333" y="37.108" transform="matrix(-0.9999 0.0136 -0.0136 -0.9999 95.4088 78.3675)" fill="#231F20" width="16.21" height="4.8"/>
    <animateMotion dur="12s" begin="-3.4s" repeatCount="indefinite">
            <mpath xlink:href="#orbit3"/>
    </animateMotion>
</g>
<g transform="translate(-47.439 -39.509)">
    <circle fill="#F8878B" stroke="#AF2E38" stroke-width="0.96" stroke-miterlimit="10" cx="47.439" cy="39.509" r="13.65"/>  
    <rect x="39.333" y="37.108" transform="matrix(-0.9999 0.0136 -0.0136 -0.9999 95.4088 78.3675)" fill="#231F20" width="16.21" height="4.8"/>
    <animateMotion dur="12s" begin="-5.1s" repeatCount="indefinite">
            <mpath xlink:href="#orbit3"/>
    </animateMotion>
</g>
<g transform="translate(-47.439 -39.509)">
    <circle fill="#F8878B" stroke="#AF2E38" stroke-width="0.96" stroke-miterlimit="10" cx="47.439" cy="39.509" r="13.65"/>  
    <rect x="39.333" y="37.108" transform="matrix(-0.9999 0.0136 -0.0136 -0.9999 95.4088 78.3675)" fill="#231F20" width="16.21" height="4.8"/>
    <animateMotion dur="12s" begin="-6.8s" repeatCount="indefinite">
            <mpath xlink:href="#orbit3"/>
    </animateMotion>
</g>
<g transform="translate(-47.439 -39.509)">
    <circle fill="#F8878B" stroke="#AF2E38" stroke-width="0.96" stroke-miterlimit="10" cx="47.439" cy="39.509" r="13.65"/>  
    <rect x="39.333" y="37.108" transform="matrix(-0.9999 0.0136 -0.0136 -0.9999 95.4088 78.3675)" fill="#231F20" width="16.21" height="4.8"/>
    <animateMotion dur="12s" begin="-8.5s" repeatCount="indefinite">
            <mpath xlink:href="#orbit3"/>
    </animateMotion>
</g>
<g transform="translate(-47.439 -39.509)">
    <circle fill="#F8878B" stroke="#AF2E38" stroke-width="0.96" stroke-miterlimit="10" cx="47.439" cy="39.509" r="13.65"/>  
    <rect x="39.333" y="37.108" transform="matrix(-0.9999 0.0136 -0.0136 -0.9999 95.4088 78.3675)" fill="#231F20" width="16.21" height="4.8"/>
    <animateMotion dur="12s" begin="-10.2s" repeatCount="indefinite">
            <mpath xlink:href="#orbit3"/>
    </animateMotion>
</g>
</svg>
