<?xml version="1.0" encoding="utf-8"?>
<!-- Generator: Adobe Illustrator 15.0.0, SVG Export Plug-In . SVG Version: 6.00 Build 0)  -->
<!DOCTYPE svg PUBLIC "-//W3C//DTD SVG 1.1//EN" "http://www.w3.org/Graphics/SVG/1.1/DTD/svg11.dtd">
<svg version="1.1" id="Layer_1" xmlns="http://www.w3.org/2000/svg" xmlns:xlink="http://www.w3.org/1999/xlink" x="0px" y="0px"
	 width="406.25px" height="381.25px" viewBox="0 0 406.25 381.25" enable-background="new 0 0 406.25 381.25" xml:space="preserve">
<path fill="none" stroke="#0095DA" stroke-width="3" stroke-miterlimit="10" d="M210.16,356.93
	c-89.581,0-162.2-72.619-162.2-162.201c0-89.581,72.619-162.196,162.2-162.196s162.201,72.62,162.201,162.196
	C372.361,284.311,299.741,356.93,210.16,356.93z"/>
<path fill="none" stroke="#0095DA" stroke-width="3" stroke-miterlimit="10" d="M210.161,321.704
	c-70.127,0-126.976-56.849-126.976-126.976c0-70.127,56.849-126.979,126.976-126.979c70.126,0,126.975,56.849,126.975,126.979
	C337.136,264.855,280.287,321.704,210.161,321.704z"/>
<g>
	<circle fill="#F8878B" stroke="#AF2E38" stroke-width="0.96" stroke-miterlimit="10" cx="47.439" cy="39.509" r="13.65"/>
	
		<rect x="39.333" y="37.108" transform="matrix(-0.9999 0.0136 -0.0136 -0.9999 95.4088 78.3675)" fill="#231F20" width="16.21" height="4.8"/>
</g>
<g>
	<circle fill="#FFFDE9" stroke="#F58220" stroke-width="2.52" stroke-miterlimit="10" cx="210.16" cy="194.729" r="73.4"/>
	<text transform="matrix(1 0 0 1 174.7705 179.623)" fill="#2B7F03" font-family="'Helvetica-Narrow-Bold'" font-size="49.6">9 p</text>
	<text transform="matrix(1 0 0 1 174.7705 239.1426)" fill="#0A7CD6" font-family="'Helvetica-Narrow-Bold'" font-size="49.6">10 n</text>
</g>
</svg>
