selector,english_word,engmeaning,nepali_word,nepmeaning,image
खेतीवाल,,,खेतीवाल,"किसान, खेतीपातीको काम गरेर जीवन निर्वाह गर्ने मानिस",
हल गोरु,,,हल गोरु,गोरुको जोडी,
हलो,,,हलो,गोरू वा राँगाले जमिन जोत्दा प्रयोग गरिने कृषि साधन,
जोती,,,जोत्&#8205;नु,"सुइरो परेको वस्तुले खोस्रँदै खेत-बारी जोत्&#8205;ने काम, जोताइ",
लोभ,,,लोभ,"धेरै कुरा प्राप्त गर्ने इच्छा, बढि पाउने चाहना",
नारी,,,नार्नु,खेत जोत्&#8205;नको लागि गोरुहरूलाई सँगै मिलाएर राख्‍नु,
उमारी,,,उमार्नु,उमार्ने काम गर्नु,
सम्पत्ति,,,सम्पत्ति,"आफ्नो अधिकारमा रहेको धन, दौलत",
ढुक्‌क,,,ढुक्‌क,कुनै कुरामा डर नभएको,
ईश्‍वर,,,ईश्‍वर,भगवान,
उद्योग,,,उद्योग,वस्तु वा सेवा बनाउने ठाउँ,
जीवन,,,जीवन,जन्मदेखि मृत्युसम्मको समय,
प्रशन्‍न,,,प्रशन्‍न,"सन्तुष्ट, खुशी हुनु",
