<?xml version="1.0" encoding="utf-8"?>
<!-- Generator: Adobe Illustrator 15.0.0, SVG Export Plug-In . SVG Version: 6.00 Build 0)  -->
<!DOCTYPE svg PUBLIC "-//W3C//DTD SVG 1.1//EN" "http://www.w3.org/Graphics/SVG/1.1/DTD/svg11.dtd">
<svg version="1.1" id="Layer_2" xmlns="http://www.w3.org/2000/svg" xmlns:xlink="http://www.w3.org/1999/xlink" x="0px" y="0px"
	 width="721px" height="882px" viewBox="0 0 721 882" enable-background="new 0 0 721 882" xml:space="preserve">
<g id="hand">
	<g>
		<path fill="#FCD0A0" d="M60.408,452.418c-17.62,1.422-37.54,3.227-48.459,4.236c-0.354,5.438,1.115,11.459,4.967,17.885
			c17.823,29.706,132.68,196.062,161.399,247.551c28.721,51.489,68.741,75.258,92.508,93.081c0,0,33.913,29.18,42.453,34.287
			c24.056,14.38,102.127,67.741,264.519-25.341l3.29-3.998c75.246-83.115,89.903-200.376,91.226-270.146
			c-3.963-7.898-7.604-16.522-12.543-30.813c-7.927-22.94,5.426-72.996,0-84.257c-5.427-11.263,1.252-5.005,8.764-10.428
			c7.507-5.422,12.097-28.777,13.345-51.719c1.248-22.941-7.508-35.453-7.508-35.453s-1.666-5.005,6.678-10.426
			c8.344-5.423,7.09-14.599,6.673-41.291c-0.268-17,4.368-29.747,7.774-36.779c-4.511-14.331-11.942-22.596-23.061-22.068
			c-46.788,2.228-77.232,250.274-79.465,251.018c-2.229,0.743-7.426,2.229-7.426,2.229s-1.236,5.444-4.207-17.328
			c-0.215-1.63-0.239-4.749-0.135-9.058c-7.704-2.597-3.625-50.271-4.021-55.402c-0.417-5.423-2.505-20.854-8.761-28.778
			c-6.254-7.927-16.27-13.348-7.508-18.77c8.762-5.422,7.508-12.094,16.688-40.04c9.18-27.945-2.508-21.271-2.924-44.629
			c-0.419-23.358-6.674-17.516-11.262-21.27c-4.59-3.754,13.35-7.508,12.514-16.266c-0.515-5.416,4.869-17.526,9.051-25.984
			c-4.137-41.2-13.059-70.993-30.379-72.513c-56.438-4.952-38.617,90.108-38.617,107.932c0,17.824-27.721,133.678-26.732,183.189
			c0,0-17.823-11.883-18.814-20.795c-0.053-0.476-0.088-1.877-0.117-4.016c-5.531,3.699-13.621,0.992-15.753,0.688
			c-2.919-0.418,0.837-9.175,2.501-26.695c1.666-17.519-0.418-33.363-3.754-47.129c-3.336-13.766-6.672-6.258-12.509-15.016
			c-5.837-8.758,4.583-8.34,11.679-18.769c7.101-10.429,2.502-19.185,2.502-45.044s-5.844-23.355-10.426-37.121
			c-4.585-13.765-9.18-9.594-10.427-16.266c-1.249-6.673,10.008-10.427,10.008-19.187c0-4.343,4.206-16.585,8.448-27.824
			c-8.129-37.669-20.063-63.009-37.604-59.499c-59.409,11.882-23.764,281.217-35.646,307.953c0,0-3.957,4.954-11.883-1.979
			c-0.893-0.778-2.354-3.815-4.207-8.457c-6.11,22.031-22.912,20.577-22.555,16.281c0.418-5.007,0-52.969,0-52.969
			s-6.256-13.763-13.346-27.528c-7.09-13.766-23.775-1.668-22.104-5.422c1.67-3.754,10.844-22.105,15.434-35.035
			c4.588-12.93-3.336-25.859-5.844-36.703c-2.506-10.844-9.173-14.18-14.598-23.773c-5.427-9.594-8.759-7.509-12.93-10.427
			c-2.825-1.975,6.767-17.121,13.266-26.712c-6.908-23.408-16.966-69.362-43.032-64.532c-26.735,4.952-32.683,23.769-16.839,180.219
			c15.846,156.451,28.721,222.796,31.69,223.786c2.971,0.99-41.595,50.505-40.602,70.31c0.377,7.559-2.571,8.313-6.516,6.108
			c0.133,6.206-0.395,12.173-2.617,14.563c-5.424,5.84-14.182-1.668-18.353-7.926c-4.172-6.262-4.589-11.681-23.776-52.139
			c-19.188-40.457-10.844-18.351-25.023-15.848c-14.18,2.504-24.605,12.095-20.854-2.503c3.755-14.599,7.091-26.278,3.338-35.453
			c-3.755-9.176-27.113-33.783-34.203-41.708C96.692,446.581,86.266,450.334,60.408,452.418z"/>
		<path fill="#F4BB87" d="M659.765,519.157c4.938,14.29,8.581,22.914,12.544,30.813c0.683-35.583-2.104-58.85-2.104-58.85
			c23.782-87.197,39.755-196.333,25.285-242.317c-3.406,7.032-8.042,19.779-7.774,36.779c0.417,26.692,1.671,35.869-6.673,41.291
			c-8.344,5.421-6.678,10.426-6.678,10.426s8.756,12.512,7.508,35.453s-5.838,46.297-13.345,51.719
			c-7.511,5.422-14.188-0.835-8.763,10.426C665.189,446.163,651.84,496.219,659.765,519.157z"/>
		<path fill="#F4BB87" d="M581.2,453.6c0.929-37.414,12.168-167.686,3.776-251.139c-4.185,8.459-9.566,20.568-9.054,25.984
			c0.836,8.758-17.104,12.512-12.514,16.266c4.588,3.754,10.843-2.088,11.262,21.27c0.416,23.359,12.104,16.684,2.924,44.629
			c-9.18,27.946-7.926,34.618-16.688,40.04c-8.76,5.422,1.254,10.844,7.508,18.77c6.256,7.925,8.344,23.356,8.761,28.778
			C577.574,403.33,573.496,451.004,581.2,453.6z"/>
		<path fill="#F4BB87" d="M470.311,396.259c-0.361-26.132,0.204-169.253-17.729-252.361c-4.242,11.239-8.448,23.481-8.448,27.824
			c0,8.759-11.257,12.513-10.008,19.186c1.247,6.673,5.842,2.501,10.427,16.266c4.582,13.766,10.426,11.262,10.426,37.121
			c0,25.859,4.599,34.614-2.502,45.044c-7.096,10.429-17.516,10.011-11.679,18.769c5.837,8.758,9.173,1.251,12.509,15.016
			s5.42,29.61,3.754,47.129c-1.664,17.519-5.42,26.277-2.5,26.695C456.689,397.251,464.777,399.958,470.311,396.259z"/>
		<path fill="#F4BB87" d="M363.242,381.919c-14.728-36.782-55.984-180.259-62.141-200.479c-0.176-0.566-0.354-1.216-0.532-1.811
			c-6.498,9.591-16.09,24.737-13.267,26.712c4.172,2.919,7.502,0.833,12.93,10.427c5.425,9.592,12.092,12.929,14.598,23.773
			c2.508,10.844,10.432,23.773,5.844,36.703c-4.59,12.93-13.764,31.281-15.434,35.035c-1.672,3.754,15.014-8.343,22.104,5.422
			c7.092,13.765,13.346,27.528,13.346,27.528s0.419,47.962,0,52.969C340.33,402.494,357.133,403.947,363.242,381.919z"/>
		<path fill="#F4BB87" d="M11.948,456.656c10.919-1.01,30.839-2.814,48.459-4.236c25.858-2.086,36.285-5.839,43.376,2.086
			c7.09,7.925,30.448,32.532,34.203,41.708c3.753,9.175,0.417,20.854-3.338,35.453c-3.751,14.598,6.674,5.007,20.854,2.503
			c14.18-2.503,5.835-24.609,25.023,15.848c19.187,40.458,19.604,45.877,23.776,52.139c4.171,6.258,12.929,13.766,18.353,7.926
			c2.222-2.393,2.75-8.356,2.617-14.563c-6.389-3.565-15.41-14.935-17.25-17.991c-2.971-4.952-85.149-134.673-131.694-144.572
			C39.85,425.191,13.231,436.932,11.948,456.656z"/>
	</g>
	<path fill="#FFD7B0" d="M593.708,730.26c33.42-39.355,5.943-88.375-13.367-93.574c-19.309-5.194-81.688,31.938-93.575,66.844
		c-11.882,34.9-0.91,75.441,4.456,77.232C542.467,797.842,560.29,769.621,593.708,730.26z"/>
	<path fill="#FFD7B0" d="M611.747,497.424c-20.172-8.718-36.719,8.558-36.441,17.066c0.278,8.506,23.15,29.3,38.839,29.801
		c15.688,0.5,30.832-9.001,30.9-11.406C645.637,509.896,631.928,506.145,611.747,497.424z"/>
	<path fill="#FFD7B0" d="M528.482,446.809c-20.172-8.718-36.723,8.56-36.441,17.066c0.279,8.506,23.15,29.3,38.838,29.802
		c15.689,0.5,30.832-9.001,30.902-11.405C562.373,459.284,548.662,455.53,528.482,446.809z"/>
	<path fill="#FFD7B0" d="M419.671,401.159c-21.483-4.633-34.358,15.528-32.432,23.823c1.926,8.287,28.396,24.244,43.885,21.688
		c15.487-2.559,28.495-14.818,28.1-17.191C455.338,406.813,441.157,405.795,419.671,401.159z"/>
	<path fill="#FFD7B0" d="M308.598,449.096c-14.349,16.646-2.808,37.604,5.395,39.877c8.203,2.277,34.881-13.333,40.051-28.15
		c5.165-14.822,0.626-32.111-1.646-32.898C330.635,420.486,322.953,432.447,308.598,449.096z"/>
	<path fill="#FFD7B0" d="M417.701,696.841c-19.313-37.875-121.054-23.765-154.472-31.935c-33.421-8.169-37.134,60.896-25.994,84.663
		c11.14,23.766,32.678,28.965,77.235,52.729c44.562,23.768,88.464,19.513,93.574,18.566
		C476.37,808.239,437.009,734.717,417.701,696.841z"/>
</g>
<path fill="none" stroke="#E0904F" stroke-width="4" stroke-miterlimit="10" d="M470.311,396.259
	c-0.361-26.131,0.204-169.245-17.727-252.354c0-0.002,0.001-0.004,0.002-0.006c-8.129-37.669-20.063-63.009-37.604-59.499
	c-59.409,11.882-23.764,281.217-35.646,307.953c0,0-3.957,4.954-11.883-1.979c-0.893-0.778-2.354-3.815-4.207-8.457 M581.2,453.6
	c0.929-37.414,12.168-167.686,3.776-251.139l0,0c-4.137-41.2-13.059-70.992-30.379-72.512
	c-56.438-4.952-38.617,90.108-38.617,107.932c0,17.824-27.721,133.678-26.732,183.189c0,0-17.823-11.883-18.814-20.795
	c-0.053-0.476-0.088-1.877-0.117-4.016 M363.242,381.919c-14.728-36.782-55.984-180.259-62.141-200.479
	c-0.176-0.566-0.354-1.215-0.532-1.811c0,0,0,0,0.001-0.001c-6.908-23.408-16.966-69.362-43.032-64.532
	c-26.735,4.952-32.683,23.769-16.839,180.219c15.846,156.451,28.721,222.796,31.69,223.786c2.971,0.99-41.595,50.505-40.602,70.31
	c0.377,7.559-2.571,8.313-6.516,6.108c0,0,0,0,0,0.001c-6.389-3.566-15.41-14.935-17.25-17.991
	c-2.971-4.952-85.149-134.673-131.694-144.572c-36.477-7.765-63.096,3.976-64.379,23.7c0,0,0,0,0.001,0
	c-0.354,5.438,1.115,11.458,4.967,17.883c17.823,29.706,132.68,196.062,161.399,247.551c28.721,51.489,68.741,75.258,92.508,93.081
	c0,0,33.913,29.18,42.453,34.287c24.056,14.38,102.127,67.741,264.519-25.341l3.29-3.998
	c75.246-83.115,89.903-200.376,91.226-270.146c-0.001-0.001-0.001-0.003-0.002-0.004c0.683-35.583-2.104-58.849-2.104-58.849
	c23.781-87.193,39.753-196.322,25.287-242.311c0,0,0.001-0.001,0.001-0.001c-4.511-14.331-11.942-22.596-23.061-22.068
	c-46.788,2.228-77.232,250.274-79.465,251.018c-2.229,0.743-7.426,2.229-7.426,2.229s-1.236,5.444-4.207-17.328
	c-0.215-1.63-0.239-4.749-0.135-9.058 M133.083,488.313"/>
<g enable-background="new    ">
	<text class="number num6" transform="matrix(1 0 0 1 14.2563 411)" font-family="abeezee" font-size="60">1</text>
</g>
<g enable-background="new    ">
	<text class="number num7" transform="matrix(1 0 0 1 237.2563 84)" font-family="abeezee" font-size="60">2</text>
</g>
<g enable-background="new    ">
	<text class="number num8" transform="matrix(1 0 0 1 404.2559 53)" font-family="abeezee" font-size="60">3</text>
</g>
<g enable-background="new    ">
	<text class="number num9" transform="matrix(1 0 0 1 539.2559 97)" font-family="abeezee" font-size="60">4</text>
</g>
<g enable-background="new    ">
	<text class="number num10" transform="matrix(1 0 0 1 641.2559 197)" font-family="abeezee" font-size="60">5</text>
</g>
</svg>
