selector,english_word,engmeaning,nepali_word,nepmeaning,image
universe,universe,,ब्रम्हाण्ड,,
perfect,perfect,,"पूर्ण , ठिक",,
sphere,sphere,,गोलाकार,,
flatter,flat,,समतल,,
discovered,discover,,,"पत्ता लगाउनु , आविस्कार गर्नु",
billions,billions,,"अर्ब, सय करोड",,
availability,available,,,उपलब्ध हुनु,
surface,surface,,सतह,,
stored,store,,,"जम्मा पार्नु, भण्डार गर्नु",
snow,snow,,हिउँ,,
evaporate,evaporate,,,बाफ बनेर उडेर जानु,
droplets,droplet,,,सानो थोपा,
cracks,crack,,,चर्केको वा फुटेको सतह,
spaces,space,,,"खाली ठाउँ, अन्तर",
underground water,underground water,,,सतहमुनीको पानी,
beneath,beneath,,,"तल, मुनी",
drinkable,drinkable,,,पिउन योग्य,
utilize,utilize,,सदुपयोग,सही उपयोग,
covered,cover,,ओगट्नु,,
steep,steep,,भिरालो,,
plain,plain,,समतल,सम्म परेको,
flat,flat,,समतल,सम्म परेको,
almost,almost,,लगभग,,
surrounded,surround,,"घेर्नु, बार्नु",,
island,island,,टापु,,
desert,desert,,मरूभूमी,,
layer,layer,,तह,,
atmosphere,atmosphere,,वायुमण्डल,,
supports,support,,,सहायता गर्नु,
stay,stay,,"बस्नु, रहनु, टिक्नु",,
