{
	"directory": "",
	"activityDir" : "activity",
	"default_lang" : "eng",
	"default_pg" : "1",
	"$base_dir" : "base directory refrenced",
	"nextPageLink" : "next Page Link for click support within activity",
	"prevPageLink" : "prev Page Link for click support within activity"
};

