{
  "gradess": {
    "en": "Class",
    "np": "कक्षा"
  },

  "allgrades": {
    "en": ["1", "2", "3", "4", "5", "6", "7", "8"],
    "np": ["१", "२", "३", "४", "५", "६", "७", "८"]
  },

  "gradeselect": {
    "en": "Choose your grade",
    "np": "कक्षा छान"
  },

  "menu": {
    "en": "Menu",
    "np": "सूची"
  },

  "lesson": {
    "en": "Lesson",
    "np": "पाठ"
  },

  "nextPage": {
    "en": "Next Page",
    "np": "अर्को पृष्ठ"
  },

  "prevPage": {
    "en": "Prev Page",
    "np": "अघिल्लो पृष्ठ"
  },

  "footerText": {
    "en": "Designed & developed by OLE Nepal | EPaath - V3.0.0",
    "np": "साझा शिक्षा ई-पाटीद्वारा निर्मित | ई-पाठ - V3.0.0"
  },

  "SupportText": {
    "en": "Supported by:",
    "np": "सहयोग:"
  },

  "exercise": {
    "en": "Exercise",
    "np": "अभ्यास"
  },

  "all": {
    "en": "All",
    "np": "पुरै"
  },

  "indexText": {
    "en": "E-Paath",

    "np": "ई-पाठ"
  },

  "indexTexta": {
    "en": "Interactive Digital Learning Materials",

    "np": "विद्यालय शिक्षाको राष्ट्रिय पाठ्यक्रममा आधारित"
  },
  "chooseGrade": {
    "en": "CHOOSE GRADE",

    "np": "कक्षा छान"
  },
  "chooseSubject": {
    "en": "CHOOSE SUBJECT",

    "np": "विषय छान"
  },
  "indexTextb": {
    "en": "Aligned with the national school curriculum ",

    "np": "अन्तर्क्रियात्मक डिजिटल शैक्षिक सामग्री"
  },

  "indexTextSecond": {
    "en": "[Work is still in progress in this version of E-Paath. You can visit the previous complete version of E-Paath <span>here</span>.]<br><br><br>",

    "np": "(ई-पाठ अपडेट गर्ने काम निरन्‍तर भइरहेको  छ। यस अगाडिको सम्‍पूर्ण ई-पाठहरू हेर्नको लागि यो <span>लिङ्कमा</span> जान सक्‍नुहुन्छ।)<br><br><br>"
  },

  "indexTextBelow": {
    "en": "Note: These digital educational content are distributed for <span>free</span>, and are not for sale.<br> Email info@olenepal.org or call 01-5544441 immediately to report if anyone has charged you for this E-Paath package.",

    "np": "नोटः यी डिजिटल शैक्षिक सामग्रीहरू <span>निःशुल्क</span> वितरणका लागि हुन्।<br> यदि यो सामग्री बिक्री गरेको थाहा पाउनु भएमा ई-मेल: info@olenepal.org वा 01-5544441 मा फोन गरेर जानकारी दिन सक्‍नुहुनेछ। "
  },

  "footerApprovalText": {
    "en": "Approved by: Curriculum Development Centre (CDC) of Nepal",

    "np": "पाठ्‍यक्रम विकास केन्‍द्रद्वारा मान्‍यता प्राप्‍त"
  },

  "indexTextAlert": {
    "en": "Choose grade first",
    "np": "पहिले कक्षा छान"
  },

  "help": {
    "en": "Help",
    "np": "सहयोग"
  },

  "helptext": {
    "en": [
      "Title",
      "Purpose of activity",
      "About lesson",
      "Methods to use activity",
      "Lesson",
      "Exercise",
      "Self-assessment"
    ],
    "np": [
      "शिर्षक",
      "क्रियाकलापको उद्देश्य",
      "पाठबारे",
      "क्रियाकलाप चलाउने तरिका",
      "पाठ",
      "अभ्यास",
      "स्वमूल्याङ्कन"
    ]
  },

  "textObjective": {
    "en": "Learning Outcome",
    "np": "सिकाइ उपलब्धि "
  },

  "activityGuide": {
    "en": "Activity Guide",
    "np": "क्रियाकलाप निर्देशिका"
  },

  "startText": {
    "en": "Let's start",
    "np": "सुरु गरौँ"
  },

  "subject": {
    "np": "विषय",
    "en": "Subject"
  },

  "studyMaterial": {
    "np": ["सिकाइ-क्षेत्र", "सिकाइ-उपलब्धि", "सिकाइ-उपलब्धिको विस्तृतीकरण"],
    "en": ["Learning area(s)", "Learning Outcome", "Elaboration"]
  },

  "actObj": {
    "np": ["क्रियाकलापको उद्देश्य", "क्रियाकलाप चलाउने तरिका", "स्वमूल्याङ्कन"],
    "en": [
      "Objective of the activity",
      "How to use the activity",
      "Self-assessment"
    ]
  },

  "actbefore": {
    "np": [
      "ई-पाठ प्रयोगपूर्वको क्रियाकलाप",
      "ई-पाठ प्रयोगपछिको क्रियाकलाप",
      "ई-पुस्तकालयसँग सम्बन्धित क्रियाकलाप",
      "सामूहिक क्रियाकलाप",
      "गृहकार्य",
      "समान वा सम्बन्धित अन्य क्रियाकलाप",
      "शिक्षणसम्बन्धी थप सल्लाह",
      "उपयोगी वेबसाइटहरू"
    ],
    "en": [
      "Recommended Pre-E-Paath activity",
      "Recommended Post-EPaath activity",
      "Recommended E-library activity",
      "Recommended group activity",
      "Recommended home assignment",
      "Related activities",
      "Teaching tips",
      "Useful websites"
    ]
  },

  "playtime": {
    "en": "Play",
    "np": "खेलौँ"
  },

  "learn": {
    "en": "Learn",
    "np": "सिकौँ"
  },

  "about_the_lesson_heading": {
    "en": "About the lesson",
    "np": "पाठको बारेमा"
  },

  "curricular_requirement_heading": {
    "en": "Curricular Requirement",
    "np": "पाठ्यक्रमको आवश्यकता"
  },
  "prerequisites_heading": {
    "en": "Prerequisites",
    "np": "पूर्व आवश्‍यकता"
  },
  "lesson_guidelines_heading": {
    "en": "Lesson guidelines",
    "np": "पाठ निर्देशिका"
  },
  "related_activities_heading": {
    "en": "Related activities",
    "np": "सम्बन्धित क्रियाकलाप"
  },
  "evaluation_heading": {
    "en": "Evaluation",
    "np": "मूल्‍याङ्‍कन"
  }
}
