{
  "tat": {
    "lesson_name": "टालाटुली बटुली           ",
    "about_the_lesson_content": {
      "en": " ",
      "np": " यो  भिन्न ई-पाठमा माधवप्रसाद घिमिरेको टालाटुली बटुली भन्‍ने बालगीतलाई श्रव्‍य दृश्‍य राखेर रमाइलो ढङ्‍गले प्रस्तुत गरिएको छ। यो पाठको मूख्‍य उदेश्‍य बाल बालिकाहरूलाई सरल बालगीत लय मिलाई पढ्न सिकाउनुको साथै उनीहरूको सुनाइ, बोलाइ र पढाइमा रुचि बढाउनु हो। "
    },
    "curricular_requirement_content": {
      "en": "  ",
      "np": "“टालाटुली बटुली” पाठ विद्यार्थीहरूको आवश्‍यकता अनुसार समय दिएर सिकाउन र खेलाउन सकिन्‍छ।"
    },
    "prerequisites_content": {
      "paragraph": {
        "en": "    ",
        "np": " यो पाठ सुरु गर्नुअघि विद्यार्थीहरूले सुनेका कुरा सँगसँगै भन्‍न तथा लेखिएका सरल वाक्‍यहरू पढ्‍न सक्‍नु पर्दछ। विद्यार्थीहरूले यो ई-पाठ सुरु गर्नुअघि एकपटक तलको ई-पाठको समिक्षा गर्दा फलदायी हुन सक्‍छ।"
      },
      "chapter_links": {
        "chapter_link_data1": {
          "grade": "1",
          "id": "knc",
          "breadcrumb_data": {
            "en": "",
            "np": "कक्षा १ ➔ क-ङ चिन"
          }
        },
        "chapter_link_data2": {
          "grade": "1",
          "id": "ntc",
          "breadcrumb_data": {
            "en": "",
            "np": "कक्षा १ ➔ च-ञ चिन"
          }
        },
        "chapter_link_data3": {
          "grade": "1",
          "id": "ddc",
          "breadcrumb_data": {
            "en": "",
            "np": "कक्षा १ ➔ ट-ण चिन"
          }
        },
        "chapter_link_data4": {
          "grade": "1",
          "id": "nrc",
          "breadcrumb_data": {
            "en": "",
            "np": "कक्षा १ ➔ त-न चिन"
          }
        },
        "chapter_link_data5": {
          "grade": "1",
          "id": "sgc",
          "breadcrumb_data": {
            "en": "",
            "np": "कक्षा १ ➔ प-म चिन"
          }
        },
        "chapter_link_data6": {
          "grade": "1",
          "id": "ygc",
          "breadcrumb_data": {
            "en": "",
            "np": "कक्षा १ ➔ य-व चिन"
          }
        },
        "chapter_link_data7": {
          "grade": "1",
          "id": "sgy",
          "breadcrumb_data": {
            "en": "",
            "np": "कक्षा १ ➔ श-ज्ञ चिन"
          }
        }
      }
    },
    "lesson_guidelines_content": {
      "en": {
        "paragraph": "",
        "list": []
      },
      "np": {
        "paragraph": "शिक्षकले विद्यार्थीहरूलाई यो ई-पाठ चलाउन सहयोग गर्दै सुरु गर्नुपर्छ। विद्यार्थीहरूले शुद्ध उच्‍चारण गरे नगरेको ख्‍याल गर्दै शुद्ध उच्‍चारण गर्न मदत गर्न सकिन्‍छ। खेलौँ भागमा विद्यार्थीहरूले पुतली सजाउन सक्‍छन् जसबाट उनीहरूलाई पाठमा सिकेको कुराहरू सम्‍झिन मदत पुग्छ। यो पाठ छोटो भएतापनि धेरै अभ्‍यासले विद्यार्थीहरूको सुनाइ, बोलाइ र पढाइमा सुधार आउँछ।",
        "list": []
      }
    },
    "related_activities_content": {
      "en": {
        "paragraph": "",
        "list": ["     ", ""]
      },
      "np": {
        "paragraph": "",
        "list": [
          "शिक्षकले पनि यो पाठ विद्यार्थीहरू सँगै लय मिलायर पढ्‍न सकिन्‍छ जसले उनीहरू पढ्‍न उत्‍सुक हुन्‍छन्।  ",
          "शिक्षकले अन्‍य बालगीतहरू पनि लय मिलाएर गाउन तथा विद्यार्थीहरूलाई पनि गाउन लगाउन सक्‍छन्।",
          "शिक्षकले विद्यार्थीहरूलाई उनीहरूले जानेको, सुनेको बालगीतहरू पनि पालैपालो गाउन लगाउन सक्‍छन्।"
        ]
      }
    },
    "evaluation_content": {
      "en": {
        "paragraph": " ",
        "list": ["", ""]
      },
      "np": {
        "paragraph": " ",
        "list": ["", ""]
      }
    }
  },
  "uum": {
    "lesson_name": "उल्टो उमेश          ",
    "about_the_lesson_content": {
      "en": " ",
      "np": " यो ई-पाठमा विद्यार्थीहरू साधारण मौखिक निर्देशनहरू सुनेर पालन गर्न सिकाइएको छ साथसाथै सामान्‍य शब्‍दहरूको उल्‍टो अर्थहरू अर्थात विपरीतार्थक शब्‍दहरू पनि सिकाउने प्रयास गरिएको छ।"
    },
    "curricular_requirement_content": {
      "en": "  ",
      "np": "“उल्टो उमेश” पाठ विद्यार्थीहरूको आवश्‍यकता अनुसार समय दिएर सिकाउन र खेलाउन सकिन्‍छ।"
    },
    "prerequisites_content": {
      "paragraph": {
        "en": "    ",
        "np": " यो पाठ सुरु गर्नुअघि विद्यार्थीहरूले साधारण मौखिक निर्देशनहरूको अर्थ जानेको हुनुपर्छ। साथै सुल्‍टो र उल्‍टो भनेको पनि बुझ्‍नुपर्छ। साथै लेखिएका सरल वाक्‍यहरू पढ्‍न सक्‍नु पर्दछ।"
      },
      "chapter_links": {}
    },
    "lesson_guidelines_content": {
      "en": {
        "paragraph": "",
        "list": []
      },
      "np": {
        "paragraph": "शिक्षकले विद्यार्थीहरूलाई यो ई-पाठ चलाउन सहयोग गर्दै सुरु गर्नुपर्छ। पाठमा उमेशले किन उल्‍टो कामहरू गरेको होला बुझाइदिनु पर्छ अन्‍यथा विद्यार्थीहरूले पनि उल्‍टो कामहरू मात्र गर्न सक्‍छन्। खेलौँ भागमा खेलको माध्यमबाट निकै रमाइलो ढङ्‍गले अन्‍य मौखिक निर्देशनहरूको पालना गर्न सिकाइएको छ।",
        "list": []
      }
    },
    "related_activities_content": {
      "en": {
        "paragraph": "",
        "list": ["     ", ""]
      },
      "np": {
        "paragraph": "",
        "list": [
          "शिक्षकले विद्यार्थीहरूलाई पालैपालो पाठको “उमेश” ले जस्तै निर्देशनको उल्‍टो पालना गर्न लगाएर थप विपरीतार्थक शब्‍दहरू सिकाउन सक्‍छन्।   ",
          "शिक्षकले कालोपाटीमा सामान्‍य शब्‍दहरू दिएर तिनीहरूको उल्‍टो अर्थ दिने शब्‍दहरू भन्‍न र लेख्‍न लगाउन सक्‍छन्।",
          "विद्यार्थीहरूलाई उनीहरूले जानेको, सुनेको तेस्ता शब्‍दहरू सोधेर तिनीहरूको उल्‍टो अर्थ दिने शब्‍दहरू बताइदिन सक्‍छन्।"
        ]
      }
    },
    "evaluation_content": {
      "en": {
        "paragraph": " ",
        "list": ["", ""]
      },
      "np": {
        "paragraph": " ",
        "list": ["", ""]
      }
    }
  },
  "knc": {
    "lesson_name": "क-ङ चिन",
    "about_the_lesson_content": {
      "en": " ",
      "np": "भाषाको सबैभन्दा सानो एकाइलाई वर्ण भनिन्‍छ अर्थात वर्ण भाषा सिकाइको मूख्‍य आधार हो। शुद्ध उच्चारण र शुद्ध लेखन गर्न वर्णको पहिचानबाट सहयोग पुग्दछ। यो ई-पाठमा नेपाली भाषाकै सबैभन्‍दा आधारभूत अबधारणा वर्णहरू (क देखि ङ) र तिनीहरूबाट सुरु हुने शब्‍दहरू चिनाइएको छ। "
    },
    "curricular_requirement_content": {
      "en": "  ",
      "np": "“क-ङ चिन” पाठ विद्यार्थीहरूको आवश्‍यकता अनुसार समय दिएर सिकाउन र खेलाउन सकिन्‍छ।"
    },
    "prerequisites_content": {
      "paragraph": {
        "en": "    ",
        "np": " यो पाठ सुरु गर्नुअघि विद्यार्थीहरूले सामान्‍य निर्देशनहरू बुझ्न सक्‍ने हुनुपर्छ। "
      },
      "chapter_links": {}
    },
    "lesson_guidelines_content": {
      "en": {
        "paragraph": "",
        "list": []
      },
      "np": {
        "paragraph": "यो ई-पाठ नेपाली भाषाकै सबैभन्‍दा आधारभूत अबधारणा भएकोले शिक्षकले प्रत्येक विद्यार्थीहरूलाई पालैपालो पाठको पहिलो भाग देखि अभ्‍यास गराउनु पर्छ। सुरुमा वर्णहरू चिन्‍नको लागि मात्र प्रोत्साहन गर्नुपर्छ त्यसपछि, विस्तारै लेख्‍न सिकाउनु पर्छ। प्रत्येक भागहरूमा एउटा एउटा अक्षरलाई चिनाइएको छ। ",
        "list": []
      }
    },
    "related_activities_content": {
      "en": {
        "paragraph": "",
        "list": ["     ", ""]
      },
      "np": {
        "paragraph": "",
        "list": [
          "शिक्षकले विद्यार्थीहरूलाई धेरै पटक ई-पाठबाट अभ्‍यास गराइसकेपछि कापीमा लेख्‍न सहयोग गर्नुपर्छ।    ",
          "विद्यार्थीहरूलाई उनीहरूले जानेको, सुनेको शब्‍दहरू पालैपालो सोधेर, त्यो कुन अक्षरबाट सुरु भएको छ छलफल गर्न सकिन्‍छ।",
          "क देखि ङ सम्मको अक्षरहरू मिलाएर गीतको रूपमा गाउन लगाउन सकिन्‍छ।"
        ]
      }
    },
    "evaluation_content": {
      "en": {
        "paragraph": " ",
        "list": ["", ""]
      },
      "np": {
        "paragraph": " ",
        "list": ["", ""]
      }
    }
  },
  "ntc": {
    "lesson_name": "च-ञ चिन",
    "about_the_lesson_content": {
      "en": " ",
      "np": "भाषाको सबैभन्दा सानो एकाइलाई वर्ण भनिन्‍छ अर्थात वर्ण भाषा सिकाइको मूख्‍य आधार हो। शुद्ध उच्चारण र शुद्ध लेखन गर्न वर्णको पहिचानबाट सहयोग पुग्दछ। यो ई-पाठमा नेपाली भाषाकै सबैभन्‍दा आधारभूत अबधारणा वर्णहरू (च देखि ञ) र तिनीहरूबाट सुरु हुने शब्‍दहरू चिनाइएको छ। "
    },
    "curricular_requirement_content": {
      "en": "  ",
      "np": "“च-ञ चिन” पाठ विद्यार्थीहरूको आवश्‍यकता अनुसार समय दिएर सिकाउन र खेलाउन सकिन्‍छ।"
    },
    "prerequisites_content": {
      "paragraph": {
        "en": "    ",
        "np": " यो पाठ सुरु गर्नुअघि विद्यार्थीहरूले सामान्‍य निर्देशनहरू बुझ्न सक्‍ने हुनुपर्छ। "
      },
      "chapter_links": {}
    },
    "lesson_guidelines_content": {
      "en": {
        "paragraph": "",
        "list": []
      },
      "np": {
        "paragraph": "यो ई-पाठ नेपाली भाषाकै सबैभन्‍दा आधारभूत अबधारणा भएकोले शिक्षकले प्रत्येक विद्यार्थीहरूलाई पालैपालो पाठको पहिलो भाग देखि अभ्‍यास गराउनु पर्छ। सुरुमा वर्णहरू चिन्‍नको लागि मात्र प्रोत्साहन गर्नुपर्छ त्यसपछि, विस्तारै लेख्‍न सिकाउनु पर्छ। प्रत्येक भागहरूमा एउटा एउटा अक्षरलाई चिनाइएको छ। ",
        "list": []
      }
    },
    "related_activities_content": {
      "en": {
        "paragraph": "",
        "list": ["     ", ""]
      },
      "np": {
        "paragraph": "",
        "list": [
          "शिक्षकले विद्यार्थीहरूलाई धेरै पटक ई-पाठबाट अभ्‍यास गराइसकेपछि कापीमा लेख्‍न सहयोग गर्नुपर्छ।    ",
          "विद्यार्थीहरूलाई उनीहरूले जानेको, सुनेको शब्‍दहरू पालैपालो सोधेर, त्यो कुन अक्षरबाट सुरु भएको छ छलफल गर्न सकिन्‍छ।",
          "च देखि ञ सम्मको अक्षरहरू मिलाएर गीतको रूपमा गाउन लगाउन सकिन्‍छ।"
        ]
      }
    },
    "evaluation_content": {
      "en": {
        "paragraph": " ",
        "list": ["", ""]
      },
      "np": {
        "paragraph": " ",
        "list": ["", ""]
      }
    }
  },
  "ddc": {
    "lesson_name": "ट-ण चिन           ",
    "about_the_lesson_content": {
      "en": " ",
      "np": "भाषाको सबैभन्दा सानो एकाइलाई वर्ण भनिन्‍छ अर्थात वर्ण भाषा सिकाइको मूख्‍य आधार हो। शुद्ध उच्चारण र शुद्ध लेखन गर्न वर्णको पहिचानबाट सहयोग पुग्दछ। यो ई-पाठमा नेपाली भाषाकै सबैभन्‍दा आधारभूत अबधारणा वर्णहरू (ट देखि ण) र तिनीहरूबाट सुरु हुने शब्‍दहरू चिनाइएको छ। "
    },
    "curricular_requirement_content": {
      "en": "  ",
      "np": "“ट-ण चिन” पाठ विद्यार्थीहरूको आवश्‍यकता अनुसार समय दिएर सिकाउन र खेलाउन सकिन्‍छ।"
    },
    "prerequisites_content": {
      "paragraph": {
        "en": "    ",
        "np": " यो पाठ सुरु गर्नुअघि विद्यार्थीहरूले सामान्‍य निर्देशनहरू बुझ्न सक्‍ने हुनुपर्छ। "
      },
      "chapter_links": {}
    },
    "lesson_guidelines_content": {
      "en": {
        "paragraph": "",
        "list": []
      },
      "np": {
        "paragraph": "यो ई-पाठ नेपाली भाषाकै सबैभन्‍दा आधारभूत अबधारणा भएकोले शिक्षकले प्रत्येक विद्यार्थीहरूलाई पालैपालो पाठको पहिलो भाग देखि अभ्‍यास गराउनु पर्छ। सुरुमा वर्णहरू चिन्‍नको लागि मात्र प्रोत्साहन गर्नुपर्छ त्यसपछि, विस्तारै लेख्‍न सिकाउनु पर्छ। प्रत्येक भागहरूमा एउटा एउटा अक्षरलाई चिनाइएको छ। ",
        "list": []
      }
    },
    "related_activities_content": {
      "en": {
        "paragraph": "",
        "list": ["     ", ""]
      },
      "np": {
        "paragraph": "",
        "list": [
          "शिक्षकले विद्यार्थीहरूलाई धेरै पटक ई-पाठबाट अभ्‍यास गराइसकेपछि कापीमा लेख्‍न सहयोग गर्नुपर्छ।    ",
          "विद्यार्थीहरूलाई उनीहरूले जानेको, सुनेको शब्‍दहरू पालैपालो सोधेर, त्यो कुन अक्षरबाट सुरु भएको छ छलफल गर्न सकिन्‍छ।",
          "ट देखि ण सम्मको अक्षरहरू मिलाएर गीतको रूपमा गाउन लगाउन सकिन्‍छ।"
        ]
      }
    },
    "evaluation_content": {
      "en": {
        "paragraph": " ",
        "list": ["", ""]
      },
      "np": {
        "paragraph": " ",
        "list": ["", ""]
      }
    }
  },
  "nrc": {
    "lesson_name": "त-न चिन           ",
    "about_the_lesson_content": {
      "en": " ",
      "np": "भाषाको सबैभन्दा सानो एकाइलाई वर्ण भनिन्‍छ अर्थात वर्ण भाषा सिकाइको मूख्‍य आधार हो। शुद्ध उच्चारण र शुद्ध लेखन गर्न वर्णको पहिचानबाट सहयोग पुग्दछ। यो ई-पाठमा नेपाली भाषाकै सबैभन्‍दा आधारभूत अबधारणा वर्णहरू (त देखि न) र तिनीहरूबाट सुरु हुने शब्‍दहरू चिनाइएको छ। "
    },
    "curricular_requirement_content": {
      "en": "  ",
      "np": "“त-न चिन” पाठ विद्यार्थीहरूको आवश्‍यकता अनुसार समय दिएर सिकाउन र खेलाउन सकिन्‍छ।"
    },
    "prerequisites_content": {
      "paragraph": {
        "en": "    ",
        "np": " यो पाठ सुरु गर्नुअघि विद्यार्थीहरूले सामान्‍य निर्देशनहरू बुझ्न सक्‍ने हुनुपर्छ। "
      },
      "chapter_links": {}
    },
    "lesson_guidelines_content": {
      "en": {
        "paragraph": "",
        "list": []
      },
      "np": {
        "paragraph": "यो ई-पाठ नेपाली भाषाकै सबैभन्‍दा आधारभूत अबधारणा भएकोले शिक्षकले प्रत्येक विद्यार्थीहरूलाई पालैपालो पाठको पहिलो भाग देखि अभ्‍यास गराउनु पर्छ। सुरुमा वर्णहरू चिन्‍नको लागि मात्र प्रोत्साहन गर्नुपर्छ त्यसपछि, विस्तारै लेख्‍न सिकाउनु पर्छ। प्रत्येक भागहरूमा एउटा एउटा अक्षरलाई चिनाइएको छ। ",
        "list": []
      }
    },
    "related_activities_content": {
      "en": {
        "paragraph": "",
        "list": ["     ", ""]
      },
      "np": {
        "paragraph": "",
        "list": [
          "शिक्षकले विद्यार्थीहरूलाई धेरै पटक ई-पाठबाट अभ्‍यास गराइसकेपछि कापीमा लेख्‍न सहयोग गर्नुपर्छ।    ",
          "विद्यार्थीहरूलाई उनीहरूले जानेको, सुनेको शब्‍दहरू पालैपालो सोधेर, त्यो कुन अक्षरबाट सुरु भएको छ छलफल गर्न सकिन्‍छ।",
          "त देखि न सम्मको अक्षरहरू मिलाएर गीतको रूपमा गाउन लगाउन सकिन्‍छ।"
        ]
      }
    },
    "evaluation_content": {
      "en": {
        "paragraph": " ",
        "list": ["", ""]
      },
      "np": {
        "paragraph": " ",
        "list": ["", ""]
      }
    }
  },
  "sgc": {
    "lesson_name": "प-म चिन           ",
    "about_the_lesson_content": {
      "en": " ",
      "np": "भाषाको सबैभन्दा सानो एकाइलाई वर्ण भनिन्‍छ अर्थात वर्ण भाषा सिकाइको मूख्‍य आधार हो। शुद्ध उच्चारण र शुद्ध लेखन गर्न वर्णको पहिचानबाट सहयोग पुग्दछ। यो ई-पाठमा नेपाली भाषाकै सबैभन्‍दा आधारभूत अबधारणा वर्णहरू (प देखि म) र तिनीहरूबाट सुरु हुने शब्‍दहरू चिनाइएको छ। "
    },
    "curricular_requirement_content": {
      "en": "  ",
      "np": "“प-म चिन” पाठ विद्यार्थीहरूको आवश्‍यकता अनुसार समय दिएर सिकाउन र खेलाउन सकिन्‍छ।"
    },
    "prerequisites_content": {
      "paragraph": {
        "en": "    ",
        "np": " यो पाठ सुरु गर्नुअघि विद्यार्थीहरूले सामान्‍य निर्देशनहरू बुझ्न सक्‍ने हुनुपर्छ। "
      },
      "chapter_links": {}
    },
    "lesson_guidelines_content": {
      "en": {
        "paragraph": "",
        "list": []
      },
      "np": {
        "paragraph": "यो ई-पाठ नेपाली भाषाकै सबैभन्‍दा आधारभूत अबधारणा भएकोले शिक्षकले प्रत्येक विद्यार्थीहरूलाई पालैपालो पाठको पहिलो भाग देखि अभ्‍यास गराउनु पर्छ। सुरुमा वर्णहरू चिन्‍नको लागि मात्र प्रोत्साहन गर्नुपर्छ त्यसपछि, विस्तारै लेख्‍न सिकाउनु पर्छ। प्रत्येक भागहरूमा एउटा एउटा अक्षरलाई चिनाइएको छ। ",
        "list": []
      }
    },
    "related_activities_content": {
      "en": {
        "paragraph": "",
        "list": ["     ", ""]
      },
      "np": {
        "paragraph": "",
        "list": [
          "शिक्षकले विद्यार्थीहरूलाई धेरै पटक ई-पाठबाट अभ्‍यास गराइसकेपछि कापीमा लेख्‍न सहयोग गर्नुपर्छ।    ",
          "विद्यार्थीहरूलाई उनीहरूले जानेको, सुनेको शब्‍दहरू पालैपालो सोधेर, त्यो कुन अक्षरबाट सुरु भएको छ छलफल गर्न सकिन्‍छ।",
          "प देखि म सम्मको अक्षरहरू मिलाएर गीतको रूपमा गाउन लगाउन सकिन्‍छ।"
        ]
      }
    },
    "evaluation_content": {
      "en": {
        "paragraph": " ",
        "list": ["", ""]
      },
      "np": {
        "paragraph": " ",
        "list": ["", ""]
      }
    }
  },
  "ygc": {
    "lesson_name": "य-व चिन           ",
    "about_the_lesson_content": {
      "en": " ",
      "np": "भाषाको सबैभन्दा सानो एकाइलाई वर्ण भनिन्‍छ अर्थात वर्ण भाषा सिकाइको मूख्‍य आधार हो। शुद्ध उच्चारण र शुद्ध लेखन गर्न वर्णको पहिचानबाट सहयोग पुग्दछ। यो ई-पाठमा नेपाली भाषाकै सबैभन्‍दा आधारभूत अबधारणा वर्णहरू (य देखि व) र तिनीहरूबाट सुरु हुने शब्‍दहरू चिनाइएको छ। "
    },
    "curricular_requirement_content": {
      "en": "  ",
      "np": "“य-व चिन” पाठ विद्यार्थीहरूको आवश्‍यकता अनुसार समय दिएर सिकाउन र खेलाउन सकिन्‍छ।"
    },
    "prerequisites_content": {
      "paragraph": {
        "en": "    ",
        "np": " यो पाठ सुरु गर्नुअघि विद्यार्थीहरूले सामान्‍य निर्देशनहरू बुझ्न सक्‍ने हुनुपर्छ। "
      },
      "chapter_links": {}
    },
    "lesson_guidelines_content": {
      "en": {
        "paragraph": "",
        "list": []
      },
      "np": {
        "paragraph": "यो ई-पाठ नेपाली भाषाकै सबैभन्‍दा आधारभूत अबधारणा भएकोले शिक्षकले प्रत्येक विद्यार्थीहरूलाई पालैपालो पाठको पहिलो भाग देखि अभ्‍यास गराउनु पर्छ। सुरुमा वर्णहरू चिन्‍नको लागि मात्र प्रोत्साहन गर्नुपर्छ त्यसपछि, विस्तारै लेख्‍न सिकाउनु पर्छ। प्रत्येक भागहरूमा एउटा एउटा अक्षरलाई चिनाइएको छ। ",
        "list": []
      }
    },
    "related_activities_content": {
      "en": {
        "paragraph": "",
        "list": ["     ", ""]
      },
      "np": {
        "paragraph": "",
        "list": [
          "शिक्षकले विद्यार्थीहरूलाई धेरै पटक ई-पाठबाट अभ्‍यास गराइसकेपछि कापीमा लेख्‍न सहयोग गर्नुपर्छ।    ",
          "विद्यार्थीहरूलाई उनीहरूले जानेको, सुनेको शब्‍दहरू पालैपालो सोधेर, त्यो कुन अक्षरबाट सुरु भएको छ छलफल गर्न सकिन्‍छ।",
          "य देखि व सम्मको अक्षरहरू मिलाएर गीतको रूपमा गाउन लगाउन सकिन्‍छ।"
        ]
      }
    },
    "evaluation_content": {
      "en": {
        "paragraph": " ",
        "list": ["", ""]
      },
      "np": {
        "paragraph": " ",
        "list": ["", ""]
      }
    }
  },
  "sgy": {
    "lesson_name": "श-ज्ञ चिन           ",
    "about_the_lesson_content": {
      "en": " ",
      "np": "भाषाको सबैभन्दा सानो एकाइलाई वर्ण भनिन्‍छ अर्थात वर्ण भाषा सिकाइको मूख्‍य आधार हो। शुद्ध उच्चारण र शुद्ध लेखन गर्न वर्णको पहिचानबाट सहयोग पुग्दछ। यो ई-पाठमा नेपाली भाषाकै सबैभन्‍दा आधारभूत अबधारणा वर्णहरू (श देखि ज्ञ) र तिनीहरूबाट सुरु हुने शब्‍दहरू चिनाइएको छ। "
    },
    "curricular_requirement_content": {
      "en": "  ",
      "np": "“श-ज्ञ चिन” पाठ विद्यार्थीहरूको आवश्‍यकता अनुसार समय दिएर सिकाउन र खेलाउन सकिन्‍छ।"
    },
    "prerequisites_content": {
      "paragraph": {
        "en": "    ",
        "np": " यो पाठ सुरु गर्नुअघि विद्यार्थीहरूले सामान्‍य निर्देशनहरू बुझ्न सक्‍ने हुनुपर्छ। "
      },
      "chapter_links": {}
    },
    "lesson_guidelines_content": {
      "en": {
        "paragraph": "",
        "list": []
      },
      "np": {
        "paragraph": "यो ई-पाठ नेपाली भाषाकै सबैभन्‍दा आधारभूत अबधारणा भएकोले शिक्षकले प्रत्येक विद्यार्थीहरूलाई पालैपालो पाठको पहिलो भाग देखि अभ्‍यास गराउनु पर्छ। सुरुमा वर्णहरू चिन्‍नको लागि मात्र प्रोत्साहन गर्नुपर्छ त्यसपछि, विस्तारै लेख्‍न सिकाउनु पर्छ। प्रत्येक भागहरूमा एउटा एउटा अक्षरलाई चिनाइएको छ। ",
        "list": []
      }
    },
    "related_activities_content": {
      "en": {
        "paragraph": "",
        "list": ["     ", ""]
      },
      "np": {
        "paragraph": "",
        "list": [
          "शिक्षकले विद्यार्थीहरूलाई धेरै पटक ई-पाठबाट अभ्‍यास गराइसकेपछि कापीमा लेख्‍न सहयोग गर्नुपर्छ।    ",
          "विद्यार्थीहरूलाई उनीहरूले जानेको, सुनेको शब्‍दहरू पालैपालो सोधेर, त्यो कुन अक्षरबाट सुरु भएको छ छलफल गर्न सकिन्‍छ।",
          "श देखि ज्ञ सम्मको अक्षरहरू मिलाएर गीतको रूपमा गाउन लगाउन सकिन्‍छ।"
        ]
      }
    },
    "evaluation_content": {
      "en": {
        "paragraph": " ",
        "list": ["", ""]
      },
      "np": {
        "paragraph": " ",
        "list": ["", ""]
      }
    }
  },
  "mga": {
    "lesson_name": "मेरो घर आँगन           ",
    "about_the_lesson_content": {
      "en": " ",
      "np": "वर्णहरूको संयोजनबाट शब्‍दहरू बन्‍छन्। वाक्‍य वा अनुच्‍छेद लेख्‍न, बोल्‍न वा पढ्‍न धेरै भन्‍दा धेरै शब्‍दहरू जान्‍नुपर्ने हुन्‍छ। त्यसैले यो यस ई-पाठमा विद्यार्थीहरूलाई सबैको घरको सेरेफेरोमा हुने सामान, वस्तु तथा जनावरहरूको केही नामहरू सिकाउने प्रयास गरिएको छ।  "
    },
    "curricular_requirement_content": {
      "en": "  ",
      "np": "“मेरो घर आँगन” पाठ विद्यार्थीहरूको आवश्‍यकता अनुसार समय दिएर सिकाउन र खेलाउन सकिन्‍छ।"
    },
    "prerequisites_content": {
      "paragraph": {
        "en": "    ",
        "np": "यो पाठ सुरु गर्नुअघि विद्यार्थीहरूले सामान्‍य निर्देशनहरू बुझ्न सक्‍ने हुनुपर्छ। \n "
      },
      "chapter_links": {}
    },
    "lesson_guidelines_content": {
      "en": {
        "paragraph": "",
        "list": []
      },
      "np": {
        "paragraph": "यस ई-पाठमा विद्यार्थीहरूलाई प्रत्यक्ष सहभागी गराएर खेलाउँदै सिकाउने प्रयास गरिएको छ। यहाँ शिक्षकले विद्यार्थीहरूलाई दिइएका निर्देशनहरू पालना गर्न सहयोग गर्न सक्‍छन्।  भाषाको चार महत्तवपूर्ण क्षेत्रहरू मध्ये: सुनाइ, बोलाइ र पढाइलाई सँगसँगै अगाडि लैजाने प्रयास गरिएको छ। पहिलो भागमा वस्तुहरू हेरेर क्‍लिक गर्दै तिनीहरूको नाम सिकाइएको छ भने दोस्रो भागमा नामहरू पढ्ने सुन्‍ने अनि कुन वस्तु हो चिनेर क्‍लिक गर्न लगाइएको छ। खेलौँ भागमा निकै रमाइलो खेल समावेश छ जसको मदतले विद्यार्थीहरूलाई प्रयोगमा आएका शब्‍दहरू लामो समयसम्‍म सम्झिरहन सहयोग पुग्‍छ।",
        "list": []
      }
    },
    "related_activities_content": {
      "en": {
        "paragraph": "",
        "list": ["     ", ""]
      },
      "np": {
        "paragraph": "",
        "list": [
          "शिक्षकले दिइएको सिकौँ र खेलौँ दुवै भागमा अन्‍य शब्‍दहरू पनि प्रयोग गरेर थप शब्‍दहरूको ज्ञान दिन सक्‍छन्।  ",
          "विद्यार्थीहरूलाई उनीहरूको सेरेफेरोमा भएका वस्तुहरूको चित्र बनाउन लगाएर थाहा भएका वस्तुहरूको नामाकरण गर्न लगाउने र थाहा नभएका वस्तुहरूको नाम शिक्षकले सिकाउन सक्‍छन्।",
          "विद्यार्थीहरूको दुई समूह बनाएर शब्‍दहरूको अन्‍ताक्षरी खेल खेलाउन सकिन्‍छ। ",
          "विद्यार्थीहरूले जानेको, सुनेको शब्‍दहरू पालैपालो सोधेर अरूसँग पनि छलफल गर्न सकिन्‍छ।"
        ]
      }
    },
    "evaluation_content": {
      "en": {
        "paragraph": " ",
        "list": ["", ""]
      },
      "np": {
        "paragraph": " ",
        "list": ["", ""]
      }
    }
  },
  "aar": {
    "lesson_name": "आधा अक्षर         ",
    "about_the_lesson_content": {
      "en": " ",
      "np": " नेपाली भाषामा धेरै शब्दहरूमा आधा अक्षरहरू प्रयोग हुने गरेका छन्। सुरुमा यस्ता शब्‍दहरू पढ्‍न र लेख्‍न केही गाह्रो भएतापनि निरन्‍तरको अभ्‍यासले सजिलै लेख्‍न र पढ्‍न सकिन्‍छ। यो ई-पाठमा यस्तै जोडेमोडेका वर्णहरूवाट बनेका भन्‍टा, भकुण्‍डो, स्याउ, चप्पल जस्ता शब्दहरूको उच्‍चारण गर्न र लेख्‍न सिकाइएको छ। "
    },
    "curricular_requirement_content": {
      "en": "  ",
      "np": "“आधा अक्षर” पाठ विद्यार्थीहरूको आवश्‍यकता अनुसार समय दिएर सिकाउन र खेलाउन सकिन्‍छ। "
    },
    "prerequisites_content": {
      "paragraph": {
        "en": "    ",
        "np": "यो पाठ सुरु गर्नुअघि विद्यार्थीहरूले आधा अक्षरहरू प्रयोग नभएका शब्‍दहरू शुद्ध उच्‍चारण गर्न र लेख्‍न सक्‍नुपर्छ। विद्यार्थीहरूले यो ई-पाठ सुरु गर्नुअघि एकपटक तलको ई-पाठको समिक्षा गर्दा फलदायी हुन्‍छ।"
      },
      "chapter_links": {
        "chapter_link_data1": {
          "grade": "1",
          "id": "mga",
          "breadcrumb_data": {
            "en": "",
            "np": "कक्षा 1 ➔ मेरो घर आँगन"
          }
        }
      }
    },
    "lesson_guidelines_content": {
      "en": {
        "paragraph": "",
        "list": []
      },
      "np": {
        "paragraph": "यस ई-पाठमा विद्यार्थीहरूलाई प्रत्यक्ष सहभागी गराएर खेलाउँदै सिकाउने प्रयास गरिएको छ। यहाँ शिक्षकले विद्यार्थीहरूलाई दिइएका निर्देशनहरू पालना गर्न सहयोग गर्न सक्‍छन्।  भाषाको चार महत्तवपूर्ण क्षेत्रहरू मध्ये: सुनाइ, बोलाइ र पढाइलाई सँगसँगै अगाडि लैजाने प्रयास गरिएको छ। पहिलो र दोस्रो भागमा वस्तुहरू हेरेर तिनीहरूको उच्‍चारण सुनाइएको छ साथै आधा अक्षरहरूपनि चिनाउँदै लगिएको छ। त्यस्तै तेस्रो र चौथो भागमा चित्र हेरेर शुद्ध नाममा क्‍लिक गर्न सिकाइएको छ।",
        "list": []
      }
    },
    "related_activities_content": {
      "en": {
        "paragraph": "",
        "list": ["     ", ""]
      },
      "np": {
        "paragraph": "",
        "list": [
          "शिक्षकले दिइएको सिकौँ र खेलौँमा जस्तै विभिन्‍न चित्रहरू देखाएर तिनीहरूको नाम सोध्‍न सक्‍छन्। तर त्यस्ता नामहरूमा आधा अक्षर प्रयोग भएको र हुनुपर्छ।  ",
          "विद्यार्थीहरूलाई उनीहरूको सेरेफेरोमा भएका वस्तुहरूको चित्र बनाउन लगाएर थाहा भएका वस्तुहरूको नामाकरण गर्न लगाउने र थाहा नभएका वस्तुहरूको नाम शिक्षकले सिकाउन सक्‍छन्।",
          "विद्यार्थीहरूको दुई समूह बनाएर शब्‍दहरूको अन्‍ताक्षरी खेल खेलाउन सकिन्‍छ। ",
          "विद्यार्थीहरूले जानेको, सुनेको शब्‍दहरू पालैपालो सोधेर अरूसँग पनि छलफल गर्न सकिन्‍छ।"
        ]
      }
    },
    "evaluation_content": {
      "en": {
        "paragraph": " ",
        "list": ["", ""]
      },
      "np": {
        "paragraph": " ",
        "list": ["", ""]
      }
    }
  },
  "ppg": {
    "lesson_name": "छुकछुके रेल",
    "about_the_lesson_content": {
      "en": "पूर्णविराम चिह्‍नको काम वाक्यलाई पूरा गर्नु हो। यो ई-पाठमा वाक्य पूरा भएपछि अन्‍तमा पूर्णविराम चिह्‍न राख्‍नुपर्छ भन्‍ने कुरा सिकाउन खोजिएको छ।",
      "np": "पूर्णविराम चिह्‍नको काम वाक्यलाई पूरा गर्नु हो। यो ई-पाठमा वाक्य पूरा भएपछि अन्‍तमा पूर्णविराम चिह्‍न राख्‍नुपर्छ भन्‍ने कुरा सिकाउन खोजिएको छ।"
    },
    "curricular_requirement_content": {
      "en": "“छुकछुके रेल” पाठ विद्यार्थीहरूको आवश्‍यकता अनुसार समय दिएर सिकाउन र खेलाउन सकिन्‍छ। ",
      "np": "“छुकछुके रेल” पाठ विद्यार्थीहरूको आवश्‍यकता अनुसार समय दिएर सिकाउन र खेलाउन सकिन्‍छ। "
    },
    "prerequisites_content": {
      "paragraph": {
        "en": "यो पाठ सुरु गर्नुअघि विद्यार्थीहरूले वाक्यहरू चिन्‍न सक्‍नुपर्छ।",
        "np": "यो पाठ सुरु गर्नुअघि विद्यार्थीहरूले वाक्यहरू चिन्‍न सक्‍नुपर्छ।"
      },
      "chapter_links": {}
    },
    "lesson_guidelines_content": {
      "en": {
        "paragraph": "यो ई-पाठ छोटो र रमाइलो बनाइएको छ। शिक्षकले पाठ सुरु गर्नुअघि वाक्‍यहरूको उदाहरण दिएर विद्यार्थीहरूलाई सजिलो बनाइदिन सक्‍छन्। यसको सिकौँ भागमा पूर्णविराम चिह्‍नको परिचय र यो कहाँ प्रयोग गर्ने भन्‍ने कुरा सरल रूपमा सिकाइएको छ। खेलौँ भागमा वाक्‍यमा पूर्णविराम चिह्‍नको सही प्रयोग भए नभएको सिकाउन खोजिएको छ।",
        "list": []
      },
      "np": {
        "paragraph": "यो ई-पाठ छोटो र रमाइलो बनाइएको छ। शिक्षकले पाठ सुरु गर्नुअघि वाक्‍यहरूको उदाहरण दिएर विद्यार्थीहरूलाई सजिलो बनाइदिन सक्‍छन्। यसको सिकौँ भागमा पूर्णविराम चिह्‍नको परिचय र यो कहाँ प्रयोग गर्ने भन्‍ने कुरा सरल रूपमा सिकाइएको छ। खेलौँ भागमा वाक्‍यमा पूर्णविराम चिह्‍नको सही प्रयोग भए नभएको सिकाउन खोजिएको छ।",
        "list": []
      }
    },
    "related_activities_content": {
      "en": {
        "paragraph": "",
        "list": [
          "पाठमा जस्तै धेरै वाक्‍यहरू दिएर पूर्णविराम चिह्‍नको प्रयोग गर्न लगाउन सकिन्‍छ।",
          "विद्यार्थीहरूलाई विभिन्‍न वाक्‍य भन्‍न लगाएर त्यस वाक्‍यको कहाँ पूर्णविराम चिह्‍नको प्रयोग गरिन्‍छ सोध्‍न सकिन्‍छ।"
        ]
      },
      "np": {
        "paragraph": "",
        "list": [
          "पाठमा जस्तै धेरै वाक्‍यहरू दिएर पूर्णविराम चिह्‍नको प्रयोग गर्न लगाउन सकिन्‍छ।",
          "विद्यार्थीहरूलाई विभिन्‍न वाक्‍य भन्‍न लगाएर त्यस वाक्‍यको कहाँ पूर्णविराम चिह्‍नको प्रयोग गरिन्‍छ सोध्‍न सकिन्‍छ।"
        ]
      }
    },
    "evaluation_content": {
      "en": {
        "paragraph": " ",
        "list": ["", ""]
      },
      "np": {
        "paragraph": " ",
        "list": ["", ""]
      }
    }
  },
  "skg": {
    "lesson_name": "सीताको घर",
    "about_the_lesson_content": {
      "en": "यो ई-पाठमा सीताको घर मार्फत चन्द्रबिन्दु लागेका शब्दहरूको शुद्ध उच्‍चारण गर्न सिकाइएको छ।",
      "np": "यो ई-पाठमा सीताको घर मार्फत चन्द्रबिन्दु लागेका शब्दहरूको शुद्ध उच्‍चारण गर्न सिकाइएको छ।"
    },
    "curricular_requirement_content": {
      "en": "“सीताको घर” पाठ विद्यार्थीहरूको आवश्‍यकता अनुसार समय दिएर सिकाउन र खेलाउन सकिन्‍छ। ",
      "np": "“सीताको घर” पाठ विद्यार्थीहरूको आवश्‍यकता अनुसार समय दिएर सिकाउन र खेलाउन सकिन्‍छ। "
    },
    "prerequisites_content": {
      "paragraph": {
        "en": "यो पाठ सुरु गर्नुअघि विद्यार्थीहरूले वाक्यहरू चिन्‍न सक्‍नुपर्छ।",
        "np": "यो पाठ सुरु गर्नुअघि विद्यार्थीहरूले वाक्यहरू चिन्‍न सक्‍नुपर्छ।"
      },
      "chapter_links": {
        "chapter_link_data1": {
          "grade": "1",
          "id": "mga",
          "breadcrumb_data": {
            "en": " कक्षा १  ➔ मेरो घर आँगन",
            "np": " कक्षा १  ➔ मेरो घर आँगन"
          }
        }
      }
    },
    "lesson_guidelines_content": {
      "en": {
        "paragraph": "यस ई-पाठमा सीताको घरको वर्णन गरिएको छ। यहाँ विभिन्‍न चन्द्रबिन्दु लागेका शब्दहरू जस्तै: यहाँ, गलैँचा, पिँढीमा, चाँदी, सँधै, दिउँसो, बगैँचा आदि शब्‍दहरूको शुद्ध उच्‍चारण गर्न सिकाइएको छ। शिक्षकले विद्यार्थीहरूलाई यस्ता शब्‍दहरू उच्‍चारण गर्ने तरिकाहरू प्रत्यक्ष देखाउन सकिन्‍छ। विद्यार्थीहरूले वाक्‍यमा प्रयोग भएका यस्ता शब्‍दहरूमा कहाँ कहाँ चन्द्रबिन्दु लागेको छ याद गर्न सक्‍छन्।  ",
        "list": []
      },
      "np": {
        "paragraph": "यस ई-पाठमा सीताको घरको वर्णन गरिएको छ। यहाँ विभिन्‍न चन्द्रबिन्दु लागेका शब्दहरू जस्तै: यहाँ, गलैँचा, पिँढीमा, चाँदी, सँधै, दिउँसो, बगैँचा आदि शब्‍दहरूको शुद्ध उच्‍चारण गर्न सिकाइएको छ। शिक्षकले विद्यार्थीहरूलाई यस्ता शब्‍दहरू उच्‍चारण गर्ने तरिकाहरू प्रत्यक्ष देखाउन सकिन्‍छ। विद्यार्थीहरूले वाक्‍यमा प्रयोग भएका यस्ता शब्‍दहरूमा कहाँ कहाँ चन्द्रबिन्दु लागेको छ याद गर्न सक्‍छन्।  ",
        "list": []
      }
    },
    "related_activities_content": {
      "en": {
        "paragraph": "",
        "list": [
          "पाठमा जस्तै यस्ता धेरै शब्‍दहरू दिएर उच्‍चारण गर्न लगाउन सकिन्‍छ।",
          "विद्यार्थीहरूलाई चन्द्रबिन्दु लागेका शब्दहरू लेख्‍न लगाउन सकिन्‍छ।",
          "विद्यार्थीहरूले जानेको, सुनेको यस्ता शब्‍दहरू पालैपालो सोधेर अरूसँग पनि छलफल गर्न सकिन्‍छ।"
        ]
      },
      "np": {
        "paragraph": "",
        "list": [
          "पाठमा जस्तै यस्ता धेरै शब्‍दहरू दिएर उच्‍चारण गर्न लगाउन सकिन्‍छ।",
          "विद्यार्थीहरूलाई चन्द्रबिन्दु लागेका शब्दहरू लेख्‍न लगाउन सकिन्‍छ।",
          "विद्यार्थीहरूले जानेको, सुनेको यस्ता शब्‍दहरू पालैपालो सोधेर अरूसँग पनि छलफल गर्न सकिन्‍छ।"
        ]
      }
    },
    "evaluation_content": {
      "en": {
        "paragraph": " ",
        "list": ["", ""]
      },
      "np": {
        "paragraph": " ",
        "list": ["", ""]
      }
    }
  },
  "kur": {
    "lesson_name": "कुराकानी",
    "about_the_lesson_content": {
      "en": "यो ई-पाठमा विद्यार्थीहरूलाई सामान्‍य कुराकानी गर्न सिकाइएको छ। आफ्नो बारेमा सोधिएका सामान्‍य प्रश्‍नहरूको उत्तर कसरी दिने भन्‍ने कुरा सिकाउनको लागि यहाँ विभिन्‍न क्रियाकलापहरू गरिएको छ।",
      "np": "यो ई-पाठमा विद्यार्थीहरूलाई सामान्‍य कुराकानी गर्न सिकाइएको छ। आफ्नो बारेमा सोधिएका सामान्‍य प्रश्‍नहरूको उत्तर कसरी दिने भन्‍ने कुरा सिकाउनको लागि यहाँ विभिन्‍न क्रियाकलापहरू गरिएको छ।"
    },
    "curricular_requirement_content": {
      "en": "“कुराकानी” पाठ विद्यार्थीहरूको आवश्‍यकता अनुसार समय दिएर सिकाउन र खेलाउन सकिन्‍छ। ",
      "np": "“कुराकानी” पाठ विद्यार्थीहरूको आवश्‍यकता अनुसार समय दिएर सिकाउन र खेलाउन सकिन्‍छ। "
    },
    "prerequisites_content": {
      "paragraph": {
        "en": "यो पाठ सुरु गर्नुअघि विद्यार्थीहरूले विशेष केही जान्‍नुपर्ने देखिँदैन।",
        "np": "यो पाठ सुरु गर्नुअघि विद्यार्थीहरूले विशेष केही जान्‍नुपर्ने देखिँदैन।"
      },
      "chapter_links": {}
    },
    "lesson_guidelines_content": {
      "en": {
        "paragraph": "ई-पाठको पहिलो भाग हेर्न, सुन्‍न र बोल्‍न लगाएर सुरु गर्न सकिन्‍छ। सबै भागहरूमा कुराकानी गर्न सिकाइएकोले सबै विद्यार्थीहरू सहभागी भए नभएको अबलोकन गर्न सकिन्‍छ। धेरै अभ्‍यासले बोल्‍ने बानीको विकास हुने भएकोले विद्यार्थीहरूलाई धेरै भन्‍दा धेरै प्रश्‍नहरू सोध्‍न सकिन्‍छ। ",
        "list": []
      },
      "np": {
        "paragraph": "ई-पाठको पहिलो भाग हेर्न, सुन्‍न र बोल्‍न लगाएर सुरु गर्न सकिन्‍छ। सबै भागहरूमा कुराकानी गर्न सिकाइएकोले सबै विद्यार्थीहरू सहभागी भए नभएको अबलोकन गर्न सकिन्‍छ। धेरै अभ्‍यासले बोल्‍ने बानीको विकास हुने भएकोले विद्यार्थीहरूलाई धेरै भन्‍दा धेरै प्रश्‍नहरू सोध्‍न सकिन्‍छ। ",
        "list": []
      }
    },
    "related_activities_content": {
      "en": {
        "paragraph": "",
        "list": [
          "सिकौँका तीनओटै भागहरू पढेपछि दुई दुई जना विद्यार्थीहरूको जोडी बनाएर कुराकानी गर्न लगाउन सकिन्‍छ।",
          "पाठमा भएका पात्रहरूको अभिनय गरेर देखाउन लगाउन सकिन्‍छ।",
          "साथै यो पाठको समय भन्‍दा अन्‍य दिनहरूमा पनि अनौपचारिक रूपमा दैनिक: तिमीलाई कस्तो रङ मन पर्छ? तिमी के गर्दैछौ? जस्ता प्रश्‍नहरू सोधेर कुराकानी गर्न उत्सुक बनाउन सकिन्‍छ।"
        ]
      },
      "np": {
        "paragraph": "",
        "list": [
          "सिकौँका तीनओटै भागहरू पढेपछि दुई दुई जना विद्यार्थीहरूको जोडी बनाएर कुराकानी गर्न लगाउन सकिन्‍छ।",
          "पाठमा भएका पात्रहरूको अभिनय गरेर देखाउन लगाउन सकिन्‍छ।",
          "साथै यो पाठको समय भन्‍दा अन्‍य दिनहरूमा पनि अनौपचारिक रूपमा दैनिक: तिमीलाई कस्तो रङ मन पर्छ? तिमी के गर्दैछौ? जस्ता प्रश्‍नहरू सोधेर कुराकानी गर्न उत्सुक बनाउन सकिन्‍छ।"
        ]
      }
    },
    "evaluation_content": {
      "en": {
        "paragraph": " ",
        "list": ["", ""]
      },
      "np": {
        "paragraph": " ",
        "list": ["", ""]
      }
    }
  },
  "mka": {
    "lesson_name": "मेरो काम",
    "about_the_lesson_content": {
      "en": "कक्षा १ मा पढ्‍न आएका विद्यार्थीहरू भर्खर घरपरिवारको वातावरण छोडेर विद्यालयको वातावरणमा आएका हुन्‍छन्। उनीहरूलाई यो वातावरण नौलो र अनौठो लागेको हुन्‍छ। कतिपय विद्यार्थीहरू रमाएका हुन सक्‍छन् भने कतिपय डराएका पनि हुन सक्‍छन्। यो ई-पाठले विद्यार्थीहरूलाई विद्यालयको वातावरण रमाइलो बनाउन सहयोग गर्छ। यहाँ विद्यालयको पहिलो दिनको अनुभव निकै रमाइलो तरिकाले प्रस्तुत गरिएको छ।   ",
      "np": "कक्षा १ मा पढ्‍न आएका विद्यार्थीहरू भर्खर घरपरिवारको वातावरण छोडेर विद्यालयको वातावरणमा आएका हुन्‍छन्। उनीहरूलाई यो वातावरण नौलो र अनौठो लागेको हुन्‍छ। कतिपय विद्यार्थीहरू रमाएका हुन सक्‍छन् भने कतिपय डराएका पनि हुन सक्‍छन्। यो ई-पाठले विद्यार्थीहरूलाई विद्यालयको वातावरण रमाइलो बनाउन सहयोग गर्छ। यहाँ विद्यालयको पहिलो दिनको अनुभव निकै रमाइलो तरिकाले प्रस्तुत गरिएको छ।   "
    },
    "curricular_requirement_content": {
      "en": "“मेरो काम” पाठले बोलाई: ४०%, सुनाइ: ४०% र पढाइ: २०% पाठ्‍यभार ओगटेको छ।",
      "np": "“मेरो काम” पाठले बोलाई: ४०%, सुनाइ: ४०% र पढाइ: २०% पाठ्‍यभार ओगटेको छ।"
    },
    "prerequisites_content": {
      "paragraph": {
        "en": "यो पाठ सुरु गर्नुअघि विद्यार्थीहरूले विशेष केही जान्‍नुपर्ने देखिँदैन।",
        "np": "यो पाठ सुरु गर्नुअघि विद्यार्थीहरूले विशेष केही जान्‍नुपर्ने देखिँदैन।"
      },
      "chapter_links": {}
    },
    "lesson_guidelines_content": {
      "en": {
        "paragraph": "ई-पाठमा भएका हरेक पात्र, चित्र र वस्तुहरूको बारेमा विभिन्‍न प्रश्‍नहरू सोधेर विद्यार्थीहरूलाई थप पढ्‍न उत्सक बनाउन सकिन्‍छ। यो पाठले हेर्न, सुन्‍न र बोल्‍नलाई महत्व दिएकोले अन्‍य रमाइला कथाहरू भन्दै पाठ पढाउन सकिन्‍छ। ",
        "list": []
      },
      "np": {
        "paragraph": "ई-पाठमा भएका हरेक पात्र, चित्र र वस्तुहरूको बारेमा विभिन्‍न प्रश्‍नहरू सोधेर विद्यार्थीहरूलाई थप पढ्‍न उत्सक बनाउन सकिन्‍छ। यो पाठले हेर्न, सुन्‍न र बोल्‍नलाई महत्व दिएकोले अन्‍य रमाइला कथाहरू भन्दै पाठ पढाउन सकिन्‍छ। ",
        "list": []
      }
    },
    "related_activities_content": {
      "en": {
        "paragraph": "",
        "list": [
          "सबै विद्यार्थीहरूलाई समान अवसर दिएर उनीहरूलाई पालैपालो थाहा भएको पेसाको बारेमा प्रश्‍न गर्न सकिन्‍छ।",
          "विद्यार्थीहरूलाई पालैपालो पाठ पढ्‍न लगाउने र उनीहरूले गरेका गल्‍तीहरूलाई पटकपटक सच्‍याइदिन सकिन्‍छ। ",
          "विद्यार्थीहरूलाई निरन्‍तर प्रोत्साहन दिन सकिन्‍छ तर निरुत्साहन गर्ने कुरा कहिल्यै गर्नु हुँदैन।",
          "साथै यो पाठको समय भन्‍दा अन्‍य दिनहरूमा पनि अनौपचारिक रूपमा दैनिक: तिमीलाई कस्तो रङ मन पर्छ? तिमी के गर्दैछौ? जस्ता प्रश्‍नहरू सोधेर कुराकानी गर्न उत्सुक बनाउन सकिन्‍छ।",
          "तिमीलाई कुन पेसा मन पर्छ? किन मान पर्छ जस्ता जस्ता प्रश्‍नहरू सोधेर छलफल गर्न सकिन्‍छ।"
        ]
      },
      "np": {
        "paragraph": "",
        "list": [
          "सबै विद्यार्थीहरूलाई समान अवसर दिएर उनीहरूलाई पालैपालो थाहा भएको पेसाको बारेमा प्रश्‍न गर्न सकिन्‍छ।",
          "विद्यार्थीहरूलाई पालैपालो पाठ पढ्‍न लगाउने र उनीहरूले गरेका गल्‍तीहरूलाई पटकपटक सच्‍याइदिन सकिन्‍छ। ",
          "विद्यार्थीहरूलाई निरन्‍तर प्रोत्साहन दिन सकिन्‍छ तर निरुत्साहन गर्ने कुरा कहिल्यै गर्नु हुँदैन।",
          "साथै यो पाठको समय भन्‍दा अन्‍य दिनहरूमा पनि अनौपचारिक रूपमा दैनिक: तिमीलाई कस्तो रङ मन पर्छ? तिमी के गर्दैछौ? जस्ता प्रश्‍नहरू सोधेर कुराकानी गर्न उत्सुक बनाउन सकिन्‍छ।",
          "तिमीलाई कुन पेसा मन पर्छ? किन मान पर्छ जस्ता जस्ता प्रश्‍नहरू सोधेर छलफल गर्न सकिन्‍छ।"
        ]
      }
    },
    "evaluation_content": {
      "en": {
        "paragraph": " ",
        "list": ["", ""]
      },
      "np": {
        "paragraph": " ",
        "list": ["", ""]
      }
    }
  },
  "bpd": {
    "lesson_name": "विद्यालयको पहिलो दिन",
    "about_the_lesson_content": {
      "en": "कक्षा १ मा पढ्‍न आएका विद्यार्थीहरू भर्खर घरपरिवारको वातावरण छोडेर विद्यालयको वातावरणमा आएका हुन्‍छन्। उनीहरूलाई यो वातावरण नौलो र अनौठो लागेको हुन्‍छ। कतिपय विद्यार्थीहरू रमाएका हुन सक्‍छन् भने कतिपय डराएका पनि हुन सक्‍छन्। यो ई-पाठले विद्यार्थीहरूलाई विद्यालयको वातावरण रमाइलो बनाउन सहयोग गर्छ। यहाँ विद्यालयको पहिलो दिनको अनुभव निकै रमाइलो तरिकाले प्रस्तुत गरिएको छ।  ",
      "np": "कक्षा १ मा पढ्‍न आएका विद्यार्थीहरू भर्खर घरपरिवारको वातावरण छोडेर विद्यालयको वातावरणमा आएका हुन्‍छन्। उनीहरूलाई यो वातावरण नौलो र अनौठो लागेको हुन्‍छ। कतिपय विद्यार्थीहरू रमाएका हुन सक्‍छन् भने कतिपय डराएका पनि हुन सक्‍छन्। यो ई-पाठले विद्यार्थीहरूलाई विद्यालयको वातावरण रमाइलो बनाउन सहयोग गर्छ। यहाँ विद्यालयको पहिलो दिनको अनुभव निकै रमाइलो तरिकाले प्रस्तुत गरिएको छ।  "
    },
    "curricular_requirement_content": {
      "en": "“विद्यालयको पहिलो दिन” पाठले बोलाई: ४०%, सुनाइ: ४०% र पढाइ: २०% पाठ्‍यभार ओगटेको छ।",
      "np": "“विद्यालयको पहिलो दिन” पाठले बोलाई: ४०%, सुनाइ: ४०% र पढाइ: २०% पाठ्‍यभार ओगटेको छ।"
    },
    "prerequisites_content": {
      "paragraph": {
        "en": "यो पाठ सुरु गर्नुअघि विद्यार्थीहरूले विशेष केही जान्‍नुपर्ने देखिँदैन।",
        "np": "यो पाठ सुरु गर्नुअघि विद्यार्थीहरूले विशेष केही जान्‍नुपर्ने देखिँदैन।"
      },
      "chapter_links": {}
    },
    "lesson_guidelines_content": {
      "en": {
        "paragraph": "ई-पाठमा भएका हरेक पात्र, चित्र र वस्तुहरूको बारेमा विभिन्‍न प्रश्‍नहरू सोधेर विद्यार्थीहरूलाई थप पढ्‍न उत्सक बनाउन सकिन्‍छ। यो पाठले हेर्न, सुन्‍न र बोल्‍नलाई महत्व दिएकोले अन्‍य रमाइला कथाहरू भन्दै पाठ पढाउन सकिन्‍छ। ",
        "list": []
      },
      "np": {
        "paragraph": "ई-पाठमा भएका हरेक पात्र, चित्र र वस्तुहरूको बारेमा विभिन्‍न प्रश्‍नहरू सोधेर विद्यार्थीहरूलाई थप पढ्‍न उत्सक बनाउन सकिन्‍छ। यो पाठले हेर्न, सुन्‍न र बोल्‍नलाई महत्व दिएकोले अन्‍य रमाइला कथाहरू भन्दै पाठ पढाउन सकिन्‍छ। ",
        "list": []
      }
    },
    "related_activities_content": {
      "en": {
        "paragraph": "",
        "list": [
          "शिक्षकले आफ्‍नो विद्यालयको पहिलो दिनको बारेमा रमाइलो तरिकाले भन्‍न सक्‍छन्। ",
          "तिमी आज कसरी आयौ?, आज खाजा के खान्‍छौ?, विद्यालयमा नयाँ कुरा केके देख्‍यौ? जस्ता प्रश्‍नहरू सोधेर विद्यार्थीहरू बोल्‍न उत्सुक बनाउन सकिन्‍छ।",
          "साथै यो पाठको समय भन्‍दा अन्‍य दिनहरूमा पनि अनौपचारिक रूपमा दैनिक: तिमीलाई कस्तो रङ मन पर्छ? तिमी के गर्दैछौ? जस्ता प्रश्‍नहरू सोधेर कुराकानी गर्न उत्सुक बनाउन सकिन्‍छ।"
        ]
      },
      "np": {
        "paragraph": "",
        "list": [
          "शिक्षकले आफ्‍नो विद्यालयको पहिलो दिनको बारेमा रमाइलो तरिकाले भन्‍न सक्‍छन्। ",
          "तिमी आज कसरी आयौ?, आज खाजा के खान्‍छौ?, विद्यालयमा नयाँ कुरा केके देख्‍यौ? जस्ता प्रश्‍नहरू सोधेर विद्यार्थीहरू बोल्‍न उत्सुक बनाउन सकिन्‍छ।",
          "साथै यो पाठको समय भन्‍दा अन्‍य दिनहरूमा पनि अनौपचारिक रूपमा दैनिक: तिमीलाई कस्तो रङ मन पर्छ? तिमी के गर्दैछौ? जस्ता प्रश्‍नहरू सोधेर कुराकानी गर्न उत्सुक बनाउन सकिन्‍छ।"
        ]
      }
    },
    "evaluation_content": {
      "en": {
        "paragraph": " ",
        "list": ["", ""]
      },
      "np": {
        "paragraph": " ",
        "list": ["", ""]
      }
    }
  }
}
