<?xml version="1.0" encoding="utf-8"?>
<!-- Generator: Adobe Illustrator 15.0.0, SVG Export Plug-In . SVG Version: 6.00 Build 0)  -->
<!DOCTYPE svg PUBLIC "-//W3C//DTD SVG 1.1//EN" "http://www.w3.org/Graphics/SVG/1.1/DTD/svg11.dtd">
<svg version="1.1" id="Layer_1" xmlns="http://www.w3.org/2000/svg" xmlns:xlink="http://www.w3.org/1999/xlink" x="0px" y="0px"
	 width="100%" height="100%" viewBox="0 0 464 453" enable-background="new 0 0 464 453" xml:space="preserve">
<g>
	<g>
		<g>
			<path fill="#A1E2FC" d="M24.967,272.081l-0.002,89.828c0,6.307,4.981,14.866,10.692,17.468c0,0,38.575,19.13,122.972,19.13
				c80.653,0,122.98-19.13,122.98-19.13c5.908,0,10.693-11.161,10.693-17.468l0.006-89.828H24.967z"/>
		</g>
	</g>
	<path fill="#5E5F5E" d="M158.57,401.979c-44.054,0-75.523-6.114-94.168-11.236c-20.345-5.589-30.12-11.15-30.527-11.382
		l-0.308-0.213c-7.703-6.211-11.603-13.664-11.603-22.147V161.683c-1.006-10.862-3.68-18.238-9.851-27.172
		c-2.052-2.969-3.694-4.597-5.142-6.036c-0.402-0.401-2.199-2.616-2.567-3.002l4.888-1.356c0.347,0.361,0.704,0.717,1.083,1.09
		c1.513,1.502,3.4,3.374,5.698,6.697c6.688,9.69,9.577,17.679,10.657,29.469l0.006,0.207v195.423c0,7.07,3.177,13.102,9.715,18.429
		c2.721,1.48,41.768,21.885,122.119,21.885c77.577,0,119.909-20.775,122.255-21.962c7.058-4.727,9.581-12.57,9.581-18.352V165.22
		l0.002-0.044c0.543-13.675,3.508-22.55,10.938-32.737c2.762-3.789,5.305-6.184,7.347-8.109c0.937-0.883,0.07-0.006,0.73-0.744
		l5.272,1.429c-0.794,0.889-1.714,1.753-2.683,2.67c-2,1.884-4.267,4.019-6.772,7.458c-6.904,9.469-9.545,17.373-10.059,30.17
		v191.686c0,8.944-4.515,17.483-11.784,22.285l-0.21,0.123c-0.444,0.231-11.102,5.761-31.871,11.34
		C232.24,395.872,200.665,401.979,158.57,401.979z"/>
	<g id="water_bubble">
		<g>
			<ellipse fill="#C1E8FB" cx="241.01" cy="345.851" rx="1.912" ry="2.248"/>
			<ellipse fill="#C1E8FB" cx="222.835" cy="342.254" rx="1.913" ry="2.248"/>
			<ellipse fill="#C1E8FB" cx="254.593" cy="356.866" rx="1.911" ry="2.249"/>
			<ellipse fill="#C1E8FB" cx="275.442" cy="346.075" rx="1.913" ry="2.248"/>
			<ellipse fill="#C1E8FB" cx="223.792" cy="352.819" rx="1.914" ry="2.248"/>
			<ellipse fill="#C1E8FB" cx="171.762" cy="364.059" rx="1.913" ry="2.249"/>
			<ellipse fill="#C1E8FB" cx="162.963" cy="342.927" rx="0.956" ry="1.124"/>
		</g>
		<g>
			<ellipse fill="#E5F5FD" cx="173.56" cy="352.045" rx="1.913" ry="2.249"/>
			<ellipse fill="#E5F5FD" cx="155.386" cy="348.449" rx="1.913" ry="2.249"/>
			<ellipse fill="#E5F5FD" cx="187.141" cy="363.062" rx="1.913" ry="2.248"/>
			<ellipse fill="#E5F5FD" cx="207.993" cy="352.27" rx="1.913" ry="2.249"/>
			<ellipse fill="#E5F5FD" cx="156.342" cy="359.013" rx="1.913" ry="2.25"/>
			<ellipse fill="#E5F5FD" cx="104.311" cy="370.255" rx="1.913" ry="2.248"/>
			<path fill="#E5F5FD" d="M96.468,349.124c0,0.621-0.427,1.121-0.957,1.121c-0.528,0-0.956-0.503-0.956-1.121
				c0-0.622,0.428-1.122,0.956-1.122C96.041,348,96.468,348.502,96.468,349.124z"/>
		</g>
		<g>
			<ellipse fill="#DAF1FD" cx="141.427" cy="309.104" rx="1.913" ry="2.248"/>
			<ellipse fill="#DAF1FD" cx="123.254" cy="305.508" rx="1.913" ry="2.248"/>
			<ellipse fill="#DAF1FD" cx="155.009" cy="320.119" rx="1.913" ry="2.248"/>
			<ellipse fill="#DAF1FD" cx="175.861" cy="309.331" rx="1.913" ry="2.248"/>
			<ellipse fill="#DAF1FD" cx="124.211" cy="316.074" rx="1.913" ry="2.248"/>
			<ellipse fill="#DAF1FD" cx="72.18" cy="327.314" rx="1.913" ry="2.248"/>
			<ellipse fill="#DAF1FD" cx="63.382" cy="306.182" rx="0.956" ry="1.124"/>
		</g>
		<g>
			<ellipse fill="#E5F5FD" cx="135.116" cy="281.027" rx="1.914" ry="2.25"/>
			<ellipse fill="#E5F5FD" cx="116.943" cy="277.429" rx="1.914" ry="2.25"/>
			<ellipse fill="#E5F5FD" cx="148.698" cy="292.042" rx="1.914" ry="2.248"/>
			<ellipse fill="#E5F5FD" cx="169.55" cy="281.252" rx="1.914" ry="2.249"/>
			<ellipse fill="#E5F5FD" cx="117.9" cy="287.995" rx="1.913" ry="2.249"/>
			<ellipse fill="#E5F5FD" cx="65.869" cy="299.237" rx="1.913" ry="2.248"/>
			<path fill="#E5F5FD" d="M58.026,278.105c0,0.621-0.428,1.121-0.956,1.121c-0.529,0-0.956-0.502-0.956-1.121
				c0-0.623,0.427-1.123,0.956-1.123C57.598,276.982,58.026,277.482,58.026,278.105z"/>
		</g>
		<g>
			<ellipse fill="#C1E8FB" cx="126.938" cy="309.821" rx="1.913" ry="2.248"/>
			<ellipse fill="#C1E8FB" cx="108.764" cy="306.226" rx="1.913" ry="2.247"/>
			<ellipse fill="#C1E8FB" cx="161.372" cy="310.045" rx="1.913" ry="2.248"/>
			<ellipse fill="#C1E8FB" cx="109.721" cy="316.79" rx="1.913" ry="2.248"/>
			<ellipse fill="#C1E8FB" cx="57.69" cy="278.449" rx="1.913" ry="2.248"/>
			<ellipse fill="#C1E8FB" cx="48.891" cy="306.899" rx="0.956" ry="1.124"/>
		</g>
		<g>
			<ellipse fill="#DAF1FD" cx="120.973" cy="339.642" rx="1.913" ry="2.249"/>
			<ellipse fill="#DAF1FD" cx="102.799" cy="336.044" rx="1.913" ry="2.248"/>
			<ellipse fill="#DAF1FD" cx="134.555" cy="350.658" rx="1.913" ry="2.248"/>
			<ellipse fill="#DAF1FD" cx="103.756" cy="346.612" rx="1.913" ry="2.248"/>
			<ellipse fill="#DAF1FD" cx="51.725" cy="357.85" rx="1.913" ry="2.248"/>
			<ellipse fill="#DAF1FD" cx="42.926" cy="336.719" rx="0.956" ry="1.123"/>
		</g>
		<g>
			<ellipse fill="#C1E8FB" cx="239.057" cy="315.003" rx="1.912" ry="2.25"/>
			<ellipse fill="#C1E8FB" cx="220.886" cy="311.407" rx="1.913" ry="2.249"/>
			<ellipse fill="#C1E8FB" cx="252.641" cy="276.439" rx="1.912" ry="2.248"/>
			<ellipse fill="#C1E8FB" cx="273.491" cy="315.228" rx="1.913" ry="2.249"/>
			<ellipse fill="#C1E8FB" cx="169.811" cy="283.633" rx="1.913" ry="2.248"/>
			<path fill="#C1E8FB" d="M161.968,312.082c0,0.621-0.428,1.121-0.956,1.121c-0.528,0-0.957-0.503-0.957-1.121
				c0-0.622,0.428-1.122,0.957-1.122C161.54,310.958,161.968,311.46,161.968,312.082z"/>
		</g>
		<g>
			<ellipse fill="#E5F5FD" cx="250.397" cy="302.439" rx="1.913" ry="2.249"/>
			<ellipse fill="#E5F5FD" cx="232.225" cy="298.844" rx="1.913" ry="2.248"/>
			<ellipse fill="#E5F5FD" cx="263.98" cy="313.457" rx="1.912" ry="2.248"/>
			<ellipse fill="#E5F5FD" cx="284.832" cy="302.665" rx="1.912" ry="2.249"/>
			<ellipse fill="#E5F5FD" cx="233.184" cy="309.41" rx="1.912" ry="2.25"/>
			<ellipse fill="#E5F5FD" cx="181.151" cy="320.651" rx="1.913" ry="2.248"/>
			<path fill="#E5F5FD" d="M173.307,299.52c0,0.62-0.427,1.121-0.957,1.121c-0.528,0-0.956-0.504-0.956-1.121
				c0-0.623,0.428-1.123,0.956-1.123C172.88,298.396,173.307,298.897,173.307,299.52z"/>
		</g>
	</g>
</g>
<g id="basedrop">
	<path fill="#D4D0B3" d="M267.609,133.677c-1.057-1.863-2.002-4.546-2.651-6.493c-0.417-1.249-0.493-2.569-0.617-2.804
		c-0.054,1.459-2.428,8.36-4.862,12.245c-2.951,4.706-6.083,8.267-6.576,13.284c-0.604,6.115,4.656,12.27,10.99,12.207
		c6.334-0.063,10.379-5.39,10.441-11.869C274.384,144.976,270.684,139.096,267.609,133.677z M265.162,157.124
		c-3.512,0.034-6.428-3.376-6.093-6.766c0.275-2.78,2.011-4.754,3.647-7.363c1.35-2.153,2.666-5.978,2.695-6.787L265.162,157.124z"
		/>
</g>
<g>
	<path fill="#4D4D4D" d="M421.095,132.5c3.562-13.079-4.196-25.316-17.294-28.883L278.989,69.627l-1.048,3.851l124.809,33.989
		c10.976,2.989,17.476,13.028,14.493,23.983c-2.983,10.955-14.341,17.437-25.318,14.448l-124.806-33.99l-1.049,3.85l124.809,33.989
		C403.979,153.316,417.533,145.578,421.095,132.5z"/>
	<path fill="#D4D0B3" d="M363.267,101.984l39.956,10.882c0,0,12.963,5.186,9.68,17.248c-4.571,16.782-18.861,11.264-18.861,11.264
		l-123.092-30.889l1.099-1.829L363.267,101.984z"/>
	<path fill="#4D4D4D" d="M266.218,121.416c1.653,0.45,3.396-0.662,3.892-2.482L284.08,68.94c0.498-1.822-0.442-3.663-2.096-4.114
		l0,0c-1.652-0.45-3.396,0.661-3.894,2.482l-13.97,49.994C263.625,119.123,264.564,120.964,266.218,121.416L266.218,121.416z"/>
</g>
<g id="oh_ion1">
	<g>
		
			<linearGradient id="SVGID_1_" gradientUnits="userSpaceOnUse" x1="38.0791" y1="281.5107" x2="38.0791" y2="320.7285" gradientTransform="matrix(-1 0 0 1 279.2363 0)">
			<stop  offset="0" style="stop-color:#B7DBAA"/>
			<stop  offset="0.127" style="stop-color:#ACD092"/>
			<stop  offset="0.2756" style="stop-color:#A2C77E"/>
			<stop  offset="0.4451" style="stop-color:#9BC170"/>
			<stop  offset="0.6516" style="stop-color:#97BD68"/>
			<stop  offset="1" style="stop-color:#96BC65"/>
		</linearGradient>
		<path fill="url(#SVGID_1_)" d="M221.549,301.119c0,10.826,8.78,19.609,19.614,19.609c10.824,0,19.603-8.783,19.603-19.609
			c0-10.829-8.778-19.608-19.603-19.608C230.329,281.511,221.549,290.29,221.549,301.119z"/>
		<linearGradient id="SVGID_2_" gradientUnits="userSpaceOnUse" x1="221.1328" y1="301.1191" x2="261.1816" y2="301.1191">
			<stop  offset="0" style="stop-color:#BCD975"/>
			<stop  offset="0.127" style="stop-color:#A4C268"/>
			<stop  offset="0.2756" style="stop-color:#90AF5D"/>
			<stop  offset="0.4451" style="stop-color:#82A156"/>
			<stop  offset="0.6516" style="stop-color:#7A9951"/>
			<stop  offset="1" style="stop-color:#779750"/>
		</linearGradient>
		<path fill="url(#SVGID_2_)" d="M221.133,301.118c0-11.06,8.965-20.024,20.03-20.024l0,0c11.054,0,20.019,8.965,20.019,20.024l0,0
			c0,11.058-8.965,20.026-20.019,20.026l0,0C230.098,321.145,221.133,312.176,221.133,301.118L221.133,301.118z M241.163,320.312
			c10.594-0.019,19.165-8.597,19.185-19.193l0,0c-0.02-10.599-8.591-19.172-19.185-19.189l0,0
			c-10.605,0.018-19.179,8.591-19.197,19.189l0,0C221.984,311.715,230.558,320.293,241.163,320.312L241.163,320.312z"/>
	</g>
	<g>
		<g>
			<path fill="#FFFFFF" d="M233.805,296.89c1.187,0,2.215,0.451,3.084,1.352s1.304,2.024,1.304,3.372
				c0,1.389-0.438,2.542-1.314,3.457c-0.876,0.918-1.936,1.375-3.181,1.375c-1.257,0-2.314-0.446-3.171-1.341
				c-0.855-0.894-1.283-2.051-1.283-3.471c0-1.45,0.495-2.635,1.482-3.551C231.584,297.288,232.611,296.89,233.805,296.89z
				 M233.677,297.382c-0.816,0-1.473,0.304-1.968,0.91c-0.614,0.754-0.923,1.86-0.923,3.315c0,1.491,0.32,2.64,0.957,3.442
				c0.49,0.612,1.138,0.918,1.941,0.918c0.859,0,1.565-0.335,2.126-1.005c0.56-0.669,0.838-1.726,0.838-3.167
				c0-1.563-0.306-2.729-0.922-3.497C235.232,297.688,234.55,297.382,233.677,297.382z"/>
			<path fill="#FFFFFF" d="M241.563,301.338h4.245v-2.615c0-0.467-0.029-0.775-0.088-0.923c-0.044-0.112-0.138-0.209-0.282-0.29
				c-0.192-0.108-0.398-0.161-0.613-0.161H244.5v-0.25h3.909v0.25h-0.324c-0.215,0-0.419,0.052-0.613,0.154
				c-0.143,0.072-0.24,0.181-0.293,0.327c-0.051,0.146-0.077,0.443-0.077,0.893v5.897c0,0.463,0.03,0.768,0.087,0.916
				c0.046,0.112,0.139,0.208,0.276,0.289c0.199,0.108,0.405,0.163,0.62,0.163h0.324v0.249H244.5v-0.249h0.324
				c0.373,0,0.645-0.11,0.814-0.331c0.113-0.144,0.169-0.489,0.169-1.037v-2.783h-4.245v2.783c0,0.463,0.03,0.768,0.087,0.916
				c0.045,0.112,0.141,0.208,0.283,0.289c0.194,0.108,0.397,0.163,0.613,0.163h0.33v0.249h-3.915v-0.249h0.323
				c0.378,0,0.652-0.11,0.822-0.331c0.107-0.144,0.161-0.489,0.161-1.037v-5.897c0-0.467-0.028-0.775-0.087-0.923
				c-0.044-0.112-0.137-0.209-0.277-0.29c-0.196-0.108-0.403-0.161-0.619-0.161h-0.323v-0.25h3.915v0.25h-0.33
				c-0.216,0-0.419,0.052-0.613,0.154c-0.138,0.072-0.235,0.181-0.289,0.327c-0.055,0.146-0.081,0.443-0.081,0.893V301.338z"/>
		</g>
		<g>
			<path fill="#FFFFFF" d="M250.4,297.111h4.089v0.785H250.4"/>
		</g>
	</g>
</g>
<g id="oh_ion2">
	<g>
		
			<linearGradient id="SVGID_3_" gradientUnits="userSpaceOnUse" x1="140.8203" y1="284.3613" x2="140.8203" y2="323.5791" gradientTransform="matrix(-1 0 0 1 279.2363 0)">
			<stop  offset="0" style="stop-color:#B7DBAA"/>
			<stop  offset="0.127" style="stop-color:#ACD092"/>
			<stop  offset="0.2756" style="stop-color:#A2C77E"/>
			<stop  offset="0.4451" style="stop-color:#9BC170"/>
			<stop  offset="0.6516" style="stop-color:#97BD68"/>
			<stop  offset="1" style="stop-color:#96BC65"/>
		</linearGradient>
		<path fill="url(#SVGID_3_)" d="M118.808,303.97c0,10.826,8.78,19.609,19.614,19.609c10.824,0,19.603-8.783,19.603-19.609
			c0-10.829-8.778-19.608-19.603-19.608C127.588,284.361,118.808,293.141,118.808,303.97z"/>
		<linearGradient id="SVGID_4_" gradientUnits="userSpaceOnUse" x1="118.3916" y1="303.9697" x2="158.4404" y2="303.9697">
			<stop  offset="0" style="stop-color:#BCD975"/>
			<stop  offset="0.127" style="stop-color:#A4C268"/>
			<stop  offset="0.2756" style="stop-color:#90AF5D"/>
			<stop  offset="0.4451" style="stop-color:#82A156"/>
			<stop  offset="0.6516" style="stop-color:#7A9951"/>
			<stop  offset="1" style="stop-color:#779750"/>
		</linearGradient>
		<path fill="url(#SVGID_4_)" d="M118.392,303.969c0-11.06,8.965-20.024,20.03-20.024l0,0c11.054,0,20.019,8.965,20.019,20.024l0,0
			c0,11.058-8.965,20.026-20.019,20.026l0,0C127.356,323.995,118.392,315.026,118.392,303.969L118.392,303.969z M138.422,323.162
			c10.594-0.019,19.165-8.597,19.185-19.193l0,0c-0.02-10.599-8.591-19.172-19.185-19.189l0,0
			c-10.605,0.018-19.179,8.591-19.197,19.189l0,0C119.243,314.565,127.816,323.144,138.422,323.162L138.422,323.162z"/>
	</g>
	<g>
		<g>
			<path fill="#FFFFFF" d="M131.063,299.74c1.187,0,2.215,0.451,3.084,1.352s1.304,2.024,1.304,3.372
				c0,1.389-0.438,2.542-1.314,3.457c-0.876,0.918-1.936,1.375-3.181,1.375c-1.257,0-2.314-0.446-3.171-1.341
				c-0.855-0.894-1.283-2.051-1.283-3.471c0-1.45,0.495-2.635,1.482-3.551C128.843,300.139,129.87,299.74,131.063,299.74z
				 M130.936,300.232c-0.816,0-1.473,0.304-1.968,0.91c-0.614,0.754-0.923,1.86-0.923,3.315c0,1.491,0.32,2.64,0.957,3.442
				c0.49,0.612,1.138,0.918,1.941,0.918c0.859,0,1.565-0.335,2.126-1.005c0.56-0.669,0.838-1.726,0.838-3.167
				c0-1.563-0.306-2.729-0.922-3.497C132.491,300.538,131.809,300.232,130.936,300.232z"/>
			<path fill="#FFFFFF" d="M138.821,304.188h4.245v-2.615c0-0.467-0.029-0.775-0.088-0.923c-0.044-0.112-0.138-0.209-0.282-0.29
				c-0.192-0.108-0.398-0.161-0.613-0.161h-0.324v-0.25h3.909v0.25h-0.324c-0.215,0-0.419,0.052-0.613,0.154
				c-0.143,0.072-0.24,0.181-0.293,0.327c-0.051,0.146-0.077,0.443-0.077,0.893v5.897c0,0.463,0.03,0.768,0.087,0.916
				c0.046,0.112,0.139,0.208,0.276,0.289c0.199,0.108,0.405,0.163,0.62,0.163h0.324v0.249h-3.909v-0.249h0.324
				c0.373,0,0.645-0.11,0.814-0.331c0.113-0.144,0.169-0.489,0.169-1.037v-2.783h-4.245v2.783c0,0.463,0.03,0.768,0.087,0.916
				c0.045,0.112,0.141,0.208,0.283,0.289c0.194,0.108,0.397,0.163,0.613,0.163h0.33v0.249h-3.915v-0.249h0.323
				c0.378,0,0.652-0.11,0.822-0.331c0.107-0.144,0.161-0.489,0.161-1.037v-5.897c0-0.467-0.028-0.775-0.087-0.923
				c-0.044-0.112-0.137-0.209-0.277-0.29c-0.196-0.108-0.403-0.161-0.619-0.161h-0.323v-0.25h3.915v0.25h-0.33
				c-0.216,0-0.419,0.052-0.613,0.154c-0.138,0.072-0.235,0.181-0.289,0.327c-0.055,0.146-0.081,0.443-0.081,0.893V304.188z"/>
		</g>
		<g>
			<path fill="#FFFFFF" d="M147.659,299.962h4.089v0.785h-4.089"/>
		</g>
	</g>
</g>
<g id="oh_ion3">
	<g>
		
			<linearGradient id="SVGID_5_" gradientUnits="userSpaceOnUse" x1="84.0488" y1="339.2412" x2="84.0488" y2="378.459" gradientTransform="matrix(-1 0 0 1 279.2363 0)">
			<stop  offset="0" style="stop-color:#B7DBAA"/>
			<stop  offset="0.127" style="stop-color:#ACD092"/>
			<stop  offset="0.2756" style="stop-color:#A2C77E"/>
			<stop  offset="0.4451" style="stop-color:#9BC170"/>
			<stop  offset="0.6516" style="stop-color:#97BD68"/>
			<stop  offset="1" style="stop-color:#96BC65"/>
		</linearGradient>
		<path fill="url(#SVGID_5_)" d="M175.579,358.85c0,10.826,8.78,19.609,19.614,19.609c10.824,0,19.603-8.783,19.603-19.609
			c0-10.829-8.778-19.608-19.603-19.608C184.359,339.241,175.579,348.021,175.579,358.85z"/>
		<linearGradient id="SVGID_6_" gradientUnits="userSpaceOnUse" x1="175.1631" y1="358.8496" x2="215.2119" y2="358.8496">
			<stop  offset="0" style="stop-color:#BCD975"/>
			<stop  offset="0.127" style="stop-color:#A4C268"/>
			<stop  offset="0.2756" style="stop-color:#90AF5D"/>
			<stop  offset="0.4451" style="stop-color:#82A156"/>
			<stop  offset="0.6516" style="stop-color:#7A9951"/>
			<stop  offset="1" style="stop-color:#779750"/>
		</linearGradient>
		<path fill="url(#SVGID_6_)" d="M175.163,358.849c0-11.06,8.965-20.024,20.03-20.024l0,0c11.054,0,20.019,8.965,20.019,20.024l0,0
			c0,11.058-8.965,20.026-20.019,20.026l0,0C184.128,378.875,175.163,369.906,175.163,358.849L175.163,358.849z M195.193,378.042
			c10.594-0.019,19.165-8.597,19.185-19.193l0,0c-0.02-10.599-8.591-19.172-19.185-19.189l0,0
			c-10.605,0.018-19.179,8.591-19.197,19.189l0,0C176.015,369.445,184.588,378.023,195.193,378.042L195.193,378.042z"/>
	</g>
	<g>
		<g>
			<path fill="#FFFFFF" d="M187.835,354.62c1.187,0,2.215,0.451,3.084,1.352s1.304,2.024,1.304,3.372
				c0,1.389-0.438,2.542-1.314,3.457c-0.876,0.918-1.936,1.375-3.181,1.375c-1.257,0-2.314-0.446-3.171-1.341
				c-0.855-0.894-1.283-2.051-1.283-3.471c0-1.45,0.495-2.635,1.482-3.551C185.614,355.019,186.642,354.62,187.835,354.62z
				 M187.707,355.112c-0.816,0-1.473,0.304-1.968,0.91c-0.614,0.754-0.923,1.86-0.923,3.315c0,1.491,0.32,2.64,0.957,3.442
				c0.49,0.612,1.138,0.918,1.941,0.918c0.859,0,1.565-0.335,2.126-1.005c0.56-0.669,0.838-1.726,0.838-3.167
				c0-1.563-0.306-2.729-0.922-3.497C189.263,355.418,188.58,355.112,187.707,355.112z"/>
			<path fill="#FFFFFF" d="M195.593,359.068h4.245v-2.615c0-0.467-0.029-0.775-0.088-0.923c-0.044-0.112-0.138-0.209-0.282-0.29
				c-0.192-0.108-0.398-0.161-0.613-0.161h-0.324v-0.25h3.909v0.25h-0.324c-0.215,0-0.419,0.052-0.613,0.154
				c-0.143,0.072-0.24,0.181-0.293,0.327c-0.051,0.146-0.077,0.443-0.077,0.893v5.897c0,0.463,0.03,0.768,0.087,0.916
				c0.046,0.112,0.139,0.208,0.276,0.289c0.199,0.108,0.405,0.163,0.62,0.163h0.324v0.249h-3.909v-0.249h0.324
				c0.373,0,0.645-0.11,0.814-0.331c0.113-0.144,0.169-0.489,0.169-1.037v-2.783h-4.245v2.783c0,0.463,0.03,0.768,0.087,0.916
				c0.045,0.112,0.141,0.208,0.283,0.289c0.194,0.108,0.397,0.163,0.613,0.163h0.33v0.249h-3.915v-0.249h0.323
				c0.378,0,0.652-0.11,0.822-0.331c0.107-0.144,0.161-0.489,0.161-1.037v-5.897c0-0.467-0.028-0.775-0.087-0.923
				c-0.044-0.112-0.137-0.209-0.277-0.29c-0.196-0.108-0.403-0.161-0.619-0.161h-0.323v-0.25h3.915v0.25h-0.33
				c-0.216,0-0.419,0.052-0.613,0.154c-0.138,0.072-0.235,0.181-0.289,0.327c-0.055,0.146-0.081,0.443-0.081,0.893V359.068z"/>
		</g>
		<g>
			<path fill="#FFFFFF" d="M204.431,354.842h4.089v0.785h-4.089"/>
		</g>
	</g>
</g>
<g id="oh_ion4">
	<g>
		
			<linearGradient id="SVGID_7_" gradientUnits="userSpaceOnUse" x1="196.9609" y1="324.7324" x2="196.9609" y2="363.9502" gradientTransform="matrix(-1 0 0 1 279.2363 0)">
			<stop  offset="0" style="stop-color:#B7DBAA"/>
			<stop  offset="0.127" style="stop-color:#ACD092"/>
			<stop  offset="0.2756" style="stop-color:#A2C77E"/>
			<stop  offset="0.4451" style="stop-color:#9BC170"/>
			<stop  offset="0.6516" style="stop-color:#97BD68"/>
			<stop  offset="1" style="stop-color:#96BC65"/>
		</linearGradient>
		<path fill="url(#SVGID_7_)" d="M62.667,344.341c0,10.826,8.78,19.609,19.614,19.609c10.824,0,19.603-8.783,19.603-19.609
			c0-10.829-8.778-19.608-19.603-19.608C71.447,324.732,62.667,333.512,62.667,344.341z"/>
		<linearGradient id="SVGID_8_" gradientUnits="userSpaceOnUse" x1="62.251" y1="344.3408" x2="102.2998" y2="344.3408">
			<stop  offset="0" style="stop-color:#BCD975"/>
			<stop  offset="0.127" style="stop-color:#A4C268"/>
			<stop  offset="0.2756" style="stop-color:#90AF5D"/>
			<stop  offset="0.4451" style="stop-color:#82A156"/>
			<stop  offset="0.6516" style="stop-color:#7A9951"/>
			<stop  offset="1" style="stop-color:#779750"/>
		</linearGradient>
		<path fill="url(#SVGID_8_)" d="M62.251,344.34c0-11.06,8.965-20.024,20.03-20.024l0,0c11.054,0,20.019,8.965,20.019,20.024l0,0
			c0,11.058-8.965,20.026-20.019,20.026l0,0C71.216,364.366,62.251,355.397,62.251,344.34L62.251,344.34z M82.281,363.533
			c10.594-0.019,19.165-8.597,19.185-19.193l0,0c-0.02-10.599-8.591-19.172-19.185-19.189l0,0
			c-10.605,0.018-19.179,8.591-19.197,19.189l0,0C63.103,354.937,71.676,363.515,82.281,363.533L82.281,363.533z"/>
	</g>
	<g>
		<g>
			<path fill="#FFFFFF" d="M74.923,340.111c1.187,0,2.215,0.451,3.084,1.352s1.304,2.024,1.304,3.372
				c0,1.389-0.438,2.542-1.314,3.457c-0.876,0.918-1.936,1.375-3.181,1.375c-1.257,0-2.314-0.446-3.171-1.341
				c-0.855-0.894-1.283-2.051-1.283-3.471c0-1.45,0.495-2.635,1.482-3.551C72.702,340.51,73.729,340.111,74.923,340.111z
				 M74.795,340.604c-0.816,0-1.473,0.304-1.968,0.91c-0.614,0.754-0.923,1.86-0.923,3.315c0,1.491,0.32,2.64,0.957,3.442
				c0.49,0.612,1.138,0.918,1.941,0.918c0.859,0,1.565-0.335,2.126-1.005c0.56-0.669,0.838-1.726,0.838-3.167
				c0-1.563-0.306-2.729-0.922-3.497C76.351,340.909,75.668,340.604,74.795,340.604z"/>
			<path fill="#FFFFFF" d="M82.681,344.56h4.245v-2.615c0-0.467-0.029-0.775-0.088-0.923c-0.044-0.112-0.138-0.209-0.282-0.29
				c-0.192-0.108-0.398-0.161-0.613-0.161h-0.324v-0.25h3.909v0.25h-0.324c-0.215,0-0.419,0.052-0.613,0.154
				c-0.143,0.072-0.24,0.181-0.293,0.327c-0.051,0.146-0.077,0.443-0.077,0.893v5.897c0,0.463,0.03,0.768,0.087,0.916
				c0.046,0.112,0.139,0.208,0.276,0.289c0.199,0.108,0.405,0.163,0.62,0.163h0.324v0.249h-3.909v-0.249h0.324
				c0.373,0,0.645-0.11,0.814-0.331c0.113-0.144,0.169-0.489,0.169-1.037v-2.783h-4.245v2.783c0,0.463,0.03,0.768,0.087,0.916
				c0.045,0.112,0.141,0.208,0.283,0.289c0.194,0.108,0.397,0.163,0.613,0.163h0.33v0.249h-3.915v-0.249h0.323
				c0.378,0,0.652-0.11,0.822-0.331c0.107-0.144,0.161-0.489,0.161-1.037v-5.897c0-0.467-0.028-0.775-0.087-0.923
				c-0.044-0.112-0.137-0.209-0.277-0.29c-0.196-0.108-0.403-0.161-0.619-0.161h-0.323v-0.25h3.915v0.25h-0.33
				c-0.216,0-0.419,0.052-0.613,0.154c-0.138,0.072-0.235,0.181-0.289,0.327c-0.055,0.146-0.081,0.443-0.081,0.893V344.56z"/>
		</g>
		<g>
			<path fill="#FFFFFF" d="M91.519,340.333h4.089v0.785h-4.089"/>
		</g>
	</g>
</g>
</svg>
