<?xml version="1.0" encoding="utf-8"?>
<!-- Generator: Adobe Illustrator 15.0.0, SVG Export Plug-In . SVG Version: 6.00 Build 0)  -->
<!DOCTYPE svg PUBLIC "-//W3C//DTD SVG 1.1//EN" "http://www.w3.org/Graphics/SVG/1.1/DTD/svg11.dtd">
<svg version="1.1" id="Layer_1" xmlns="http://www.w3.org/2000/svg" xmlns:xlink="http://www.w3.org/1999/xlink" x="0px" y="0px" viewBox="0 0 585.429 349.714" 
	 xml:space="preserve">
	 <style>
		.objects:hover *{
			fill: green;
			opacity: 0.7;
			cursor: pointer;
		}
		pulley {
			scale : 0.6;
		}
	</style>
<g>
	<g>
		<g >
			<path fill-rule="evenodd" clip-rule="evenodd" fill="#3A71B2" d="M485.682,202.502c9.422,1.032,19.674,0.854,29.287,1.593
				c2.705,0.214,5.607,1.466,8.566,1.993c3.383,0.604,6.891,0.411,9.164,1.195c1.781,0.615,4.146,2.297,5.977,3.586
				c1.869,1.316,4.055,2.711,5.18,4.184c1.518,1.979,1.861,4.943,3.189,7.172c0.898,1.512,2.594,2.035,2.789,3.986
				c7.641,3.58,17.408,5.035,24.506,9.162c1.402,3.667,3.506,6.728,2.986,10.961c-0.414,3.347-4.287,4.775-4.781,7.568
				c-0.473,2.654,2.113,5.598-0.598,7.171c1.086,1.233,1.383,2.95,2.191,4.583c0.701,1.427,2.037,2.809,2.391,4.186
				c0.391,1.517,0.115,3.623,0.199,5.379c0.084,1.776,0.459,3.469,0.398,4.98c-0.221,5.485-3.205,10.699-2.59,15.738
				c0.93,0.789,1.746,0.176,2.59,0.996c1.881,1.837,0.873,7.017-0.398,8.566c-1.768,0.424-4.289,0.095-6.375,0.199
				c-1.617-8.334-5.369-14.455-10.561-19.326c-6.123-5.742-14.459-10.193-26.893-9.359c-16.611,1.111-30.539,14.701-31.68,31.673
				c-0.301,4.506,0.109,8.766,1.197,12.356c-0.9,0.29-1.154-0.904-1.793-1.596c-1.6-1.73-3.697-3.746-4.184-6.975
				c-0.314-2.084,0.229-4.352-0.201-6.773c-1.66,0-3.318,0-4.98,0c-1.004,0.438-0.883,1.446-1.791,1.993
				c-1.906,1.138-5.09,0.771-7.77,1.192c-0.389-0.938-0.363-2.291-0.797-3.186c-28.689,0.711-61.15,2.789-91.644,2.789
				c-4.725,0-10.129-0.023-15.343,0.198c-6.249,0.267-13.615,1.448-16.933-1.991c-1.635,1.432-4.865,1.968-7.57,1.195
				c-0.578-11.706-4.73-18.759-10.56-24.904c-6.863-7.231-16.565-12.514-30.88-11.557c-15.024,1.01-26.418,11.193-31.477,22.916
				c-0.769,1.774-1.78,3.678-2.392,5.377c-1.236,3.442-1.218,8.402-3.785,10.16c-0.588,0.403-5.299,2.135-7.373,1.994
				c-2.396-0.166-4.613-2.25-6.573-3.986c-1.592-1.412-4.263-3.725-4.782-5.578c-1.063-3.803,1.681-6.047,2.591-8.965
				c-10.614-2.135-21.425-4.076-32.076-6.175c-1.186,2.164-1.665,6.276-4.781,6.571c-2.008,0.192-3.809-1.161-3.984-3.783
				c0.89-1.33,2.576,0.219,3.387,0c1.603-1.239,2.653-5.117,1.395-7.372c-0.993,1.177,0.239,3.426-0.397,4.782
				c-1.629,2.652-8.349,2.631-9.962,0c-0.544-0.738,0.1-1.666,0-2.592c-1.471-0.851-2.979-1.668-3.786-3.186
				c-5.866-0.377-11.603-0.881-16.138-2.592c-0.023-3.225-0.839-6.727-0.595-9.561c2.22-2.843,7.612-0.934,11.754-1.595
				c2.075-0.333,3.177-1.801,4.979-1.593c0-11.821,0-23.643,0-35.463c-0.773-0.748-2.166-0.273-2.388-1.593
				c-0.291-1.715,1.885-1.389,1.792-2.592c-0.082-1.083-2.8-1.036-2.988-2.987c-0.092-0.938,0.269-1.336,0.995-2.59
				c65.349-0.229,135.645-0.396,202.814,0c0-11.822,0-25.367,0-37.854c0.102-0.691-1.391,0.221-1.396-0.797
				c0.639-3.922-0.871-7.346,0-10.957c0.381-1.586,2.998-3.927,4.382-5.18c6.459-5.842,19.377-5.922,31.079-4.387
				c13.313,1.754,23.76,9.852,33.07,13.75C475.924,184.767,480.99,193.445,485.682,202.502z M481.496,207.086
				c-2.559-5.099-5.076-10.184-7.566-15.145c-1.344-2.667-2.383-5.477-3.787-7.768c-4.619-7.523-12.59-9.541-21.316-12.75
				c-6.113-2.246-16.471-3.289-22.314-0.599c0,16.537,0,33.073,0,49.608c18.398,0.005,36.855,0.063,54.984-0.197
				c0.723-0.811,2.035-1.026,2.393-2.195c-4.619-2.021-8.947-4.336-13.549-6.375c-1.18,1.617-2.766,8.812-6.174,7.77
				c-1.826-0.557-0.943-4.533-0.398-6.572c0.67-2.508,1.561-4.859,2.191-6.577c1.77-4.804,3.439-9.289,6.975-10.559
				c2.824,3.744-0.529,9.523-1.598,13.549c4.479,1.964,8.664,4.22,13.148,6.177C484.455,212.554,482.846,209.762,481.496,207.086z
				 M424.719,171.621c-3.312,1.709-2.391,8.565-2.391,14.145c0,9.414,0,19.477,0,29.287c0,3.033-0.911,6.439,2.191,5.381
				C425.314,205.236,424.92,186.438,424.719,171.621z M470.541,199.91c-1.605,2.18-3.346,4.229-3.189,8.172
				c2.145-1.123,2.857-5.376,3.984-8.172C471.072,199.91,470.807,199.91,470.541,199.91z M469.941,208.68
				c1.289-1.371,2.035-4.34,1.797-6.575C471.455,204.336,468.635,206.803,469.941,208.68z M464.365,216.846
				c0.982-1.515,2.545-5.041,1.197-6.974C465.09,212.125,464.26,214.018,464.365,216.846z M465.563,217.443
				c1.484-0.854,3.309-3.443,2.189-5.579C466.951,213.535,465.514,215.583,465.563,217.443z M421.332,225.614
				c0.083,20.407-0.107,42.655,0,62.954c0.007,0.928-0.658,3.102,0.997,3.385c1.092-2.273,0.598-5.133,0.598-7.77
				c0-17.225,0-34.119,0-51.398c0-2.663,0.594-7.965-0.996-7.77C421.642,225.126,421.443,225.326,421.332,225.614z M204.774,226.608
				c0.016,0.062-0.02,0.139,0,0.2c0.489,1.455,8.843,0.795,11.556,0.795c60.896,0,121.478,0,181.694,0
				c1.758,0,4.165,0.658,5.577-0.795c-1.384-1.459-3.679-0.798-5.378-0.798c-64.211,0-128.961,0-192.851,0
				C205.085,226.122,204.884,226.32,204.774,226.608z M206.168,229.998c-0.199,0-0.237,0.158-0.397,0.195c0,0.197,0,0.402,0,0.6
				c63.39,0.363,128.563,0.197,192.053,0.197c2.053,0,4.581,0.496,5.777-0.6C338.415,229.467,271.711,230.261,206.168,229.998z
				 M192.224,271.037c2.287,1.1,6.376,0.395,9.562,0.598c-0.161-0.901-0.576-1.549-0.796-2.391
				C198.389,269.394,191.543,267.625,192.224,271.037z M192.622,273.229c0.145,1.115,0.583,1.94,1.395,2.388
				c2.717-0.509,6.799-0.352,9.362-0.396c-0.15-0.977-0.519-1.742-1.195-2.194C199.333,275.139,195.763,273.063,192.622,273.229z
				 M196.208,277.215c1.713,1.605,5.342,1.299,7.971,1.99c0.391-0.538,0.116-1.741,0.197-2.588
				C201.777,276.938,197.843,275.922,196.208,277.215z M356.187,299.126c0.065,1.63,5.572,0.997,7.968,0.997
				c43.424,0,86.556,0,129.298,0c1.076,0,3.074,0.597,3.783-0.796c-0.66-1.383-2.494-0.798-3.584-0.798
				c-45.549,0-91.638,0-136.871,0C356.497,298.64,356.295,298.84,356.187,299.126z"/>
			<path fill-rule="evenodd" clip-rule="evenodd" fill="#FFFFFF" d="M424.52,220.434c-3.102,1.059-2.191-2.348-2.191-5.381
				c0-9.811,0-19.873,0-29.287c0-5.579-0.921-12.436,2.391-14.145C424.92,186.438,425.314,205.236,424.52,220.434z"/>
			<path fill-rule="evenodd" clip-rule="evenodd" fill="#FFFFFF" d="M471.336,199.91c-1.127,2.796-1.84,7.049-3.984,8.172
				c-0.156-3.942,1.584-5.992,3.189-8.172C470.807,199.91,471.072,199.91,471.336,199.91z"/>
			<path fill-rule="evenodd" clip-rule="evenodd" fill="#FFFFFF" d="M471.738,202.104c0.238,2.235-0.508,5.204-1.797,6.575
				C468.635,206.803,471.455,204.336,471.738,202.104z"/>
			<path fill-rule="evenodd" clip-rule="evenodd" fill="#FFFFFF" d="M465.563,209.872c1.348,1.933-0.215,5.459-1.197,6.974
				C464.26,214.018,465.09,212.125,465.563,209.872z"/>
			<path fill-rule="evenodd" clip-rule="evenodd" fill="#FFFFFF" d="M467.752,211.864c1.119,2.136-0.705,4.726-2.189,5.579
				C465.514,215.583,466.951,213.535,467.752,211.864z"/>
			<path fill-rule="evenodd" clip-rule="evenodd" fill="#FFFFFF" d="M421.93,225.016c1.589-0.195,0.996,5.106,0.996,7.77
				c0,17.279,0,34.174,0,51.398c0,2.637,0.494,5.496-0.598,7.77c-1.655-0.283-0.99-2.457-0.997-3.385
				c-0.107-20.299,0.083-42.547,0-62.954C421.443,225.326,421.642,225.126,421.93,225.016z"/>
			<path fill-rule="evenodd" clip-rule="evenodd" fill="#FFFFFF" d="M205.373,226.011c63.89,0,128.64,0,192.851,0
				c1.699,0,3.994-0.661,5.378,0.798c-1.412,1.453-3.819,0.795-5.577,0.795c-60.217,0-120.798,0-181.694,0
				c-2.713,0-11.066,0.66-11.556-0.795c-0.02-0.062,0.016-0.139,0-0.2C204.884,226.32,205.085,226.122,205.373,226.011z"/>
			<path fill-rule="evenodd" clip-rule="evenodd" fill="#FFFFFF" d="M403.601,230.391c-1.196,1.096-3.725,0.6-5.777,0.6
				c-63.489,0-128.663,0.166-192.053-0.197c0-0.197,0-0.402,0-0.6c0.16-0.037,0.198-0.195,0.397-0.195
				C271.711,230.261,338.415,229.467,403.601,230.391z"/>
			<path fill-rule="evenodd" clip-rule="evenodd" fill="#FFFFFF" d="M200.989,269.244c0.22,0.842,0.635,1.489,0.796,2.391
				c-3.186-0.203-7.275,0.502-9.562-0.598C191.543,267.625,198.389,269.394,200.989,269.244z"/>
			<path fill-rule="evenodd" clip-rule="evenodd" fill="#FFFFFF" d="M202.185,273.026c0.676,0.452,1.044,1.218,1.195,2.194
				c-2.563,0.044-6.645-0.113-9.362,0.396c-0.813-0.447-1.25-1.272-1.395-2.388C195.763,273.063,199.333,275.139,202.185,273.026z"
				/>
			<path fill-rule="evenodd" clip-rule="evenodd" fill="#FFFFFF" d="M204.375,276.617c-0.081,0.847,0.193,2.05-0.197,2.588
				c-2.629-0.691-6.257-0.385-7.971-1.99C197.843,275.922,201.777,276.938,204.375,276.617z"/>
				<path fill-rule="evenodd" clip-rule="evenodd" fill="#FFFFFF" d="M356.782,298.529c45.232,0,91.322,0,136.871,0
				c1.09,0,2.924-0.585,3.584,0.798c-0.709,1.393-2.707,0.796-3.783,0.796c-42.742,0-85.875,0-129.298,0
				c-2.396,0-7.902,0.633-7.968-0.997C356.295,298.84,356.497,298.64,356.782,298.529z"/>
				<path fill-rule="evenodd" clip-rule="evenodd" fill="#FFFFFF" d="M309.168,297.732c7.254-1.113,12.961,3.771,13.747,9.366
				c1.218,8.645-5.347,14.926-13.747,13.745c-4.752-0.669-10.702-5.655-9.563-13.745
				C300.292,302.215,304.426,298.461,309.168,297.732z"/>
			
			<path fill-rule="evenodd" clip-rule="evenodd" fill="#FFFFFF" d="M535.092,300.521c7.254-1.111,12.959,3.77,13.742,9.363
				c1.219,8.649-5.342,14.928-13.742,13.746c-4.752-0.668-10.703-5.654-9.563-13.746
				C526.215,305.004,530.346,301.249,535.092,300.521z"/>
			
		</g>

		<g class="objects" id="wheels">
			<path fill-rule="evenodd" clip-rule="evenodd" fill="#777575" d="M309.766,277.611c12.057-0.838,21.969,5.681,27.096,12.749
				c3.102,4.276,6.154,11.821,6.175,18.729c0.051,18.064-14.431,31.826-31.677,31.873c-9.497,0.031-17.068-3.916-22.512-9.363
				c-5.008-5.008-9.336-12.561-9.363-22.314c-0.029-9.48,4.348-17.295,8.964-21.912C293.537,282.283,299.76,278.305,309.766,277.611
				z M299.605,307.099c-1.139,8.09,4.812,13.076,9.563,13.745c8.4,1.181,14.965-5.101,13.747-13.745
				c-0.786-5.596-6.493-10.479-13.747-9.366C304.426,298.461,300.292,302.215,299.605,307.099z"/>
			<path fill-rule="evenodd" clip-rule="evenodd" fill="#777575" d="M535.092,282.591c9.088-0.333,16.564,3.622,21.316,8.371
				c4.57,4.569,8.949,12.083,8.965,20.717c0.018,9.433-3.869,15.819-8.768,20.72c-5.018,5.018-12.33,8.781-20.717,8.766
				c-8.828-0.018-15.654-3.9-20.521-8.766c-4.809-4.811-8.75-11.198-8.768-20.52c-0.016-8.633,3.727-15.584,8.369-20.324
				C519.553,286.875,525.961,282.926,535.092,282.591z M525.529,309.885c-1.141,8.092,4.811,13.078,9.563,13.746
				c8.4,1.182,14.961-5.097,13.742-13.746c-0.783-5.594-6.488-10.475-13.742-9.363C530.346,301.249,526.215,305.004,525.529,309.885
				z"/>
			
		</g>
	</g>
	<g class="objects" id="plane">
		<polygon fill="#82421D" points="10.638,340.564 56.424,335.812 54.997,314.198 		"/>
		<polygon fill="#9B5524" points="200.748,211.508 10.076,322.194 10.076,340.564 206.067,223.881 		"/>
		<polygon fill="#AF6C2D" stroke="#E0DEDF" stroke-width="0.5495" stroke-miterlimit="10" points="10.076,340.564 15.136,340.564 
			206.067,226.814 206.067,223.881 		"/>
		<polygon fill="#BA7343" points="200.748,211.508 213.125,211.508 221.399,223.881 206.067,223.881 		"/>
		<polygon fill="#AF6C2D" stroke="#E0DEDF" stroke-width="0.5495" stroke-miterlimit="10" points="206.117,226.814 221.399,226.814 
			221.399,223.881 206.067,223.881 		"/>
	</g>
</g>
<rect fill-rule="evenodd" clip-rule="evenodd" fill="none" width="588.242" height="350.236"/>
<g class="objectsnot" id="wedgenot">
	<polygon fill="#E5AC67" stroke="#000000" stroke-width="0.2042" stroke-linejoin="bevel" stroke-miterlimit="10" points="
		333.719,329.077 345.254,319.347 352.061,328.537 343.063,343.538 	"/>
	<polygon fill="#CE8D44" stroke="#000000" stroke-width="0.2042" stroke-linejoin="bevel" stroke-miterlimit="10" points="
		333.719,329.077 343.063,343.538 323.85,343.538 	"/>
</g>
</svg>
