<?xml version="1.0" encoding="utf-8"?>
<!-- Generator: Adobe Illustrator 15.0.0, SVG Export Plug-In . SVG Version: 6.00 Build 0)  -->
<!DOCTYPE svg PUBLIC "-//W3C//DTD SVG 1.1//EN" "http://www.w3.org/Graphics/SVG/1.1/DTD/svg11.dtd">
<svg version="1.1" id="Layer_1" xmlns="http://www.w3.org/2000/svg" xmlns:xlink="http://www.w3.org/1999/xlink" x="0px" y="0px" width="600px" height="600px" viewBox="0 0 399.714 399.714" xml:space="preserve">

<g  id="circle1">
		 <path  fill="#BFC0C1" stroke="#000000" stroke-width="3.4959" stroke-miterlimit="10" d="M11.226,199.898
		 	c0,104.473,84.479,189.096,188.66,189.096c104.293,0,188.889-84.623,188.889-189.096c0-104.249-84.596-188.893-188.889-188.893
		 	C95.705,11.006,11.226,95.649,11.226,199.898z M48.878,175.913c5.94-38.15,26.017-71.631,54.681-95.018l47.175,81.888l-7.594,13.13
		 	H48.878z M48.878,224.02h94.262l7.594,13.197l-47.175,81.81C74.895,295.728,54.818,262.285,48.878,224.02z M254.737,343.063
		 	c-17.021,6.507-35.419,10.189-54.852,10.189c-19.239,0-37.709-3.683-54.753-10.189l47.208-81.878h15.199L254.737,343.063z
		 	M351.114,224.02c-5.952,38.266-26.065,71.708-54.813,95.007l-47.175-81.858l7.565-13.148H351.114z M351.114,175.913h-94.423
		 	l-7.565-13.13l47.175-81.888C325.049,104.282,345.162,137.763,351.114,175.913z M207.54,138.817H192.34l-47.208-81.878
		 	c17.044-6.613,35.514-10.191,54.753-10.191c19.433,0,37.831,3.578,54.852,10.191L207.54,138.817z"/>
	 	<path transform="skewY(4)" fill="#D1D3D4" stroke="#000000" stroke-width="3.4959" stroke-miterlimit="10" d="M11.221,199.898
	 		c0,104.473,84.464,189.096,188.645,189.096c104.304,0,188.914-84.623,188.914-189.096c0-104.249-84.61-188.893-188.914-188.893
	 		C95.685,11.006,11.221,95.649,11.221,199.898z M48.872,175.913c5.936-38.15,26.017-71.631,54.683-95.008l47.185,81.878l-7.605,13.13
	 		H48.872z M48.872,224.02h94.262l7.605,13.197l-47.185,81.819C74.889,295.728,54.808,262.285,48.872,224.02z M254.717,343.092
	 		c-17.011,6.487-35.403,10.16-54.852,10.16c-19.224,0-37.708-3.673-54.739-10.16l47.2-81.907h15.216L254.717,343.092z
	 		M351.107,224.02c-5.952,38.266-26.065,71.708-54.816,95.017l-47.175-81.849l7.568-13.168H351.107z M351.107,175.913h-94.423
	 		l-7.568-13.13l47.175-81.878C325.042,104.282,345.155,137.763,351.107,175.913z M207.542,138.817h-15.216l-47.2-81.878
	 		c17.031-6.613,35.516-10.191,54.739-10.191c19.448,0,37.841,3.578,54.852,10.191L207.542,138.817z"/>
	 	<animateTransform attributeName="transform" attributeType="XML"  type="rotate" dur="0.1s" xlink:href="#circle1" repeatCount="100" from= "0 200 200" to= "-45 200 200" fill="freeze" /> 

	 	<!-- of ropeway -->
	 	<!-- <path transform="skewX(10)" fill="#A7A9AC" stroke="#000000" stroke-width="0.2208" stroke-miterlimit="10" d="M79.482,27.128
					c-4.915,0-8.899,7.163-8.899,16.001c0,8.836,3.984,16,8.899,16s8.9-7.164,8.9-16C88.382,34.291,84.397,27.128,79.482,27.128z
					 M80.615,30.315c1.798,0.51,3.375,2.213,4.473,4.645l-3.854,4l-0.619-0.646V30.315z M78.351,30.315v7.999l-0.619,0.646l-3.854-4
					C74.976,32.528,76.552,30.825,78.351,30.315z M72.744,47.772c-0.307-1.442-0.477-3.008-0.477-4.644
					c0-1.639,0.169-3.203,0.477-4.645l3.855,4.001v1.285L72.744,47.772z M78.351,55.94c-1.799-0.51-3.375-2.214-4.473-4.646
					l3.854-3.999l0.619,0.645V55.94z M80.615,55.94v-8l0.619-0.645l3.854,3.999C83.99,53.727,82.413,55.431,80.615,55.94z
					 M82.365,43.771v-1.285l3.855-4.001c0.307,1.441,0.477,3.006,0.477,4.645c0,1.636-0.169,3.201-0.477,4.644L82.365,43.771z"/>
				<path transform="skewX(10)" fill="#A7A9AC" stroke="#000000" stroke-width="0.2208" stroke-miterlimit="10" d="M78.277,27.128
					c-4.915,0-8.899,7.163-8.899,16.001c0,8.836,3.984,16,8.899,16c4.916,0,8.9-7.164,8.9-16
					C87.177,34.291,83.193,27.128,78.277,27.128z M79.41,30.315c1.797,0.51,3.375,2.213,4.472,4.645l-3.854,4l-0.619-0.646V30.315z
					 M77.146,30.315v7.999l-0.619,0.646l-3.854-4C73.771,32.528,75.347,30.825,77.146,30.315z M71.54,47.772
					c-0.308-1.442-0.477-3.008-0.477-4.644c0-1.639,0.169-3.203,0.477-4.645l3.855,4.001v1.285L71.54,47.772z M77.146,55.94
					c-1.798-0.51-3.375-2.214-4.473-4.646l3.854-3.999l0.619,0.645V55.94z M79.41,55.94v-8l0.619-0.645l3.854,3.999
					C82.785,53.727,81.207,55.431,79.41,55.94z M81.16,43.771v-1.285l3.856-4.001c0.307,1.441,0.476,3.006,0.476,4.645
					c0,1.636-0.169,3.201-0.476,4.644L81.16,43.771z"/>
				<path transform="skewX(10)" fill="#D1D3D4" stroke="#000000" stroke-width="0.2208" stroke-miterlimit="10" d="M77.165,26.997
					c-4.915,0-8.899,7.162-8.899,15.999c0,8.838,3.985,16.001,8.899,16.001c4.915,0,8.9-7.163,8.9-16.001
					C86.064,34.159,82.08,26.997,77.165,26.997z M78.296,30.185c1.798,0.509,3.375,2.213,4.472,4.644l-3.853,4l-0.62-0.645V30.185z
					 M76.032,30.185v7.999l-0.62,0.645l-3.853-4C72.658,32.397,74.234,30.693,76.032,30.185z M70.427,47.641
					c-0.308-1.442-0.477-3.008-0.477-4.645s0.169-3.202,0.477-4.645l3.854,4.002v1.285L70.427,47.641z M76.032,55.809
					c-1.798-0.51-3.375-2.213-4.473-4.645l3.854-4l0.619,0.645V55.809z M78.296,55.809v-8l0.62-0.645l3.853,4
					C81.671,53.596,80.094,55.299,78.296,55.809z M80.048,43.639v-1.285l3.854-4.002c0.308,1.442,0.477,3.008,0.477,4.645
					s-0.169,3.202-0.477,4.645L80.048,43.639z"/> -->
</g>
	 
</svg>
