<?xml version="1.0" encoding="utf-8"?>
<!-- Generator: Adobe Illustrator 15.0.0, SVG Export Plug-In . SVG Version: 6.00 Build 0)  -->
<!DOCTYPE svg PUBLIC "-//W3C//DTD SVG 1.1//EN" "http://www.w3.org/Graphics/SVG/1.1/DTD/svg11.dtd">
<svg version="1.1" id="Layer_1" xmlns="http://www.w3.org/2000/svg" xmlns:xlink="http://www.w3.org/1999/xlink" x="0px" y="0px"
	 width="766.33px" height="766.33px" viewBox="0 0 766.33 766.33" enable-background="new 0 0 766.33 766.33" xml:space="preserve">
<path id="fill-4" fill="transparent" stroke="#000000" stroke-width="8" stroke-miterlimit="10" d="M383.165,2
	C172.653,2,2,172.652,2,383.164v0.001h381.165V2z"/>
<path id="fill-3" fill="transparent" stroke="#000000" stroke-width="8" stroke-miterlimit="10" d="M2,383.165
	C2.001,593.676,172.653,764.33,383.164,764.33l0.001-381.165H2z"/>
<path id="fill-2" fill="transparent" stroke="#000000" stroke-width="8" stroke-miterlimit="10" d="M383.165,383.165l-0.001,381.165
	c0.001,0,0.001,0,0.001,0c210.512,0,381.164-170.654,381.165-381.165H383.165z"/>
<path id="fill-1" fill="transparent" stroke="#000000" stroke-width="8" stroke-miterlimit="10" d="M764.33,383.165L764.33,383.165
	C764.33,172.652,593.677,2,383.165,2l0,0v381.165H764.33z"/>
</svg>
