selector,english_word,engmeaning,nepali_word,nepmeaning,image
समीकरण,समीकरण,"दुई वा दुईभन्‍दा बढी गणितीय अभिव्यञ्जकहरूको बिचमा बराबर ""‍="" राख्‍ने प्रक्रिया उदाहरण: 3 + 4 = 7",,,
गणितीय,गणितीय,गणित विषय सँग सम्बन्धित,,,
संक्षेप,संक्षेप,केहि कुराको छोटो विवरण,,,
