<?xml version="1.0" encoding="utf-8"?>
<!-- Generator: Adobe Illustrator 15.0.0, SVG Export Plug-In . SVG Version: 6.00 Build 0)  -->
<svg version="1.1" id="Layer_1" xmlns="http://www.w3.org/2000/svg" xmlns:xlink="http://www.w3.org/1999/xlink" x="0px" y="0px"
	 width="560px" height="450px" viewBox="0 0 560 450" enable-background="new 0 0 560 450" xml:space="preserve">
<line fill="none" stroke="#666666" stroke-width="3.7791" stroke-miterlimit="10" x1="553.807" y1="227.705" x2="31.038" y2="227.705"/>
<g>
	<path fill="#999999" d="M20.267,224.122c0-30.026,4.266-59.366,12.716-87.637c3.841-12.851,8.546-25.48,14.108-37.854
		c15.838-35.235,37.85-66.729,65.479-93.773H91.051C36.08,64.908,5.947,142.191,5.947,224.122
		c0,82.735,30.746,160.724,86.749,221.02h21.731C54.459,387.309,20.267,307.456,20.267,224.122z"/>
	<path fill="#231F20" d="M29.923,224.122c0-82.872,35.119-162.685,96.345-218.975l-0.261-0.287h-2.85H112.57
		C84.941,31.903,62.929,63.398,47.091,98.632c-5.563,12.373-10.268,25.003-14.108,37.854c-8.45,28.271-12.715,57.61-12.715,87.637
		c0,83.334,34.192,163.187,94.16,221.02h10.637h3.49C65.86,388.671,29.923,308.221,29.923,224.122z"/>
	<path fill="#231F20" d="M20.268,224.122c0-30.026,4.265-59.366,12.715-87.637C24.532,164.756,20.267,194.096,20.268,224.122
		c-0.001,83.334,34.191,163.187,94.159,221.02h0.001C54.46,387.309,20.268,307.456,20.268,224.122z"/>
</g>
<path fill="none" stroke="#007DC5" stroke-dasharray="900" stroke-dashoffset="900" stroke-width="2" stroke-linejoin="bevel" stroke-miterlimit="10" d="M553.807,170.354H35.126
	l147.741,57.904">
	<animate id="ray1" attributeName="stroke-dashoffset" from="900" to="0" dur="3s" begin="1s;ray1.end+1s"/>
</path>
<path fill="none" stroke="#007DC5" stroke-dasharray="900" stroke-dashoffset="900" stroke-width="2" stroke-linejoin="bevel" stroke-miterlimit="10" d="M553.807,105.989H53.975
	l129.273,121.7">
	<animate id="ray2" attributeName="stroke-dashoffset" from="900" to="0" dur="3s" begin="1s;ray2.end+1s"/>
</path>
<path fill="none" stroke="#007DC5" stroke-dasharray="900" stroke-dashoffset="900" stroke-width="2" stroke-linejoin="bevel" stroke-miterlimit="10" d="M554.055,283.984H35.389
	l146.412-56.553">
	<animate id="ray3" attributeName="stroke-dashoffset" from="900" to="0" dur="3s" begin="1s;ray3.end+1s"/>
</path>
<path fill="none" stroke="#007DC5" stroke-dasharray="900" stroke-dashoffset="900" stroke-width="2" stroke-linejoin="bevel" stroke-miterlimit="10" d="M552.721,345.984H56.722
	L183.12,227.191">
	<animate id="ray4" attributeName="stroke-dashoffset" from="900" to="0" dur="3s" begin="1s;ray4.end+1s"/>
</path>
</svg>
