<?xml version="1.0" encoding="utf-8"?>
<!DOCTYPE svg PUBLIC "-//W3C//DTD SVG 1.1//EN" "http://www.w3.org/Graphics/SVG/1.1/DTD/svg11.dtd">
<svg version="1.1" id="Layer_1" xmlns="http://www.w3.org/2000/svg" xmlns:xlink="http://www.w3.org/1999/xlink" x="0px" y="0px" width="100%" height="100%" viewBox="0 0 1440 782.25" enable-background="new 0 0 1440 782.25" xml:space="preserve" preserveAspectRatio="none">
<animate  id="zoom1" attributeName="viewBox" from="0 0 1440 782.25" to="900 0 840 600"  dur="2s" begin="1s;zoom2.end+3s" fill="freeze"/>
<animate  id="zoom2" attributeName="viewBox" from="900 0 840 600" to="0 0 1440 782.25"  dur="2s" begin="zoom1.end+5s" fill="freeze"/>
<g>
	<g>
		<rect x="6" y="31.279" fill="#CECAC8" width="76.723" height="76.701"/>
		<text transform="matrix(1.0003 0 0 1 31.5371 84.6563)" fill="#231F20" font-family="'Calibri-Bold'" font-size="35">H</text>
		<g>
			<g>
				<text transform="matrix(1.0003 0 0 1 38.7041 49.4854)" fill="#231F20" font-family="'Calibri-Bold'" font-size="22.313">1</text>
			</g>
		</g>
	</g>
	<text transform="matrix(1.0003 0 0 1 24.5947 97.9189)" fill="#231F20" font-family="'Calibri-Bold'" font-size="9.762">Hydro­gen</text>
</g>
<g>
	<g>
		<rect x="1357.887" y="31.279" fill="#B99664" width="76.719" height="76.701"/>
		<text transform="matrix(1.0003 0 0 1 1373.1895 83.9355)" fill="#231F20" font-family="'Calibri-Bold'" font-size="35">He</text>
		<text transform="matrix(1.0003 0 0 1 1381.627 99.9893)" fill="#231F20" font-family="'Calibri-Bold'" font-size="9.762">Helium</text>
	</g>
	<g>
		<g>
			<text transform="matrix(1.0003 0 0 1 1390.5908 49.4854)" fill="#231F20" font-family="'Calibri-Bold'" font-size="22.313">2</text>
		</g>
	</g>
</g>
<g>
	<rect x="85.723" y="110.77" fill="#CECAC8" width="76.722" height="76.701"/>
	<text transform="matrix(1.0003 0 0 1 102.4561 163.4268)" fill="#231F20" font-family="'Calibri-Bold'" font-size="35">Be</text>
	<text transform="matrix(1.0003 0 0 1 104.5601 179.4785)" fill="#231F20" font-family="'Calibri-Bold'" font-size="9.762">Beryl­lium</text>
	<g>
		<g>
			<text transform="matrix(1.0003 0 0 1 118.4287 128.9766)" fill="#231F20" font-family="'Calibri-Bold'" font-size="22.313">4</text>
		</g>
	</g>
</g>
<g>
	<g>
		<rect x="960.333" y="110.77" fill="#CECAC8" width="76.722" height="76.701"/>
		<text transform="matrix(1.0003 0 0 1 987.3008 164.9893)" fill="#231F20" font-family="'Calibri-Bold'" font-size="35">B</text>
		<text transform="matrix(1.0003 0 0 1 986.2617 181.0439)" fill="#231F20" font-family="'Calibri-Bold'" font-size="9.762">Boron</text>
	</g>
	<g>
		<g>
			<text transform="matrix(1.0003 0 0 1 993.0391 128.9766)" fill="#231F20" font-family="'Calibri-Bold'" font-size="22.313">5</text>
		</g>
	</g>
</g>
<g>
	<g>
		<rect x="1039.846" y="110.77" fill="#CECAC8" width="76.719" height="76.701"/>
		<text transform="matrix(1.0003 0 0 1 1067.4453 163.4268)" fill="#231F20" font-family="'Calibri-Bold'" font-size="35">C</text>
		<text transform="matrix(1.0003 0 0 1 1063.5205 179.4785)" fill="#231F20" font-family="'Calibri-Bold'" font-size="9.762">Carbon</text>
	</g>
	<g>
		<g>
			<text transform="matrix(1.0003 0 0 1 1072.5508 128.9766)" fill="#231F20" font-family="'Calibri-Bold'" font-size="22.313">6</text>
		</g>
	</g>
</g>
<g>
	<g>
		<rect x="1119.355" y="110.77" fill="#CECAC8" width="76.724" height="76.701"/>
		<text transform="matrix(1.0003 0 0 1 1144.3252 163.4268)" fill="#231F20" font-family="'Calibri-Bold'" font-size="35">N</text>
		<text transform="matrix(1.0003 0 0 1 1139.7627 179.4785)" fill="#231F20" font-family="'Calibri-Bold'" font-size="9.762">Nitro­gen</text>
	</g>
	<g>
		<g>
			<text transform="matrix(1.0003 0 0 1 1152.0596 128.9766)" fill="#231F20" font-family="'Calibri-Bold'" font-size="22.313">7</text>
		</g>
	</g>
</g>
<g>
	<g>
		<rect x="1198.865" y="110.77" fill="#CECAC8" width="76.72" height="76.701"/>
		<text transform="matrix(1.0003 0 0 1 1223.4785 163.4268)" fill="#231F20" font-family="'Calibri-Bold'" font-size="35">O</text>
		<text transform="matrix(1.0003 0 0 1 1221.8838 179.4785)" fill="#231F20" font-family="'Calibri-Bold'" font-size="9.762">Oxy­gen</text>
	</g>
	<g>
		<g>
			<text transform="matrix(1.0003 0 0 1 1231.5703 128.9766)" fill="#231F20" font-family="'Calibri-Bold'" font-size="22.313">8</text>
		</g>
	</g>
</g>
<g>
	<g>
		<rect x="1278.375" y="110.77" fill="#CECAC8" width="76.721" height="76.701"/>
		<text transform="matrix(1.0003 0 0 1 1307.4053 163.4268)" fill="#231F20" font-family="'Calibri-Bold'" font-size="35">F</text>
		<text transform="matrix(1.0003 0 0 1 1299.9482 179.4785)" fill="#231F20" font-family="'Calibri-Bold'" font-size="9.762">Fluor­ine</text>
	</g>
	<g>
		<g>
			<text transform="matrix(1.0003 0 0 1 1311.0811 128.9766)" fill="#231F20" font-family="'Calibri-Bold'" font-size="22.313">9</text>
		</g>
	</g>
</g>
<g>
	<g>
		<rect x="1357.887" y="110.77" fill="#B99664" width="76.719" height="76.701"/>
		<text transform="matrix(1.0003 0 0 1 1372.623 163.4268)" fill="#231F20" font-family="'Calibri-Bold'" font-size="35">Ne</text>
		<text transform="matrix(1.0003 0 0 1 1385.2363 179.4785)" fill="#231F20" font-family="'Calibri-Bold'" font-size="9.762">Neon</text>
	</g>
	<g>
		<g>
			<text transform="matrix(1.0003 0 0 1 1384.9355 128.9766)" fill="#231F20" font-family="'Calibri-Bold'" font-size="22.313">10</text>
		</g>
	</g>
</g>
<g>
	<rect x="85.723" y="190.26" fill="#CECAC8" width="76.722" height="76.703"/>
	<text transform="matrix(1.0003 0 0 1 96.6802 242.916)" fill="#231F20" font-family="'Calibri-Bold'" font-size="35">Mg</text>
	<text transform="matrix(1.0003 0 0 1 100.1831 258.9688)" fill="#231F20" font-family="'Calibri-Bold'" font-size="9.762">Magne­sium</text>
	<g>
		<g>
			<text transform="matrix(1.0003 0 0 1 112.7725 208.4648)" fill="#231F20" font-family="'Calibri-Bold'" font-size="22.313">12</text>
		</g>
	</g>
</g>
<g>
	<g>
		<rect x="960.333" y="190.26" fill="#CECAC8" width="76.722" height="76.703"/>
		<text transform="matrix(1.0003 0 0 1 981.3848 244.4785)" fill="#231F20" font-family="'Calibri-Bold'" font-size="35">Al</text>
		<text transform="matrix(1.0003 0 0 1 976.2451 260.5332)" fill="#231F20" font-family="'Calibri-Bold'" font-size="9.762">Alumin­ium</text>
	</g>
	<g>
		<g>
			<text transform="matrix(1.0003 0 0 1 987.3838 208.4648)" fill="#231F20" font-family="'Calibri-Bold'" font-size="22.313">13</text>
		</g>
	</g>
</g>
<g>
	<g>
		<rect x="1039.846" y="190.26" fill="#CECAC8" width="76.719" height="76.703"/>
		<text transform="matrix(1.0003 0 0 1 1063.6045 244.4785)" fill="#231F20" font-family="'Calibri-Bold'" font-size="35">Si</text>
		<text transform="matrix(1.0003 0 0 1 1064.9219 260.5332)" fill="#231F20" font-family="'Calibri-Bold'" font-size="9.762">Sili­con</text>
	</g>
	<g>
		<g>
			<text transform="matrix(1.0003 0 0 1 1066.8955 208.4648)" fill="#231F20" font-family="'Calibri-Bold'" font-size="22.313">14</text>
		</g>
	</g>
</g>
<g>
	<g>
		<rect x="1119.355" y="190.26" fill="#CECAC8" width="76.724" height="76.703"/>
		<text transform="matrix(1.0003 0 0 1 1146.8955 242.916)" fill="#231F20" font-family="'Calibri-Bold'" font-size="35">P</text>
		<text transform="matrix(1.0003 0 0 1 1133.665 258.9688)" fill="#231F20" font-family="'Calibri-Bold'" font-size="9.762">Phos­phorus</text>
	</g>
	<g>
		<g>
			<text transform="matrix(1.0003 0 0 1 1146.4043 208.4648)" fill="#231F20" font-family="'Calibri-Bold'" font-size="22.313">15</text>
		</g>
	</g>
</g>
<g>
	<g>
		<rect x="1198.865" y="190.26" fill="#CECAC8" width="76.72" height="76.703"/>
		<text transform="matrix(1.0003 0 0 1 1227.6172 242.916)" fill="#231F20" font-family="'Calibri-Bold'" font-size="35">S</text>
		<text transform="matrix(1.0003 0 0 1 1225.1074 258.9688)" fill="#231F20" font-family="'Calibri-Bold'" font-size="9.762">Sulfur</text>
	</g>
	<g>
		<g>
			<text transform="matrix(1.0003 0 0 1 1225.915 208.4648)" fill="#231F20" font-family="'Calibri-Bold'" font-size="22.313">16</text>
		</g>
	</g>
</g>
<g>
	<g>
		<rect x="1278.375" y="190.26" fill="#CECAC8" width="76.721" height="76.703"/>
		<text transform="matrix(1.0003 0 0 1 1300.9844 242.916)" fill="#231F20" font-family="'Calibri-Bold'" font-size="35">Cl</text>
		<text transform="matrix(1.0003 0 0 1 1299.6045 258.9688)" fill="#231F20" font-family="'Calibri-Bold'" font-size="9.762">Chlor­ine</text>
	</g>
	<g>
		<g>
			<text transform="matrix(1.0003 0 0 1 1305.4258 208.4648)" fill="#231F20" font-family="'Calibri-Bold'" font-size="22.313">17</text>
		</g>
	</g>
</g>
<g>
	<g>
		<rect x="1357.887" y="190.26" fill="#B99664" width="76.719" height="76.703"/>
		<text transform="matrix(1.0003 0 0 1 1376.7021 242.916)" fill="#231F20" font-family="'Calibri-Bold'" font-size="35">Ar</text>
		<text transform="matrix(1.0003 0 0 1 1383.9014 258.9688)" fill="#231F20" font-family="'Calibri-Bold'" font-size="9.762">Argon</text>
	</g>
	<g>
		<g>
			<text transform="matrix(1.0003 0 0 1 1384.9355 208.4648)" fill="#231F20" font-family="'Calibri-Bold'" font-size="22.313">18</text>
		</g>
	</g>
</g>
<g>
	<rect x="85.723" y="269.75" fill="#CECAC8" width="76.722" height="76.705"/>
	<text transform="matrix(1.0003 0 0 1 103.2896 322.4063)" fill="#231F20" font-family="'Calibri-Bold'" font-size="35">Ca</text>
	<text transform="matrix(1.0003 0 0 1 107.9644 338.46)" fill="#231F20" font-family="'Calibri-Bold'" font-size="9.762">Cal­cium</text>
	<g>
		<g>
			<text transform="matrix(1.0003 0 0 1 112.7725 287.9561)" fill="#231F20" font-family="'Calibri-Bold'" font-size="22.313">20</text>
		</g>
	</g>
</g>
<g>
	<g>
		<rect x="165.231" y="269.75" fill="#CECAC8" width="76.723" height="76.705"/>
		<text transform="matrix(1.0003 0 0 1 185.4785 322.4063)" fill="#231F20" font-family="'Calibri-Bold'" font-size="35">Sc</text>
		<text transform="matrix(1.0003 0 0 1 183.71 338.46)" fill="#231F20" font-family="'Calibri-Bold'" font-size="9.762">Scan­dium</text>
	</g>
	<g>
		<g>
			<text transform="matrix(1.0003 0 0 1 192.2827 287.9561)" fill="#231F20" font-family="'Calibri-Bold'" font-size="22.313">21</text>
		</g>
	</g>
</g>
<g>
	<g>
		<rect x="244.743" y="269.75" fill="#CECAC8" width="76.72" height="76.705"/>
		<text transform="matrix(1.0003 0 0 1 268.0469 322.4063)" fill="#231F20" font-family="'Calibri-Bold'" font-size="35">Ti</text>
		<text transform="matrix(1.0003 0 0 1 264.8828 338.46)" fill="#231F20" font-family="'Calibri-Bold'" font-size="9.762">Tita­nium</text>
	</g>
	<g>
		<g>
			<text transform="matrix(1.0003 0 0 1 271.7939 287.9561)" fill="#231F20" font-family="'Calibri-Bold'" font-size="22.313">22</text>
		</g>
	</g>
</g>
<g>
	<g>
		<rect x="324.254" y="269.75" fill="#CECAC8" width="76.72" height="76.705"/>
		<text transform="matrix(1.0003 0 0 1 350.5928 322.4063)" fill="#231F20" font-family="'Calibri-Bold'" font-size="35">V</text>
		<text transform="matrix(1.0003 0 0 1 341.7842 338.46)" fill="#231F20" font-family="'Calibri-Bold'" font-size="9.762">Vana­dium</text>
	</g>
	<g>
		<g>
			<text transform="matrix(1.0003 0 0 1 351.3037 287.9561)" fill="#231F20" font-family="'Calibri-Bold'" font-size="22.313">23</text>
		</g>
	</g>
</g>
<g>
	<g>
		<rect x="403.764" y="269.75" fill="#CECAC8" width="76.723" height="76.705"/>
		<text transform="matrix(1.0003 0 0 1 424.1387 322.4063)" fill="#231F20" font-family="'Calibri-Bold'" font-size="35">Cr</text>
		<text transform="matrix(1.0003 0 0 1 420.7061 338.46)" fill="#231F20" font-family="'Calibri-Bold'" font-size="9.762">Chrom­ium</text>
	</g>
	<g>
		<g>
			<text transform="matrix(1.0003 0 0 1 430.8145 287.9561)" fill="#231F20" font-family="'Calibri-Bold'" font-size="22.313">24</text>
		</g>
	</g>
</g>
<g>
	<g>
		<rect x="483.273" y="269.75" fill="#CECAC8" width="76.725" height="76.705"/>
		<text transform="matrix(1.0003 0 0 1 492.96 322.4063)" fill="#231F20" font-family="'Calibri-Bold'" font-size="35">Mn</text>
		<text transform="matrix(1.0003 0 0 1 498.0371 338.46)" fill="#231F20" font-family="'Calibri-Bold'" font-size="9.762">Manga­nese</text>
	</g>
	<g>
		<g>
			<text transform="matrix(1.0003 0 0 1 510.3232 287.9561)" fill="#231F20" font-family="'Calibri-Bold'" font-size="22.313">25</text>
		</g>
	</g>
</g>
<g>
	<g>
		<rect x="562.784" y="269.75" fill="#CECAC8" width="76.72" height="76.705"/>
		<text transform="matrix(1.0003 0 0 1 581.5811 322.4063)" fill="#231F20" font-family="'Calibri-Bold'" font-size="35">Fe</text>
		<text transform="matrix(1.0003 0 0 1 592.7705 338.46)" fill="#231F20" font-family="'Calibri-Bold'" font-size="9.762">Iron</text>
	</g>
	<g>
		<g>
			<text transform="matrix(1.0003 0 0 1 589.835 287.9561)" fill="#231F20" font-family="'Calibri-Bold'" font-size="22.313">26</text>
		</g>
	</g>
</g>
<g>
	<g>
		<rect x="642.294" y="269.75" fill="#CECAC8" width="76.72" height="76.705"/>
		<text transform="matrix(1.0003 0 0 1 658.9658 322.4063)" fill="#231F20" font-family="'Calibri-Bold'" font-size="35">Co</text>
		<text transform="matrix(1.0003 0 0 1 667.4316 338.46)" fill="#231F20" font-family="'Calibri-Bold'" font-size="9.762">Cobalt</text>
	</g>
	<g>
		<g>
			<text transform="matrix(1.0003 0 0 1 669.3428 287.9561)" fill="#231F20" font-family="'Calibri-Bold'" font-size="22.313">27</text>
		</g>
	</g>
</g>
<g>
	<g>
		<rect x="721.805" y="269.75" fill="#CECAC8" width="76.722" height="76.705"/>
		<text transform="matrix(1.0003 0 0 1 741.7822 322.4063)" fill="#231F20" font-family="'Calibri-Bold'" font-size="35">Ni</text>
		<text transform="matrix(1.0003 0 0 1 747.6152 338.46)" fill="#231F20" font-family="'Calibri-Bold'" font-size="9.762">Nickel</text>
	</g>
	<g>
		<g>
			<text transform="matrix(1.0003 0 0 1 748.8516 287.9561)" fill="#231F20" font-family="'Calibri-Bold'" font-size="22.313">28</text>
		</g>
	</g>
</g>
<g>
	<g>
		<rect x="801.314" y="269.75" fill="#CECAC8" width="76.725" height="76.705"/>
		<text transform="matrix(1.0003 0 0 1 818.0059 322.4063)" fill="#231F20" font-family="'Calibri-Bold'" font-size="35">Cu</text>
		<text transform="matrix(1.0003 0 0 1 824.9414 338.46)" fill="#231F20" font-family="'Calibri-Bold'" font-size="9.762">Copper</text>
	</g>
	<g>
		<g>
			<text transform="matrix(1.0003 0 0 1 828.3633 287.9561)" fill="#231F20" font-family="'Calibri-Bold'" font-size="22.313">29</text>
		</g>
	</g>
</g>
<g>
	<g>
		<rect x="880.824" y="269.75" fill="#CECAC8" width="76.721" height="76.705"/>
		<text transform="matrix(1.0003 0 0 1 898.5605 322.4063)" fill="#231F20" font-family="'Calibri-Bold'" font-size="35">Zn</text>
		<text transform="matrix(1.0003 0 0 1 910.8975 338.46)" fill="#231F20" font-family="'Calibri-Bold'" font-size="9.762">Zinc</text>
	</g>
	<g>
		<g>
			<text transform="matrix(1.0003 0 0 1 907.874 287.9561)" fill="#231F20" font-family="'Calibri-Bold'" font-size="22.313">30</text>
		</g>
	</g>
</g>
<g>
	<g>
		<rect x="960.333" y="269.75" fill="#CECAC8" width="76.722" height="76.705"/>
		<text transform="matrix(1.0003 0 0 1 975.708 323.9688)" fill="#231F20" font-family="'Calibri-Bold'" font-size="35">Ga</text>
		<text transform="matrix(1.0003 0 0 1 982.8936 340.0225)" fill="#231F20" font-family="'Calibri-Bold'" font-size="9.762">Gallium</text>
	</g>
	<g>
		<g>
			<text transform="matrix(1.0003 0 0 1 987.3838 287.9561)" fill="#231F20" font-family="'Calibri-Bold'" font-size="22.313">31</text>
		</g>
	</g>
</g>
<g>
	<g>
		<rect x="1039.846" y="269.75" fill="#CECAC8" width="76.719" height="76.705"/>
		<text transform="matrix(1.0003 0 0 1 1055.0205 323.9688)" fill="#231F20" font-family="'Calibri-Bold'" font-size="35">Ge</text>
		<text transform="matrix(1.0003 0 0 1 1054.0176 340.0225)" fill="#231F20" font-family="'Calibri-Bold'" font-size="9.762">Germa­nium</text>
	</g>
	<g>
		<g>
			<text transform="matrix(1.0003 0 0 1 1066.8955 287.9561)" fill="#231F20" font-family="'Calibri-Bold'" font-size="22.313">32</text>
		</g>
	</g>
</g>
<g>
	<g>
		<rect x="1119.355" y="269.75" fill="#CECAC8" width="76.724" height="76.705"/>
		<text transform="matrix(1.0003 0 0 1 1137.2891 323.9688)" fill="#231F20" font-family="'Calibri-Bold'" font-size="35">As</text>
		<text transform="matrix(1.0003 0 0 1 1142.6621 340.0225)" fill="#231F20" font-family="'Calibri-Bold'" font-size="9.762">Arsenic</text>
	</g>
	<g>
		<g>
			<text transform="matrix(1.0003 0 0 1 1146.4043 287.9561)" fill="#231F20" font-family="'Calibri-Bold'" font-size="22.313">33</text>
		</g>
	</g>
</g>
<g>
	<g>
		<rect x="1198.865" y="269.75" fill="#CECAC8" width="76.72" height="76.705"/>
		<text transform="matrix(1.0003 0 0 1 1217.3848 322.4063)" fill="#231F20" font-family="'Calibri-Bold'" font-size="35">Se</text>
		<text transform="matrix(1.0003 0 0 1 1218.3008 338.46)" fill="#231F20" font-family="'Calibri-Bold'" font-size="9.762">Sele­nium</text>
	</g>
	<g>
		<g>
			<text transform="matrix(1.0003 0 0 1 1225.915 287.9561)" fill="#231F20" font-family="'Calibri-Bold'" font-size="22.313">34</text>
		</g>
	</g>
</g>
<g>
	<g>
		<rect x="1278.375" y="269.75" fill="#CECAC8" width="76.721" height="76.705"/>
		<text transform="matrix(1.0003 0 0 1 1298.1152 322.4063)" fill="#231F20" font-family="'Calibri-Bold'" font-size="35">Br</text>
		<text transform="matrix(1.0003 0 0 1 1299.2998 338.46)" fill="#231F20" font-family="'Calibri-Bold'" font-size="9.762">Bromine</text>
	</g>
	<g>
		<g>
			<text transform="matrix(1.0003 0 0 1 1305.4258 287.9561)" fill="#231F20" font-family="'Calibri-Bold'" font-size="22.313">35</text>
		</g>
	</g>
</g>
<g>
	<g>
		<rect x="1357.887" y="269.75" fill="#B99664" width="76.719" height="76.705"/>
		<text transform="matrix(1.0003 0 0 1 1377.9033 322.4063)" fill="#231F20" font-family="'Calibri-Bold'" font-size="35">Kr</text>
		<text transform="matrix(1.0003 0 0 1 1379.8799 338.46)" fill="#231F20" font-family="'Calibri-Bold'" font-size="9.762">Kryp­ton</text>
	</g>
	<g>
		<g>
			<text transform="matrix(1.0003 0 0 1 1384.9355 287.9561)" fill="#231F20" font-family="'Calibri-Bold'" font-size="22.313">36</text>
		</g>
	</g>
</g>
<g>
	<rect x="85.723" y="349.24" fill="#CECAC8" width="76.722" height="76.701"/>
	<text transform="matrix(1.0003 0 0 1 107.2495 401.8965)" fill="#231F20" font-family="'Calibri-Bold'" font-size="35">Sr</text>
	<text transform="matrix(1.0003 0 0 1 103.5615 417.9512)" fill="#231F20" font-family="'Calibri-Bold'" font-size="9.762">Stront­ium</text>
	<g>
		<g>
			<text transform="matrix(1.0003 0 0 1 112.7725 367.4482)" fill="#231F20" font-family="'Calibri-Bold'" font-size="22.313">38</text>
		</g>
	</g>
</g>
<g>
	<g>
		<rect x="165.231" y="349.24" fill="#CECAC8" width="76.723" height="76.701"/>
		<text transform="matrix(1.0003 0 0 1 193.0308 401.8965)" fill="#231F20" font-family="'Calibri-Bold'" font-size="35">Y</text>
		<text transform="matrix(1.0003 0 0 1 188.2344 417.9512)" fill="#231F20" font-family="'Calibri-Bold'" font-size="9.762">Yttrium</text>
	</g>
	<g>
		<g>
			<text transform="matrix(1.0003 0 0 1 192.2827 367.4482)" fill="#231F20" font-family="'Calibri-Bold'" font-size="22.313">39</text>
		</g>
	</g>
</g>
<g>
	<g>
		<rect x="244.743" y="349.24" fill="#CECAC8" width="76.72" height="76.701"/>
		<text transform="matrix(1.0003 0 0 1 266.1611 401.8965)" fill="#231F20" font-family="'Calibri-Bold'" font-size="35">Zr</text>
		<text transform="matrix(1.0003 0 0 1 262.666 417.9512)" fill="#231F20" font-family="'Calibri-Bold'" font-size="9.762">Zirco­nium</text>
	</g>
	<g>
		<g>
			<text transform="matrix(1.0003 0 0 1 271.7939 367.4482)" fill="#231F20" font-family="'Calibri-Bold'" font-size="22.313">40</text>
		</g>
	</g>
</g>
<g>
	<g>
		<rect x="324.254" y="349.24" fill="#CECAC8" width="76.72" height="76.701"/>
		<text transform="matrix(1.0003 0 0 1 338.3154 401.8965)" fill="#231F20" font-family="'Calibri-Bold'" font-size="35">Nb</text>
		<text transform="matrix(1.0003 0 0 1 345.0713 417.9512)" fill="#231F20" font-family="'Calibri-Bold'" font-size="9.762">Nio­bium</text>
	</g>
	<g>
		<g>
			<text transform="matrix(1.0003 0 0 1 351.3037 367.4482)" fill="#231F20" font-family="'Calibri-Bold'" font-size="22.313">41</text>
		</g>
	</g>
</g>
<g>
	<g>
		<rect x="403.764" y="349.24" fill="#CECAC8" width="76.723" height="76.701"/>
		<text transform="matrix(1.0003 0 0 1 413.4297 401.8965)" fill="#231F20" font-family="'Calibri-Bold'" font-size="35">Mo</text>
		<text transform="matrix(1.0003 0 0 1 414.7197 417.9512)" fill="#231F20" font-family="'Calibri-Bold'" font-size="9.762">Molyb­denum</text>
	</g>
	<g>
		<g>
			<text transform="matrix(1.0003 0 0 1 430.8145 367.4482)" fill="#231F20" font-family="'Calibri-Bold'" font-size="22.313">42</text>
		</g>
	</g>
</g>
<g>
	<g>
		<rect x="483.273" y="349.24" fill="#CECAC8" width="76.725" height="76.701"/>
		<text transform="matrix(1.0003 0 0 1 503.0635 401.8965)" fill="#231F20" font-family="'Calibri-Bold'" font-size="35">Tc</text>
		<text transform="matrix(1.0003 0 0 1 497.4766 417.9512)" fill="#231F20" font-family="'Calibri-Bold'" font-size="9.762">Tech­netium</text>
	</g>
	<g>
		<g>
			<text transform="matrix(1.0003 0 0 1 510.3232 367.4482)" fill="#231F20" font-family="'Calibri-Bold'" font-size="22.313">43</text>
		</g>
	</g>
</g>
<g>
	<g>
		<rect x="562.784" y="349.24" fill="#CECAC8" width="76.72" height="76.701"/>
		<text transform="matrix(1.0003 0 0 1 578.792 401.8965)" fill="#231F20" font-family="'Calibri-Bold'" font-size="35">Ru</text>
		<text transform="matrix(1.0003 0 0 1 578.5039 417.9512)" fill="#231F20" font-family="'Calibri-Bold'" font-size="9.762">Ruthe­nium</text>
	</g>
	<g>
		<g>
			<text transform="matrix(1.0003 0 0 1 589.835 367.4482)" fill="#231F20" font-family="'Calibri-Bold'" font-size="22.313">44</text>
		</g>
	</g>
</g>
<g>
	<g>
		<rect x="642.294" y="349.24" fill="#CECAC8" width="76.72" height="76.701"/>
		<text transform="matrix(1.0003 0 0 1 658.3018 401.8965)" fill="#231F20" font-family="'Calibri-Bold'" font-size="35">Rh</text>
		<text transform="matrix(1.0003 0 0 1 662.1592 417.9512)" fill="#231F20" font-family="'Calibri-Bold'" font-size="9.762">Rho­dium</text>
	</g>
	<g>
		<g>
			<text transform="matrix(1.0003 0 0 1 669.3428 367.4482)" fill="#231F20" font-family="'Calibri-Bold'" font-size="22.313">45</text>
		</g>
	</g>
</g>
<g>
	<g>
		<rect x="721.805" y="349.24" fill="#CECAC8" width="76.722" height="76.701"/>
		<text transform="matrix(1.0003 0 0 1 738.4365 401.8965)" fill="#231F20" font-family="'Calibri-Bold'" font-size="35">Pd</text>
		<text transform="matrix(1.0003 0 0 1 739.8457 417.9512)" fill="#231F20" font-family="'Calibri-Bold'" font-size="9.762">Pallad­ium</text>
	</g>
	<g>
		<g>
			<text transform="matrix(1.0003 0 0 1 748.8516 367.4482)" fill="#231F20" font-family="'Calibri-Bold'" font-size="22.313">46</text>
		</g>
	</g>
</g>
<g>
	<g>
		<rect x="801.314" y="349.24" fill="#CECAC8" width="76.725" height="76.701"/>
		<text transform="matrix(1.0003 0 0 1 817.7197 401.8965)" fill="#231F20" font-family="'Calibri-Bold'" font-size="35">Ag</text>
		<text transform="matrix(1.0003 0 0 1 828.374 417.9512)" fill="#231F20" font-family="'Calibri-Bold'" font-size="9.762">Silver</text>
	</g>
	<g>
		<g>
			<text transform="matrix(1.0003 0 0 1 828.3633 367.4482)" fill="#231F20" font-family="'Calibri-Bold'" font-size="22.313">47</text>
		</g>
	</g>
</g>
<g>
	<g>
		<rect x="880.824" y="349.24" fill="#CECAC8" width="76.721" height="76.701"/>
		<text transform="matrix(1.0003 0 0 1 897.5176 401.8965)" fill="#231F20" font-family="'Calibri-Bold'" font-size="35">Cd</text>
		<text transform="matrix(1.0003 0 0 1 899.7178 417.9512)" fill="#231F20" font-family="'Calibri-Bold'" font-size="9.762">Cad­mium</text>
	</g>
	<g>
		<g>
			<text transform="matrix(1.0003 0 0 1 907.874 367.4482)" fill="#231F20" font-family="'Calibri-Bold'" font-size="22.313">48</text>
		</g>
	</g>
</g>
<g>
	<g>
		<rect x="960.333" y="349.24" fill="#CECAC8" width="76.722" height="76.701"/>
		<text transform="matrix(1.0003 0 0 1 982.3682 403.459)" fill="#231F20" font-family="'Calibri-Bold'" font-size="35">In</text>
		<text transform="matrix(1.0003 0 0 1 984.2705 419.5137)" fill="#231F20" font-family="'Calibri-Bold'" font-size="9.762">Indium</text>
	</g>
	<g>
		<g>
			<text transform="matrix(1.0003 0 0 1 987.3838 367.4482)" fill="#231F20" font-family="'Calibri-Bold'" font-size="22.313">49</text>
		</g>
	</g>
</g>
<g>
	<g>
		<rect x="1039.846" y="349.24" fill="#CECAC8" width="76.719" height="76.701"/>
		<text transform="matrix(1.0003 0 0 1 1057.6895 403.459)" fill="#231F20" font-family="'Calibri-Bold'" font-size="35">Sn</text>
		<text transform="matrix(1.0003 0 0 1 1071.8779 419.5137)" fill="#231F20" font-family="'Calibri-Bold'" font-size="9.762">Tin</text>
	</g>
	<g>
		<g>
			<text transform="matrix(1.0003 0 0 1 1066.8955 367.4482)" fill="#231F20" font-family="'Calibri-Bold'" font-size="22.313">50</text>
		</g>
	</g>
</g>
<g>
	<g>
		<rect x="1119.355" y="349.24" fill="#CECAC8" width="76.724" height="76.701"/>
		<text transform="matrix(1.0003 0 0 1 1137.1992 403.459)" fill="#231F20" font-family="'Calibri-Bold'" font-size="35">Sb</text>
		<text transform="matrix(1.0003 0 0 1 1137.6582 419.5137)" fill="#231F20" font-family="'Calibri-Bold'" font-size="9.762">Anti­mony</text>
	</g>
	<g>
		<g>
			<text transform="matrix(1.0003 0 0 1 1146.4043 367.4482)" fill="#231F20" font-family="'Calibri-Bold'" font-size="22.313">51</text>
		</g>
	</g>
</g>
<g>
	<g>
		<rect x="1198.865" y="349.24" fill="#CECAC8" width="76.72" height="76.701"/>
		<text transform="matrix(1.0003 0 0 1 1216.9287 403.459)" fill="#231F20" font-family="'Calibri-Bold'" font-size="35">Te</text>
		<text transform="matrix(1.0003 0 0 1 1217.7148 419.5137)" fill="#231F20" font-family="'Calibri-Bold'" font-size="9.762">Tellur­ium</text>
	</g>
	<g>
		<g>
			<text transform="matrix(1.0003 0 0 1 1225.915 367.4482)" fill="#231F20" font-family="'Calibri-Bold'" font-size="22.313">52</text>
		</g>
	</g>
</g>
<g>
	<g>
		<rect x="1278.375" y="349.24" fill="#CECAC8" width="76.721" height="76.701"/>
		<text transform="matrix(1.0003 0 0 1 1311.3154 401.8965)" fill="#231F20" font-family="'Calibri-Bold'" font-size="35">I</text>
		<text transform="matrix(1.0003 0 0 1 1303.8213 417.9512)" fill="#231F20" font-family="'Calibri-Bold'" font-size="9.762">Iodine</text>
	</g>
	<g>
		<g>
			<text transform="matrix(1.0003 0 0 1 1305.4258 367.4482)" fill="#231F20" font-family="'Calibri-Bold'" font-size="22.313">53</text>
		</g>
	</g>
</g>
<g>
	<g>
		<rect x="1357.887" y="349.24" fill="#B99664" width="76.719" height="76.701"/>
		<text transform="matrix(1.0003 0 0 1 1374.8164 401.8965)" fill="#231F20" font-family="'Calibri-Bold'" font-size="35">Xe</text>
		<text transform="matrix(1.0003 0 0 1 1383.1426 417.9512)" fill="#231F20" font-family="'Calibri-Bold'" font-size="9.762">Xenon</text>
	</g>
	<g>
		<g>
			<text transform="matrix(1.0003 0 0 1 1384.9355 367.4482)" fill="#231F20" font-family="'Calibri-Bold'" font-size="22.313">54</text>
		</g>
	</g>
</g>
<g>
	<rect x="85.723" y="428.732" fill="#CECAC8" width="76.722" height="76.696"/>
	<text transform="matrix(1.0003 0 0 1 102.6548 481.0938)" fill="#231F20" font-family="'Calibri-Bold'" font-size="35">Ba</text>
	<text transform="matrix(1.0003 0 0 1 109.3184 497.4395)" fill="#231F20" font-family="'Calibri-Bold'" font-size="9.762">Barium</text>
	<g>
		<g>
			<text transform="matrix(1.0003 0 0 1 112.7725 446.9375)" fill="#231F20" font-family="'Calibri-Bold'" font-size="22.313">56</text>
		</g>
	</g>
</g>
<g>
	<g>
		<rect x="165.231" y="620.307" fill="#CECAC8" width="76.723" height="76.703"/>
		<text transform="matrix(1.0003 0 0 1 184.9624 674.5254)" fill="#231F20" font-family="'Calibri-Bold'" font-size="35">La</text>
		<text transform="matrix(1.0003 0 0 1 180.4727 690.5801)" fill="#231F20" font-family="'Calibri-Bold'" font-size="9.762">Lan­thanum</text>
	</g>
	<g>
		<g>
			<text transform="matrix(1.0003 0 0 1 192.2827 638.5137)" fill="#231F20" font-family="'Calibri-Bold'" font-size="22.313">57</text>
		</g>
	</g>
</g>
<g>
	<g>
		<rect x="165.231" y="428.732" fill="#CECAC8" width="76.723" height="76.696"/>
		<text transform="matrix(1.0003 0 0 1 178.0518 454.123)" fill="#231F20" font-family="'Calibri-Bold'" font-size="21.8837">57-71</text>
	</g>
	<text transform="matrix(1.0003 0 0 1 181.0015 479.2246)" fill="#231F20" font-family="'Calibri-Bold'" font-size="16.7348">La-Lu</text>
	<text transform="matrix(1.0003 0 0 1 167.5996 495.5547)" fill="#231F20" font-family="'Calibri-Bold'" font-size="13.6085">Lanthanide</text>
</g>
<g>
	<g>
		<rect x="244.743" y="620.307" fill="#CECAC8" width="76.72" height="76.703"/>
		<text transform="matrix(1.0003 0 0 1 262.1123 674.5254)" fill="#231F20" font-family="'Calibri-Bold'" font-size="35">Ce</text>
		<text transform="matrix(1.0003 0 0 1 268.4443 690.5801)" fill="#231F20" font-family="'Calibri-Bold'" font-size="9.762">Cerium</text>
	</g>
	<g>
		<g>
			<text transform="matrix(1.0003 0 0 1 271.7939 638.5137)" fill="#231F20" font-family="'Calibri-Bold'" font-size="22.313">58</text>
		</g>
	</g>
</g>
<g>
	<g>
		<rect x="324.254" y="620.307" fill="#CECAC8" width="76.72" height="76.703"/>
		<text transform="matrix(1.0003 0 0 1 344.5684 674.5254)" fill="#231F20" font-family="'Calibri-Bold'" font-size="35">Pr</text>
		<text transform="matrix(1.0003 0 0 1 332.0527 690.5801)" fill="#231F20" font-family="'Calibri-Bold'" font-size="9.762">Praseo­dymium</text>
	</g>
	<g>
		<g>
			<text transform="matrix(1.0003 0 0 1 351.3037 638.5137)" fill="#231F20" font-family="'Calibri-Bold'" font-size="22.313">59</text>
		</g>
	</g>
</g>
<g>
	<g>
		<rect x="403.764" y="620.307" fill="#CECAC8" width="76.723" height="76.703"/>
		<text transform="matrix(1.0003 0 0 1 417.8262 674.5254)" fill="#231F20" font-family="'Calibri-Bold'" font-size="35">Nd</text>
		<text transform="matrix(1.0003 0 0 1 417.0391 690.5801)" fill="#231F20" font-family="'Calibri-Bold'" font-size="9.762">Neo­dymium</text>
	</g>
	<g>
		<g>
			<text transform="matrix(1.0003 0 0 1 430.8145 638.5137)" fill="#231F20" font-family="'Calibri-Bold'" font-size="22.313">60</text>
		</g>
	</g>
</g>
<g>
	<g>
		<rect x="483.273" y="620.307" fill="#CECAC8" width="76.725" height="76.703"/>
		<text transform="matrix(1.0003 0 0 1 494.2803 674.5254)" fill="#231F20" font-family="'Calibri-Bold'" font-size="35">Pm</text>
		<text transform="matrix(1.0003 0 0 1 496.0508 690.5801)" fill="#231F20" font-family="'Calibri-Bold'" font-size="9.762">Prome­thium</text>
	</g>
	<g>
		<g>
			<text transform="matrix(1.0003 0 0 1 510.3232 638.5137)" fill="#231F20" font-family="'Calibri-Bold'" font-size="22.313">61</text>
		</g>
	</g>
</g>
<g>
	<g>
		<rect x="562.784" y="620.307" fill="#CECAC8" width="76.72" height="76.703"/>
		<text transform="matrix(1.0003 0 0 1 575.001 674.5254)" fill="#231F20" font-family="'Calibri-Bold'" font-size="35">Sm</text>
		<text transform="matrix(1.0003 0 0 1 580.4277 690.5801)" fill="#231F20" font-family="'Calibri-Bold'" font-size="9.762">Sama­rium</text>
	</g>
	<g>
		<g>
			<text transform="matrix(1.0003 0 0 1 589.835 638.5137)" fill="#231F20" font-family="'Calibri-Bold'" font-size="22.313">62</text>
		</g>
	</g>
</g>
<g>
	<g>
		<rect x="642.294" y="620.307" fill="#CECAC8" width="76.72" height="76.703"/>
		<text transform="matrix(1.0003 0 0 1 659.8301 674.5254)" fill="#231F20" font-family="'Calibri-Bold'" font-size="35">Eu</text>
		<text transform="matrix(1.0003 0 0 1 660.791 690.5801)" fill="#231F20" font-family="'Calibri-Bold'" font-size="9.762">Europ­ium</text>
	</g>
	<g>
		<g>
			<text transform="matrix(1.0003 0 0 1 669.3438 638.5137)" fill="#231F20" font-family="'Calibri-Bold'" font-size="22.313">63</text>
		</g>
	</g>
</g>
<g>
	<g>
		<rect x="721.805" y="620.307" fill="#CECAC8" width="76.722" height="76.703"/>
		<text transform="matrix(1.0003 0 0 1 736.3037 674.5254)" fill="#231F20" font-family="'Calibri-Bold'" font-size="35">Gd</text>
		<text transform="matrix(1.0003 0 0 1 736.499 690.5801)" fill="#231F20" font-family="'Calibri-Bold'" font-size="9.762">Gadolin­ium</text>
	</g>
	<g>
		<g>
			<text transform="matrix(1.0003 0 0 1 748.8516 638.5137)" fill="#231F20" font-family="'Calibri-Bold'" font-size="22.313">64</text>
		</g>
	</g>
</g>
<g>
	<g>
		<rect x="801.314" y="620.307" fill="#CECAC8" width="76.725" height="76.703"/>
		<text transform="matrix(1.0003 0 0 1 818.7012 674.5254)" fill="#231F20" font-family="'Calibri-Bold'" font-size="35">Tb</text>
		<text transform="matrix(1.0003 0 0 1 822.5615 690.5801)" fill="#231F20" font-family="'Calibri-Bold'" font-size="9.762">Ter­bium</text>
	</g>
	<g>
		<g>
			<text transform="matrix(1.0003 0 0 1 828.3643 638.5137)" fill="#231F20" font-family="'Calibri-Bold'" font-size="22.313">65</text>
		</g>
	</g>
</g>
<g>
	<g>
		<rect x="880.824" y="620.307" fill="#CECAC8" width="76.721" height="76.703"/>
		<text transform="matrix(1.0003 0 0 1 896.7441 674.5254)" fill="#231F20" font-family="'Calibri-Bold'" font-size="35">Dy</text>
		<text transform="matrix(1.0003 0 0 1 895.0381 690.5801)" fill="#231F20" font-family="'Calibri-Bold'" font-size="9.762">Dyspro­sium</text>
	</g>
	<g>
		<g>
			<text transform="matrix(1.0003 0 0 1 907.873 638.5137)" fill="#231F20" font-family="'Calibri-Bold'" font-size="22.313">66</text>
		</g>
	</g>
</g>
<g>
	<g>
		<rect x="960.333" y="620.307" fill="#CECAC8" width="76.722" height="76.703"/>
		<text transform="matrix(1.0003 0 0 1 974.9434 674.5254)" fill="#231F20" font-family="'Calibri-Bold'" font-size="35">Ho</text>
		<text transform="matrix(1.0003 0 0 1 979.9365 690.5801)" fill="#231F20" font-family="'Calibri-Bold'" font-size="9.762">Hol­mium</text>
	</g>
	<g>
		<g>
			<text transform="matrix(1.0003 0 0 1 987.3838 638.5137)" fill="#231F20" font-family="'Calibri-Bold'" font-size="22.313">67</text>
		</g>
	</g>
</g>
<g>
	<g>
		<rect x="1039.846" y="620.307" fill="#CECAC8" width="76.719" height="76.703"/>
		<text transform="matrix(1.0003 0 0 1 1061.0645 674.5254)" fill="#231F20" font-family="'Calibri-Bold'" font-size="35">Er</text>
		<text transform="matrix(1.0003 0 0 1 1063.5869 690.5801)" fill="#231F20" font-family="'Calibri-Bold'" font-size="9.762">Erbium</text>
	</g>
	<g>
		<g>
			<text transform="matrix(1.0003 0 0 1 1066.8936 638.5137)" fill="#231F20" font-family="'Calibri-Bold'" font-size="22.313">68</text>
		</g>
	</g>
</g>
<g>
	<g>
		<rect x="1119.355" y="620.307" fill="#CECAC8" width="76.724" height="76.703"/>
		<text transform="matrix(1.0003 0 0 1 1131.1162 674.5254)" fill="#231F20" font-family="'Calibri-Bold'" font-size="35">Tm</text>
		<text transform="matrix(1.0003 0 0 1 1140.9766 690.5801)" fill="#231F20" font-family="'Calibri-Bold'" font-size="9.762">Thulium</text>
	</g>
	<g>
		<g>
			<text transform="matrix(1.0003 0 0 1 1146.4043 638.5137)" fill="#231F20" font-family="'Calibri-Bold'" font-size="22.313">69</text>
		</g>
	</g>
</g>
<g>
	<g>
		<rect x="1198.865" y="620.307" fill="#CECAC8" width="76.72" height="76.703"/>
		<text transform="matrix(1.0003 0 0 1 1215.7578 674.5254)" fill="#231F20" font-family="'Calibri-Bold'" font-size="35">Yb</text>
		<text transform="matrix(1.0003 0 0 1 1216.79 690.5801)" fill="#231F20" font-family="'Calibri-Bold'" font-size="9.762">Ytter­bium</text>
	</g>
	<g>
		<g>
			<text transform="matrix(1.0003 0 0 1 1225.915 638.5137)" fill="#231F20" font-family="'Calibri-Bold'" font-size="22.313">70</text>
		</g>
	</g>
</g>
<g>
	<g>
		<rect x="1278.375" y="620.307" fill="#CECAC8" width="76.721" height="76.703"/>
		<text transform="matrix(1.0003 0 0 1 1297.2324 674.5254)" fill="#231F20" font-family="'Calibri-Bold'" font-size="35">Lu</text>
		<text transform="matrix(1.0003 0 0 1 1298.3604 690.5801)" fill="#231F20" font-family="'Calibri-Bold'" font-size="9.762">Lute­tium</text>
	</g>
	<g>
		<g>
			<text transform="matrix(1.0003 0 0 1 1305.4258 638.5137)" fill="#231F20" font-family="'Calibri-Bold'" font-size="22.313">71</text>
		</g>
	</g>
</g>
<g>
	<g>
		<rect x="244.743" y="428.732" fill="#CECAC8" width="76.72" height="76.696"/>
		<text transform="matrix(1.0003 0 0 1 263.8486 481.3867)" fill="#231F20" font-family="'Calibri-Bold'" font-size="35">Hf</text>
		<text transform="matrix(1.0003 0 0 1 265.5674 497.4395)" fill="#231F20" font-family="'Calibri-Bold'" font-size="9.762">Haf­nium</text>
	</g>
	<g>
		<g>
			<text transform="matrix(1.0003 0 0 1 271.7939 446.9375)" fill="#231F20" font-family="'Calibri-Bold'" font-size="22.313">72</text>
		</g>
	</g>
</g>
<g>
	<g>
		<rect x="324.254" y="428.732" fill="#CECAC8" width="76.72" height="76.696"/>
		<text transform="matrix(1.0003 0 0 1 342.5137 481.3867)" fill="#231F20" font-family="'Calibri-Bold'" font-size="35">Ta</text>
		<text transform="matrix(1.0003 0 0 1 343.1807 497.4395)" fill="#231F20" font-family="'Calibri-Bold'" font-size="9.762">Tanta­lum</text>
	</g>
	<g>
		<g>
			<text transform="matrix(1.0003 0 0 1 351.3037 446.9375)" fill="#231F20" font-family="'Calibri-Bold'" font-size="22.313">73</text>
		</g>
	</g>
</g>
<g>
	<g>
		<rect x="403.764" y="428.732" fill="#CECAC8" width="76.723" height="76.696"/>
		<text transform="matrix(1.0003 0 0 1 423.7012 481.3867)" fill="#231F20" font-family="'Calibri-Bold'" font-size="35">W</text>
		<text transform="matrix(1.0003 0 0 1 423.3428 497.4395)" fill="#231F20" font-family="'Calibri-Bold'" font-size="9.762">Tung­sten</text>
	</g>
	<g>
		<g>
			<text transform="matrix(1.0003 0 0 1 430.8145 446.9375)" fill="#231F20" font-family="'Calibri-Bold'" font-size="22.313">74</text>
		</g>
	</g>
</g>
<g>
	<g>
		<rect x="483.273" y="428.732" fill="#CECAC8" width="76.725" height="76.696"/>
		<text transform="matrix(1.0003 0 0 1 499.957 481.3867)" fill="#231F20" font-family="'Calibri-Bold'" font-size="35">Re</text>
		<text transform="matrix(1.0003 0 0 1 503.3057 497.4395)" fill="#231F20" font-family="'Calibri-Bold'" font-size="9.762">Rhe­nium</text>
	</g>
	<g>
		<g>
			<text transform="matrix(1.0003 0 0 1 510.3232 446.9375)" fill="#231F20" font-family="'Calibri-Bold'" font-size="22.313">75</text>
		</g>
	</g>
</g>
<g>
	<g>
		<rect x="562.784" y="428.732" fill="#CECAC8" width="76.72" height="76.696"/>
		<text transform="matrix(1.0003 0 0 1 579.2881 481.3867)" fill="#231F20" font-family="'Calibri-Bold'" font-size="35">Os</text>
		<text transform="matrix(1.0003 0 0 1 584.041 497.4395)" fill="#231F20" font-family="'Calibri-Bold'" font-size="9.762">Os­mium</text>
	</g>
	<g>
		<g>
			<text transform="matrix(1.0003 0 0 1 589.835 446.9375)" fill="#231F20" font-family="'Calibri-Bold'" font-size="22.313">76</text>
		</g>
	</g>
</g>
<g>
	<g>
		<rect x="642.294" y="428.732" fill="#CECAC8" width="76.72" height="76.696"/>
		<text transform="matrix(1.0003 0 0 1 668.0088 481.3867)" fill="#231F20" font-family="'Calibri-Bold'" font-size="35">Ir</text>
		<text transform="matrix(1.0003 0 0 1 665.916 497.4395)" fill="#231F20" font-family="'Calibri-Bold'" font-size="9.762">Iridium</text>
	</g>
	<g>
		<g>
			<text transform="matrix(1.0003 0 0 1 669.3428 446.9375)" fill="#231F20" font-family="'Calibri-Bold'" font-size="22.313">77</text>
		</g>
	</g>
</g>
<g>
	<g>
		<rect x="721.805" y="428.732" fill="#CECAC8" width="76.722" height="76.696"/>
		<text transform="matrix(1.0003 0 0 1 742.2988 481.3867)" fill="#231F20" font-family="'Calibri-Bold'" font-size="35">Pt</text>
		<text transform="matrix(1.0003 0 0 1 741.7959 497.4395)" fill="#231F20" font-family="'Calibri-Bold'" font-size="9.762">Plat­inum</text>
	</g>
	<g>
		<g>
			<text transform="matrix(1.0003 0 0 1 748.8516 446.9375)" fill="#231F20" font-family="'Calibri-Bold'" font-size="22.313">78</text>
		</g>
	</g>
</g>
<g>
	<g>
		<rect x="801.314" y="428.732" fill="#CECAC8" width="76.725" height="76.696"/>
		<text transform="matrix(1.0003 0 0 1 816.4492 481.3867)" fill="#231F20" font-family="'Calibri-Bold'" font-size="35">Au</text>
		<text transform="matrix(1.0003 0 0 1 830.0283 497.4395)" fill="#231F20" font-family="'Calibri-Bold'" font-size="9.762">Gold</text>
	</g>
	<g>
		<g>
			<text transform="matrix(1.0003 0 0 1 828.3633 446.9375)" fill="#231F20" font-family="'Calibri-Bold'" font-size="22.313">79</text>
		</g>
	</g>
</g>
<g>
	<g>
		<rect x="880.824" y="428.732" fill="#CECAC8" width="76.721" height="76.696"/>
		<text transform="matrix(1.0003 0 0 1 896.7227 481.3867)" fill="#231F20" font-family="'Calibri-Bold'" font-size="35">Hg</text>
		<text transform="matrix(1.0003 0 0 1 901.9229 497.4395)" fill="#231F20" font-family="'Calibri-Bold'" font-size="9.762">Mer­cury</text>
	</g>
	<g>
		<g>
			<text transform="matrix(1.0003 0 0 1 907.874 446.9375)" fill="#231F20" font-family="'Calibri-Bold'" font-size="22.313">80</text>
		</g>
	</g>
</g>
<g>
	<g>
		<rect x="960.333" y="428.732" fill="#CECAC8" width="76.722" height="76.696"/>
		<text transform="matrix(1.0003 0 0 1 983.6387 482.9492)" fill="#231F20" font-family="'Calibri-Bold'" font-size="35">Tl</text>
		<text transform="matrix(1.0003 0 0 1 980.9678 499.0039)" fill="#231F20" font-family="'Calibri-Bold'" font-size="9.762">Thallium</text>
	</g>
	<g>
		<g>
			<text transform="matrix(1.0003 0 0 1 987.3838 446.9375)" fill="#231F20" font-family="'Calibri-Bold'" font-size="22.313">81</text>
		</g>
	</g>
</g>
<g>
	<g>
		<rect x="1039.846" y="428.732" fill="#CECAC8" width="76.719" height="76.696"/>
		<text transform="matrix(1.0003 0 0 1 1056.4785 482.9492)" fill="#231F20" font-family="'Calibri-Bold'" font-size="35">Pb</text>
		<text transform="matrix(1.0003 0 0 1 1068.5625 499.0039)" fill="#231F20" font-family="'Calibri-Bold'" font-size="9.762">Lead</text>
	</g>
	<g>
		<g>
			<text transform="matrix(1.0003 0 0 1 1066.8955 446.9375)" fill="#231F20" font-family="'Calibri-Bold'" font-size="22.313">82</text>
		</g>
	</g>
</g>
<g>
	<g>
		<rect x="1119.355" y="428.732" fill="#CECAC8" width="76.724" height="76.696"/>
		<text transform="matrix(1.0003 0 0 1 1141.3281 482.9492)" fill="#231F20" font-family="'Calibri-Bold'" font-size="35">Bi</text>
		<text transform="matrix(1.0003 0 0 1 1140.8359 499.0039)" fill="#231F20" font-family="'Calibri-Bold'" font-size="9.762">Bis­muth</text>
	</g>
	<g>
		<g>
			<text transform="matrix(1.0003 0 0 1 1146.4043 446.9375)" fill="#231F20" font-family="'Calibri-Bold'" font-size="22.313">83</text>
		</g>
	</g>
</g>
<g>
	<g>
		<rect x="1198.865" y="428.732" fill="#CECAC8" width="76.72" height="76.696"/>
		<text transform="matrix(1.0003 0 0 1 1215.4795 482.9492)" fill="#231F20" font-family="'Calibri-Bold'" font-size="35">Po</text>
		<text transform="matrix(1.0003 0 0 1 1217.6768 499.0039)" fill="#231F20" font-family="'Calibri-Bold'" font-size="9.762">Polo­nium</text>
	</g>
	<g>
		<g>
			<text transform="matrix(1.0003 0 0 1 1225.915 446.9375)" fill="#231F20" font-family="'Calibri-Bold'" font-size="22.313">84</text>
		</g>
	</g>
</g>
<g>
	<g>
		<rect x="1278.375" y="428.732" fill="#CECAC8" width="76.721" height="76.696"/>
		<text transform="matrix(1.0003 0 0 1 1297.3711 481.3867)" fill="#231F20" font-family="'Calibri-Bold'" font-size="35">At</text>
		<text transform="matrix(1.0003 0 0 1 1299.7002 497.4395)" fill="#231F20" font-family="'Calibri-Bold'" font-size="9.762">Asta­tine</text>
	</g>
	<g>
		<g>
			<text transform="matrix(1.0003 0 0 1 1305.4258 446.9375)" fill="#231F20" font-family="'Calibri-Bold'" font-size="22.313">85</text>
		</g>
	</g>
</g>
<g>
	<g>
		<rect x="1357.887" y="428.732" fill="#B99664" width="76.719" height="76.696"/>
		<text transform="matrix(1.0003 0 0 1 1373.8936 481.3867)" fill="#231F20" font-family="'Calibri-Bold'" font-size="35">Rn</text>
		<text transform="matrix(1.0003 0 0 1 1383.1309 497.4395)" fill="#231F20" font-family="'Calibri-Bold'" font-size="9.762">Radon</text>
	</g>
	<g>
		<g>
			<text transform="matrix(1.0003 0 0 1 1384.9355 446.9375)" fill="#231F20" font-family="'Calibri-Bold'" font-size="22.313">86</text>
		</g>
	</g>
</g>
<g>
	<g>
		<g>
			<rect x="6.213" y="110.77" fill="#CECAC8" width="76.72" height="76.701"/>
			<text transform="matrix(1.0003 0 0 1 30.9844 163.4268)" fill="#231F20" font-family="'Calibri-Bold'" font-size="35">Li</text>
			<g>
				<g>
					<text transform="matrix(1.0003 0 0 1 38.9165 128.9766)" fill="#231F20" font-family="'Calibri-Bold'" font-size="22.313">3</text>
				</g>
			</g>
		</g>
		<text transform="matrix(1.0003 0 0 1 29.1143 179.4785)" fill="#231F20" font-family="'Calibri-Bold'" font-size="9.762">Lith­ium</text>
	</g>
	<g>
		<rect x="6.213" y="190.26" fill="#CECAC8" width="76.72" height="76.703"/>
		<text transform="matrix(1.0003 0 0 1 21.1489 242.916)" fill="#231F20" font-family="'Calibri-Bold'" font-size="35">Na</text>
		<text transform="matrix(1.0003 0 0 1 29.1387 258.9688)" fill="#231F20" font-family="'Calibri-Bold'" font-size="9.762">So­dium</text>
		<g>
			<g>
				<text transform="matrix(1.0003 0 0 1 33.2603 208.4648)" fill="#231F20" font-family="'Calibri-Bold'" font-size="22.313">11</text>
			</g>
		</g>
	</g>
	<g>
		<rect x="6.213" y="269.75" fill="#CECAC8" width="76.72" height="76.705"/>
		<text transform="matrix(1.0003 0 0 1 33.4556 322.4063)" fill="#231F20" font-family="'Calibri-Bold'" font-size="35">K</text>
		<text transform="matrix(1.0003 0 0 1 23.4697 338.46)" fill="#231F20" font-family="'Calibri-Bold'" font-size="9.762">Potas­sium</text>
		<g>
			<g>
				<text transform="matrix(1.0003 0 0 1 33.2603 287.9561)" fill="#231F20" font-family="'Calibri-Bold'" font-size="22.313">19</text>
			</g>
		</g>
	</g>
	<g>
		<rect x="6.213" y="349.24" fill="#CECAC8" width="76.72" height="76.701"/>
		<text transform="matrix(1.0003 0 0 1 22.2207 401.8965)" fill="#231F20" font-family="'Calibri-Bold'" font-size="35">Rb</text>
		<text transform="matrix(1.0003 0 0 1 24.8828 417.9512)" fill="#231F20" font-family="'Calibri-Bold'" font-size="9.762">Rubid­ium</text>
		<g>
			<g>
				<text transform="matrix(1.0003 0 0 1 33.2603 367.4482)" fill="#231F20" font-family="'Calibri-Bold'" font-size="22.313">37</text>
			</g>
		</g>
	</g>
	<g>
		<rect x="6.213" y="428.732" fill="#CECAC8" width="76.72" height="76.696"/>
		<text transform="matrix(1.0003 0 0 1 25.7046 481.3867)" fill="#231F20" font-family="'Calibri-Bold'" font-size="35">Cs</text>
		<text transform="matrix(1.0003 0 0 1 27.291 497.4395)" fill="#231F20" font-family="'Calibri-Bold'" font-size="9.762">Cae­sium</text>
		<g>
			<g>
				<text transform="matrix(1.0003 0 0 1 33.2603 446.9375)" fill="#231F20" font-family="'Calibri-Bold'" font-size="22.313">55</text>
			</g>
		</g>
	</g>
	<g>
		<rect x="6.213" y="508.223" fill="#CECAC8" width="76.72" height="76.701"/>
		<text transform="matrix(1.0003 0 0 1 28.0171 560.877)" fill="#231F20" font-family="'Calibri-Bold'" font-size="35">Fr</text>
		<text transform="matrix(1.0003 0 0 1 25.6416 576.9297)" fill="#231F20" font-family="'Calibri-Bold'" font-size="9.762">Fran­cium</text>
		<g>
			<g>
				<text transform="matrix(1.0003 0 0 1 33.2603 526.4277)" fill="#231F20" font-family="'Calibri-Bold'" font-size="22.313">87</text>
			</g>
		</g>
	</g>
</g>
<g>
	<rect x="85.723" y="508.223" fill="#CECAC8" width="76.722" height="76.701"/>
	<text transform="matrix(1.0003 0 0 1 102.605 560.877)" fill="#231F20" font-family="'Calibri-Bold'" font-size="35">Ra</text>
	<text transform="matrix(1.0003 0 0 1 108.4219 576.9297)" fill="#231F20" font-family="'Calibri-Bold'" font-size="9.762">Ra­dium</text>
	<g>
		<g>
			<text transform="matrix(1.0003 0 0 1 112.7725 526.4277)" fill="#231F20" font-family="'Calibri-Bold'" font-size="22.313">88</text>
		</g>
	</g>
</g>
<g>
	<g>
		<rect x="165.231" y="508.223" fill="#CECAC8" width="76.723" height="76.701"/>
		<text transform="matrix(1.0003 0 0 1 172.5039 533.6133)" fill="#231F20" font-family="'Calibri-Bold'" font-size="21.8837">89-103</text>
	</g>
	<text transform="matrix(1.0003 0 0 1 180.0508 556.4629)" fill="#231F20" font-family="'Calibri-Bold'" font-size="16.7348">Ac-Lr</text>
	<text transform="matrix(1.0003 0 0 1 174.3413 572.793)" fill="#231F20" font-family="'Calibri-Bold'" font-size="13.6085">Actinide</text>
</g>
<g>
	<g>
		<rect x="165.231" y="699.799" fill="#CECAC8" width="76.723" height="76.699"/>
		<text transform="matrix(1.0003 0 0 1 182.7686 754.0176)" fill="#231F20" font-family="'Calibri-Bold'" font-size="35">Ac</text>
		<text transform="matrix(1.0003 0 0 1 185.231 770.0703)" fill="#231F20" font-family="'Calibri-Bold'" font-size="9.762">Actin­ium</text>
	</g>
	<g>
		<g>
			<text transform="matrix(1.0003 0 0 1 192.2827 718.0039)" fill="#231F20" font-family="'Calibri-Bold'" font-size="22.313">89</text>
		</g>
	</g>
</g>
<g>
	<g>
		<rect x="244.743" y="699.799" fill="#CECAC8" width="76.72" height="76.699"/>
		<text transform="matrix(1.0003 0 0 1 262.1318 754.0176)" fill="#231F20" font-family="'Calibri-Bold'" font-size="35">Th</text>
		<text transform="matrix(1.0003 0 0 1 265.8252 770.0703)" fill="#231F20" font-family="'Calibri-Bold'" font-size="9.762">Thor­ium</text>
	</g>
	<g>
		<g>
			<text transform="matrix(1.0003 0 0 1 271.7939 718.0039)" fill="#231F20" font-family="'Calibri-Bold'" font-size="22.313">90</text>
		</g>
	</g>
</g>
<g>
	<g>
		<rect x="324.254" y="699.799" fill="#CECAC8" width="76.72" height="76.699"/>
		<text transform="matrix(1.0003 0 0 1 341.7598 754.0176)" fill="#231F20" font-family="'Calibri-Bold'" font-size="35">Pa</text>
		<text transform="matrix(1.0003 0 0 1 336.1484 770.0703)" fill="#231F20" font-family="'Calibri-Bold'" font-size="9.762">Protac­tinium</text>
	</g>
	<g>
		<g>
			<text transform="matrix(1.0003 0 0 1 351.3037 718.0039)" fill="#231F20" font-family="'Calibri-Bold'" font-size="22.313">91</text>
		</g>
	</g>
</g>
<g>
	<g>
		<rect x="403.764" y="699.799" fill="#CECAC8" width="76.723" height="76.699"/>
		<text transform="matrix(1.0003 0 0 1 428.8525 754.0176)" fill="#231F20" font-family="'Calibri-Bold'" font-size="35">U</text>
		<text transform="matrix(1.0003 0 0 1 424.2891 770.0703)" fill="#231F20" font-family="'Calibri-Bold'" font-size="9.762">Ura­nium</text>
	</g>
	<g>
		<g>
			<text transform="matrix(1.0003 0 0 1 430.8145 718.0039)" fill="#231F20" font-family="'Calibri-Bold'" font-size="22.313">92</text>
		</g>
	</g>
</g>
<g>
	<g>
		<rect x="483.273" y="699.799" fill="#CECAC8" width="76.725" height="76.699"/>
		<text transform="matrix(1.0003 0 0 1 497.3369 754.0176)" fill="#231F20" font-family="'Calibri-Bold'" font-size="35">Np</text>
		<text transform="matrix(1.0003 0 0 1 498.5254 770.0703)" fill="#231F20" font-family="'Calibri-Bold'" font-size="9.762">Neptu­nium</text>
	</g>
	<g>
		<g>
			<text transform="matrix(1.0003 0 0 1 510.3232 718.0039)" fill="#231F20" font-family="'Calibri-Bold'" font-size="22.313">93</text>
		</g>
	</g>
</g>
<g>
	<g>
		<rect x="562.784" y="699.799" fill="#CECAC8" width="76.72" height="76.699"/>
		<text transform="matrix(1.0003 0 0 1 579.418 754.0176)" fill="#231F20" font-family="'Calibri-Bold'" font-size="35">Pu</text>
		<text transform="matrix(1.0003 0 0 1 579.9072 770.0703)" fill="#231F20" font-family="'Calibri-Bold'" font-size="9.762">Pluto­nium</text>
	</g>
	<g>
		<g>
			<text transform="matrix(1.0003 0 0 1 589.835 718.0039)" fill="#231F20" font-family="'Calibri-Bold'" font-size="22.313">94</text>
		</g>
	</g>
</g>
<g>
	<g>
		<rect x="642.294" y="699.799" fill="#CECAC8" width="76.72" height="76.699"/>
		<text transform="matrix(1.0003 0 0 1 651.8018 754.0176)" fill="#231F20" font-family="'Calibri-Bold'" font-size="35">Am</text>
		<text transform="matrix(1.0003 0 0 1 658.4063 770.0703)" fill="#231F20" font-family="'Calibri-Bold'" font-size="9.762">Ameri­cium</text>
	</g>
	<g>
		<g>
			<text transform="matrix(1.0003 0 0 1 669.3438 718.0039)" fill="#231F20" font-family="'Calibri-Bold'" font-size="22.313">95</text>
		</g>
	</g>
</g>
<g>
	<g>
		<rect x="721.805" y="699.799" fill="#CECAC8" width="76.722" height="76.699"/>
		<text transform="matrix(1.0003 0 0 1 732.8701 754.0176)" fill="#231F20" font-family="'Calibri-Bold'" font-size="35">Cm</text>
		<text transform="matrix(1.0003 0 0 1 745.3428 770.0703)" fill="#231F20" font-family="'Calibri-Bold'" font-size="9.762">Curium</text>
	</g>
	<g>
		<g>
			<text transform="matrix(1.0003 0 0 1 748.8516 718.0039)" fill="#231F20" font-family="'Calibri-Bold'" font-size="22.313">96</text>
		</g>
	</g>
</g>
<g>
	<g>
		<rect x="801.314" y="699.799" fill="#CECAC8" width="76.725" height="76.699"/>
		<text transform="matrix(1.0003 0 0 1 818.5234 754.0176)" fill="#231F20" font-family="'Calibri-Bold'" font-size="35">Bk</text>
		<text transform="matrix(1.0003 0 0 1 818.8623 770.0703)" fill="#231F20" font-family="'Calibri-Bold'" font-size="9.762">Berkel­ium</text>
	</g>
	<g>
		<g>
			<text transform="matrix(1.0003 0 0 1 828.3643 718.0039)" fill="#231F20" font-family="'Calibri-Bold'" font-size="22.313">97</text>
		</g>
	</g>
</g>
<g>
	<g>
		<rect x="880.824" y="699.799" fill="#CECAC8" width="76.721" height="76.699"/>
		<text transform="matrix(1.0003 0 0 1 901.9941 754.0176)" fill="#231F20" font-family="'Calibri-Bold'" font-size="35">Cf</text>
		<text transform="matrix(1.0003 0 0 1 895.3848 770.0703)" fill="#231F20" font-family="'Calibri-Bold'" font-size="9.762">Califor­nium</text>
	</g>
	<g>
		<g>
			<text transform="matrix(1.0003 0 0 1 907.873 718.0039)" fill="#231F20" font-family="'Calibri-Bold'" font-size="22.313">98</text>
		</g>
	</g>
</g>
<g>
	<g>
		<rect x="1039.846" y="699.799" fill="#CECAC8" width="76.719" height="76.699"/>
		<text transform="matrix(1.0003 0 0 1 1052.3408 754.0176)" fill="#231F20" font-family="'Calibri-Bold'" font-size="35">Fm</text>
		<text transform="matrix(1.0003 0 0 1 1059.918 770.0703)" fill="#231F20" font-family="'Calibri-Bold'" font-size="9.762">Fer­mium</text>
	</g>
	<g>
		<g>
			<text transform="matrix(1.0003 0 0 1 1061.2373 718.0039)" fill="#231F20" font-family="'Calibri-Bold'" font-size="22.313">100</text>
		</g>
	</g>
</g>
<g>
	<g>
		<rect x="960.333" y="699.799" fill="#CECAC8" width="76.722" height="76.699"/>
		<text transform="matrix(1.0003 0 0 1 980.6709 754.0176)" fill="#231F20" font-family="'Calibri-Bold'" font-size="35">Es</text>
		<text transform="matrix(1.0003 0 0 1 974.6953 770.0703)" fill="#231F20" font-family="'Calibri-Bold'" font-size="9.762">Einstei­nium</text>
	</g>
	<g>
		<g>
			<text transform="matrix(1.0003 0 0 1 987.3838 718.0039)" fill="#231F20" font-family="'Calibri-Bold'" font-size="22.313">99</text>
		</g>
	</g>
</g>
<g>
	<g>
		<rect x="1119.355" y="699.799" fill="#CECAC8" width="76.724" height="76.699"/>
		<text transform="matrix(1.0003 0 0 1 1129.041 754.0176)" fill="#231F20" font-family="'Calibri-Bold'" font-size="35">Md</text>
		<text transform="matrix(1.0003 0 0 1 1129.4434 770.0703)" fill="#231F20" font-family="'Calibri-Bold'" font-size="9.762">Mende­levium</text>
	</g>
	<g>
		<g>
			<text transform="matrix(1.0003 0 0 1 1140.748 718.0039)" fill="#231F20" font-family="'Calibri-Bold'" font-size="22.313">101</text>
		</g>
	</g>
</g>
<g>
	<g>
		<rect x="1198.865" y="699.799" fill="#CECAC8" width="76.72" height="76.699"/>
		<text transform="matrix(1.0003 0 0 1 1212.9092 754.0176)" fill="#231F20" font-family="'Calibri-Bold'" font-size="35">No</text>
		<text transform="matrix(1.0003 0 0 1 1217.2256 770.0703)" fill="#231F20" font-family="'Calibri-Bold'" font-size="9.762">Nobel­ium</text>
	</g>
	<g>
		<g>
			<text transform="matrix(1.0003 0 0 1 1220.2588 718.0039)" fill="#231F20" font-family="'Calibri-Bold'" font-size="22.313">102</text>
		</g>
	</g>
</g>
<g>
	<g>
		<rect x="1278.375" y="699.799" fill="#CECAC8" width="76.721" height="76.699"/>
		<text transform="matrix(1.0003 0 0 1 1300.9141 754.0176)" fill="#231F20" font-family="'Calibri-Bold'" font-size="35">Lr</text>
		<text transform="matrix(1.0003 0 0 1 1291.8857 770.0703)" fill="#231F20" font-family="'Calibri-Bold'" font-size="9.762">Lawren­cium</text>
	</g>
	<g>
		<g>
			<text transform="matrix(1.0003 0 0 1 1299.7695 718.0039)" fill="#231F20" font-family="'Calibri-Bold'" font-size="22.313">103</text>
		</g>
	</g>
</g>
<g>
	<g>
		<rect x="244.743" y="508.223" fill="#CECAC8" width="76.72" height="76.701"/>
		<text transform="matrix(1.0003 0 0 1 265.2285 560.877)" fill="#231F20" font-family="'Calibri-Bold'" font-size="35">Rf</text>
		<text transform="matrix(1.0003 0 0 1 252.8228 576.9297)" fill="#231F20" font-family="'Calibri-Bold'" font-size="9.762">Ruther­fordium</text>
	</g>
	<g>
		<g>
			<text transform="matrix(1.0003 0 0 1 266.1377 526.4277)" fill="#231F20" font-family="'Calibri-Bold'" font-size="22.313">104</text>
		</g>
	</g>
</g>
<g>
	<g>
		<rect x="324.254" y="508.223" fill="#CECAC8" width="76.72" height="76.701"/>
		<text transform="matrix(1.0003 0 0 1 338.8916 560.877)" fill="#231F20" font-family="'Calibri-Bold'" font-size="35">Db</text>
		<text transform="matrix(1.0003 0 0 1 343.7939 576.9297)" fill="#231F20" font-family="'Calibri-Bold'" font-size="9.762">Dub­nium</text>
	</g>
	<g>
		<g>
			<text transform="matrix(1.0003 0 0 1 345.6475 526.4277)" fill="#231F20" font-family="'Calibri-Bold'" font-size="22.313">105</text>
		</g>
	</g>
</g>
<g>
	<g>
		<rect x="403.764" y="508.223" fill="#CECAC8" width="76.723" height="76.701"/>
		<text transform="matrix(1.0003 0 0 1 422.8779 560.877)" fill="#231F20" font-family="'Calibri-Bold'" font-size="35">Sg</text>
		<text transform="matrix(1.0003 0 0 1 417.7715 576.9297)" fill="#231F20" font-family="'Calibri-Bold'" font-size="9.762">Sea­borgium</text>
	</g>
	<g>
		<g>
			<text transform="matrix(1.0003 0 0 1 425.1582 526.4277)" fill="#231F20" font-family="'Calibri-Bold'" font-size="22.313">106</text>
		</g>
	</g>
</g>
<g>
	<g>
		<rect x="483.273" y="508.223" fill="#CECAC8" width="76.725" height="76.701"/>
		<text transform="matrix(1.0003 0 0 1 499.332 560.877)" fill="#231F20" font-family="'Calibri-Bold'" font-size="35">Bh</text>
		<text transform="matrix(1.0003 0 0 1 504.0352 576.9297)" fill="#231F20" font-family="'Calibri-Bold'" font-size="9.762">Bohr­ium</text>
	</g>
	<g>
		<g>
			<text transform="matrix(1.0003 0 0 1 504.667 526.4277)" fill="#231F20" font-family="'Calibri-Bold'" font-size="22.313">107</text>
		</g>
	</g>
</g>
<g>
	<g>
		<rect x="562.784" y="508.223" fill="#CECAC8" width="76.72" height="76.701"/>
		<text transform="matrix(1.0003 0 0 1 580.2119 560.877)" fill="#231F20" font-family="'Calibri-Bold'" font-size="35">Hs</text>
		<text transform="matrix(1.0003 0 0 1 583.877 576.9297)" fill="#231F20" font-family="'Calibri-Bold'" font-size="9.762">Has­sium</text>
	</g>
	<g>
		<g>
			<text transform="matrix(1.0003 0 0 1 584.1787 526.4277)" fill="#231F20" font-family="'Calibri-Bold'" font-size="22.313">108</text>
		</g>
	</g>
</g>
<g>
	<g>
		<rect x="642.294" y="508.223" fill="#CECAC8" width="76.72" height="76.701"/>
		<text transform="matrix(1.0003 0 0 1 655.8408 560.877)" fill="#231F20" font-family="'Calibri-Bold'" font-size="35">Mt</text>
		<text transform="matrix(1.0003 0 0 1 656.3408 576.9297)" fill="#231F20" font-family="'Calibri-Bold'" font-size="9.762">Meit­nerium</text>
	</g>
	<g>
		<g>
			<text transform="matrix(1.0003 0 0 1 663.6865 526.4277)" fill="#231F20" font-family="'Calibri-Bold'" font-size="22.313">109</text>
		</g>
	</g>
</g>
<g>
	<g>
		<rect x="721.805" y="508.223" fill="#CECAC8" width="76.722" height="76.701"/>
		<text transform="matrix(1.0003 0 0 1 739.2412 560.877)" fill="#231F20" font-family="'Calibri-Bold'" font-size="35">Ds</text>
		<text transform="matrix(1.0003 0 0 1 730.7588 576.9297)" fill="#231F20" font-family="'Calibri-Bold'" font-size="9.762">Darm­stadtium</text>
	</g>
	<g>
		<g>
			<text transform="matrix(1.0003 0 0 1 743.1963 526.4277)" fill="#231F20" font-family="'Calibri-Bold'" font-size="22.313">110</text>
		</g>
	</g>
</g>
<g>
	<g>
		<rect x="801.314" y="508.223" fill="#CECAC8" width="76.725" height="76.701"/>
		<text transform="matrix(1.0003 0 0 1 818.5928 560.877)" fill="#231F20" font-family="'Calibri-Bold'" font-size="35">Rg</text>
		<text transform="matrix(1.0003 0 0 1 812.2559 576.9297)" fill="#231F20" font-family="'Calibri-Bold'" font-size="9.762">Roent­genium</text>
	</g>
	<g>
		<g>
			<text transform="matrix(1.0003 0 0 1 822.707 526.4277)" fill="#231F20" font-family="'Calibri-Bold'" font-size="22.313">111</text>
		</g>
	</g>
</g>
<g>
	<g>
		<rect x="880.824" y="508.223" fill="#CECAC8" width="76.721" height="76.701"/>
		<text transform="matrix(1.0003 0 0 1 897.5176 560.877)" fill="#231F20" font-family="'Calibri-Bold'" font-size="35">Cn</text>
		<text transform="matrix(1.0003 0 0 1 893.418 576.9297)" fill="#231F20" font-family="'Calibri-Bold'" font-size="9.762">Coper­nicium</text>
	</g>
	<g>
		<g>
			<text transform="matrix(1.0003 0 0 1 902.2188 526.4277)" fill="#231F20" font-family="'Calibri-Bold'" font-size="22.313">112</text>
		</g>
	</g>
</g>
<g>
	<g>
		<rect x="960.333" y="508.223" fill="#CECAC8" width="76.722" height="76.701"/>
		<text transform="matrix(1.0003 0 0 1 967.4717 562.4414)" fill="#231F20" font-family="'Calibri-Bold'" font-size="35">Uut</text>
		<text transform="matrix(1.0003 0 0 1 976.3369 578.4922)" fill="#231F20" font-family="'Calibri-Bold'" font-size="9.762">Unun­trium</text>
	</g>
	<g>
		<g>
			<text transform="matrix(1.0003 0 0 1 981.7266 526.4277)" fill="#231F20" font-family="'Calibri-Bold'" font-size="22.313">113</text>
		</g>
	</g>
</g>
<g>
	<g>
		<rect x="1039.846" y="508.223" fill="#CECAC8" width="76.719" height="76.701"/>
		<text transform="matrix(1.0003 0 0 1 1063.8828 562.4414)" fill="#231F20" font-family="'Calibri-Bold'" font-size="35">Fl</text>
		<text transform="matrix(1.0003 0 0 1 1057.7559 578.4922)" fill="#231F20" font-family="'Calibri-Bold'" font-size="9.762">Flerov­ium</text>
	</g>
	<g>
		<g>
			<text transform="matrix(1.0003 0 0 1 1061.2393 526.4277)" fill="#231F20" font-family="'Calibri-Bold'" font-size="22.313">114</text>
		</g>
	</g>
</g>
<g>
	<g>
		<rect x="1119.355" y="508.223" fill="#CECAC8" width="76.724" height="76.701"/>
		<text transform="matrix(1.0003 0 0 1 1122.6299 562.4414)" fill="#231F20" font-family="'Calibri-Bold'" font-size="35">Uup</text>
		<text transform="matrix(1.0003 0 0 1 1129.4287 578.4922)" fill="#231F20" font-family="'Calibri-Bold'" font-size="9.762">Unun­pentium</text>
	</g>
	<g>
		<g>
			<text transform="matrix(1.0003 0 0 1 1140.748 526.4277)" fill="#231F20" font-family="'Calibri-Bold'" font-size="22.313">115</text>
		</g>
	</g>
</g>
<g>
	<g>
		<rect x="1198.865" y="508.223" fill="#CECAC8" width="76.72" height="76.701"/>
		<text transform="matrix(1.0003 0 0 1 1219.0127 562.4414)" fill="#231F20" font-family="'Calibri-Bold'" font-size="35">Lv</text>
		<text transform="matrix(1.0003 0 0 1 1211.2451 578.4922)" fill="#231F20" font-family="'Calibri-Bold'" font-size="9.762">Liver­morium</text>
	</g>
	<g>
		<g>
			<text transform="matrix(1.0003 0 0 1 1220.2588 526.4277)" fill="#231F20" font-family="'Calibri-Bold'" font-size="22.313">116</text>
		</g>
	</g>
</g>
<g>
	<g>
		<rect x="1278.375" y="508.223" fill="#CECAC8" width="76.721" height="76.701"/>
		<text transform="matrix(1.0003 0 0 1 1284.4492 560.877)" fill="#231F20" font-family="'Calibri-Bold'" font-size="35">Uus</text>
		<text transform="matrix(1.0003 0 0 1 1289.1221 576.9297)" fill="#231F20" font-family="'Calibri-Bold'" font-size="9.762">Unun­septium</text>
	</g>
	<g>
		<g>
			<text transform="matrix(1.0003 0 0 1 1299.7695 526.4277)" fill="#231F20" font-family="'Calibri-Bold'" font-size="22.313">117</text>
		</g>
	</g>
</g>
<g>
	<g>
		<rect x="1357.887" y="508.223" fill="#B99664" width="76.719" height="76.701"/>
		<text transform="matrix(1.0003 0 0 1 1361.1406 560.877)" fill="#231F20" font-family="'Calibri-Bold'" font-size="35">Uuo</text>
		<text transform="matrix(1.0003 0 0 1 1370.9902 576.9297)" fill="#231F20" font-family="'Calibri-Bold'" font-size="9.762">Unun­octium</text>
	</g>
	<g>
		<g>
			<text transform="matrix(1.0003 0 0 1 1379.2793 526.4277)" fill="#231F20" font-family="'Calibri-Bold'" font-size="22.313">118</text>
		</g>
	</g>
</g>
<g>
	<text transform="matrix(1.0003 0 0 1 34.6465 26.2148)" fill="#6D6B6B" font-family="'ArialMT'" font-size="21.8837">IA</text>
</g>
<g>
	<text transform="matrix(1.0003 0 0 1 105.0913 103.8525)" fill="#6D6B6B" font-family="'ArialMT'" font-size="21.8837">IIA</text>
</g>
<g>
	<text transform="matrix(1.0003 0 0 1 185.958 262.7686)" fill="#6D6B6B" font-family="'ArialMT'" font-size="21.8837">IIIB</text>
</g>
<g>
	<text transform="matrix(1.0003 0 0 1 267.6064 262.7686)" fill="#6D6B6B" font-family="'ArialMT'" font-size="21.8837">IVB</text>
</g>
<g>
	<text transform="matrix(1.0003 0 0 1 343.6123 262.7686)" fill="#6D6B6B" font-family="'ArialMT'" font-size="21.8837">VB</text>
</g>
<g>
	<text transform="matrix(1.0003 0 0 1 424.667 262.7686)" fill="#6D6B6B" font-family="'ArialMT'" font-size="21.8837">VIB</text>
</g>
<g>
	<text transform="matrix(1.0003 0 0 1 500.833 262.7686)" fill="#6D6B6B" font-family="'ArialMT'" font-size="21.8837">VIIB</text>
</g>
<g>
	<text transform="matrix(1.0003 0 0 1 648.6738 238.54)" fill="#6D6B6B" font-family="'ArialMT'" font-size="21.8837">VIIIB</text>
</g>
<g>
	<text transform="matrix(1.0003 0 0 1 905.7227 262.7686)" fill="#6D6B6B" font-family="'ArialMT'" font-size="21.8837">IIB</text>
</g>
<g>
	<text transform="matrix(1.0003 0 0 1 823.2461 262.7686)" fill="#6D6B6B" font-family="'ArialMT'" font-size="21.8837">IB</text>
</g>
<g>
	<text transform="matrix(1.0003 0 0 1 981.6406 104.8936)" fill="#6D6B6B" font-family="'ArialMT'" font-size="21.8837">IIIA</text>
</g>
<g>
	<text transform="matrix(1.0003 0 0 1 1064.8525 104.8936)" fill="#6D6B6B" font-family="'ArialMT'" font-size="21.8837">IVA</text>
</g>
<g>
	<text transform="matrix(1.0003 0 0 1 1143.9844 104.8936)" fill="#6D6B6B" font-family="'ArialMT'" font-size="21.8837">VA</text>
</g>
<g>
	<text transform="matrix(1.0003 0 0 1 1216.5127 104.8936)" fill="#6D6B6B" font-family="'ArialMT'" font-size="21.8837">VIA</text>
</g>
<g>
	<text transform="matrix(1.0003 0 0 1 1288.5205 104.8936)" fill="#6D6B6B" font-family="'ArialMT'" font-size="21.8837">VIIA</text>
</g>
<g>
	<text transform="matrix(1.0003 0 0 1 1381.376 25.6973)" fill="#6D6B6B" font-family="'ArialMT'" font-size="21.8837">VIIIA</text>
</g>
<text transform="matrix(1.0003 0 0 1 59.0747 637.1211)" fill="#231F20" font-family="'Calibri-Bold'" font-size="16.7348">Lanthanide</text>
<text transform="matrix(1.0003 0 0 1 95.4473 657.2031)" fill="#231F20" font-family="'Calibri-Bold'" font-size="16.7348">Series</text>
<text transform="matrix(1.0003 0 0 1 79.4995 715.6777)" fill="#231F20" font-family="'Calibri-Bold'" font-size="16.7348">Actinide</text>
<text transform="matrix(1.0003 0 0 1 95.4453 735.7598)" fill="#231F20" font-family="'Calibri-Bold'" font-size="16.7348">Series</text>
<polyline fill="none" stroke="#6D6B6B" stroke-width="1.5633" stroke-miterlimit="10" points="592.29,269.082 592.29,249.135 
	764.072,249.135 764.072,269.904 "/>
</svg>
