<?xml version="1.0" encoding="utf-8"?>
<!-- Generator: Adobe Illustrator 15.0.0, SVG Export Plug-In . SVG Version: 6.00 Build 0)  -->
<!DOCTYPE svg PUBLIC "-//W3C//DTD SVG 1.1//EN" "http://www.w3.org/Graphics/SVG/1.1/DTD/svg11.dtd">
<svg version="1.1" id="Layer_1" xmlns="http://www.w3.org/2000/svg" xmlns:xlink="http://www.w3.org/1999/xlink" x="0px" y="0px"
	 width="721px" height="882px" viewBox="0 0 721 882" enable-background="new 0 0 721 882" xml:space="preserve">
<g id="hand">
	<g>
		<path fill="#FCD0A0" d="M613.377,453.78c-7.09,7.925-30.448,32.532-34.203,41.708c-3.753,9.175-0.417,20.854,3.338,35.453
			c3.752,14.598-6.674,5.007-20.854,2.503c-14.18-2.503-5.836-24.609-25.023,15.848c-19.188,40.458-19.604,45.877-23.773,52.138
			c-4.174,6.258-12.932,13.767-18.354,7.927c-2.223-2.392-2.75-8.354-2.617-14.563c-3.941,2.202-6.893,1.447-6.516-6.109
			c0.993-19.802-43.572-69.315-40.603-70.309c2.971-0.987,15.846-67.332,31.688-223.786
			c15.844-156.451,9.896-175.267-16.839-180.219c-26.066-4.83-36.124,41.124-43.033,64.532c6.498,9.591,16.09,24.737,13.266,26.712
			c-4.17,2.918-7.502,0.833-12.929,10.427c-5.425,9.593-12.092,12.929-14.598,23.773c-2.508,10.844-10.433,23.773-5.844,36.703
			c4.59,12.93,13.764,31.281,15.434,35.035c1.672,3.754-15.015-8.343-22.104,5.422s-13.346,27.528-13.346,27.528
			s-0.418,47.962,0,52.969c0.359,4.296-16.439,5.75-22.553-16.281c-1.855,4.642-3.316,7.679-4.207,8.457
			c-7.926,6.933-11.883,1.979-11.883,1.979c-11.88-26.736,23.768-296.071-35.645-307.953c-17.545-3.51-29.475,21.83-37.604,59.499
			c4.242,11.239,8.448,23.481,8.448,27.824c0,8.758,11.257,12.512,10.008,19.187c-1.247,6.672-5.842,2.501-10.427,16.266
			c-4.582,13.766-10.426,11.262-10.426,37.121c0,25.858-4.595,34.615,2.502,45.044c7.096,10.429,17.516,10.011,11.679,18.769
			c-5.837,8.758-9.173,1.25-12.509,15.016s-5.42,29.61-3.754,47.129c1.665,17.52,5.42,26.277,2.501,26.694
			c-2.13,0.305-10.218,3.012-15.753-0.688c-0.029,2.138-0.063,3.54-0.117,4.016c-0.991,8.912-18.814,20.794-18.814,20.794
			c0.985-49.511-26.736-165.365-26.736-183.188c0-17.824,17.824-112.884-38.617-107.932c-17.32,1.52-26.242,31.313-30.379,72.513
			c4.182,8.458,9.566,20.568,9.051,25.984c-0.836,8.758,17.104,12.512,12.514,16.266c-4.588,3.754-10.843-2.088-11.262,21.27
			c-0.416,23.359-12.104,16.684-2.924,44.629c9.18,27.946,7.926,34.618,16.688,40.04c8.76,5.422-1.254,10.843-7.508,18.771
			c-6.256,7.925-8.344,23.354-8.761,28.777c-0.396,5.132,3.683,52.808-4.021,55.403c0.104,4.309,0.08,7.427-0.135,9.057
			c-2.971,22.773-4.207,17.328-4.207,17.328s-5.197-1.485-7.426-2.229c-2.229-0.741-32.677-248.79-79.465-251.018
			c-11.115-0.528-18.549,7.737-23.057,22.067c3.406,7.032,8.042,19.779,7.774,36.779c-0.417,26.691-1.671,35.868,6.673,41.291
			c8.344,5.421,6.678,10.426,6.678,10.426s-8.756,12.512-7.508,35.453c1.248,22.941,5.838,46.297,13.345,51.719
			c7.508,5.422,14.188-0.835,8.761,10.427c-5.425,11.261,7.926,61.316,0,84.257c-4.938,14.29-8.581,22.914-12.543,30.813
			c1.322,69.771,15.979,187.031,91.225,270.146l3.29,3.998c162.392,93.082,240.463,39.722,264.519,25.342
			c8.54-5.107,42.453-34.287,42.453-34.287c23.769-17.823,63.787-41.592,92.508-93.081c28.722-51.489,143.577-217.845,161.4-247.552
			c3.852-6.426,5.319-12.442,4.967-17.885c-10.919-1.012-30.839-2.813-48.459-4.235C630.895,449.608,620.468,445.855,613.377,453.78
			z"/>
		<path fill="#F4BB87" d="M57.395,434.175c5.426-11.262-1.253-5.005-8.761-10.427c-7.507-5.422-12.097-28.778-13.345-51.719
			c-1.248-22.941,7.508-35.453,7.508-35.453s1.666-5.005-6.678-10.426c-8.344-5.422-7.09-14.599-6.673-41.291
			c0.268-17-4.368-29.747-7.774-36.779c-14.47,45.984,1.503,155.12,25.285,242.317c0,0-2.785,23.267-2.105,58.85
			c3.962-7.899,7.605-16.523,12.543-30.813C65.32,495.493,51.97,445.438,57.395,434.175z"/>
		<path fill="#F4BB87" d="M139.981,397.473c0.417-5.422,2.505-20.854,8.761-28.777c6.254-7.926,16.268-13.348,7.508-18.771
			c-8.762-5.422-7.508-12.094-16.688-40.04c-9.179-27.945,2.508-21.27,2.924-44.629c0.419-23.358,6.674-17.516,11.262-21.27
			c4.59-3.754-13.35-7.508-12.514-16.266c0.516-5.416-4.869-17.524-9.051-25.984c-8.391,83.453,2.848,213.725,3.777,251.139
			C143.664,450.278,139.586,402.604,139.981,397.473z"/>
		<path fill="#F4BB87" d="M262.601,396.222c2.919-0.418-0.836-9.176-2.501-26.695c-1.666-17.519,0.418-33.364,3.754-47.129
			s6.672-6.258,12.509-15.016c5.837-8.758-4.583-8.34-11.679-18.769c-7.097-10.43-2.502-19.186-2.502-45.044
			s5.844-23.355,10.426-37.121c4.585-13.765,9.18-9.593,10.427-16.266c1.249-6.672-10.008-10.426-10.008-19.188
			c0-4.343-4.206-16.585-8.448-27.824c-17.934,83.108-17.365,226.229-17.73,252.361
			C252.383,399.232,260.471,396.525,262.601,396.222z"/>
		<path fill="#F4BB87" d="M376.471,397.473c-0.418-5.007,0-52.969,0-52.969s6.254-13.763,13.344-27.528
			c7.095-13.765,23.777-1.668,22.105-5.422c-1.67-3.754-10.844-22.104-15.434-35.035c-4.588-12.93,3.336-25.859,5.844-36.703
			c2.506-10.844,9.173-14.181,14.598-23.773c5.426-9.594,8.756-7.508,12.928-10.427c2.825-1.975-6.767-17.121-13.265-26.712
			c-0.179,0.595-0.355,1.245-0.533,1.811c-6.152,20.22-47.415,163.697-62.14,200.479C360.027,403.222,376.83,401.77,376.471,397.473
			z"/>
		<path fill="#F4BB87" d="M640.833,432.227c-46.545,9.9-128.724,139.62-131.694,144.572c-1.84,3.061-10.858,14.426-17.25,17.991
			c-0.133,6.205,0.396,12.17,2.617,14.563c5.424,5.84,14.182-1.669,18.354-7.927c4.172-6.261,4.59-11.68,23.773-52.138
			c19.188-40.457,10.845-18.352,25.023-15.848c14.18,2.504,24.604,12.095,20.854-2.504c-3.755-14.599-7.091-26.277-3.338-35.452
			c3.755-9.177,27.113-33.783,34.203-41.708c7.091-7.926,17.519-4.172,43.376-2.086c17.62,1.422,37.54,3.229,48.459,4.235
			C703.929,436.207,677.311,424.465,640.833,432.227z"/>
	</g>
	<path fill="none" stroke="#E0904F" stroke-width="4" stroke-miterlimit="10" d="M353.914,381.19
		c-1.855,4.642-3.316,7.679-4.207,8.457c-7.926,6.933-11.883,1.979-11.883,1.979c-11.88-26.736,23.768-296.071-35.645-307.953
		c-17.545-3.51-29.475,21.83-37.604,59.499c0.001,0.002,0.001,0.004,0.002,0.006c-17.933,83.109-17.364,226.222-17.729,252.354
		 M246.844,395.535c-0.029,2.138-0.063,3.54-0.117,4.016c-0.991,8.912-18.814,20.794-18.814,20.794
		c0.985-49.511-26.736-165.365-26.736-183.188c0-17.824,17.824-112.884-38.617-107.932c-17.32,1.52-26.242,31.313-30.379,72.513
		c0,0.001,0.001,0.002,0.001,0.003c-8.39,83.454,2.849,213.722,3.777,251.135c0.361-0.121,0.696-0.342,1.007-0.652
		c-0.312,0.311-0.647,0.532-1.009,0.654c0.104,4.309,0.08,7.427-0.135,9.057c-2.971,22.773-4.207,17.328-4.207,17.328
		s-5.197-1.485-7.426-2.229c-2.229-0.741-32.677-248.79-79.465-251.018c-11.115-0.528-18.549,7.737-23.057,22.067
		c0,0.001,0.001,0.003,0.002,0.004c-14.466,45.987,1.506,155.118,25.287,242.311c0,0-2.785,23.264-2.105,58.842
		c-0.001,0.003-0.002,0.005-0.004,0.008c1.322,69.771,15.979,187.031,91.225,270.146l3.29,3.998
		c162.392,93.082,240.463,39.722,264.519,25.342c8.54-5.107,42.453-34.287,42.453-34.287c23.769-17.823,63.787-41.592,92.508-93.081
		c28.722-51.489,143.577-217.845,161.4-247.552c3.852-6.426,5.319-12.442,4.967-17.885c-0.987-0.092-2.071-0.191-3.197-0.295
		c1.127,0.104,2.211,0.203,3.198,0.294c-1.282-19.72-27.9-31.462-64.378-23.7c-46.545,9.9-128.724,139.62-131.694,144.572
		c-1.84,3.061-10.858,14.426-17.25,17.991c0,0.001,0,0.002,0,0.004c-3.941,2.201-6.892,1.445-6.515-6.11
		c0.993-19.802-43.572-69.315-40.603-70.309c2.971-0.987,15.846-67.332,31.688-223.786c15.844-156.451,9.896-175.267-16.839-180.219
		c-26.066-4.83-36.124,41.124-43.033,64.532c0.001,0.001,0.002,0.002,0.003,0.004c-0.179,0.594-0.355,1.244-0.533,1.809
		c-6.152,20.22-47.415,163.697-62.14,200.479 M153.714,244.011c0.01-0.008,0.021-0.015,0.032-0.023l0,0
		C153.736,243.996,153.725,244.002,153.714,244.011z"/>
	<path fill="#FFD7B0" d="M225.938,780.036c5.367-1.791,16.338-42.332,4.456-77.233c-11.884-34.904-74.266-72.038-93.575-66.843
		c-19.31,5.199-46.787,54.218-13.367,93.574C156.87,768.896,174.693,797.116,225.938,780.036z"/>
	<path fill="#FFD7B0" d="M72.115,532.159c0.069,2.405,15.213,11.906,30.9,11.406c15.689-0.501,38.561-21.296,38.839-29.802
		c0.278-8.51-16.269-25.783-36.441-17.065C85.232,505.419,71.523,509.171,72.115,532.159z"/>
	<path fill="#FFD7B0" d="M155.379,481.546c0.07,2.402,15.213,11.903,30.902,11.403c15.688-0.502,38.559-21.296,38.838-29.803
		c0.278-8.508-16.27-25.783-36.441-17.064C168.498,454.805,154.787,458.559,155.379,481.546z"/>
	<path fill="#FFD7B0" d="M257.936,428.753c-0.395,2.373,12.613,14.631,28.1,17.191c15.485,2.556,41.959-13.4,43.885-21.688
		c1.928-8.294-10.948-28.456-32.432-23.823C276.003,405.069,261.822,406.087,257.936,428.753z"/>
	<path fill="#FFD7B0" d="M364.768,427.195c-2.271,0.787-6.813,18.076-1.646,32.897c5.17,14.818,31.848,30.432,40.051,28.151
		c8.199-2.274,19.74-23.229,5.395-39.877C394.207,431.722,386.525,419.76,364.768,427.195z"/>
	<path fill="#FFD7B0" d="M309.115,820.139c5.107,0.943,49.016,5.198,93.574-18.565c44.558-23.765,66.096-28.963,77.232-52.729
		c11.141-23.768,7.429-92.832-25.994-84.663c-33.418,8.17-135.158-5.939-154.472,31.936
		C280.151,733.991,240.79,807.514,309.115,820.139z"/>
</g>
<g enable-background="new    ">
	<text class="number num5" transform="matrix(1 0 0 1 675.0957 410.2744)" font-family="abeezee" font-size="60">5</text>
</g>
<g enable-background="new    ">
	<text class="number num4" transform="matrix(1 0 0 1 452.0957 86.2744)" font-family="abeezee" font-size="60">4</text>
</g>
<g enable-background="new    ">
	<text class="number num3" transform="matrix(1 0 0 1 285.0962 55.2744)" font-family="abeezee" font-size="60">3</text>
</g>
<g enable-background="new    ">
	<text class="number num2" transform="matrix(1 0 0 1 150.0962 99.2744)" font-family="abeezee" font-size="60">2</text>
</g>
<g enable-background="new    ">
	<text class="number num1" transform="matrix(1 0 0 1 22.0962 196.2744)" font-family="abeezee" font-size="60">1</text>
</g>
</svg>
