<?xml version="1.0" encoding="utf-8"?>
<!-- Generator: Adobe Illustrator 15.0.0, SVG Export Plug-In . SVG Version: 6.00 Build 0)  -->
<!DOCTYPE svg PUBLIC "-//W3C//DTD SVG 1.1//EN" "http://www.w3.org/Graphics/SVG/1.1/DTD/svg11.dtd">
<svg version="1.1" id="Layer_1" xmlns="http://www.w3.org/2000/svg" xmlns:xlink="http://www.w3.org/1999/xlink" x="0px" y="0px"
	 width="558.763px" height="553.745px" viewBox="0 0 558.763 553.745" enable-background="new 0 0 558.763 553.745"
	 xml:space="preserve">
<g id="incorrectgraph" class="check">
	<g>
		<g>
			
				<rect x="27.098" y="22.063" fill="#E1F4AB" stroke="#58600C" stroke-width="0.35" stroke-miterlimit="10" width="25.446" height="25.449"/>
			
				<rect x="52.544" y="22.063" fill="#E1F4AB" stroke="#58600C" stroke-width="0.35" stroke-miterlimit="10" width="25.45" height="25.449"/>
			
				<rect x="77.995" y="22.063" fill="#E1F4AB" stroke="#58600C" stroke-width="0.35" stroke-miterlimit="10" width="25.451" height="25.449"/>
			
				<rect x="103.447" y="22.063" fill="#E1F4AB" stroke="#58600C" stroke-width="0.35" stroke-miterlimit="10" width="25.448" height="25.449"/>
			
				<rect x="128.895" y="22.063" fill="#E1F4AB" stroke="#58600C" stroke-width="0.35" stroke-miterlimit="10" width="25.449" height="25.449"/>
			
				<rect x="154.345" y="22.063" fill="#E1F4AB" stroke="#58600C" stroke-width="0.35" stroke-miterlimit="10" width="25.45" height="25.449"/>
			
				<rect x="179.795" y="22.063" fill="#E1F4AB" stroke="#58600C" stroke-width="0.35" stroke-miterlimit="10" width="25.452" height="25.449"/>
			
				<rect x="205.248" y="22.063" fill="#E1F4AB" stroke="#58600C" stroke-width="0.35" stroke-miterlimit="10" width="25.447" height="25.449"/>
			
				<rect x="230.695" y="22.063" fill="#E1F4AB" stroke="#58600C" stroke-width="0.35" stroke-miterlimit="10" width="25.452" height="25.449"/>
			
				<rect x="256.147" y="22.063" fill="#E1F4AB" stroke="#58600C" stroke-width="0.35" stroke-miterlimit="10" width="25.446" height="25.449"/>
			
				<rect x="281.594" y="22.063" fill="#E1F4AB" stroke="#58600C" stroke-width="0.35" stroke-miterlimit="10" width="25.451" height="25.449"/>
			
				<rect x="307.045" y="22.063" fill="#E1F4AB" stroke="#58600C" stroke-width="0.35" stroke-miterlimit="10" width="25.45" height="25.449"/>
			
				<rect x="332.496" y="22.063" fill="#E1F4AB" stroke="#58600C" stroke-width="0.35" stroke-miterlimit="10" width="25.452" height="25.449"/>
			
				<rect x="357.949" y="22.063" fill="#E1F4AB" stroke="#58600C" stroke-width="0.35" stroke-miterlimit="10" width="25.444" height="25.449"/>
			
				<rect x="383.394" y="22.063" fill="#E1F4AB" stroke="#58600C" stroke-width="0.35" stroke-miterlimit="10" width="25.449" height="25.449"/>
			
				<rect x="27.098" y="47.513" fill="#E1F4AB" stroke="#58600C" stroke-width="0.35" stroke-miterlimit="10" width="25.446" height="25.45"/>
			
				<rect x="52.544" y="47.513" fill="#E1F4AB" stroke="#58600C" stroke-width="0.35" stroke-miterlimit="10" width="25.45" height="25.45"/>
			
				<rect x="77.995" y="47.513" fill="#E1F4AB" stroke="#58600C" stroke-width="0.35" stroke-miterlimit="10" width="25.451" height="25.45"/>
			
				<rect x="103.447" y="47.513" fill="#E1F4AB" stroke="#58600C" stroke-width="0.35" stroke-miterlimit="10" width="25.448" height="25.45"/>
			
				<rect x="128.895" y="47.513" fill="#E1F4AB" stroke="#58600C" stroke-width="0.35" stroke-miterlimit="10" width="25.449" height="25.45"/>
			
				<rect x="154.345" y="47.513" fill="#E1F4AB" stroke="#58600C" stroke-width="0.35" stroke-miterlimit="10" width="25.45" height="25.45"/>
			
				<rect x="179.795" y="47.513" fill="#E1F4AB" stroke="#58600C" stroke-width="0.35" stroke-miterlimit="10" width="25.452" height="25.45"/>
			
				<rect x="205.248" y="47.513" fill="#E1F4AB" stroke="#58600C" stroke-width="0.35" stroke-miterlimit="10" width="25.447" height="25.45"/>
			
				<rect x="230.695" y="47.513" fill="#E1F4AB" stroke="#58600C" stroke-width="0.35" stroke-miterlimit="10" width="25.452" height="25.45"/>
			
				<rect x="256.147" y="47.513" fill="#E1F4AB" stroke="#58600C" stroke-width="0.35" stroke-miterlimit="10" width="25.446" height="25.45"/>
			
				<rect x="281.594" y="47.513" fill="#E1F4AB" stroke="#58600C" stroke-width="0.35" stroke-miterlimit="10" width="25.451" height="25.45"/>
			
				<rect x="307.045" y="47.513" fill="#E1F4AB" stroke="#58600C" stroke-width="0.35" stroke-miterlimit="10" width="25.45" height="25.45"/>
			
				<rect x="332.496" y="47.513" fill="#E1F4AB" stroke="#58600C" stroke-width="0.35" stroke-miterlimit="10" width="25.452" height="25.45"/>
			
				<rect x="357.949" y="47.513" fill="#E1F4AB" stroke="#58600C" stroke-width="0.35" stroke-miterlimit="10" width="25.444" height="25.45"/>
			
				<rect x="383.394" y="47.513" fill="#E1F4AB" stroke="#58600C" stroke-width="0.35" stroke-miterlimit="10" width="25.449" height="25.45"/>
			
				<rect x="27.098" y="72.963" fill="#E1F4AB" stroke="#58600C" stroke-width="0.35" stroke-miterlimit="10" width="25.446" height="25.446"/>
			
				<rect x="52.544" y="72.963" fill="#E1F4AB" stroke="#58600C" stroke-width="0.35" stroke-miterlimit="10" width="25.45" height="25.446"/>
			
				<rect x="77.995" y="72.963" fill="#E1F4AB" stroke="#58600C" stroke-width="0.35" stroke-miterlimit="10" width="25.451" height="25.446"/>
			
				<rect x="103.447" y="72.963" fill="#E1F4AB" stroke="#58600C" stroke-width="0.35" stroke-miterlimit="10" width="25.448" height="25.446"/>
			
				<rect x="128.895" y="72.963" fill="#E1F4AB" stroke="#58600C" stroke-width="0.35" stroke-miterlimit="10" width="25.449" height="25.446"/>
			
				<rect x="154.345" y="72.963" fill="#E1F4AB" stroke="#58600C" stroke-width="0.35" stroke-miterlimit="10" width="25.45" height="25.446"/>
			
				<rect x="179.795" y="72.963" fill="#E1F4AB" stroke="#58600C" stroke-width="0.35" stroke-miterlimit="10" width="25.452" height="25.446"/>
			
				<rect x="205.248" y="72.963" fill="#E1F4AB" stroke="#58600C" stroke-width="0.35" stroke-miterlimit="10" width="25.447" height="25.446"/>
			
				<rect x="230.695" y="72.963" fill="#E1F4AB" stroke="#58600C" stroke-width="0.35" stroke-miterlimit="10" width="25.452" height="25.446"/>
			
				<rect x="256.147" y="72.963" fill="#E1F4AB" stroke="#58600C" stroke-width="0.35" stroke-miterlimit="10" width="25.446" height="25.446"/>
			
				<rect x="281.594" y="72.963" fill="#E1F4AB" stroke="#58600C" stroke-width="0.35" stroke-miterlimit="10" width="25.451" height="25.446"/>
			
				<rect x="307.045" y="72.963" fill="#E1F4AB" stroke="#58600C" stroke-width="0.35" stroke-miterlimit="10" width="25.45" height="25.446"/>
			
				<rect x="332.496" y="72.963" fill="#E1F4AB" stroke="#58600C" stroke-width="0.35" stroke-miterlimit="10" width="25.452" height="25.446"/>
			
				<rect x="357.949" y="72.963" fill="#E1F4AB" stroke="#58600C" stroke-width="0.35" stroke-miterlimit="10" width="25.444" height="25.446"/>
			
				<rect x="383.394" y="72.963" fill="#E1F4AB" stroke="#58600C" stroke-width="0.35" stroke-miterlimit="10" width="25.449" height="25.446"/>
			
				<rect x="27.098" y="98.41" fill="#E1F4AB" stroke="#58600C" stroke-width="0.35" stroke-miterlimit="10" width="25.446" height="25.45"/>
			
				<rect x="52.544" y="98.41" fill="#E1F4AB" stroke="#58600C" stroke-width="0.35" stroke-miterlimit="10" width="25.45" height="25.45"/>
			
				<rect x="77.995" y="98.41" fill="#E1F4AB" stroke="#58600C" stroke-width="0.35" stroke-miterlimit="10" width="25.451" height="25.45"/>
			
				<rect x="103.447" y="98.41" fill="#E1F4AB" stroke="#58600C" stroke-width="0.35" stroke-miterlimit="10" width="25.448" height="25.45"/>
			
				<rect x="128.895" y="98.41" fill="#E1F4AB" stroke="#58600C" stroke-width="0.35" stroke-miterlimit="10" width="25.449" height="25.45"/>
			
				<rect x="154.345" y="98.41" fill="#E1F4AB" stroke="#58600C" stroke-width="0.35" stroke-miterlimit="10" width="25.45" height="25.45"/>
			
				<rect x="179.795" y="98.41" fill="#E1F4AB" stroke="#58600C" stroke-width="0.35" stroke-miterlimit="10" width="25.452" height="25.45"/>
			
				<rect x="205.248" y="98.41" fill="#E1F4AB" stroke="#58600C" stroke-width="0.35" stroke-miterlimit="10" width="25.447" height="25.45"/>
			
				<rect x="230.695" y="98.41" fill="#E1F4AB" stroke="#58600C" stroke-width="0.35" stroke-miterlimit="10" width="25.452" height="25.45"/>
			
				<rect x="256.147" y="98.41" fill="#E1F4AB" stroke="#58600C" stroke-width="0.35" stroke-miterlimit="10" width="25.446" height="25.45"/>
			
				<rect x="281.594" y="98.41" fill="#E1F4AB" stroke="#58600C" stroke-width="0.35" stroke-miterlimit="10" width="25.451" height="25.45"/>
			
				<rect x="307.045" y="98.41" fill="#E1F4AB" stroke="#58600C" stroke-width="0.35" stroke-miterlimit="10" width="25.45" height="25.45"/>
			
				<rect x="332.496" y="98.41" fill="#E1F4AB" stroke="#58600C" stroke-width="0.35" stroke-miterlimit="10" width="25.452" height="25.45"/>
			
				<rect x="357.949" y="98.41" fill="#E1F4AB" stroke="#58600C" stroke-width="0.35" stroke-miterlimit="10" width="25.444" height="25.45"/>
			
				<rect x="383.394" y="98.41" fill="#E1F4AB" stroke="#58600C" stroke-width="0.35" stroke-miterlimit="10" width="25.449" height="25.45"/>
			
				<rect x="27.098" y="123.86" fill="#E1F4AB" stroke="#58600C" stroke-width="0.35" stroke-miterlimit="10" width="25.446" height="25.448"/>
			
				<rect x="52.544" y="123.86" fill="#E1F4AB" stroke="#58600C" stroke-width="0.35" stroke-miterlimit="10" width="25.45" height="25.448"/>
			
				<rect x="77.995" y="123.86" fill="#E1F4AB" stroke="#58600C" stroke-width="0.35" stroke-miterlimit="10" width="25.451" height="25.448"/>
			
				<rect x="103.447" y="123.86" fill="#E1F4AB" stroke="#58600C" stroke-width="0.35" stroke-miterlimit="10" width="25.448" height="25.448"/>
			
				<rect x="128.895" y="123.86" fill="#E1F4AB" stroke="#58600C" stroke-width="0.35" stroke-miterlimit="10" width="25.449" height="25.448"/>
			
				<rect x="154.345" y="123.86" fill="#E1F4AB" stroke="#58600C" stroke-width="0.35" stroke-miterlimit="10" width="25.45" height="25.448"/>
			
				<rect x="179.795" y="123.86" fill="#E1F4AB" stroke="#58600C" stroke-width="0.35" stroke-miterlimit="10" width="25.452" height="25.448"/>
			
				<rect x="205.248" y="123.86" fill="#E1F4AB" stroke="#58600C" stroke-width="0.35" stroke-miterlimit="10" width="25.447" height="25.448"/>
			
				<rect x="230.695" y="123.86" fill="#E1F4AB" stroke="#58600C" stroke-width="0.35" stroke-miterlimit="10" width="25.452" height="25.448"/>
			
				<rect x="256.147" y="123.86" fill="#E1F4AB" stroke="#58600C" stroke-width="0.35" stroke-miterlimit="10" width="25.446" height="25.448"/>
			
				<rect x="281.594" y="123.86" fill="#E1F4AB" stroke="#58600C" stroke-width="0.35" stroke-miterlimit="10" width="25.451" height="25.448"/>
			
				<rect x="307.045" y="123.86" fill="#E1F4AB" stroke="#58600C" stroke-width="0.35" stroke-miterlimit="10" width="25.45" height="25.448"/>
			
				<rect x="332.496" y="123.86" fill="#E1F4AB" stroke="#58600C" stroke-width="0.35" stroke-miterlimit="10" width="25.452" height="25.448"/>
			
				<rect x="357.949" y="123.86" fill="#E1F4AB" stroke="#58600C" stroke-width="0.35" stroke-miterlimit="10" width="25.444" height="25.448"/>
			
				<rect x="383.394" y="123.86" fill="#E1F4AB" stroke="#58600C" stroke-width="0.35" stroke-miterlimit="10" width="25.449" height="25.448"/>
			<g>
				
					<rect x="27.098" y="149.31" fill="#E1F4AB" stroke="#58600C" stroke-width="0.35" stroke-miterlimit="10" width="25.446" height="25.448"/>
			</g>
			<g>
				
					<rect x="52.544" y="149.31" fill="#E1F4AB" stroke="#58600C" stroke-width="0.35" stroke-miterlimit="10" width="25.45" height="25.448"/>
				
					<rect x="77.995" y="149.31" fill="#E1F4AB" stroke="#58600C" stroke-width="0.35" stroke-miterlimit="10" width="25.451" height="25.448"/>
			</g>
			<g>
				
					<rect x="103.447" y="149.31" fill="#E1F4AB" stroke="#58600C" stroke-width="0.35" stroke-miterlimit="10" width="25.448" height="25.448"/>
				
					<rect x="128.895" y="149.31" fill="#E1F4AB" stroke="#58600C" stroke-width="0.35" stroke-miterlimit="10" width="25.449" height="25.448"/>
			</g>
			<g>
				
					<rect x="154.345" y="149.31" fill="#E1F4AB" stroke="#58600C" stroke-width="0.35" stroke-miterlimit="10" width="25.45" height="25.448"/>
				
					<rect x="179.795" y="149.31" fill="#E1F4AB" stroke="#58600C" stroke-width="0.35" stroke-miterlimit="10" width="25.452" height="25.448"/>
			</g>
			<g>
				
					<rect x="205.248" y="149.31" fill="#E1F4AB" stroke="#58600C" stroke-width="0.35" stroke-miterlimit="10" width="25.447" height="25.448"/>
				
					<rect x="230.695" y="149.31" fill="#E1F4AB" stroke="#58600C" stroke-width="0.35" stroke-miterlimit="10" width="25.452" height="25.448"/>
			</g>
			<g>
				
					<rect x="256.147" y="149.31" fill="#E1F4AB" stroke="#58600C" stroke-width="0.35" stroke-miterlimit="10" width="25.446" height="25.448"/>
				
					<rect x="281.594" y="149.31" fill="#E1F4AB" stroke="#58600C" stroke-width="0.35" stroke-miterlimit="10" width="25.451" height="25.448"/>
			</g>
			<g>
				
					<rect x="307.045" y="149.31" fill="#E1F4AB" stroke="#58600C" stroke-width="0.35" stroke-miterlimit="10" width="25.45" height="25.448"/>
				
					<rect x="332.496" y="149.31" fill="#E1F4AB" stroke="#58600C" stroke-width="0.35" stroke-miterlimit="10" width="25.452" height="25.448"/>
			</g>
			<g>
				
					<rect x="357.949" y="149.31" fill="#E1F4AB" stroke="#58600C" stroke-width="0.35" stroke-miterlimit="10" width="25.444" height="25.448"/>
				
					<rect x="383.394" y="149.31" fill="#E1F4AB" stroke="#58600C" stroke-width="0.35" stroke-miterlimit="10" width="25.449" height="25.448"/>
			</g>
			<g>
				
					<rect x="27.098" y="174.758" fill="#E1F4AB" stroke="#58600C" stroke-width="0.35" stroke-miterlimit="10" width="25.446" height="25.451"/>
			</g>
			<g>
				
					<rect x="52.544" y="174.758" fill="#E1F4AB" stroke="#58600C" stroke-width="0.35" stroke-miterlimit="10" width="25.45" height="25.451"/>
				
					<rect x="77.995" y="174.758" fill="#E1F4AB" stroke="#58600C" stroke-width="0.35" stroke-miterlimit="10" width="25.451" height="25.451"/>
			</g>
			<g>
				
					<rect x="103.447" y="174.758" fill="#E1F4AB" stroke="#58600C" stroke-width="0.35" stroke-miterlimit="10" width="25.448" height="25.451"/>
				
					<rect x="128.895" y="174.758" fill="#E1F4AB" stroke="#58600C" stroke-width="0.35" stroke-miterlimit="10" width="25.449" height="25.451"/>
			</g>
			<g>
				
					<rect x="154.345" y="174.758" fill="#E1F4AB" stroke="#58600C" stroke-width="0.35" stroke-miterlimit="10" width="25.45" height="25.451"/>
				
					<rect x="179.795" y="174.758" fill="#E1F4AB" stroke="#58600C" stroke-width="0.35" stroke-miterlimit="10" width="25.452" height="25.451"/>
			</g>
			<g>
				
					<rect x="205.248" y="174.758" fill="#E1F4AB" stroke="#58600C" stroke-width="0.35" stroke-miterlimit="10" width="25.447" height="25.451"/>
				
					<rect x="230.695" y="174.758" fill="#E1F4AB" stroke="#58600C" stroke-width="0.35" stroke-miterlimit="10" width="25.452" height="25.451"/>
			</g>
			<g>
				
					<rect x="256.147" y="174.758" fill="#E1F4AB" stroke="#58600C" stroke-width="0.35" stroke-miterlimit="10" width="25.446" height="25.451"/>
				
					<rect x="281.594" y="174.758" fill="#E1F4AB" stroke="#58600C" stroke-width="0.35" stroke-miterlimit="10" width="25.451" height="25.451"/>
			</g>
			<g>
				
					<rect x="307.045" y="174.758" fill="#E1F4AB" stroke="#58600C" stroke-width="0.35" stroke-miterlimit="10" width="25.45" height="25.451"/>
				
					<rect x="332.496" y="174.758" fill="#E1F4AB" stroke="#58600C" stroke-width="0.35" stroke-miterlimit="10" width="25.452" height="25.451"/>
			</g>
			<g>
				
					<rect x="357.949" y="174.758" fill="#E1F4AB" stroke="#58600C" stroke-width="0.35" stroke-miterlimit="10" width="25.444" height="25.451"/>
				
					<rect x="383.394" y="174.758" fill="#E1F4AB" stroke="#58600C" stroke-width="0.35" stroke-miterlimit="10" width="25.449" height="25.451"/>
			</g>
			<g>
				
					<rect x="27.098" y="200.207" fill="#E1F4AB" stroke="#58600C" stroke-width="0.35" stroke-miterlimit="10" width="25.446" height="25.448"/>
			</g>
			<g>
				
					<rect x="52.544" y="200.207" fill="#E1F4AB" stroke="#58600C" stroke-width="0.35" stroke-miterlimit="10" width="25.45" height="25.448"/>
				
					<rect x="77.995" y="200.207" fill="#E1F4AB" stroke="#58600C" stroke-width="0.35" stroke-miterlimit="10" width="25.451" height="25.448"/>
			</g>
			<g>
				
					<rect x="103.447" y="200.207" fill="#E1F4AB" stroke="#58600C" stroke-width="0.35" stroke-miterlimit="10" width="25.448" height="25.448"/>
				
					<rect x="128.895" y="200.207" fill="#E1F4AB" stroke="#58600C" stroke-width="0.35" stroke-miterlimit="10" width="25.449" height="25.448"/>
			</g>
			<g>
				
					<rect x="154.345" y="200.207" fill="#E1F4AB" stroke="#58600C" stroke-width="0.35" stroke-miterlimit="10" width="25.45" height="25.448"/>
				
					<rect x="179.795" y="200.207" fill="#E1F4AB" stroke="#58600C" stroke-width="0.35" stroke-miterlimit="10" width="25.452" height="25.448"/>
			</g>
			<g>
				
					<rect x="205.248" y="200.207" fill="#E1F4AB" stroke="#58600C" stroke-width="0.35" stroke-miterlimit="10" width="25.447" height="25.448"/>
				
					<rect x="230.695" y="200.207" fill="#E1F4AB" stroke="#58600C" stroke-width="0.35" stroke-miterlimit="10" width="25.452" height="25.448"/>
			</g>
			<g>
				
					<rect x="256.147" y="200.207" fill="#E1F4AB" stroke="#58600C" stroke-width="0.35" stroke-miterlimit="10" width="25.446" height="25.448"/>
				
					<rect x="281.594" y="200.207" fill="#E1F4AB" stroke="#58600C" stroke-width="0.35" stroke-miterlimit="10" width="25.451" height="25.448"/>
			</g>
			<g>
				
					<rect x="307.045" y="200.207" fill="#E1F4AB" stroke="#58600C" stroke-width="0.35" stroke-miterlimit="10" width="25.45" height="25.448"/>
				
					<rect x="332.496" y="200.207" fill="#E1F4AB" stroke="#58600C" stroke-width="0.35" stroke-miterlimit="10" width="25.452" height="25.448"/>
			</g>
			<g>
				
					<rect x="357.949" y="200.207" fill="#E1F4AB" stroke="#58600C" stroke-width="0.35" stroke-miterlimit="10" width="25.444" height="25.448"/>
				
					<rect x="383.394" y="200.207" fill="#E1F4AB" stroke="#58600C" stroke-width="0.35" stroke-miterlimit="10" width="25.449" height="25.448"/>
			</g>
			<g>
				
					<rect x="27.098" y="225.656" fill="#E1F4AB" stroke="#58600C" stroke-width="0.35" stroke-miterlimit="10" width="25.446" height="25.449"/>
			</g>
			<g>
				
					<rect x="52.544" y="225.656" fill="#E1F4AB" stroke="#58600C" stroke-width="0.35" stroke-miterlimit="10" width="25.45" height="25.449"/>
				
					<rect x="77.995" y="225.656" fill="#E1F4AB" stroke="#58600C" stroke-width="0.35" stroke-miterlimit="10" width="25.451" height="25.449"/>
			</g>
			<g>
				
					<rect x="103.447" y="225.656" fill="#E1F4AB" stroke="#58600C" stroke-width="0.35" stroke-miterlimit="10" width="25.448" height="25.449"/>
				
					<rect x="128.895" y="225.656" fill="#E1F4AB" stroke="#58600C" stroke-width="0.35" stroke-miterlimit="10" width="25.449" height="25.449"/>
			</g>
			<g>
				
					<rect x="154.345" y="225.656" fill="#E1F4AB" stroke="#58600C" stroke-width="0.35" stroke-miterlimit="10" width="25.45" height="25.449"/>
				
					<rect x="179.795" y="225.656" fill="#E1F4AB" stroke="#58600C" stroke-width="0.35" stroke-miterlimit="10" width="25.452" height="25.449"/>
			</g>
			<g>
				
					<rect x="205.248" y="225.656" fill="#E1F4AB" stroke="#58600C" stroke-width="0.35" stroke-miterlimit="10" width="25.447" height="25.449"/>
				
					<rect x="230.695" y="225.656" fill="#E1F4AB" stroke="#58600C" stroke-width="0.35" stroke-miterlimit="10" width="25.452" height="25.449"/>
			</g>
			<g>
				
					<rect x="256.147" y="225.656" fill="#E1F4AB" stroke="#58600C" stroke-width="0.35" stroke-miterlimit="10" width="25.446" height="25.449"/>
				
					<rect x="281.594" y="225.656" fill="#E1F4AB" stroke="#58600C" stroke-width="0.35" stroke-miterlimit="10" width="25.451" height="25.449"/>
			</g>
			<g>
				
					<rect x="307.045" y="225.656" fill="#E1F4AB" stroke="#58600C" stroke-width="0.35" stroke-miterlimit="10" width="25.45" height="25.449"/>
				
					<rect x="332.496" y="225.656" fill="#E1F4AB" stroke="#58600C" stroke-width="0.35" stroke-miterlimit="10" width="25.452" height="25.449"/>
			</g>
			<g>
				
					<rect x="357.949" y="225.656" fill="#E1F4AB" stroke="#58600C" stroke-width="0.35" stroke-miterlimit="10" width="25.444" height="25.449"/>
				
					<rect x="383.394" y="225.656" fill="#E1F4AB" stroke="#58600C" stroke-width="0.35" stroke-miterlimit="10" width="25.449" height="25.449"/>
			</g>
			<g>
				
					<rect x="27.098" y="251.105" fill="#E1F4AB" stroke="#58600C" stroke-width="0.35" stroke-miterlimit="10" width="25.446" height="25.449"/>
			</g>
			<g>
				
					<rect x="52.544" y="251.105" fill="#E1F4AB" stroke="#58600C" stroke-width="0.35" stroke-miterlimit="10" width="25.45" height="25.449"/>
				
					<rect x="77.995" y="251.105" fill="#E1F4AB" stroke="#58600C" stroke-width="0.35" stroke-miterlimit="10" width="25.451" height="25.449"/>
			</g>
			<g>
				
					<rect x="103.447" y="251.105" fill="#E1F4AB" stroke="#58600C" stroke-width="0.35" stroke-miterlimit="10" width="25.448" height="25.449"/>
				
					<rect x="128.895" y="251.105" fill="#E1F4AB" stroke="#58600C" stroke-width="0.35" stroke-miterlimit="10" width="25.449" height="25.449"/>
			</g>
			<g>
				
					<rect x="154.345" y="251.105" fill="#E1F4AB" stroke="#58600C" stroke-width="0.35" stroke-miterlimit="10" width="25.45" height="25.449"/>
				
					<rect x="179.795" y="251.105" fill="#E1F4AB" stroke="#58600C" stroke-width="0.35" stroke-miterlimit="10" width="25.452" height="25.449"/>
			</g>
			<g>
				
					<rect x="205.248" y="251.105" fill="#E1F4AB" stroke="#58600C" stroke-width="0.35" stroke-miterlimit="10" width="25.447" height="25.449"/>
				
					<rect x="230.695" y="251.105" fill="#E1F4AB" stroke="#58600C" stroke-width="0.35" stroke-miterlimit="10" width="25.452" height="25.449"/>
			</g>
			<g>
				
					<rect x="256.147" y="251.105" fill="#E1F4AB" stroke="#58600C" stroke-width="0.35" stroke-miterlimit="10" width="25.446" height="25.449"/>
				
					<rect x="281.594" y="251.105" fill="#E1F4AB" stroke="#58600C" stroke-width="0.35" stroke-miterlimit="10" width="25.451" height="25.449"/>
			</g>
			<g>
				
					<rect x="307.045" y="251.105" fill="#E1F4AB" stroke="#58600C" stroke-width="0.35" stroke-miterlimit="10" width="25.45" height="25.449"/>
				
					<rect x="332.496" y="251.105" fill="#E1F4AB" stroke="#58600C" stroke-width="0.35" stroke-miterlimit="10" width="25.452" height="25.449"/>
			</g>
			<g>
				
					<rect x="357.949" y="251.105" fill="#E1F4AB" stroke="#58600C" stroke-width="0.35" stroke-miterlimit="10" width="25.444" height="25.449"/>
				
					<rect x="383.394" y="251.105" fill="#E1F4AB" stroke="#58600C" stroke-width="0.35" stroke-miterlimit="10" width="25.449" height="25.449"/>
			</g>
			<g>
				
					<rect x="27.098" y="276.555" fill="#E1F4AB" stroke="#58600C" stroke-width="0.35" stroke-miterlimit="10" width="25.446" height="25.448"/>
			</g>
			<g>
				
					<rect x="52.544" y="276.555" fill="#E1F4AB" stroke="#58600C" stroke-width="0.35" stroke-miterlimit="10" width="25.45" height="25.448"/>
				
					<rect x="77.995" y="276.555" fill="#E1F4AB" stroke="#58600C" stroke-width="0.35" stroke-miterlimit="10" width="25.451" height="25.448"/>
			</g>
			<g>
				
					<rect x="103.447" y="276.555" fill="#E1F4AB" stroke="#58600C" stroke-width="0.35" stroke-miterlimit="10" width="25.448" height="25.448"/>
				
					<rect x="128.895" y="276.555" fill="#E1F4AB" stroke="#58600C" stroke-width="0.35" stroke-miterlimit="10" width="25.449" height="25.448"/>
			</g>
			<g>
				
					<rect x="154.345" y="276.555" fill="#E1F4AB" stroke="#58600C" stroke-width="0.35" stroke-miterlimit="10" width="25.45" height="25.448"/>
				
					<rect x="179.795" y="276.555" fill="#E1F4AB" stroke="#58600C" stroke-width="0.35" stroke-miterlimit="10" width="25.452" height="25.448"/>
			</g>
			<g>
				
					<rect x="205.248" y="276.555" fill="#E1F4AB" stroke="#58600C" stroke-width="0.35" stroke-miterlimit="10" width="25.447" height="25.448"/>
				
					<rect x="230.695" y="276.555" fill="#E1F4AB" stroke="#58600C" stroke-width="0.35" stroke-miterlimit="10" width="25.452" height="25.448"/>
			</g>
			<g>
				
					<rect x="256.147" y="276.555" fill="#E1F4AB" stroke="#58600C" stroke-width="0.35" stroke-miterlimit="10" width="25.446" height="25.448"/>
				
					<rect x="281.594" y="276.555" fill="#E1F4AB" stroke="#58600C" stroke-width="0.35" stroke-miterlimit="10" width="25.451" height="25.448"/>
			</g>
			<g>
				
					<rect x="307.045" y="276.555" fill="#E1F4AB" stroke="#58600C" stroke-width="0.35" stroke-miterlimit="10" width="25.45" height="25.448"/>
				
					<rect x="332.496" y="276.555" fill="#E1F4AB" stroke="#58600C" stroke-width="0.35" stroke-miterlimit="10" width="25.452" height="25.448"/>
			</g>
			<g>
				
					<rect x="357.949" y="276.555" fill="#E1F4AB" stroke="#58600C" stroke-width="0.35" stroke-miterlimit="10" width="25.444" height="25.448"/>
				
					<rect x="383.394" y="276.555" fill="#E1F4AB" stroke="#58600C" stroke-width="0.35" stroke-miterlimit="10" width="25.449" height="25.448"/>
			</g>
			<g>
				
					<rect x="27.098" y="302.004" fill="#E1F4AB" stroke="#58600C" stroke-width="0.35" stroke-miterlimit="10" width="25.446" height="25.448"/>
			</g>
			<g>
				
					<rect x="52.544" y="302.004" fill="#E1F4AB" stroke="#58600C" stroke-width="0.35" stroke-miterlimit="10" width="25.45" height="25.448"/>
				
					<rect x="77.995" y="302.004" fill="#E1F4AB" stroke="#58600C" stroke-width="0.35" stroke-miterlimit="10" width="25.451" height="25.448"/>
			</g>
			<g>
				
					<rect x="103.447" y="302.004" fill="#E1F4AB" stroke="#58600C" stroke-width="0.35" stroke-miterlimit="10" width="25.448" height="25.448"/>
				
					<rect x="128.895" y="302.004" fill="#E1F4AB" stroke="#58600C" stroke-width="0.35" stroke-miterlimit="10" width="25.449" height="25.448"/>
			</g>
			<g>
				
					<rect x="154.345" y="302.004" fill="#E1F4AB" stroke="#58600C" stroke-width="0.35" stroke-miterlimit="10" width="25.45" height="25.448"/>
				
					<rect x="179.795" y="302.004" fill="#E1F4AB" stroke="#58600C" stroke-width="0.35" stroke-miterlimit="10" width="25.452" height="25.448"/>
			</g>
			<g>
				
					<rect x="205.248" y="302.004" fill="#E1F4AB" stroke="#58600C" stroke-width="0.35" stroke-miterlimit="10" width="25.447" height="25.448"/>
				
					<rect x="230.695" y="302.004" fill="#E1F4AB" stroke="#58600C" stroke-width="0.35" stroke-miterlimit="10" width="25.452" height="25.448"/>
			</g>
			<g>
				
					<rect x="256.147" y="302.004" fill="#E1F4AB" stroke="#58600C" stroke-width="0.35" stroke-miterlimit="10" width="25.446" height="25.448"/>
				
					<rect x="281.594" y="302.004" fill="#E1F4AB" stroke="#58600C" stroke-width="0.35" stroke-miterlimit="10" width="25.451" height="25.448"/>
			</g>
			<g>
				
					<rect x="307.045" y="302.004" fill="#E1F4AB" stroke="#58600C" stroke-width="0.35" stroke-miterlimit="10" width="25.45" height="25.448"/>
				
					<rect x="332.496" y="302.004" fill="#E1F4AB" stroke="#58600C" stroke-width="0.35" stroke-miterlimit="10" width="25.452" height="25.448"/>
			</g>
			<g>
				
					<rect x="357.949" y="302.004" fill="#E1F4AB" stroke="#58600C" stroke-width="0.35" stroke-miterlimit="10" width="25.444" height="25.448"/>
				
					<rect x="383.394" y="302.004" fill="#E1F4AB" stroke="#58600C" stroke-width="0.35" stroke-miterlimit="10" width="25.449" height="25.448"/>
			</g>
			<g>
				
					<rect x="27.098" y="327.453" fill="#E1F4AB" stroke="#58600C" stroke-width="0.35" stroke-miterlimit="10" width="25.446" height="25.449"/>
			</g>
			<g>
				
					<rect x="52.544" y="327.453" fill="#E1F4AB" stroke="#58600C" stroke-width="0.35" stroke-miterlimit="10" width="25.45" height="25.449"/>
				
					<rect x="77.995" y="327.453" fill="#E1F4AB" stroke="#58600C" stroke-width="0.35" stroke-miterlimit="10" width="25.451" height="25.449"/>
			</g>
			<g>
				
					<rect x="103.447" y="327.453" fill="#E1F4AB" stroke="#58600C" stroke-width="0.35" stroke-miterlimit="10" width="25.448" height="25.449"/>
				
					<rect x="128.895" y="327.453" fill="#E1F4AB" stroke="#58600C" stroke-width="0.35" stroke-miterlimit="10" width="25.449" height="25.449"/>
			</g>
			<g>
				
					<rect x="154.345" y="327.453" fill="#E1F4AB" stroke="#58600C" stroke-width="0.35" stroke-miterlimit="10" width="25.45" height="25.449"/>
				
					<rect x="179.795" y="327.453" fill="#E1F4AB" stroke="#58600C" stroke-width="0.35" stroke-miterlimit="10" width="25.452" height="25.449"/>
			</g>
			<g>
				
					<rect x="205.248" y="327.453" fill="#E1F4AB" stroke="#58600C" stroke-width="0.35" stroke-miterlimit="10" width="25.447" height="25.449"/>
				
					<rect x="230.695" y="327.453" fill="#E1F4AB" stroke="#58600C" stroke-width="0.35" stroke-miterlimit="10" width="25.452" height="25.449"/>
			</g>
			<g>
				
					<rect x="256.147" y="327.453" fill="#E1F4AB" stroke="#58600C" stroke-width="0.35" stroke-miterlimit="10" width="25.446" height="25.449"/>
				
					<rect x="281.594" y="327.453" fill="#E1F4AB" stroke="#58600C" stroke-width="0.35" stroke-miterlimit="10" width="25.451" height="25.449"/>
			</g>
			<g>
				
					<rect x="307.045" y="327.453" fill="#E1F4AB" stroke="#58600C" stroke-width="0.35" stroke-miterlimit="10" width="25.45" height="25.449"/>
				
					<rect x="332.496" y="327.453" fill="#E1F4AB" stroke="#58600C" stroke-width="0.35" stroke-miterlimit="10" width="25.452" height="25.449"/>
			</g>
			<g>
				
					<rect x="357.949" y="327.453" fill="#E1F4AB" stroke="#58600C" stroke-width="0.35" stroke-miterlimit="10" width="25.444" height="25.449"/>
				
					<rect x="383.394" y="327.453" fill="#E1F4AB" stroke="#58600C" stroke-width="0.35" stroke-miterlimit="10" width="25.449" height="25.449"/>
			</g>
			<g>
				
					<rect x="27.098" y="352.902" fill="#E1F4AB" stroke="#58600C" stroke-width="0.35" stroke-miterlimit="10" width="25.446" height="25.447"/>
			</g>
			<g>
				
					<rect x="52.544" y="352.902" fill="#E1F4AB" stroke="#58600C" stroke-width="0.35" stroke-miterlimit="10" width="25.45" height="25.447"/>
				
					<rect x="77.995" y="352.902" fill="#E1F4AB" stroke="#58600C" stroke-width="0.35" stroke-miterlimit="10" width="25.451" height="25.447"/>
			</g>
			<g>
				
					<rect x="103.447" y="352.902" fill="#E1F4AB" stroke="#58600C" stroke-width="0.35" stroke-miterlimit="10" width="25.448" height="25.447"/>
				
					<rect x="128.895" y="352.902" fill="#E1F4AB" stroke="#58600C" stroke-width="0.35" stroke-miterlimit="10" width="25.449" height="25.447"/>
			</g>
			<g>
				
					<rect x="154.345" y="352.902" fill="#E1F4AB" stroke="#58600C" stroke-width="0.35" stroke-miterlimit="10" width="25.45" height="25.447"/>
				
					<rect x="179.795" y="352.902" fill="#E1F4AB" stroke="#58600C" stroke-width="0.35" stroke-miterlimit="10" width="25.452" height="25.447"/>
			</g>
			<g>
				
					<rect x="205.248" y="352.902" fill="#E1F4AB" stroke="#58600C" stroke-width="0.35" stroke-miterlimit="10" width="25.447" height="25.447"/>
				
					<rect x="230.695" y="352.902" fill="#E1F4AB" stroke="#58600C" stroke-width="0.35" stroke-miterlimit="10" width="25.452" height="25.447"/>
			</g>
			<g>
				
					<rect x="256.147" y="352.902" fill="#E1F4AB" stroke="#58600C" stroke-width="0.35" stroke-miterlimit="10" width="25.446" height="25.447"/>
				
					<rect x="281.594" y="352.902" fill="#E1F4AB" stroke="#58600C" stroke-width="0.35" stroke-miterlimit="10" width="25.451" height="25.447"/>
			</g>
			<g>
				
					<rect x="307.045" y="352.902" fill="#E1F4AB" stroke="#58600C" stroke-width="0.35" stroke-miterlimit="10" width="25.45" height="25.447"/>
				
					<rect x="332.496" y="352.902" fill="#E1F4AB" stroke="#58600C" stroke-width="0.35" stroke-miterlimit="10" width="25.452" height="25.447"/>
			</g>
			<g>
				
					<rect x="357.949" y="352.902" fill="#E1F4AB" stroke="#58600C" stroke-width="0.35" stroke-miterlimit="10" width="25.444" height="25.447"/>
				
					<rect x="383.394" y="352.902" fill="#E1F4AB" stroke="#58600C" stroke-width="0.35" stroke-miterlimit="10" width="25.449" height="25.447"/>
			</g>
			<g>
				
					<rect x="27.098" y="378.351" fill="#E1F4AB" stroke="#58600C" stroke-width="0.35" stroke-miterlimit="10" width="25.446" height="25.449"/>
			</g>
			<g>
				
					<rect x="52.544" y="378.351" fill="#E1F4AB" stroke="#58600C" stroke-width="0.35" stroke-miterlimit="10" width="25.45" height="25.449"/>
				
					<rect x="77.995" y="378.351" fill="#E1F4AB" stroke="#58600C" stroke-width="0.35" stroke-miterlimit="10" width="25.451" height="25.449"/>
			</g>
			<g>
				
					<rect x="103.447" y="378.351" fill="#E1F4AB" stroke="#58600C" stroke-width="0.35" stroke-miterlimit="10" width="25.448" height="25.449"/>
				
					<rect x="128.895" y="378.351" fill="#E1F4AB" stroke="#58600C" stroke-width="0.35" stroke-miterlimit="10" width="25.449" height="25.449"/>
			</g>
			<g>
				
					<rect x="154.345" y="378.351" fill="#E1F4AB" stroke="#58600C" stroke-width="0.35" stroke-miterlimit="10" width="25.45" height="25.449"/>
				
					<rect x="179.795" y="378.351" fill="#E1F4AB" stroke="#58600C" stroke-width="0.35" stroke-miterlimit="10" width="25.452" height="25.449"/>
			</g>
			<g>
				
					<rect x="205.248" y="378.351" fill="#E1F4AB" stroke="#58600C" stroke-width="0.35" stroke-miterlimit="10" width="25.447" height="25.449"/>
				
					<rect x="230.695" y="378.351" fill="#E1F4AB" stroke="#58600C" stroke-width="0.35" stroke-miterlimit="10" width="25.452" height="25.449"/>
			</g>
			<g>
				
					<rect x="256.147" y="378.351" fill="#E1F4AB" stroke="#58600C" stroke-width="0.35" stroke-miterlimit="10" width="25.446" height="25.449"/>
				
					<rect x="281.594" y="378.351" fill="#E1F4AB" stroke="#58600C" stroke-width="0.35" stroke-miterlimit="10" width="25.451" height="25.449"/>
			</g>
			<g>
				
					<rect x="307.045" y="378.351" fill="#E1F4AB" stroke="#58600C" stroke-width="0.35" stroke-miterlimit="10" width="25.45" height="25.449"/>
				
					<rect x="332.496" y="378.351" fill="#E1F4AB" stroke="#58600C" stroke-width="0.35" stroke-miterlimit="10" width="25.452" height="25.449"/>
			</g>
			<g>
				
					<rect x="357.949" y="378.351" fill="#E1F4AB" stroke="#58600C" stroke-width="0.35" stroke-miterlimit="10" width="25.444" height="25.449"/>
				
					<rect x="383.394" y="378.351" fill="#E1F4AB" stroke="#58600C" stroke-width="0.35" stroke-miterlimit="10" width="25.449" height="25.449"/>
			</g>
			<g>
				
					<rect x="27.098" y="403.801" fill="#E1F4AB" stroke="#58600C" stroke-width="0.35" stroke-miterlimit="10" width="25.446" height="25.45"/>
			</g>
			<g>
				
					<rect x="52.544" y="403.801" fill="#E1F4AB" stroke="#58600C" stroke-width="0.35" stroke-miterlimit="10" width="25.45" height="25.45"/>
				
					<rect x="77.995" y="403.801" fill="#E1F4AB" stroke="#58600C" stroke-width="0.35" stroke-miterlimit="10" width="25.451" height="25.45"/>
			</g>
			<g>
				
					<rect x="103.447" y="403.801" fill="#E1F4AB" stroke="#58600C" stroke-width="0.35" stroke-miterlimit="10" width="25.448" height="25.45"/>
				
					<rect x="128.895" y="403.801" fill="#E1F4AB" stroke="#58600C" stroke-width="0.35" stroke-miterlimit="10" width="25.449" height="25.45"/>
			</g>
			<g>
				
					<rect x="154.345" y="403.801" fill="#E1F4AB" stroke="#58600C" stroke-width="0.35" stroke-miterlimit="10" width="25.45" height="25.45"/>
				
					<rect x="179.795" y="403.801" fill="#E1F4AB" stroke="#58600C" stroke-width="0.35" stroke-miterlimit="10" width="25.452" height="25.45"/>
			</g>
			<g>
				
					<rect x="205.248" y="403.801" fill="#E1F4AB" stroke="#58600C" stroke-width="0.35" stroke-miterlimit="10" width="25.447" height="25.45"/>
				
					<rect x="230.695" y="403.801" fill="#E1F4AB" stroke="#58600C" stroke-width="0.35" stroke-miterlimit="10" width="25.452" height="25.45"/>
			</g>
			<g>
				
					<rect x="256.147" y="403.801" fill="#E1F4AB" stroke="#58600C" stroke-width="0.35" stroke-miterlimit="10" width="25.446" height="25.45"/>
				
					<rect x="281.594" y="403.801" fill="#E1F4AB" stroke="#58600C" stroke-width="0.35" stroke-miterlimit="10" width="25.451" height="25.45"/>
			</g>
			<g>
				
					<rect x="307.045" y="403.801" fill="#E1F4AB" stroke="#58600C" stroke-width="0.35" stroke-miterlimit="10" width="25.45" height="25.45"/>
				
					<rect x="332.496" y="403.801" fill="#E1F4AB" stroke="#58600C" stroke-width="0.35" stroke-miterlimit="10" width="25.452" height="25.45"/>
			</g>
			<g>
				
					<rect x="357.949" y="403.801" fill="#E1F4AB" stroke="#58600C" stroke-width="0.35" stroke-miterlimit="10" width="25.444" height="25.45"/>
				
					<rect x="383.394" y="403.801" fill="#E1F4AB" stroke="#58600C" stroke-width="0.35" stroke-miterlimit="10" width="25.449" height="25.45"/>
			</g>
			<g>
				
					<rect x="27.098" y="429.252" fill="#E1F4AB" stroke="#58600C" stroke-width="0.35" stroke-miterlimit="10" width="25.446" height="25.445"/>
			</g>
			<g>
				
					<rect x="52.544" y="429.252" fill="#E1F4AB" stroke="#58600C" stroke-width="0.35" stroke-miterlimit="10" width="25.45" height="25.445"/>
				
					<rect x="77.995" y="429.252" fill="#E1F4AB" stroke="#58600C" stroke-width="0.35" stroke-miterlimit="10" width="25.451" height="25.445"/>
			</g>
			<g>
				
					<rect x="103.447" y="429.252" fill="#E1F4AB" stroke="#58600C" stroke-width="0.35" stroke-miterlimit="10" width="25.448" height="25.445"/>
				
					<rect x="128.895" y="429.252" fill="#E1F4AB" stroke="#58600C" stroke-width="0.35" stroke-miterlimit="10" width="25.449" height="25.445"/>
			</g>
			<g>
				
					<rect x="154.345" y="429.252" fill="#E1F4AB" stroke="#58600C" stroke-width="0.35" stroke-miterlimit="10" width="25.45" height="25.445"/>
				
					<rect x="179.795" y="429.252" fill="#E1F4AB" stroke="#58600C" stroke-width="0.35" stroke-miterlimit="10" width="25.452" height="25.445"/>
			</g>
			<g>
				
					<rect x="205.248" y="429.252" fill="#E1F4AB" stroke="#58600C" stroke-width="0.35" stroke-miterlimit="10" width="25.447" height="25.445"/>
				
					<rect x="230.695" y="429.252" fill="#E1F4AB" stroke="#58600C" stroke-width="0.35" stroke-miterlimit="10" width="25.452" height="25.445"/>
			</g>
			<g>
				
					<rect x="256.147" y="429.252" fill="#E1F4AB" stroke="#58600C" stroke-width="0.35" stroke-miterlimit="10" width="25.446" height="25.445"/>
				
					<rect x="281.594" y="429.252" fill="#E1F4AB" stroke="#58600C" stroke-width="0.35" stroke-miterlimit="10" width="25.451" height="25.445"/>
			</g>
			<g>
				
					<rect x="307.045" y="429.252" fill="#E1F4AB" stroke="#58600C" stroke-width="0.35" stroke-miterlimit="10" width="25.45" height="25.445"/>
				
					<rect x="332.496" y="429.252" fill="#E1F4AB" stroke="#58600C" stroke-width="0.35" stroke-miterlimit="10" width="25.452" height="25.445"/>
			</g>
			<g>
				
					<rect x="357.949" y="429.252" fill="#E1F4AB" stroke="#58600C" stroke-width="0.35" stroke-miterlimit="10" width="25.444" height="25.445"/>
				
					<rect x="383.394" y="429.252" fill="#E1F4AB" stroke="#58600C" stroke-width="0.35" stroke-miterlimit="10" width="25.449" height="25.445"/>
			</g>
			<g>
				
					<rect x="27.098" y="454.697" fill="#E1F4AB" stroke="#58600C" stroke-width="0.35" stroke-miterlimit="10" width="25.446" height="25.448"/>
			</g>
			<g>
				
					<rect x="52.544" y="454.697" fill="#E1F4AB" stroke="#58600C" stroke-width="0.35" stroke-miterlimit="10" width="25.45" height="25.448"/>
				
					<rect x="77.995" y="454.697" fill="#E1F4AB" stroke="#58600C" stroke-width="0.35" stroke-miterlimit="10" width="25.451" height="25.448"/>
			</g>
			<g>
				
					<rect x="103.447" y="454.697" fill="#E1F4AB" stroke="#58600C" stroke-width="0.35" stroke-miterlimit="10" width="25.448" height="25.448"/>
				
					<rect x="128.895" y="454.697" fill="#E1F4AB" stroke="#58600C" stroke-width="0.35" stroke-miterlimit="10" width="25.449" height="25.448"/>
			</g>
			<g>
				
					<rect x="154.345" y="454.697" fill="#E1F4AB" stroke="#58600C" stroke-width="0.35" stroke-miterlimit="10" width="25.45" height="25.448"/>
				
					<rect x="179.795" y="454.697" fill="#E1F4AB" stroke="#58600C" stroke-width="0.35" stroke-miterlimit="10" width="25.452" height="25.448"/>
			</g>
			<g>
				
					<rect x="205.248" y="454.697" fill="#E1F4AB" stroke="#58600C" stroke-width="0.35" stroke-miterlimit="10" width="25.447" height="25.448"/>
				
					<rect x="230.695" y="454.697" fill="#E1F4AB" stroke="#58600C" stroke-width="0.35" stroke-miterlimit="10" width="25.452" height="25.448"/>
			</g>
			<g>
				
					<rect x="256.147" y="454.697" fill="#E1F4AB" stroke="#58600C" stroke-width="0.35" stroke-miterlimit="10" width="25.446" height="25.448"/>
				
					<rect x="281.594" y="454.697" fill="#E1F4AB" stroke="#58600C" stroke-width="0.35" stroke-miterlimit="10" width="25.451" height="25.448"/>
			</g>
			<g>
				
					<rect x="307.045" y="454.697" fill="#E1F4AB" stroke="#58600C" stroke-width="0.35" stroke-miterlimit="10" width="25.45" height="25.448"/>
				
					<rect x="332.496" y="454.697" fill="#E1F4AB" stroke="#58600C" stroke-width="0.35" stroke-miterlimit="10" width="25.452" height="25.448"/>
			</g>
			<g>
				
					<rect x="357.949" y="454.697" fill="#E1F4AB" stroke="#58600C" stroke-width="0.35" stroke-miterlimit="10" width="25.444" height="25.448"/>
				
					<rect x="383.394" y="454.697" fill="#E1F4AB" stroke="#58600C" stroke-width="0.35" stroke-miterlimit="10" width="25.449" height="25.448"/>
			</g>
			<g>
				
					<rect x="27.098" y="480.146" fill="#E1F4AB" stroke="#58600C" stroke-width="0.35" stroke-miterlimit="10" width="25.446" height="25.449"/>
			</g>
			<g>
				
					<rect x="52.544" y="480.146" fill="#E1F4AB" stroke="#58600C" stroke-width="0.35" stroke-miterlimit="10" width="25.45" height="25.449"/>
				
					<rect x="77.995" y="480.146" fill="#E1F4AB" stroke="#58600C" stroke-width="0.35" stroke-miterlimit="10" width="25.451" height="25.449"/>
			</g>
			<g>
				
					<rect x="103.447" y="480.146" fill="#E1F4AB" stroke="#58600C" stroke-width="0.35" stroke-miterlimit="10" width="25.448" height="25.449"/>
				
					<rect x="128.895" y="480.146" fill="#E1F4AB" stroke="#58600C" stroke-width="0.35" stroke-miterlimit="10" width="25.449" height="25.449"/>
			</g>
			<g>
				
					<rect x="154.345" y="480.146" fill="#E1F4AB" stroke="#58600C" stroke-width="0.35" stroke-miterlimit="10" width="25.45" height="25.449"/>
				
					<rect x="179.795" y="480.146" fill="#E1F4AB" stroke="#58600C" stroke-width="0.35" stroke-miterlimit="10" width="25.452" height="25.449"/>
			</g>
			<g>
				
					<rect x="205.248" y="480.146" fill="#E1F4AB" stroke="#58600C" stroke-width="0.35" stroke-miterlimit="10" width="25.447" height="25.449"/>
				
					<rect x="230.695" y="480.146" fill="#E1F4AB" stroke="#58600C" stroke-width="0.35" stroke-miterlimit="10" width="25.452" height="25.449"/>
			</g>
			<g>
				
					<rect x="256.147" y="480.146" fill="#E1F4AB" stroke="#58600C" stroke-width="0.35" stroke-miterlimit="10" width="25.446" height="25.449"/>
				
					<rect x="281.594" y="480.146" fill="#E1F4AB" stroke="#58600C" stroke-width="0.35" stroke-miterlimit="10" width="25.451" height="25.449"/>
			</g>
			<g>
				
					<rect x="307.045" y="480.146" fill="#E1F4AB" stroke="#58600C" stroke-width="0.35" stroke-miterlimit="10" width="25.45" height="25.449"/>
				
					<rect x="332.496" y="480.146" fill="#E1F4AB" stroke="#58600C" stroke-width="0.35" stroke-miterlimit="10" width="25.452" height="25.449"/>
			</g>
			<g>
				
					<rect x="357.949" y="480.146" fill="#E1F4AB" stroke="#58600C" stroke-width="0.35" stroke-miterlimit="10" width="25.444" height="25.449"/>
				
					<rect x="383.394" y="480.146" fill="#E1F4AB" stroke="#58600C" stroke-width="0.35" stroke-miterlimit="10" width="25.449" height="25.449"/>
			</g>
			<g>
				
					<rect x="27.098" y="505.597" fill="#E1F4AB" stroke="#58600C" stroke-width="0.35" stroke-miterlimit="10" width="25.446" height="25.449"/>
			</g>
			<g>
				
					<rect x="52.544" y="505.597" fill="#E1F4AB" stroke="#58600C" stroke-width="0.35" stroke-miterlimit="10" width="25.45" height="25.449"/>
				
					<rect x="77.995" y="505.597" fill="#E1F4AB" stroke="#58600C" stroke-width="0.35" stroke-miterlimit="10" width="25.451" height="25.449"/>
			</g>
			<g>
				
					<rect x="103.447" y="505.597" fill="#E1F4AB" stroke="#58600C" stroke-width="0.35" stroke-miterlimit="10" width="25.448" height="25.449"/>
				
					<rect x="128.895" y="505.597" fill="#E1F4AB" stroke="#58600C" stroke-width="0.35" stroke-miterlimit="10" width="25.449" height="25.449"/>
			</g>
			<g>
				
					<rect x="154.345" y="505.597" fill="#E1F4AB" stroke="#58600C" stroke-width="0.35" stroke-miterlimit="10" width="25.45" height="25.449"/>
				
					<rect x="179.795" y="505.597" fill="#E1F4AB" stroke="#58600C" stroke-width="0.35" stroke-miterlimit="10" width="25.452" height="25.449"/>
			</g>
			<g>
				
					<rect x="205.248" y="505.597" fill="#E1F4AB" stroke="#58600C" stroke-width="0.35" stroke-miterlimit="10" width="25.447" height="25.449"/>
				
					<rect x="230.695" y="505.597" fill="#E1F4AB" stroke="#58600C" stroke-width="0.35" stroke-miterlimit="10" width="25.452" height="25.449"/>
			</g>
			<g>
				
					<rect x="256.147" y="505.597" fill="#E1F4AB" stroke="#58600C" stroke-width="0.35" stroke-miterlimit="10" width="25.446" height="25.449"/>
				
					<rect x="281.594" y="505.597" fill="#E1F4AB" stroke="#58600C" stroke-width="0.35" stroke-miterlimit="10" width="25.451" height="25.449"/>
			</g>
			<g>
				
					<rect x="307.045" y="505.597" fill="#E1F4AB" stroke="#58600C" stroke-width="0.35" stroke-miterlimit="10" width="25.45" height="25.449"/>
				
					<rect x="332.496" y="505.597" fill="#E1F4AB" stroke="#58600C" stroke-width="0.35" stroke-miterlimit="10" width="25.452" height="25.449"/>
			</g>
			<g>
				
					<rect x="357.949" y="505.597" fill="#E1F4AB" stroke="#58600C" stroke-width="0.35" stroke-miterlimit="10" width="25.444" height="25.449"/>
				
					<rect x="383.394" y="505.597" fill="#E1F4AB" stroke="#58600C" stroke-width="0.35" stroke-miterlimit="10" width="25.449" height="25.449"/>
			</g>
			
				<rect x="408.819" y="22.063" fill="#E1F4AB" stroke="#58600C" stroke-width="0.35" stroke-miterlimit="10" width="25.447" height="25.449"/>
			
				<rect x="434.267" y="22.063" fill="#E1F4AB" stroke="#58600C" stroke-width="0.35" stroke-miterlimit="10" width="25.449" height="25.449"/>
			
				<rect x="459.717" y="22.063" fill="#E1F4AB" stroke="#58600C" stroke-width="0.35" stroke-miterlimit="10" width="25.451" height="25.449"/>
			
				<rect x="485.168" y="22.063" fill="#E1F4AB" stroke="#58600C" stroke-width="0.35" stroke-miterlimit="10" width="25.45" height="25.449"/>
			
				<rect x="510.619" y="22.063" fill="#E1F4AB" stroke="#58600C" stroke-width="0.35" stroke-miterlimit="10" width="25.448" height="25.449"/>
			
				<rect x="408.819" y="47.513" fill="#E1F4AB" stroke="#58600C" stroke-width="0.35" stroke-miterlimit="10" width="25.447" height="25.45"/>
			
				<rect x="434.267" y="47.513" fill="#E1F4AB" stroke="#58600C" stroke-width="0.35" stroke-miterlimit="10" width="25.449" height="25.45"/>
			
				<rect x="459.717" y="47.513" fill="#E1F4AB" stroke="#58600C" stroke-width="0.35" stroke-miterlimit="10" width="25.451" height="25.45"/>
			
				<rect x="485.168" y="47.513" fill="#E1F4AB" stroke="#58600C" stroke-width="0.35" stroke-miterlimit="10" width="25.45" height="25.45"/>
			
				<rect x="510.619" y="47.513" fill="#E1F4AB" stroke="#58600C" stroke-width="0.35" stroke-miterlimit="10" width="25.448" height="25.45"/>
			
				<rect x="408.819" y="72.963" fill="#E1F4AB" stroke="#58600C" stroke-width="0.35" stroke-miterlimit="10" width="25.447" height="25.446"/>
			
				<rect x="434.267" y="72.963" fill="#E1F4AB" stroke="#58600C" stroke-width="0.35" stroke-miterlimit="10" width="25.449" height="25.446"/>
			
				<rect x="459.717" y="72.963" fill="#E1F4AB" stroke="#58600C" stroke-width="0.35" stroke-miterlimit="10" width="25.451" height="25.446"/>
			
				<rect x="485.168" y="72.963" fill="#E1F4AB" stroke="#58600C" stroke-width="0.35" stroke-miterlimit="10" width="25.45" height="25.446"/>
			
				<rect x="510.619" y="72.963" fill="#E1F4AB" stroke="#58600C" stroke-width="0.35" stroke-miterlimit="10" width="25.448" height="25.446"/>
			
				<rect x="408.819" y="98.41" fill="#E1F4AB" stroke="#58600C" stroke-width="0.35" stroke-miterlimit="10" width="25.447" height="25.45"/>
			
				<rect x="434.267" y="98.41" fill="#E1F4AB" stroke="#58600C" stroke-width="0.35" stroke-miterlimit="10" width="25.449" height="25.45"/>
			
				<rect x="459.717" y="98.41" fill="#E1F4AB" stroke="#58600C" stroke-width="0.35" stroke-miterlimit="10" width="25.451" height="25.45"/>
			
				<rect x="485.168" y="98.41" fill="#E1F4AB" stroke="#58600C" stroke-width="0.35" stroke-miterlimit="10" width="25.45" height="25.45"/>
			
				<rect x="510.619" y="98.41" fill="#E1F4AB" stroke="#58600C" stroke-width="0.35" stroke-miterlimit="10" width="25.448" height="25.45"/>
			
				<rect x="408.819" y="123.86" fill="#E1F4AB" stroke="#58600C" stroke-width="0.35" stroke-miterlimit="10" width="25.447" height="25.448"/>
			
				<rect x="434.267" y="123.86" fill="#E1F4AB" stroke="#58600C" stroke-width="0.35" stroke-miterlimit="10" width="25.449" height="25.448"/>
			
				<rect x="459.717" y="123.86" fill="#E1F4AB" stroke="#58600C" stroke-width="0.35" stroke-miterlimit="10" width="25.451" height="25.448"/>
			
				<rect x="485.168" y="123.86" fill="#E1F4AB" stroke="#58600C" stroke-width="0.35" stroke-miterlimit="10" width="25.45" height="25.448"/>
			
				<rect x="510.619" y="123.86" fill="#E1F4AB" stroke="#58600C" stroke-width="0.35" stroke-miterlimit="10" width="25.448" height="25.448"/>
			<g>
				
					<rect x="408.819" y="149.31" fill="#E1F4AB" stroke="#58600C" stroke-width="0.35" stroke-miterlimit="10" width="25.447" height="25.448"/>
				
					<rect x="434.267" y="149.31" fill="#E1F4AB" stroke="#58600C" stroke-width="0.35" stroke-miterlimit="10" width="25.449" height="25.448"/>
			</g>
			<g>
				
					<rect x="459.717" y="149.31" fill="#E1F4AB" stroke="#58600C" stroke-width="0.35" stroke-miterlimit="10" width="25.451" height="25.448"/>
				
					<rect x="485.168" y="149.31" fill="#E1F4AB" stroke="#58600C" stroke-width="0.35" stroke-miterlimit="10" width="25.45" height="25.448"/>
			</g>
			<g>
				
					<rect x="510.619" y="149.31" fill="#E1F4AB" stroke="#58600C" stroke-width="0.35" stroke-miterlimit="10" width="25.448" height="25.448"/>
			</g>
			<g>
				
					<rect x="408.819" y="174.758" fill="#E1F4AB" stroke="#58600C" stroke-width="0.35" stroke-miterlimit="10" width="25.447" height="25.451"/>
				
					<rect x="434.267" y="174.758" fill="#E1F4AB" stroke="#58600C" stroke-width="0.35" stroke-miterlimit="10" width="25.449" height="25.451"/>
			</g>
			<g>
				
					<rect x="459.717" y="174.758" fill="#E1F4AB" stroke="#58600C" stroke-width="0.35" stroke-miterlimit="10" width="25.451" height="25.451"/>
				
					<rect x="485.168" y="174.758" fill="#E1F4AB" stroke="#58600C" stroke-width="0.35" stroke-miterlimit="10" width="25.45" height="25.451"/>
			</g>
			<g>
				
					<rect x="510.619" y="174.758" fill="#E1F4AB" stroke="#58600C" stroke-width="0.35" stroke-miterlimit="10" width="25.448" height="25.451"/>
			</g>
			<g>
				
					<rect x="408.819" y="200.207" fill="#E1F4AB" stroke="#58600C" stroke-width="0.35" stroke-miterlimit="10" width="25.447" height="25.448"/>
				
					<rect x="434.267" y="200.207" fill="#E1F4AB" stroke="#58600C" stroke-width="0.35" stroke-miterlimit="10" width="25.449" height="25.448"/>
			</g>
			<g>
				
					<rect x="459.717" y="200.207" fill="#E1F4AB" stroke="#58600C" stroke-width="0.35" stroke-miterlimit="10" width="25.451" height="25.448"/>
				
					<rect x="485.168" y="200.207" fill="#E1F4AB" stroke="#58600C" stroke-width="0.35" stroke-miterlimit="10" width="25.45" height="25.448"/>
			</g>
			<g>
				
					<rect x="510.619" y="200.207" fill="#E1F4AB" stroke="#58600C" stroke-width="0.35" stroke-miterlimit="10" width="25.448" height="25.448"/>
			</g>
			<g>
				
					<rect x="408.819" y="225.656" fill="#E1F4AB" stroke="#58600C" stroke-width="0.35" stroke-miterlimit="10" width="25.447" height="25.449"/>
				
					<rect x="434.267" y="225.656" fill="#E1F4AB" stroke="#58600C" stroke-width="0.35" stroke-miterlimit="10" width="25.449" height="25.449"/>
			</g>
			<g>
				
					<rect x="459.717" y="225.656" fill="#E1F4AB" stroke="#58600C" stroke-width="0.35" stroke-miterlimit="10" width="25.451" height="25.449"/>
				
					<rect x="485.168" y="225.656" fill="#E1F4AB" stroke="#58600C" stroke-width="0.35" stroke-miterlimit="10" width="25.45" height="25.449"/>
			</g>
			<g>
				
					<rect x="510.619" y="225.656" fill="#E1F4AB" stroke="#58600C" stroke-width="0.35" stroke-miterlimit="10" width="25.448" height="25.449"/>
			</g>
			<g>
				
					<rect x="408.819" y="251.105" fill="#E1F4AB" stroke="#58600C" stroke-width="0.35" stroke-miterlimit="10" width="25.447" height="25.449"/>
				
					<rect x="434.267" y="251.105" fill="#E1F4AB" stroke="#58600C" stroke-width="0.35" stroke-miterlimit="10" width="25.449" height="25.449"/>
			</g>
			<g>
				
					<rect x="459.717" y="251.105" fill="#E1F4AB" stroke="#58600C" stroke-width="0.35" stroke-miterlimit="10" width="25.451" height="25.449"/>
				
					<rect x="485.168" y="251.105" fill="#E1F4AB" stroke="#58600C" stroke-width="0.35" stroke-miterlimit="10" width="25.45" height="25.449"/>
			</g>
			<g>
				
					<rect x="510.619" y="251.105" fill="#E1F4AB" stroke="#58600C" stroke-width="0.35" stroke-miterlimit="10" width="25.448" height="25.449"/>
			</g>
			<g>
				
					<rect x="408.819" y="276.555" fill="#E1F4AB" stroke="#58600C" stroke-width="0.35" stroke-miterlimit="10" width="25.447" height="25.448"/>
				
					<rect x="434.267" y="276.555" fill="#E1F4AB" stroke="#58600C" stroke-width="0.35" stroke-miterlimit="10" width="25.449" height="25.448"/>
			</g>
			<g>
				
					<rect x="459.717" y="276.555" fill="#E1F4AB" stroke="#58600C" stroke-width="0.35" stroke-miterlimit="10" width="25.451" height="25.448"/>
				
					<rect x="485.168" y="276.555" fill="#E1F4AB" stroke="#58600C" stroke-width="0.35" stroke-miterlimit="10" width="25.45" height="25.448"/>
			</g>
			<g>
				
					<rect x="510.619" y="276.555" fill="#E1F4AB" stroke="#58600C" stroke-width="0.35" stroke-miterlimit="10" width="25.448" height="25.448"/>
			</g>
			<g>
				
					<rect x="408.819" y="302.004" fill="#E1F4AB" stroke="#58600C" stroke-width="0.35" stroke-miterlimit="10" width="25.447" height="25.448"/>
				
					<rect x="434.267" y="302.004" fill="#E1F4AB" stroke="#58600C" stroke-width="0.35" stroke-miterlimit="10" width="25.449" height="25.448"/>
			</g>
			<g>
				
					<rect x="459.717" y="302.004" fill="#E1F4AB" stroke="#58600C" stroke-width="0.35" stroke-miterlimit="10" width="25.451" height="25.448"/>
				
					<rect x="485.168" y="302.004" fill="#E1F4AB" stroke="#58600C" stroke-width="0.35" stroke-miterlimit="10" width="25.45" height="25.448"/>
			</g>
			<g>
				
					<rect x="510.619" y="302.004" fill="#E1F4AB" stroke="#58600C" stroke-width="0.35" stroke-miterlimit="10" width="25.448" height="25.448"/>
			</g>
			<g>
				
					<rect x="408.819" y="327.453" fill="#E1F4AB" stroke="#58600C" stroke-width="0.35" stroke-miterlimit="10" width="25.447" height="25.449"/>
				
					<rect x="434.267" y="327.453" fill="#E1F4AB" stroke="#58600C" stroke-width="0.35" stroke-miterlimit="10" width="25.449" height="25.449"/>
			</g>
			<g>
				
					<rect x="459.717" y="327.453" fill="#E1F4AB" stroke="#58600C" stroke-width="0.35" stroke-miterlimit="10" width="25.451" height="25.449"/>
				
					<rect x="485.168" y="327.453" fill="#E1F4AB" stroke="#58600C" stroke-width="0.35" stroke-miterlimit="10" width="25.45" height="25.449"/>
			</g>
			<g>
				
					<rect x="510.619" y="327.453" fill="#E1F4AB" stroke="#58600C" stroke-width="0.35" stroke-miterlimit="10" width="25.448" height="25.449"/>
			</g>
			<g>
				
					<rect x="408.819" y="352.902" fill="#E1F4AB" stroke="#58600C" stroke-width="0.35" stroke-miterlimit="10" width="25.447" height="25.447"/>
				
					<rect x="434.267" y="352.902" fill="#E1F4AB" stroke="#58600C" stroke-width="0.35" stroke-miterlimit="10" width="25.449" height="25.447"/>
			</g>
			<g>
				
					<rect x="459.717" y="352.902" fill="#E1F4AB" stroke="#58600C" stroke-width="0.35" stroke-miterlimit="10" width="25.451" height="25.447"/>
				
					<rect x="485.168" y="352.902" fill="#E1F4AB" stroke="#58600C" stroke-width="0.35" stroke-miterlimit="10" width="25.45" height="25.447"/>
			</g>
			<g>
				
					<rect x="510.619" y="352.902" fill="#E1F4AB" stroke="#58600C" stroke-width="0.35" stroke-miterlimit="10" width="25.448" height="25.447"/>
			</g>
			<g>
				
					<rect x="408.819" y="378.351" fill="#E1F4AB" stroke="#58600C" stroke-width="0.35" stroke-miterlimit="10" width="25.447" height="25.449"/>
				
					<rect x="434.267" y="378.351" fill="#E1F4AB" stroke="#58600C" stroke-width="0.35" stroke-miterlimit="10" width="25.449" height="25.449"/>
			</g>
			<g>
				
					<rect x="459.717" y="378.351" fill="#E1F4AB" stroke="#58600C" stroke-width="0.35" stroke-miterlimit="10" width="25.451" height="25.449"/>
				
					<rect x="485.168" y="378.351" fill="#E1F4AB" stroke="#58600C" stroke-width="0.35" stroke-miterlimit="10" width="25.45" height="25.449"/>
			</g>
			<g>
				
					<rect x="510.619" y="378.351" fill="#E1F4AB" stroke="#58600C" stroke-width="0.35" stroke-miterlimit="10" width="25.448" height="25.449"/>
			</g>
			<g>
				
					<rect x="408.819" y="403.801" fill="#E1F4AB" stroke="#58600C" stroke-width="0.35" stroke-miterlimit="10" width="25.447" height="25.45"/>
				
					<rect x="434.267" y="403.801" fill="#E1F4AB" stroke="#58600C" stroke-width="0.35" stroke-miterlimit="10" width="25.449" height="25.45"/>
			</g>
			<g>
				
					<rect x="459.717" y="403.801" fill="#E1F4AB" stroke="#58600C" stroke-width="0.35" stroke-miterlimit="10" width="25.451" height="25.45"/>
				
					<rect x="485.168" y="403.801" fill="#E1F4AB" stroke="#58600C" stroke-width="0.35" stroke-miterlimit="10" width="25.45" height="25.45"/>
			</g>
			<g>
				
					<rect x="510.619" y="403.801" fill="#E1F4AB" stroke="#58600C" stroke-width="0.35" stroke-miterlimit="10" width="25.448" height="25.45"/>
			</g>
			<g>
				
					<rect x="408.819" y="429.252" fill="#E1F4AB" stroke="#58600C" stroke-width="0.35" stroke-miterlimit="10" width="25.447" height="25.445"/>
				
					<rect x="434.267" y="429.252" fill="#E1F4AB" stroke="#58600C" stroke-width="0.35" stroke-miterlimit="10" width="25.449" height="25.445"/>
			</g>
			<g>
				
					<rect x="459.717" y="429.252" fill="#E1F4AB" stroke="#58600C" stroke-width="0.35" stroke-miterlimit="10" width="25.451" height="25.445"/>
				
					<rect x="485.168" y="429.252" fill="#E1F4AB" stroke="#58600C" stroke-width="0.35" stroke-miterlimit="10" width="25.45" height="25.445"/>
			</g>
			<g>
				
					<rect x="510.619" y="429.252" fill="#E1F4AB" stroke="#58600C" stroke-width="0.35" stroke-miterlimit="10" width="25.448" height="25.445"/>
			</g>
			<g>
				
					<rect x="408.819" y="454.697" fill="#E1F4AB" stroke="#58600C" stroke-width="0.35" stroke-miterlimit="10" width="25.447" height="25.448"/>
				
					<rect x="434.267" y="454.697" fill="#E1F4AB" stroke="#58600C" stroke-width="0.35" stroke-miterlimit="10" width="25.449" height="25.448"/>
			</g>
			<g>
				
					<rect x="459.717" y="454.697" fill="#E1F4AB" stroke="#58600C" stroke-width="0.35" stroke-miterlimit="10" width="25.451" height="25.448"/>
				
					<rect x="485.168" y="454.697" fill="#E1F4AB" stroke="#58600C" stroke-width="0.35" stroke-miterlimit="10" width="25.45" height="25.448"/>
			</g>
			<g>
				
					<rect x="510.619" y="454.697" fill="#E1F4AB" stroke="#58600C" stroke-width="0.35" stroke-miterlimit="10" width="25.448" height="25.448"/>
			</g>
			<g>
				
					<rect x="408.819" y="480.146" fill="#E1F4AB" stroke="#58600C" stroke-width="0.35" stroke-miterlimit="10" width="25.447" height="25.449"/>
				
					<rect x="434.267" y="480.146" fill="#E1F4AB" stroke="#58600C" stroke-width="0.35" stroke-miterlimit="10" width="25.449" height="25.449"/>
			</g>
			<g>
				
					<rect x="459.717" y="480.146" fill="#E1F4AB" stroke="#58600C" stroke-width="0.35" stroke-miterlimit="10" width="25.451" height="25.449"/>
				
					<rect x="485.168" y="480.146" fill="#E1F4AB" stroke="#58600C" stroke-width="0.35" stroke-miterlimit="10" width="25.45" height="25.449"/>
			</g>
			<g>
				
					<rect x="510.619" y="480.146" fill="#E1F4AB" stroke="#58600C" stroke-width="0.35" stroke-miterlimit="10" width="25.448" height="25.449"/>
			</g>
			<g>
				
					<rect x="408.819" y="505.597" fill="#E1F4AB" stroke="#58600C" stroke-width="0.35" stroke-miterlimit="10" width="25.447" height="25.449"/>
				
					<rect x="434.267" y="505.597" fill="#E1F4AB" stroke="#58600C" stroke-width="0.35" stroke-miterlimit="10" width="25.449" height="25.449"/>
			</g>
			<g>
				
					<rect x="459.717" y="505.597" fill="#E1F4AB" stroke="#58600C" stroke-width="0.35" stroke-miterlimit="10" width="25.451" height="25.449"/>
				
					<rect x="485.168" y="505.597" fill="#E1F4AB" stroke="#58600C" stroke-width="0.35" stroke-miterlimit="10" width="25.45" height="25.449"/>
			</g>
			<g>
				
					<rect x="510.619" y="505.597" fill="#E1F4AB" stroke="#58600C" stroke-width="0.35" stroke-miterlimit="10" width="25.448" height="25.449"/>
			</g>
		</g>
		<text transform="matrix(1 0 0 1 266.4429 291.332)" font-family="'MyriadPro-Regular'" font-size="15">O</text>
	</g>
	<g>
		
			<line fill="none" stroke="#6F7F0F" stroke-width="1.5" stroke-miterlimit="10" x1="28.002" y1="149.355" x2="535.164" y2="149.355"/>
		
			<line fill="none" stroke="#6F7F0F" stroke-width="1.5" stroke-miterlimit="10" x1="28.002" y1="403.754" x2="535.164" y2="403.754"/>
		
			<line fill="none" stroke="#6F7F0F" stroke-width="1.5" stroke-miterlimit="10" x1="408.782" y1="22.973" x2="408.782" y2="530.136"/>
		
			<line fill="none" stroke="#6F7F0F" stroke-width="1.5" stroke-miterlimit="10" x1="154.382" y1="22.973" x2="154.382" y2="530.136"/>
	</g>
	<g>
		<g>
			<g>
				
					<line fill="none" stroke="#231F20" stroke-width="2" stroke-miterlimit="10" x1="39.298" y1="276.601" x2="523.867" y2="276.601"/>
				<g>
					<polygon fill="#231F20" points="28.002,276.601 43.92,283.105 40.144,276.601 43.92,270.098 					"/>
				</g>
				<g>
					<polygon fill="#231F20" points="535.164,276.601 519.245,283.105 523.022,276.601 519.245,270.098 					"/>
				</g>
			</g>
		</g>
		<g>
			<text transform="matrix(0.9 0 0 1 303.9565 291.0625)" font-family="'MyriadPro-Regular'" font-size="15">1</text>
			<text transform="matrix(0.9 0 0 1 328.9575 291.0625)" font-family="'MyriadPro-Regular'" font-size="15">2</text>
			<text transform="matrix(0.9 0 0 1 354.6235 291.0625)" font-family="'MyriadPro-Regular'" font-size="15">3</text>
			<text transform="matrix(0.9 0 0 1 379.6235 291.0625)" font-family="'MyriadPro-Regular'" font-size="15">4</text>
			<text transform="matrix(0.9 0 0 1 406.2896 291.0625)" font-family="'MyriadPro-Regular'" font-size="15">5</text>
			<text transform="matrix(0.9 0 0 1 431.2896 291.0625)" font-family="'MyriadPro-Regular'" font-size="15">6</text>
			<text transform="matrix(0.9 0 0 1 455.9575 291.0625)" font-family="'MyriadPro-Regular'" font-size="15">7</text>
			<text transform="matrix(0.9 0 0 1 481.9575 291.0625)" font-family="'MyriadPro-Regular'" font-size="15">8</text>
			<text transform="matrix(0.9 0 0 1 507.6235 291.0625)" font-family="'MyriadPro-Regular'" font-size="15">9</text>
			<text transform="matrix(0.9 0 0 1 529.1606 291.0625)" font-family="'MyriadPro-Regular'" font-size="15">10</text>
		</g>
		<g>
			<text transform="matrix(0.9 0 0 1 17.9224 291.0625)" font-family="'MyriadPro-Regular'" font-size="15">-10</text>
			<text transform="matrix(0.9 0 0 1 46.3853 291.0625)" font-family="'MyriadPro-Regular'" font-size="15">-9</text>
			<text transform="matrix(0.9 0 0 1 73.0518 291.0625)" font-family="'MyriadPro-Regular'" font-size="15">-8</text>
			<text transform="matrix(0.9 0 0 1 97.0518 291.0625)" font-family="'MyriadPro-Regular'" font-size="15">-7</text>
			<text transform="matrix(0.9 0 0 1 123.7183 291.0625)" font-family="'MyriadPro-Regular'" font-size="15">-6</text>
			<text transform="matrix(0.9 0 0 1 148.7183 291.0625)" font-family="'MyriadPro-Regular'" font-size="15">-5</text>
			<text transform="matrix(0.9 0 0 1 174.3853 291.0625)" font-family="'MyriadPro-Regular'" font-size="15">-4</text>
			<text transform="matrix(0.9 0 0 1 199.3853 291.0625)" font-family="'MyriadPro-Regular'" font-size="15">-3</text>
			<text transform="matrix(0.9 0 0 1 225.0518 291.0625)" font-family="'MyriadPro-Regular'" font-size="15">-2</text>
			<text transform="matrix(0.9 0 0 1 251.0518 291.0625)" font-family="'MyriadPro-Regular'" font-size="15">-1</text>
		</g>
		<text transform="matrix(1 0 0 1 7.7759 282)" font-family="'MyriadPro-Semibold'" font-size="15">X’</text>
		<text transform="matrix(1 0 0 1 541.7759 282)" font-family="'MyriadPro-Semibold'" font-size="15">X</text>
	</g>
	<g>
		<g>
			<g>
				
					<line fill="none" stroke="#231F20" stroke-width="2" stroke-miterlimit="10" x1="281.536" y1="34.27" x2="281.536" y2="518.839"/>
				<g>
					<polygon fill="#231F20" points="281.536,22.973 275.031,38.892 281.536,35.114 288.038,38.892 					"/>
				</g>
				<g>
					<polygon fill="#231F20" points="281.536,530.136 275.031,514.218 281.536,517.996 288.038,514.218 					"/>
				</g>
			</g>
		</g>
		<g>
			<text transform="matrix(0.9 0 0 1 258.6445 26.8848)" font-family="'MyriadPro-Regular'" font-size="15">10</text>
			<text transform="matrix(0.9 0 0 1 265.5698 50.9395)" font-family="'MyriadPro-Regular'" font-size="15">9</text>
			<text transform="matrix(0.9 0 0 1 265.5698 77.4082)" font-family="'MyriadPro-Regular'" font-size="15">8</text>
			<text transform="matrix(0.9 0 0 1 265.5698 102.4609)" font-family="'MyriadPro-Regular'" font-size="15">7</text>
			<text transform="matrix(0.9 0 0 1 265.5698 126.6377)" font-family="'MyriadPro-Regular'" font-size="15">6</text>
			<text transform="matrix(0.9 0 0 1 265.5698 153.6914)" font-family="'MyriadPro-Regular'" font-size="15">5</text>
			<text transform="matrix(0.9 0 0 1 265.5698 180.1602)" font-family="'MyriadPro-Regular'" font-size="15">4</text>
			<text transform="matrix(0.9 0 0 1 265.5698 205.2139)" font-family="'MyriadPro-Regular'" font-size="15">3</text>
			<text transform="matrix(0.9 0 0 1 265.5698 231.0977)" font-family="'MyriadPro-Regular'" font-size="15">2</text>
			<text transform="matrix(0.9 0 0 1 265.5698 256.1514)" font-family="'MyriadPro-Regular'" font-size="15">1</text>
		</g>
		<g>
			<text transform="matrix(0.9 0 0 1 263.4253 306.041)" font-family="'MyriadPro-Regular'" font-size="15">-1</text>
			<text transform="matrix(0.9 0 0 1 263.4253 330.0938)" font-family="'MyriadPro-Regular'" font-size="15">-2</text>
			<text transform="matrix(0.9 0 0 1 263.4253 356.5625)" font-family="'MyriadPro-Regular'" font-size="15">-3</text>
			<text transform="matrix(0.9 0 0 1 263.4253 381.6172)" font-family="'MyriadPro-Regular'" font-size="15">-4</text>
			<text transform="matrix(0.9 0 0 1 263.4253 405.793)" font-family="'MyriadPro-Regular'" font-size="15">-5</text>
			<text transform="matrix(0.9 0 0 1 263.4253 432.8477)" font-family="'MyriadPro-Regular'" font-size="15">-6</text>
			<text transform="matrix(0.9 0 0 1 263.4253 459.3164)" font-family="'MyriadPro-Regular'" font-size="15">-7</text>
			<text transform="matrix(0.9 0 0 1 263.4253 484.3691)" font-family="'MyriadPro-Regular'" font-size="15">-8</text>
			<text transform="matrix(0.9 0 0 1 263.4253 510.2539)" font-family="'MyriadPro-Regular'" font-size="15">-9</text>
			<text transform="matrix(0.9 0 0 1 256.5 535.3057)" font-family="'MyriadPro-Regular'" font-size="15">-10</text>
		</g>
		<text transform="matrix(1 0 0 1 277.1089 544.666)" font-family="'MyriadPro-Semibold'" font-size="15">Y’</text>
		<text transform="matrix(1 0 0 1 277.1089 18)" font-family="'MyriadPro-Semibold'" font-size="15">Y</text>
	</g>
</g>
<text class="correctxt2" transform="matrix(1 0 0 1 129.3354 317.0264)" font-family="'MyriadPro-Regular'" font-size="12">B’ (-6, -1)</text>
<text transform="matrix(1 0 0 1 206.4609 239.9004)" font-family="'MyriadPro-Regular'" font-size="12">B (-3, 2)</text>
<text transform="matrix(1 0 0 1 206.915 160.96)" font-family="'MyriadPro-Regular'" font-size="12">A (-1, 5)</text>
<text class="correctxt1" transform="matrix(1 0 0 1 139.7705 221.7529)" font-family="'MyriadPro-Regular'" font-size="12">A’ (-4, 2)</text>
<text class="correctxt3" transform="matrix(1 0 0 1 238.2871 317.3232)" font-family="'MyriadPro-Regular'" font-size="12">C’ (-1, -1)</text>
<text transform="matrix(1 0 0 1 341.7261 234.7539)" font-family="'MyriadPro-Regular'" font-size="12">C (2, 2)</text>
<text transform="matrix(1 0 0 1 341.5601 142.6875)" font-family="'MyriadPro-Regular'" font-size="12">D (4, 5)</text>
<text class="correctxt4" transform="matrix(1 0 0 1 287.1187 218.4521)" font-family="'MyriadPro-Regular'" font-size="12">D’ (1, 2)</text>
<g>
	<polygon fill="none" stroke="#005CA9" stroke-width="2" stroke-miterlimit="10" points="255.614,148.896 204.918,225.496 
		332.019,225.496 383.105,148.896 	"/>
	
	<!--question points-->
	<g>
		<circle class="que1" fill="#FF0000" cx="256.004" cy="147.896" r="4.527"/>
		<circle class="que2" fill="#FF0000" cx="204.918" cy="225.497" r="4.527"/>
		<circle class="que3" fill="#FF0000" cx="332.019" cy="225.497" r="4.527"/>
		<circle class="que4" fill="#FF0000" cx="383.105" cy="148.896" r="4.527"/>
		
		
	</g>
</g>
<g>
	<polygon class="correctpara" fill="none" stroke="#005CA9" stroke-width="2" stroke-miterlimit="10" points="179.083,225.03 128.389,301.63 
		255.49,301.63 306.576,225.03 	"/>
	
	<!--answer circle-->
	<g>
		
		<circle class="check" id="correct10" fill="#FF0000" cx="179.474" cy="224.03" r="4.527"/>
		<circle class="check" id="correct1" fill="#FF0000" cx="179.474" cy="224.03" r="10"/>
		
		<circle class="check" id="correct20" fill="#FF0000" cx="128.389" cy="301.63" r="4.527"/>
		<circle class="check" id="correct2" fill="#FF0000" cx="128.389" cy="301.63" r="10"/>
		
		
		<circle class="check" id="correct30" fill="#FF0000" cx="255.49" cy="301.63" r="4.527"/>
		<circle class="check" id="correct3" fill="#FF0000" cx="255.49" cy="301.63" r="10"/>
		
		<circle class="check" id="correct40" fill="#FF0000" cx="306.576" cy="225.03" r="4.527"/>
		<circle class="check" id="correct4" fill="#FF0000" cx="306.576" cy="225.03" r="10"/>
		
		
	</g>
</g>

<polyline class="dottedlines" fill="none" stroke="#000000" stroke-width="1.5" stroke-miterlimit="10" stroke-dasharray="2,2" points="255.706,149.192 
	179.795,149.192 179.795,149.309 179.795,224.704 "/>
<polyline class="dottedlines" fill="none" stroke="#000000" stroke-width="1.5" stroke-miterlimit="10" stroke-dasharray="2,2" points="383.706,149.192 
	307.795,149.192 306.899,149.309 306.899,224.704 "/>
<polyline class="dottedlines" fill="none" stroke="#000000" stroke-width="1.5" stroke-miterlimit="10" stroke-dasharray="2,2" points="205.206,226.192 
	129.295,226.192 129.295,226.309 129.295,301.704 "/>
<polyline class="dottedlines" fill="none" stroke="#000000" stroke-width="1.5" stroke-miterlimit="10" stroke-dasharray="2,2" points="332.706,226.192 
	256.795,226.192 256.795,226.309 256.795,301.704 "/>
</svg>
