<?xml version="1.0" encoding="utf-8"?>
<!-- Generator: Adobe Illustrator 15.0.0, SVG Export Plug-In . SVG Version: 6.00 Build 0)  -->
<!DOCTYPE svg PUBLIC "-//W3C//DTD SVG 1.1//EN" "http://www.w3.org/Graphics/SVG/1.1/DTD/svg11.dtd">
<svg version="1.1" id="Layer_1" xmlns="http://www.w3.org/2000/svg" xmlns:xlink="http://www.w3.org/1999/xlink" x="0px" y="0px"
	 width="128.607px" height="152.061px" viewBox="0 0 128.607 152.061" enable-background="new 0 0 128.607 152.061"
	 xml:space="preserve">
<g>
	<path fill="#BCC149" stroke="#778429" stroke-width="0.6833" stroke-miterlimit="10" d="M112.26,124.106
		c-7.254-15.273-16.018-23.002-21.482-22.546c-4.147,0.347-22.183,3.32-28.241,4.101c-6.061-0.779-23.639-1.932-27.786-2.276
		c-5.465-0.458-13.674,6.471-22.775,20.723c-8.653,13.551-7.289,27.104-7.289,27.104c9.565,1.366,38.265-0.91,38.265-0.91
		s-0.91-12.982-3.644-18.903s0.199-11.78,10.93-13.21c6.067-0.811,17.694-0.811,23.764,0c10.73,1.43,12.452,7.862,11.767,14.35
		c-0.908,8.655-5.009,18.22-5.009,18.22s28.696,1.821,38.262,0.455C119.018,151.21,120.157,140.733,112.26,124.106z"/>
	<g>
		<g>
			<path fill="#007133" d="M113.381,114.938c0-32.042-22.943-58.019-51.245-58.019c-28.3,0-51.244,25.977-51.244,58.019
				c0,0.174,0.007,0.342,0.012,0.515l49.81-9.567l52.656,9.567C113.372,115.28,113.381,115.112,113.381,114.938z"/>
		</g>
	</g>
	<path fill="#093800" d="M14.935,119.897c-6.633,0-16.171-5.778-14.803-10.406c1.364-4.629,10.361,3.464,18.562,1.48
		c8.198-1.983,38.831-12.061,48.396-10.736c9.564,1.322,40.084,13.884,50.104,11.897c10.021-1.981,13.21,0.662,10.479,5.292
		c-2.734,4.63-14.12,5.95-20.499,3.309c-6.375-2.646-25.962-10.582-33.707-12.564c-7.743-1.982-14.12-2.645-21.863,0
		C43.859,110.814,24.841,119.897,14.935,119.897z"/>
	<path fill="#C0CC4C" stroke="#778429" stroke-width="0.6833" stroke-miterlimit="10" d="M46.591,80.92
		c0.456,12.87,3.862,34.848,15.716,34.533c17.081-0.458,14.804-35.759,14.804-35.759L46.591,80.92z"/>
	<path fill="#C6DB4F" stroke="#778429" stroke-width="0.6833" stroke-miterlimit="10" d="M107.601,44.935
		c6.785,46.528-19.966,44.592-44.594,44.592c-24.627,0-50.409,7.754-44.591-44.592C21.135,20.457,38.38,0.342,63.007,0.342
		C87.635,0.342,104.045,20.564,107.601,44.935z"/>
	<g>
		<path fill="#383838" d="M37.438,66.099c0.434,1.087,1.31,1.86,2.256,2.43c0.961,0.564,2.01,0.979,3.087,1.306
			c2.152,0.669,4.401,1.048,6.654,1.446c2.254,0.382,4.562,0.705,6.86,1.352c2.09,0.524,4.335,0.772,6.563,0.807
			c2.211,0.051,4.527-0.032,6.559-0.494c0.262-0.063,0.44-0.116,0.693-0.213l0.829-0.313c0.559-0.203,1.129-0.393,1.705-0.559
			c1.153-0.343,2.321-0.56,3.476-0.749c1.141-0.198,2.332-0.329,3.427-0.49c1.033-0.18,2.089-0.538,3.023-1.071
			c1.891-1.059,3.359-2.947,3.993-5.171c-0.173,2.313-1.434,4.6-3.413,6.055c-0.986,0.742-2.109,1.234-3.317,1.58
			c-1.162,0.305-2.25,0.518-3.362,0.801c-1.104,0.273-2.182,0.588-3.227,0.938c-0.522,0.181-1.036,0.379-1.552,0.597l-0.772,0.336
			c-0.278,0.125-0.646,0.26-0.94,0.343c-1.235,0.349-2.42,0.475-3.611,0.583c-1.189,0.094-2.376,0.137-3.564,0.104
			c-2.372-0.099-4.75-0.319-7.101-1.048c-2.111-0.703-4.369-1.107-6.619-1.689c-2.252-0.549-4.517-1.188-6.684-2.137
			c-1.071-0.492-2.137-1.049-3.058-1.817C38.42,68.274,37.643,67.253,37.438,66.099z"/>
	</g>
	<path fill="#AAE25A" d="M4.685,151.21c1.879-7.229,4.613-13.723,9.396-11.331c4.782,2.393,4.782,11.787,4.782,11.787L4.685,151.21z
		"/>
	<path fill="#AAE25A" d="M21.085,151.287c1.054-7.396,3.041-14.154,8.062-12.313c5.021,1.837,6.285,11.838,6.285,11.838
		L21.085,151.287z"/>
	<path fill="#AAE25A" d="M88.045,151.21c1.877-7.229,4.611-13.723,9.394-11.331c4.783,2.393,4.783,11.787,4.783,11.787
		L88.045,151.21z"/>
	<path fill="#AAE25A" d="M104.444,151.287c1.055-7.396,3.041-14.154,8.063-12.313c5.021,1.837,6.286,11.838,6.286,11.838
		L104.444,151.287z"/>
	<polyline fill="none" stroke="#7B8E52" stroke-width="0.6833" stroke-miterlimit="10" points="16.757,88.577 27.745,91.366
		31.503,101.446 28.601,108.446 	"/>
	<path fill="none" stroke="#7B8E52" stroke-width="0.6833" stroke-miterlimit="10" d="M28.087,91.709
		c1.367-0.854,4.386-3.132,4.386-3.132"/>

		<line fill="none" stroke="#7B8E52" stroke-width="0.6833" stroke-miterlimit="10" x1="40.214" y1="105.204" x2="31.503" y2="101.104"/>
	<polyline fill="none" stroke="#7B8E52" stroke-width="0.6833" stroke-miterlimit="10" points="81.212,104.063 84.857,94.272
		81.099,89.26 	"/>
	<polyline fill="none" stroke="#7B8E52" stroke-width="0.6833" stroke-miterlimit="10" points="84.857,94.272 93.966,93.59
		99.318,87.096 99.09,84.135 	"/>
	<polyline fill="none" stroke="#7B8E52" stroke-width="0.6833" stroke-miterlimit="10" points="94.08,93.36 104.213,104.179
		104.101,110.898 	"/>

		<line fill="none" stroke="#7B8E52" stroke-width="0.6833" stroke-miterlimit="10" x1="104.213" y1="104.179" x2="112.185" y2="102.014"/>

		<line fill="none" stroke="#7B8E52" stroke-width="0.6833" stroke-miterlimit="10" x1="99.318" y1="87.096" x2="106.264" y2="85.502"/>
	<path fill="#383838" d="M60.003,56.778c0,0.829-0.408,1.507-0.912,1.507c-0.505,0-0.914-0.678-0.914-1.507
		c0-0.834,0.409-1.511,0.914-1.511C59.596,55.268,60.003,55.944,60.003,56.778z"/>
	<path fill="#383838" d="M66.836,56.778c0,0.829-0.409,1.507-0.913,1.507c-0.505,0-0.914-0.678-0.914-1.507
		c0-0.834,0.409-1.511,0.914-1.511C66.427,55.268,66.836,55.944,66.836,56.778z"/>
</g>
<g id="openeye02">
	<g>
		<ellipse fill="#FFFFFF" cx="38.593" cy="38.585" rx="11.871" ry="15.032"/>
			<ellipse fill="#383838" cx="39.191" cy="38.585" rx="9.906" ry="12.641"/>
			<circle fill="#FFFFFF" cx="42.095" cy="35.681" r="3.588"/>
		<path fill="#98AF35" stroke="#83912D" stroke-width="0.8411" stroke-miterlimit="10" d="M27.234,34.146
			c4.327-6.377,14.925-8.008,21.863-2.963c0,0-2.506-7.517-7.027-8.905C28.763,18.182,27.234,34.146,27.234,34.146z"/>
	</g>
	<path fill="#C6DB4F" d="M25.893,50.363c4.859-3.531,17.868-5.462,22.457-1.286c4.588,4.174,0.483,7.389,0.483,7.389l-20.241,1.282
		L25.893,50.363z"/>
	<ellipse opacity="0.8" fill="#FFC6E4" enable-background="new    " cx="30.438" cy="55.66" rx="7.246" ry="2.58"/>
</g>
<g id="openeye01">
	<g>
		<ellipse fill="#FFFFFF" cx="87.787" cy="38.585" rx="11.872" ry="15.032"/>
		<g>
			<g>
				<ellipse fill="#383838" cx="87.019" cy="38.585" rx="9.907" ry="12.641"/>
			</g>
			<circle fill="#FFFFFF" cx="89.922" cy="35.681" r="3.588"/>
		</g>
		<path fill="#98AF35" stroke="#83912D" stroke-width="0.8411" stroke-miterlimit="10" d="M75.746,34.146
			c4.327-6.377,14.926-8.008,21.864-2.963c0,0-2.507-7.517-7.027-8.905C77.273,18.182,75.746,34.146,75.746,34.146z"/>
	</g>
	<path fill="#C6DB4F" d="M102.064,50.363c-4.857-3.531-18.875-5.212-23.464-1.036c-4.589,4.174,0.524,7.139,0.524,7.139
		l20.241,1.282L102.064,50.363z"/>
	<ellipse opacity="0.8" fill="#FFC6E4" enable-background="new    " cx="96.756" cy="55.66" rx="7.247" ry="2.58"/>
</g>
<g id="closeeye02" display="none" >
	<path fill="#98AF35" stroke="#83912D" stroke-width="1.229" stroke-miterlimit="10" d="M99.648,50.861
		c-9.541-4.699-15.933-3.585-26.688-1.939c0,0,2.817-25.869,11.063-26.321C104.34,21.48,99.648,50.861,99.648,50.861z"/>
	<g>
		<path fill="#444917" d="M100.376,53.024c-2.19-1.563-4.477-2.615-6.847-3.393c-2.362-0.774-4.792-1.256-7.233-1.452
			c-2.442-0.193-4.899-0.102-7.333,0.344c-2.446,0.427-4.836,1.245-7.291,2.365c1.642-2.155,4.021-3.758,6.627-4.732
			c2.616-0.975,5.467-1.321,8.248-1.092c2.782,0.227,5.516,1.009,7.961,2.321C96.924,48.707,99.163,50.577,100.376,53.024z"/>
	</g>
</g>
<g id="closeeye01" display="none">
	<path fill="#98AF35" stroke="#83912D" stroke-width="1.229" stroke-miterlimit="10" d="M25.402,50.111
		c9.541-4.699,15.934-3.585,26.688-1.939c0,0-2.818-25.869-11.063-26.321C20.71,20.73,25.402,50.111,25.402,50.111z"/>
	<g>
		<path fill="#444917" d="M24.673,52.274c1.214-2.447,3.452-4.317,5.868-5.639c2.445-1.313,5.179-2.096,7.962-2.321
			c2.781-0.229,5.631,0.117,8.247,1.092c2.606,0.976,4.985,2.577,6.627,4.732c-2.455-1.12-4.844-1.938-7.29-2.365
			c-2.436-0.444-4.892-0.537-7.333-0.344c-2.442,0.196-4.871,0.678-7.234,1.452C29.149,49.659,26.863,50.712,24.673,52.274z"/>
	</g>
</g>
</svg>
