<?xml version="1.0" encoding="utf-8"?>
<!-- Generator: Adobe Illustrator 15.0.0, SVG Export Plug-In . SVG Version: 6.00 Build 0)  -->
<!DOCTYPE svg PUBLIC "-//W3C//DTD SVG 1.1//EN" "http://www.w3.org/Graphics/SVG/1.1/DTD/svg11.dtd">
<svg version="1.1" id="Layer_1" xmlns="http://www.w3.org/2000/svg" xmlns:xlink="http://www.w3.org/1999/xlink" x="0px" y="0px"
	 width="119.461px" height="196.461px" viewBox="0 0 119.461 196.461" enable-background="new 0 0 119.461 196.461"
	 xml:space="preserve">
<g id="tail">
	<circle fill="#EAD3AD" stroke="#AD9B84" stroke-width="1.1449" stroke-miterlimit="10" cx="95.547" cy="164.808" r="10.278"/>
</g>
<g>
	<path fill="#EAD3AD" stroke="#AD9B84" stroke-width="1.1449" stroke-miterlimit="10" d="M36.405,111.839
		c-12.643,12.267-20.749,45.272-12.643,59.108c0,0,21.977,23.111,40.029,15.998c18.055-7.117,25.182-12.172,26.773-20.293
		c2.21-11.266-4.054-50.467-14.736-56C65.142,105.118,36.405,111.839,36.405,111.839z"/>
	<path fill="#EAD3AD" stroke="#AD9B84" stroke-width="1.1449" stroke-miterlimit="10" d="M42.183,54.074
		C38.947,27.772,22.041-6.694,8.011,1.921c-16.063,9.867,5.084,63.215,18.705,64.851C31.31,67.324,42.183,54.074,42.183,54.074z"/>
	<path fill="#D8B495" d="M26.022,63.956c0,0-15.818-20.197-16.571-40.396c-0.385-10.325,7.006-14.861,15.064-1.479
		c9.793,16.258,11.3,34.98,11.3,34.98L26.022,63.956z"/>
	<path fill="#EAD3AD" stroke="#AD9B84" stroke-width="1.1449" stroke-miterlimit="10" d="M65.487,55.706
		c3.559-22.928,22.139-52.969,37.555-45.46c17.653,8.602-5.588,55.103-20.557,56.528C77.436,67.254,65.487,55.706,65.487,55.706z"/>
	<path fill="#D8B495" d="M84.065,62.821c0,0,16.604-17.003,17.395-34.006c0.403-8.69-7.353-12.509-15.812-1.244
		C75.37,41.256,73.79,57.016,73.79,57.016L84.065,62.821z"/>
	<g id="head" style="transform: rotate(3deg); transform-origin: 100% 100%;">
		<path fill="#EAD3AD" stroke="#AD9B84" stroke-width="1.1449" stroke-miterlimit="10" d="M93.043,87.068
			c4.086,21.211-20.469,30.304-38.211,30.304c-17.734,0-39.925-8.695-37.686-30.57c2.962-28.92,23.478-41.115,38.674-40.809
			C80.129,46.482,90.004,71.281,93.043,87.068z"/>
			<path fill="#FFFFFF" d="M53.435,104.854l0.759,4.373l2.188,0.092l0.436-3.91v3.91l2.094-0.045l0.955-4.832
				c0,0-2.266-0.575-2.911-4.418c0,0-0.756,2.625-1.838,3.451C54.371,104.045,53.435,104.854,53.435,104.854z"/>
			<path fill="#EAD3AD" d="M25.639,87.062c3.865-4.036,15.765-6.071,18.743-0.883s-0.151,8.955-0.151,8.955L28.768,96.48
				L25.639,87.062z"/>
			<path fill="#EAD3AD" d="M85.429,87.062c-3.865-4.036-15.767-6.071-18.744-0.883s0.151,8.955,0.151,8.955l15.463,1.345
				L85.429,87.062z"/>
			<ellipse fill="#FFD9F1" cx="34.84" cy="91.419" rx="5.237" ry="4.82"/>
			<ellipse fill="#FFD9F1" cx="76.165" cy="91.419" rx="5.237" ry="4.82"/>
			<ellipse fill="#FFFFFF" cx="38.427" cy="79.227" rx="7.313" ry="11.852"/>
			<ellipse fill="#FFFFFF" cx="72.028" cy="79.227" rx="7.313" ry="11.852"/>
			<g>
				<g>
					<path fill="#C4A88D" d="M51.121,94.601c-2.038-2.316,3.119-3.14,5.688-3.14s7.727,0.823,5.688,3.14
						c-0.963,1.095-3.484,2.828-5.688,2.828C54.608,97.429,52.084,95.695,51.121,94.601z"/>
				</g>
			</g>

			<g>
				<ellipse fill="#383838" cx="40.323" cy="78.993" rx="5.731" ry="9.29"/>
				<circle fill="#FFFFFF" cx="41.51" cy="74.382" r="2.438"/>
			</g>
			<g>
				<ellipse fill="#383838" cx="70.133" cy="78.993" rx="5.732" ry="9.29"/>
				<circle fill="#FFFFFF" cx="71.318" cy="74.382" r="2.438"/>
			</g>
			<g>
				<path fill="#685B4A" d="M41.47,100.713c1.383,1.13,2.901,2.086,4.527,2.783c1.617,0.693,3.351,1.193,5.082,1.143
					c1.721-0.022,3.394-0.797,4.267-2.246c0.893-1.435,1.108-3.229,1.081-4.958l0.764-0.035c0.214,1.707,0.524,3.476,1.252,5.023
					c0.364,0.766,0.855,1.482,1.526,1.902c0.343,0.216,0.688,0.328,1.133,0.361c0.447,0.057,0.868,0.088,1.309,0.103
					c1.746,0.065,3.502-0.229,5.139-0.87c1.627-0.652,3.136-1.668,4.293-3.021c-1.045,1.449-2.535,2.557-4.164,3.32
					c-1.641,0.768-3.467,1.102-5.276,1.104c-0.45,0.003-0.92-0.02-1.356-0.06c-0.442-0.016-0.981-0.129-1.404-0.377
					c-0.874-0.501-1.419-1.333-1.836-2.149c-0.798-1.676-1.214-3.453-1.375-5.275l0.764-0.035c0.001,1.809-0.229,3.725-1.257,5.346
					c-0.508,0.803-1.252,1.471-2.111,1.883c-0.866,0.404-1.814,0.563-2.737,0.556c-1.855-0.021-3.626-0.593-5.239-1.39
					C44.24,103.001,42.748,101.966,41.47,100.713z"/>
			</g>
	</g>

	<g>
		<path fill="#EAD3AD" d="M89.48,167.984c0,0,25.976,2.371,24.868,21.937c-0.5,8.884-29.331,5.91-34.264,3.558
			c-4.974-2.369-17.156-15.254-9.889-16.055"/>
		<path fill="#AD9B84" d="M89.48,167.984c3.995,0.347,7.94,1.313,11.69,2.802c3.716,1.536,7.283,3.731,9.896,6.924
			c1.303,1.584,2.332,3.415,2.96,5.383c0.642,1.964,0.899,4.036,0.867,6.087l-0.024,0.771c-0.013,0.256-0.058,0.577-0.125,0.842
			c-0.139,0.556-0.396,1.079-0.729,1.531c-0.673,0.911-1.595,1.53-2.528,2.007c-1.895,0.936-3.918,1.374-5.926,1.688
			c-4.036,0.556-8.089,0.52-12.109,0.267c-2.011-0.136-4.017-0.339-6.014-0.621c-1.997-0.283-3.984-0.638-5.947-1.216
			c-0.49-0.148-0.979-0.312-1.469-0.533c-0.475-0.223-0.932-0.502-1.354-0.78c-0.855-0.567-1.651-1.198-2.422-1.854
			c-1.535-1.319-2.967-2.746-4.287-4.271c-1.299-1.54-2.53-3.16-3.422-4.986c-0.414-0.91-0.813-1.912-0.651-2.957
			c0.09-0.514,0.411-0.989,0.862-1.234c0.443-0.26,0.951-0.357,1.446-0.403c-0.491,0.073-0.989,0.202-1.399,0.478
			c-0.42,0.262-0.683,0.714-0.738,1.188c-0.107,0.97,0.309,1.927,0.753,2.794c0.942,1.741,2.226,3.288,3.569,4.75
			c1.347,1.461,2.791,2.838,4.33,4.09c1.561,1.222,3.131,2.453,5.022,2.877c3.822,0.945,7.819,1.396,11.783,1.644
			c3.971,0.218,7.976,0.21,11.879-0.356c1.94-0.283,3.89-0.703,5.604-1.533c0.846-0.42,1.633-0.957,2.16-1.664
			c0.262-0.353,0.455-0.741,0.563-1.158c0.056-0.221,0.085-0.396,0.103-0.641l0.028-0.732c0.048-1.951-0.183-3.909-0.769-5.764
			c-0.588-1.852-1.51-3.594-2.705-5.139c-2.403-3.105-5.816-5.341-9.43-6.957C97.327,169.66,93.438,168.586,89.48,167.984z"/>
	</g>
	<g>
		<path fill="#EAD3AD" d="M23.019,168.497c0,0-23.572,1.858-22.468,21.424c0.501,8.884,29.332,5.91,34.263,3.558
			c4.974-2.369,17.158-15.254,9.887-16.055"/>
		<path fill="#AD9B84" d="M23.019,168.497c-3.87,0.562-7.667,1.671-11.124,3.437c-3.454,1.726-6.583,4.233-8.515,7.539
			c-0.963,1.644-1.639,3.443-2.002,5.313c-0.182,0.935-0.287,1.885-0.327,2.838c-0.024,0.479-0.02,0.956-0.015,1.434
			c0.026,0.469,0.018,0.993,0.109,1.361c0.365,1.688,2.103,2.764,3.833,3.396c1.77,0.653,3.681,0.981,5.592,1.213
			c3.837,0.449,7.747,0.416,11.625,0.164c3.867-0.289,7.787-0.729,11.481-1.74c0.911-0.258,1.704-0.713,2.513-1.247
			c0.798-0.531,1.567-1.122,2.313-1.741c1.491-1.238,2.892-2.596,4.201-4.031c1.302-1.436,2.545-2.957,3.446-4.67
			c0.425-0.852,0.817-1.793,0.683-2.738c-0.073-0.463-0.349-0.888-0.759-1.143c-0.407-0.259-0.891-0.387-1.373-0.457
			c0.485,0.043,0.979,0.141,1.417,0.385c0.44,0.237,0.774,0.683,0.881,1.184c0.192,1.019-0.186,2.007-0.581,2.9
			c-0.849,1.797-2.042,3.39-3.301,4.903c-1.278,1.502-2.668,2.905-4.152,4.211c-0.744,0.651-1.513,1.276-2.33,1.853
			c-0.804,0.566-1.719,1.119-2.692,1.418c-1.913,0.623-3.852,0.986-5.802,1.287c-1.95,0.293-3.908,0.511-5.872,0.66
			c-3.927,0.291-7.882,0.361-11.831-0.065c-1.971-0.229-3.945-0.599-5.85-1.313c-0.947-0.363-1.883-0.822-2.712-1.492
			c-0.825-0.656-1.53-1.605-1.758-2.711c-0.123-0.593-0.091-1.057-0.119-1.563c-0.001-0.501-0.001-1.002,0.029-1.502
			c0.051-1.001,0.171-2.001,0.373-2.986c0.395-1.971,1.135-3.884,2.213-5.584c2.141-3.435,5.464-5.926,9.03-7.588
			C15.249,169.797,19.112,168.795,23.019,168.497z"/>
	</g>
	<path fill="#FCEAD4" d="M42.483,183.782c-12.711-9.802-16.51-17.938-10.43-32.031c6.077-14.088,16.024-25.832,26.524-23.483
		c10.501,2.35,14.923,5.871,18.236,17.614c3.316,11.741,8.407,32.818-8.171,38.691C68.643,184.573,54.275,192.874,42.483,183.782z"
		/>
	<g>
		<path fill="#EAD3AD" d="M34.851,114.604c-8.106,4.744-22.475,20.953-3.684,36.764c17.126,14.412,21.369-4.744,15.842-12.256
			c-5.526-7.51-7.001-8.693-7.001-8.693"/>
		<path fill="#AD9B84" d="M34.851,114.604c-3.142,2.033-5.871,4.664-8.048,7.666c-2.185,2.979-3.814,6.422-4.272,10.057
			c-0.473,3.627,0.294,7.344,2.073,10.535c1.757,3.213,4.333,5.934,7.18,8.273c1.416,1.18,2.906,2.274,4.498,3.167
			c1.587,0.884,3.3,1.585,5.059,1.744c1.75,0.179,3.523-0.339,4.773-1.562c1.26-1.205,2.03-2.903,2.434-4.657
			c0.398-1.767,0.445-3.625,0.174-5.431c-0.275-1.803-0.869-3.582-1.907-5.074c-2.167-3.04-4.294-6.135-6.807-8.905
			c1.386,1.265,2.571,2.729,3.769,4.168c1.188,1.45,2.346,2.921,3.492,4.407c1.157,1.555,1.823,3.406,2.167,5.285
			c0.336,1.886,0.345,3.834-0.026,5.732c-0.373,1.885-1.154,3.781-2.611,5.189c-1.431,1.439-3.576,2.08-5.544,1.885
			c-1.986-0.166-3.822-0.914-5.502-1.825c-1.683-0.925-3.233-2.041-4.7-3.245c-2.897-2.43-5.548-5.269-7.363-8.66
			c-1.823-3.362-2.668-7.349-2.025-11.15c0.592-3.807,2.376-7.303,4.695-10.271C28.722,118.994,31.568,116.422,34.851,114.604z"/>
	</g>
	<g>
		<path fill="#EAD3AD" d="M78.129,113.42c8.105,4.742,22.475,20.95,3.686,36.762c-17.127,14.411-21.37-4.742-15.845-12.255
			c5.526-7.509,7.001-8.694,7.001-8.694"/>
		<path fill="#AD9B84" d="M78.129,113.42c3.283,1.816,6.129,4.389,8.492,7.327c2.319,2.969,4.104,6.466,4.695,10.271
			c0.643,3.803-0.201,7.789-2.025,11.151c-1.813,3.394-4.465,6.231-7.362,8.66c-1.468,1.205-3.017,2.319-4.7,3.245
			c-1.68,0.91-3.516,1.658-5.502,1.824c-1.969,0.194-4.111-0.444-5.544-1.885c-1.457-1.408-2.238-3.306-2.611-5.188
			c-0.37-1.898-0.362-3.849-0.026-5.732c0.344-1.879,1.01-3.731,2.166-5.286c1.146-1.485,2.305-2.957,3.494-4.406
			c1.195-1.439,2.381-2.903,3.767-4.17c-2.511,2.772-4.64,5.867-6.806,8.906c-1.039,1.492-1.633,3.272-1.908,5.073
			c-0.271,1.808-0.223,3.666,0.176,5.433c0.404,1.754,1.175,3.451,2.436,4.656c1.25,1.223,3.022,1.739,4.772,1.563
			c1.759-0.161,3.472-0.861,5.06-1.744c1.592-0.893,3.082-1.988,4.498-3.167c2.848-2.341,5.422-5.062,7.18-8.274
			c1.777-3.191,2.545-6.908,2.072-10.535c-0.459-3.635-2.088-7.076-4.271-10.057C84,118.083,81.272,115.452,78.129,113.42z"/>
	</g>
	<path fill="#AD9B84" d="M12.702,194.986c0.737-4.006,1.229-8.303,3.07-10.277c0,0-1.72,7.607-0.614,10.277H12.702z"/>
	<path fill="#AD9B84" d="M0.849,191.887c1.107-4.349,4.79-8.697,6.448-9.289c0,0-5.035,7.641-4.051,10.868L0.849,191.887z"/>
	<path fill="#AD9B84" d="M102.292,194.986c-0.735-4.006-1.229-8.303-3.069-10.277c0,0,1.72,7.607,0.614,10.277H102.292z"/>
	<path fill="#AD9B84" d="M114.145,191.887c-1.105-4.349-4.791-8.697-6.448-9.289c0,0,5.035,7.641,4.054,10.868L114.145,191.887z"/>
</g>
<g id="ear">
<path fill="#EAD3AD" stroke="#AD9B84" stroke-width="1.1449" stroke-miterlimit="10" d="M84.875,15.781
		c1.187,10.079,21.348,34.785,30.834,28.856c9.485-5.93-4.349-32.677-13.967-35.972C93.607,5.881,84.875,15.781,84.875,15.781z"/>
</g>
</svg>
