<?xml version="1.0" encoding="utf-8"?>
<!-- Generator: Adobe Illustrator 15.0.0, SVG Export Plug-In . SVG Version: 6.00 Build 0)  -->
<!DOCTYPE svg PUBLIC "-//W3C//DTD SVG 1.1//EN" "http://www.w3.org/Graphics/SVG/1.1/DTD/svg11.dtd">
<svg version="1.1" id="Layer_1" xmlns="http://www.w3.org/2000/svg" xmlns:xlink="http://www.w3.org/1999/xlink" x="0px" y="0px"
	 width="960.238px" height="580.18px" viewBox="0 0 960.238 580.18" enable-background="new 0 0 960.238 580.18"
	 xml:space="preserve">
<g>
	<g>
		
		
		<g>
		
		
			<polygon fill="#D98544" stroke="#FFFFFF" stroke-width="0.5625" stroke-miterlimit="10" points="887.183,330.698 
				939.149,332.288 939.149,311.649 887.183,310.059 			"/>
			<polygon fill="#D0654C" stroke="#FFFFFF" stroke-width="0.5625" stroke-miterlimit="10" points="887.183,248.14 887.183,268.779 
				939.149,270.37 939.149,249.729 			"/>
			<polygon fill="#D98544" stroke="#FFFFFF" stroke-width="0.5625" stroke-miterlimit="10" points="887.183,289.42 939.149,291.008 
				939.149,270.37 887.183,268.779 			"/>
			<polygon fill="#D0654C" stroke="#FFFFFF" stroke-width="0.5625" stroke-miterlimit="10" points="887.183,310.059 
				939.149,311.649 939.149,291.008 887.183,289.42 			"/>
			<polygon fill="#D87F52" stroke="#FFFFFF" stroke-width="0.5625" stroke-miterlimit="10" points="939.149,249.729 
				939.149,231.311 887.183,230.022 887.183,248.14 			"/>
			<polygon fill="#ED9D66" stroke="#FFFFFF" stroke-width="0.5625" stroke-miterlimit="10" points="939.149,270.37 939.752,271.514 
				939.269,250.86 939.149,249.729 			"/>
			<polygon fill="#D0654C" stroke="#FFFFFF" stroke-width="0.5625" stroke-miterlimit="10" points="939.269,250.86 938.834,232.217 
				939.149,231.311 939.149,249.729 			"/>
			<polygon fill="#D98544" stroke="#FFFFFF" stroke-width="0.5625" stroke-miterlimit="10" points="887.183,330.698 
				840.375,329.266 840.375,349.905 887.183,351.338 			"/>
			<polygon fill="#ED9D66" stroke="#FFFFFF" stroke-width="0.5625" stroke-miterlimit="10" points="887.183,351.338 
				939.149,352.926 939.149,332.288 887.183,330.698 			"/>
			<polygon fill="#ED9D66" stroke="#FFFFFF" stroke-width="0.5625" stroke-miterlimit="10" points="887.183,289.42 840.375,287.988 
				840.375,308.627 887.183,310.059 			"/>
			<polygon fill="#D0654C" stroke="#FFFFFF" stroke-width="0.5625" stroke-miterlimit="10" points="887.183,310.059 
				840.375,308.627 840.375,329.266 887.183,330.698 			"/>
			<polygon fill="#ED9D66" stroke="#FFFFFF" stroke-width="0.5625" stroke-miterlimit="10" points="887.183,248.14 840.375,246.711 
				840.375,267.348 887.183,268.779 			"/>
			<polygon fill="#D0654C" stroke="#FFFFFF" stroke-width="0.5625" stroke-miterlimit="10" points="887.183,268.779 
				840.375,267.348 840.375,287.988 887.183,289.42 			"/>
			<polygon fill="#D98544" stroke="#FFFFFF" stroke-width="0.5625" stroke-miterlimit="10" points="887.183,371.975 
				939.149,373.565 939.149,352.926 887.183,351.338 			"/>
			<polygon fill="#D0654C" stroke="#FFFFFF" stroke-width="0.5625" stroke-miterlimit="10" points="840.375,349.905 
				840.375,370.545 887.183,371.975 887.183,351.338 			"/>
			<polygon fill="#D0654C" stroke="#FFFFFF" stroke-width="0.5625" stroke-miterlimit="10" points="887.183,248.14 887.183,230.022 
				840.375,228.862 840.375,246.711 			"/>
			<polygon fill="#D98544" stroke="#FFFFFF" stroke-width="0.5625" stroke-miterlimit="10" points="840.375,308.627 806.429,307.59 
				805.8,328.209 840.375,329.266 			"/>
			<polygon fill="#ED9D66" stroke="#FFFFFF" stroke-width="0.5625" stroke-miterlimit="10" points="939.149,373.565 942.16,374.786 
				941.679,354.131 939.149,352.926 			"/>
			<polygon fill="#D98544" stroke="#FFFFFF" stroke-width="0.5625" stroke-miterlimit="10" points="939.149,392.42 942.577,392.61 
				942.16,374.786 939.149,373.565 			"/>
			<polygon fill="#D0654C" stroke="#FFFFFF" stroke-width="0.5625" stroke-miterlimit="10" points="887.183,371.975 
				887.183,392.174 939.149,392.42 939.149,373.565 			"/>
			<polygon fill="#D98544" stroke="#FFFFFF" stroke-width="0.5625" stroke-miterlimit="10" points="939.149,352.926 
				941.679,354.131 941.198,333.479 939.149,332.288 			"/>
			<polygon fill="#D0654C" stroke="#FFFFFF" stroke-width="0.5625" stroke-miterlimit="10" points="939.149,270.37 939.149,291.008 
				940.232,292.168 939.752,271.514 			"/>
			<polygon fill="#D0654C" stroke="#FFFFFF" stroke-width="0.5625" stroke-miterlimit="10" points="939.149,332.288 
				941.198,333.479 940.716,312.823 939.149,311.649 			"/>
			<polygon fill="#D98544" stroke="#FFFFFF" stroke-width="0.5625" stroke-miterlimit="10" points="939.149,311.649 
				940.716,312.823 940.232,292.168 939.149,291.008 			"/>
			<polygon fill="#ED9D66" stroke="#FFFFFF" stroke-width="0.5625" stroke-miterlimit="10" points="840.375,370.545 
				840.375,391.956 887.183,392.174 887.183,371.975 			"/>
			<polygon fill="#D98544" stroke="#FFFFFF" stroke-width="0.5625" stroke-miterlimit="10" points="840.375,228.862 
				808.854,228.083 808.315,245.729 840.375,246.711 			"/>
			<polygon fill="#D0654C" stroke="#FFFFFF" stroke-width="0.5625" stroke-miterlimit="10" points="840.375,287.988 807.059,286.97 
				806.429,307.59 840.375,308.627 			"/>
			<polygon fill="#D0654C" stroke="#FFFFFF" stroke-width="0.5625" stroke-miterlimit="10" points="840.375,246.711 
				808.315,245.729 807.688,266.35 840.375,267.348 			"/>
			<polygon fill="#D98544" stroke="#FFFFFF" stroke-width="0.5625" stroke-miterlimit="10" points="840.375,267.348 807.688,266.35 
				807.059,286.97 840.375,287.988 			"/>
			<polygon fill="#D0654C" stroke="#FFFFFF" stroke-width="0.5625" stroke-miterlimit="10" points="804.541,369.448 
				803.861,391.782 840.375,391.956 840.375,370.545 			"/>
			<polygon fill="#D0654C" stroke="#FFFFFF" stroke-width="0.5625" stroke-miterlimit="10" points="840.375,329.266 805.8,328.209 
				805.172,348.831 840.375,349.905 			"/>
			<polygon fill="#ED9D66" stroke="#FFFFFF" stroke-width="0.5625" stroke-miterlimit="10" points="840.375,349.905 
				805.172,348.831 804.541,369.448 840.375,370.545 			"/>
		</g>
		<polygon fill="none" stroke="#000000" stroke-width="0.5625" stroke-miterlimit="10" points="942.16,374.786 941.679,354.131 
			941.198,333.479 940.716,312.823 940.232,292.168 939.752,271.514 939.269,250.86 938.834,232.217 939.149,231.311 
			887.183,230.022 840.373,228.862 808.854,228.083 808.315,245.729 807.688,266.35 807.058,286.97 806.429,307.59 805.799,328.209 
			805.172,348.831 804.541,369.448 803.861,391.782 840.373,391.956 887.183,392.174 939.149,392.42 942.577,392.61 		"/>
	</g>
	<polygon fill="#70676A" stroke="#231F20" stroke-width="0.6099" stroke-miterlimit="10" points="818.916,184.094 790.337,233.127 
		953.602,237.161 914.717,184.715 	"/>
	<g>
		<polygon fill="#D0654C" stroke="#000000" stroke-width="0.4581" stroke-miterlimit="10" points="898.322,185.474 914.71,185.474 
			913.727,167.166 898.432,166.441 		"/>
		<polygon fill="#6B4E1B" stroke="#000000" stroke-width="0.4581" stroke-miterlimit="10" points="894.498,166.515 913.727,167.6 
			917.878,167.021 917.441,163.984 895.92,163.403 		"/>
		<polygon fill="#C5993D" stroke="#000000" stroke-width="0.4581" stroke-miterlimit="10" points="905.68,163.984 903.822,154.212 
			910.765,154.791 910.217,163.984 		"/>
	</g>
	<g>
		<rect x="816.604" y="304.934" fill="#231F20" width="50.327" height="80.289"/>
		
			<rect x="815.229" y="305.899" fill="#72300C" stroke="#231F20" stroke-width="0.6833" stroke-miterlimit="10" width="2.598" height="77.902"/>
		
			<rect x="866.222" y="305.899" fill="#72300C" stroke="#231F20" stroke-width="0.6833" stroke-miterlimit="10" width="2.413" height="77.902"/>
		<polygon fill="#70676A" stroke="#231F20" stroke-width="0.5625" stroke-linejoin="bevel" stroke-miterlimit="10" points="
			804.657,392.03 814.016,383.813 874.512,383.813 882.281,392.18 		"/>
		<polygon fill="#70676A" stroke="#231F20" stroke-width="0.5625" stroke-linejoin="bevel" stroke-miterlimit="10" points="
			806.161,306.526 827.229,290.071 863.155,290.071 879.362,306.676 		"/>
	</g>
	<g>
		
			<rect x="818.095" y="307.002" fill="#996402" stroke="#231F20" stroke-width="0.6743" stroke-miterlimit="10" width="48.399" height="76.738"/>
		<g>
			<path fill="#B27109" d="M850.399,344.387c-0.442,0-0.805-0.361-0.805-0.805v-29.918c0-0.441,0.361-0.805,0.805-0.805h9.821
				c0.442,0,0.805,0.361,0.805,0.805v29.918c0,0.443-0.361,0.805-0.805,0.805H850.399z"/>
			<path fill="none" stroke="#593702" stroke-width="0.6743" stroke-miterlimit="10" d="M850.399,344.387
				c-0.442,0-0.805-0.361-0.805-0.805v-29.918c0-0.441,0.361-0.805,0.805-0.805h9.821c0.442,0,0.805,0.361,0.805,0.805v29.918
				c0,0.443-0.361,0.805-0.805,0.805H850.399z"/>
		</g>
		<g>
			<path fill="#B27109" d="M828.783,344.387c-0.441,0-0.805-0.361-0.805-0.805v-29.918c0-0.441,0.362-0.805,0.805-0.805h9.82
				c0.44,0,0.804,0.361,0.804,0.805v29.918c0,0.443-0.362,0.805-0.804,0.805H828.783z"/>
			<path fill="none" stroke="#593702" stroke-width="0.6743" stroke-miterlimit="10" d="M828.783,344.387
				c-0.441,0-0.805-0.361-0.805-0.805v-29.918c0-0.441,0.362-0.805,0.805-0.805h9.82c0.44,0,0.804,0.361,0.804,0.805v29.918
				c0,0.443-0.362,0.805-0.804,0.805H828.783z"/>
		</g>
		<g>
			<path fill="#B27109" d="M850.399,379.731c-0.442,0-0.805-0.361-0.805-0.805v-29.92c0-0.439,0.361-0.803,0.805-0.803h9.821
				c0.442,0,0.805,0.361,0.805,0.803v29.92c0,0.441-0.361,0.805-0.805,0.805H850.399z"/>
			<path fill="none" stroke="#593702" stroke-width="0.6743" stroke-miterlimit="10" d="M850.399,379.731
				c-0.442,0-0.805-0.361-0.805-0.805v-29.92c0-0.439,0.361-0.803,0.805-0.803h9.821c0.442,0,0.805,0.361,0.805,0.803v29.92
				c0,0.441-0.361,0.805-0.805,0.805H850.399z"/>
		</g>
		<g>
			<path fill="#B27109" d="M828.783,379.731c-0.441,0-0.805-0.361-0.805-0.805v-29.92c0-0.439,0.362-0.803,0.805-0.803h9.82
				c0.44,0,0.804,0.361,0.804,0.803v29.92c0,0.441-0.362,0.805-0.804,0.805H828.783z"/>
			<path fill="none" stroke="#593702" stroke-width="0.6743" stroke-miterlimit="10" d="M828.783,379.731
				c-0.441,0-0.805-0.361-0.805-0.805v-29.92c0-0.439,0.362-0.803,0.805-0.803h9.82c0.44,0,0.804,0.361,0.804,0.803v29.92
				c0,0.441-0.362,0.805-0.804,0.805H828.783z"/>
		</g>
		<g>
			<ellipse fill="#636266" cx="820.625" cy="335.686" rx="2.867" ry="2.348"/>
			<ellipse fill="#99969E" cx="819.669" cy="335.244" rx="2.866" ry="2.351"/>
		</g>
	</g>
	<path fill="#70676A" stroke="#231F20" stroke-width="0.5625" stroke-miterlimit="10" d="M867.018,323.04
		c0,0.293-0.234,0.531-0.529,0.531l0,0c-0.292,0-0.53-0.238-0.53-0.531v-11.924c0-0.293,0.238-0.529,0.53-0.529l0,0
		c0.295,0,0.529,0.236,0.529,0.529V323.04z"/>
	<path fill="#70676A" stroke="#231F20" stroke-width="0.5625" stroke-miterlimit="10" d="M867.018,347.977
		c0,0.293-0.234,0.531-0.529,0.531l0,0c-0.292,0-0.53-0.238-0.53-0.531v-11.926c0-0.293,0.238-0.527,0.53-0.527l0,0
		c0.295,0,0.529,0.234,0.529,0.527V347.977z"/>
	<path fill="#70676A" stroke="#231F20" stroke-width="0.5625" stroke-miterlimit="10" d="M867.018,380.602
		c0,0.295-0.234,0.531-0.529,0.531l0,0c-0.292,0-0.53-0.236-0.53-0.531v-11.926c0-0.291,0.238-0.527,0.53-0.527l0,0
		c0.295,0,0.529,0.236,0.529,0.527V380.602z"/>
</g>
<g>
	<g>
		<path fill="none" stroke="#FAA61A" stroke-width="2.5051" stroke-miterlimit="10" d="M216.705,353.993
			c-27.223,16.545-43.283,36.896-43.283,58.908"/>
		<g>
			<path fill="#FAA61A" d="M229.946,346.684c-7.497,1.17-17.399,1.549-24.503,0.057l9.576,8.293l2.054,12.5
				C219.52,360.698,225.024,352.459,229.946,346.684z"/>
		</g>
	</g>
</g>


<g>
	<path fill="#9AD9E8" stroke="#231F20" stroke-miterlimit="10" d="M66.968,299.893c0,0-72.557,36.594-37.675,40.098
		s113.724-3.027,120.254,18.635c6.53,21.662-41.411,17.521-44.119,41.73s106.627,23.154,106.627,23.154l102,12.25l-97,60.25
		c0,0-20.902-10.336-29.826-14.293S104.555,459.51,77.805,449.26s-73.5-15-35.5-49s99.25-37.25,42.5-43.25s-88-1.5-83.75-24
		s40.75-34,40.75-34"/>
	<g id="scan_4_1_">
		
		<g>
			<path d="M405.577,534.379c-1.42-1-3.739-1.295-4.006-2.463c-0.416-1.854,2.22-2.797,2.156-4.621
				c-0.04-1.26-1.734-3.24-2.771-4.004c-3.838-2.813-11.687-2.295-17.247-4.928c4.063-8.875-7.259-11.268-15.707-10.777
				c-4.403-14.793-15.34-23.053-32.95-24.637c-0.81-9.561-6.361-14.375-13.243-17.861c4.052-0.074,2.232-7.598,2.154-10.777
				c-2.608,0.674-5.09,3.115-7.082,3.385v-24.021c4.409-0.531,2.583-8.896,2.465-12.934c-10.115,4.359-19.354,9.594-29.258,14.166
				c-0.055-0.008-0.109-0.018-0.164-0.025c-0.387,0.432-0.903,0.752-1.538,0.922c0.054,0.01,0.109,0.018,0.164,0.025
				c-27.261,13.188-54.282,26.613-81.304,40.035c0.869,3.236-0.265,8.477,0.612,11.703c2.602-0.381,4.862-2.734,6.78-2.77v10.781
				c-0.068-0.063-0.137-0.123-0.206-0.184c0.177,0.615,0.205,1.273,0.08,1.904c0.04,0.043,0.087,0.078,0.126,0.119v17.248
				c-1.656,0.914-3.357,1.777-4.929,2.771c0.864,3.135-0.26,8.27,0.616,11.396c4.656-2.02,8.51-4.834,12.936-7.086
				c10.666,2.576,16.506,9.979,17.244,22.484c6.46-2.486,14.175-1.014,19.401,1.229c2.354,1.014,5.125,2.057,7.086,3.084
				c4.404,2.311,6.345,6.115,9.236,9.234c2.108,2.275,4.929,3.289,6.47,5.854c1.254,2.09,1.355,3.904,2.771,5.85
				c4.063-1.371,5.405,2.055,9.237,2.775c2.479,0.463,5.12-0.391,7.7-0.617c1.955-0.174,4.281,0.072,6.468-0.309
				c2.554-0.451,4.416-1.332,6.159-0.924c2.939,0.688,3.963,4.223,6.773,4.311c2.584,0.078,3.473-2.08,5.234-2.461
				c6.64,1.98,9.866,10.123,18.479,5.85c2.832-1.404,4.927-4.795,7.392-4.93c1.304-0.068,1.927,0.701,2.771,0.926
				c6.551,1.74,6.984-3.66,8.933-7.082c3.346,0.207,8.573,0.895,11.392-0.311c0.771-0.867-0.154-3.439,0.618-4.309
				c5.979-1.41,13.538-1.248,19.397-2.773c0.805-1.049-0.185-3.883,0.62-4.926c5.237-1.855,13.717-1.502,15.087-6.471
				C413.626,541.415,406.199,540.375,405.577,534.379z M330.125,472.479c1.475,3.555,3.72,6.342,3.696,11.395
				c11.136,1.697,20.778,4.254,26.795,12.008c0.546,0.707,0.88,1.861,1.536,2.775c0.864,1.191,2.336,2.201,2.775,3.078
				c1.961,3.953,2.618,10.58-3.391,10.775c-3.258-15.727-16.594-21.387-32.335-24.633c-0.875-10.012-5.818-15.951-13.856-18.787
				C320.32,463.754,326.672,469.215,330.125,472.479z M300.254,531.917c-7.209-6.707-18.166-9.352-30.487-11.086
				c-2.358-8.016-5.105-15.633-12.935-18.17c6.979-7.404,19.206,3.424,19.091,12.932c8.176,2.4,19.408,1.738,24.331,7.395
				c5.035,0.68,6.011,3.92,8.931,8.623c2.344,3.771,8.059,9.217,6.468,16.014c-0.547,2.334-3.379,4.086-6.774,3.695
				C306.112,543.833,305.381,536.684,300.254,531.917z M300.563,534.69c-2.939,0.141-5.708,0.453-7.699,1.535
				c-6.522-3.547-22.347-4.039-26.177,2.158c-4.641-2.035-10.471-2.879-17.555-2.463c-1.698-10.521-8.708-15.727-18.171-18.48
				c8.007-4.617,16.705-10.189,24.636-13.857c8.675,2.002,10.445,10.906,13.551,18.479
				C282.361,523.53,293.742,526.827,300.563,534.69z M299.329,520.831c-4.895-4.447-14.125-4.557-22.175-5.855
				c-0.944-8.908-6.141-13.564-13.549-16.012c4.618-3.457,15.035-8.617,20.634-12.322c2.271-1.502,9.49,2.693,11.085,4.621
				c2.414,2.91,3.102,6.529,3.697,11.703c2.946,1.895,6.425,0.422,9.55,1.234c3.116,0.805,6.335,3.244,9.542,4.617
				c6.563,2.803,12.169,3.74,14.786,9.855c-3.545,0.256-10.943-0.955-12.938,1.842C315.895,516.338,303.466,517.77,299.329,520.831z
				 M328.587,511.59c-1.356-0.789-3.291-0.764-4.929-1.539c-7.451-3.543-12.847-7.912-23.404-7.703
				c-0.525-9.529-5.26-14.859-13.242-16.936c1.602-1.375,3.801-2.152,5.545-3.389c8.653,1.102,12.933,6.57,13.856,15.396
				c6.536,0.65,11.968,2.918,17.552,5.238c9.449,3.926,15.498,12.354,19.403,20.631c-0.112,3.275-2.103,4.678-4.927,5.236
				C335.762,522.971,334.386,514.967,328.587,511.59z M329.51,504.817c-6.22-3.846-12.717-7.406-21.865-8.318
				c-1.254-8.291-5.205-13.887-13.241-15.396c6.122-3.631,13.205-7.939,19.091-10.781c9.472,1.318,13.843,9.35,14.475,18.48
				c11.553,2.818,23.036,5.707,28.332,14.781c-3.958,0.654-9.403-0.17-11.391,2.465C343.521,501.401,331.983,500.25,329.51,504.817z
				 M209.096,486.032c-0.715-2.57-0.104-6.467-0.307-9.551c36.294-18.217,73.202-35.816,109.324-54.203
				c0.72,2.264,0.104,5.852,0.313,8.625C282.736,450.034,245.13,467.245,209.096,486.032z M315.652,458.618
				c-1.489,0.871-2.902,1.822-4.619,2.465v-24.635c1.438-0.719,2.871-1.439,4.313-2.156
				C316.063,441.784,315.448,450.614,315.652,458.618z M309.799,462.008c-6.948,3.418-14.195,8.182-20.633,11.086v-25.869
				c6.944-3.217,13.723-6.602,20.326-10.16C310.211,444.76,309.596,453.795,309.799,462.008z M287.933,474.018
				c-2.107,1.277-4.426,2.346-6.466,3.695c-0.719-8.211-0.1-17.76-0.307-26.482c2.363-0.82,4.275-2.094,6.466-3.084
				C288.347,456.155,287.729,465.499,287.933,474.018z M279.927,478.022c-8.365,5.699-18.06,10.061-26.792,15.395
				c-0.719-8.721-0.103-18.781-0.307-28.023c8.868-4.473,17.973-8.717,26.792-13.24
				C280.338,460.163,279.724,469.502,279.927,478.022z M251.594,493.725c-1.549,1.734-3.984,2.588-6.159,3.695v-28.33
				c1.914-1.061,4.108-1.846,5.854-3.076C252.006,474.635,251.39,484.592,251.594,493.725z M244.202,498.35
				c-7.058,3.82-14.14,7.617-20.938,11.701c-0.721-9.34-0.106-20.018-0.311-29.875c7.153-3.316,14.133-6.811,20.941-10.473
				C244.612,478.641,243.998,488.905,244.202,498.35z M221.721,510.668c-1.918,1.055-3.629,2.322-5.851,3.078v-29.873
				c1.848-0.924,3.695-1.85,5.543-2.771C222.134,490.342,221.519,500.913,221.721,510.668z M211.25,526.989v-8.625
				c36.621-21.279,74.393-41.402,111.486-62.209c0.71,1.75,0.104,4.824,0.308,7.084C285.682,484.395,248.754,505.975,211.25,526.989
				z M283.932,563.02c-1.306-2.316-4.041-3.293-6.159-5.236c-2.01-1.836-2.911-4.615-4.927-6.465
				c-3.253-2.98-7.748-4.99-12.628-7.082c-4.195-1.805-12.927-4.213-18.479-1.232c-1.266-11.564-6.315-19.344-16.627-21.867
				c0.737-1.52,2.753-1.766,4.003-2.771c10.053,2.369,17.337,7.508,18.788,18.48c20.136-0.84,29.461,9.135,39.725,18.166
				c0.996,3.525,2.838,6.201,4.003,9.551C289.676,570.264,284.525,568.403,283.932,563.02z M410.506,548.547
				c-3.433,3.445-10.381,3.373-15.091,5.543c-0.5,1.145-0.256,3.027-0.309,4.619c-6.276,1.316-14.414,0.777-19.709,3.078
				c-0.444,0.99-0.29,2.586-0.309,4.004c-2.635,1.6-7.711-0.979-10.782,0c-3.119,0.994-2.145,6.043-4.312,7.084
				c-2.743,1.32-3.853-1.08-7.079-0.926c-4.18,0.201-7.119,6.547-13.243,6.162c-5.629-0.355-7.37-7.637-12.935-7.086
				c-1.958,0.193-2.402,2.559-4.928,2.463c-2.646-0.098-3.396-3.033-5.852-4.311c-8.455-0.314-19.438,4.563-25.251-0.613
				c0.401-1.65,1.992-2.111,2.462-3.697c-1.102-3.725-3.291-6.357-4.309-10.16c-6.224-6.1-12.753-11.887-21.252-15.709
				c3.894-5.285,19.278-5.363,24.636-1.23c2.707-1.148,6.231-2.227,9.855-1.543c3.169,4.119,3.243,11.334,5.851,16.018
				c5.201,1.211,9.269-1.656,9.24-6.16c-0.05-8.545-8.049-16.883-11.397-22.172c-1.957-0.402-2.609-2.111-4.925-2.16
				c3.982-3.387,15.898-3.547,19.403,0.311c2.108-2.467,10.995-3.699,13.86-1.23c2.58,2.227,1.123,6.008,2.769,8.93
				c4.903,0.328,8.249-3.156,8.009-6.469c-0.116-1.568-3.384-6.133-4.618-8.313c-2.5-4.393-6.339-7.74-9.242-9.24
				c1.962-4.781,12.381-2.342,13.239,1.543c3.098-1.734,7.096-2.559,12.323-2.156c2.191,1.662,3.991,5.166,3.383,8.623
				c3.917,0.809,6.64-2.172,8.009-4.93c7.313-0.533,12.547,1.002,15.399,4.93c0.167,2.16-1.35,2.803-0.921,4.617
				c0.857,3.662,8.635,2.6,13.545,4.006c3.699,1.061,5.121,3.076,6.472,4.926c-2.541,2.689-3.322,7.326,1.844,7.699
				C405.164,540.741,411.504,540.975,410.506,548.547z"/>
			<path fill="#B3BBBB" d="M318.113,422.278c0.72,2.264,0.104,5.852,0.313,8.625c-35.69,19.131-73.297,36.342-109.331,55.129
				c-0.715-2.57-0.104-6.467-0.307-9.551C245.083,458.266,281.991,440.665,318.113,422.278z"/>
			<path fill="#B3BBBB" d="M315.652,458.618c-1.489,0.871-2.902,1.822-4.619,2.465c0-8.211,0-16.422,0-24.635
				c1.438-0.719,2.871-1.439,4.313-2.156C316.063,441.784,315.448,450.614,315.652,458.618z"/>
			<path fill="#9AD9E8" d="M309.492,437.065c0.719,7.695,0.104,16.729,0.307,24.941c-6.948,3.42-14.195,8.184-20.633,11.086
				c0-8.619,0-17.242,0-25.869C296.11,444.008,302.889,440.624,309.492,437.065z"/>
			<path fill="#B3BBBB" d="M287.933,474.018c-2.107,1.277-4.426,2.346-6.466,3.695c-0.719-8.211-0.1-17.76-0.307-26.482
				c2.363-0.82,4.275-2.094,6.466-3.084C288.347,456.155,287.729,465.499,287.933,474.018z"/>
			<path fill="#9AD9E8" d="M279.927,478.022c-8.365,5.699-18.06,10.061-26.792,15.395c-0.719-8.721-0.103-18.781-0.307-28.023
				c8.868-4.473,17.973-8.717,26.792-13.24C280.338,460.163,279.724,469.502,279.927,478.022z"/>
			<path fill="#B3BBBB" d="M323.044,463.239c-37.362,21.154-74.29,42.734-111.794,63.75c0-2.875,0-5.748,0-8.625
				c36.621-21.279,74.393-41.402,111.486-62.209C323.446,457.905,322.84,460.979,323.044,463.239z"/>
			<path fill="#B3BBBB" d="M251.288,466.014c0.718,8.621,0.102,18.578,0.306,27.711c-1.549,1.734-3.984,2.588-6.159,3.695
				c0-9.438,0-18.885,0-28.33C247.349,468.03,249.543,467.245,251.288,466.014z"/>
			<path fill="#B3BBBB" d="M333.821,483.874c11.136,1.697,20.778,4.254,26.795,12.008c0.546,0.707,0.88,1.861,1.536,2.775
				c0.864,1.191,2.336,2.201,2.775,3.078c1.961,3.953,2.618,10.58-3.391,10.775c-3.258-15.727-16.594-21.387-32.335-24.633
				c-0.875-10.012-5.818-15.951-13.856-18.787c4.975-5.336,11.326,0.125,14.779,3.389
				C331.6,476.034,333.845,478.821,333.821,483.874z"/>
			<path fill="#9AD9E8" d="M243.895,469.704c0.718,8.938,0.104,19.201,0.308,28.646c-7.058,3.82-14.14,7.617-20.938,11.701
				c-0.721-9.34-0.106-20.018-0.311-29.875C230.106,476.86,237.086,473.366,243.895,469.704z"/>
			<path fill="#9AD9E8" d="M327.969,488.801c11.553,2.818,23.036,5.707,28.332,14.781c-3.958,0.654-9.403-0.17-11.391,2.465
				c-1.39-4.646-12.927-5.797-15.4-1.23c-6.22-3.846-12.717-7.404-21.865-8.316c-1.254-8.293-5.205-13.889-13.241-15.398
				c6.122-3.629,13.205-7.939,19.091-10.779C322.966,471.639,327.337,479.67,327.969,488.801z"/>
			<path fill="#B3BBBB" d="M221.721,510.668c-1.918,1.055-3.629,2.322-5.851,3.078c0-9.957,0-19.916,0-29.873
				c1.848-0.924,3.695-1.85,5.543-2.771C222.134,490.342,221.519,500.913,221.721,510.668z"/>
			<path fill="#B3BBBB" d="M306.413,497.42c6.536,0.652,11.968,2.92,17.552,5.24c9.449,3.924,15.498,12.354,19.403,20.631
				c-0.112,3.275-2.103,4.676-4.927,5.234c-2.68-5.555-4.056-13.559-9.854-16.938c-1.356-0.787-3.291-0.762-4.929-1.539
				c-7.451-3.541-12.847-7.912-23.404-7.703c-0.525-9.529-5.26-14.857-13.242-16.934c1.602-1.377,3.801-2.154,5.545-3.389
				C301.21,483.125,305.489,488.596,306.413,497.42z"/>
			<path fill="#9AD9E8" d="M299.021,502.967c2.946,1.895,6.425,0.422,9.55,1.232c3.116,0.807,6.335,3.244,9.542,4.617
				c6.563,2.805,12.169,3.74,14.786,9.857c-3.545,0.256-10.943-0.955-12.938,1.842c-4.067-4.18-16.496-2.748-20.633,0.313
				c-4.895-4.447-14.125-4.557-22.175-5.854c-0.944-8.91-6.141-13.566-13.549-16.012c4.618-3.459,15.035-8.617,20.634-12.322
				c2.271-1.504,9.49,2.691,11.085,4.621C297.738,494.174,298.426,497.793,299.021,502.967z"/>
			<path fill="#B3BBBB" d="M275.923,515.592c8.176,2.4,19.408,1.738,24.331,7.395c5.035,0.68,6.011,3.92,8.931,8.623
				c2.344,3.771,8.059,9.217,6.468,16.014c-0.547,2.334-3.379,4.086-6.774,3.695c-2.766-7.484-3.497-14.635-8.624-19.402
				c-7.209-6.707-18.166-9.352-30.487-11.086c-2.358-8.014-5.105-15.633-12.935-18.17
				C263.811,495.256,276.038,506.084,275.923,515.592z"/>
			<path fill="#9AD9E8" d="M269.148,522.061c13.213,1.471,24.594,4.766,31.415,12.629c-2.939,0.143-5.708,0.453-7.699,1.535
				c-6.522-3.545-22.347-4.039-26.177,2.16c-4.641-2.037-10.471-2.879-17.555-2.465c-1.698-10.521-8.708-15.725-18.171-18.48
				c8.007-4.617,16.705-10.189,24.636-13.857C264.272,505.584,266.043,514.489,269.148,522.061z"/>
			<path fill="#fff" d="M344.289,507.28c3.098-1.734,7.096-2.559,12.323-2.156c2.191,1.662,3.991,5.166,3.383,8.623
				c3.917,0.809,6.64-2.172,8.009-4.93c7.313-0.533,12.547,1.002,15.399,4.93c0.167,2.16-1.35,2.803-0.921,4.617
				c0.857,3.662,8.635,2.6,13.545,4.006c3.699,1.061,5.121,3.076,6.472,4.926c-2.541,2.689-3.322,7.326,1.844,7.699
				c0.821,5.746,7.161,5.979,6.163,13.553c-3.433,3.445-10.381,3.373-15.091,5.543c-0.5,1.145-0.256,3.027-0.309,4.619
				c-6.276,1.316-14.414,0.777-19.709,3.078c-0.444,0.99-0.29,2.586-0.309,4.004c-2.635,1.6-7.711-0.979-10.782,0
				c-3.119,0.994-2.145,6.043-4.312,7.084c-2.743,1.32-3.853-1.08-7.079-0.926c-4.18,0.201-7.119,6.547-13.243,6.162
				c-5.629-0.355-7.37-7.637-12.935-7.086c-1.958,0.193-2.402,2.559-4.928,2.463c-2.646-0.098-3.396-3.033-5.852-4.311
				c-8.455-0.314-19.438,4.563-25.251-0.613c0.401-1.65,1.992-2.111,2.462-3.697c-1.102-3.725-3.291-6.357-4.309-10.16
				c-6.224-6.1-12.753-11.887-21.252-15.709c3.894-5.285,19.278-5.363,24.636-1.23c2.707-1.148,6.231-2.227,9.855-1.543
				c3.169,4.119,3.243,11.334,5.851,16.018c5.201,1.211,9.269-1.656,9.24-6.16c-0.05-8.545-8.049-16.883-11.397-22.172
				c-1.957-0.402-2.609-2.111-4.925-2.16c3.982-3.387,15.898-3.547,19.403,0.311c2.108-2.467,10.995-3.699,13.86-1.23
				c2.58,2.227,1.123,6.008,2.769,8.93c4.903,0.328,8.249-3.156,8.009-6.469c-0.116-1.568-3.384-6.133-4.618-8.313
				c-2.5-4.393-6.339-7.74-9.242-9.24C333.012,500.956,343.431,503.395,344.289,507.28z"/>
			<path fill="#B3BBBB" d="M247.901,536.844c20.136-0.838,29.461,9.135,39.725,18.168c0.996,3.525,2.838,6.199,4.003,9.549
				c-1.953,5.703-7.104,3.842-7.697-1.541c-1.306-2.316-4.041-3.293-6.159-5.236c-2.01-1.836-2.911-4.615-4.927-6.465
				c-3.253-2.98-7.748-4.99-12.628-7.082c-4.195-1.805-12.927-4.213-18.479-1.232c-1.266-11.564-6.315-19.344-16.627-21.867
				c0.737-1.52,2.753-1.766,4.003-2.771C239.166,520.733,246.45,525.872,247.901,536.844z"/>
		</g>
	</g>
</g>
<g>
	<!--arrow-->
	
	<g id ="animIdforSet">
		<path fill="none" stroke="#000000" stroke-width="2.5051" stroke-miterlimit="10" d="M216.705,353.993
			c-27.223,16.545-43.283,36.896-43.283,58.908">
		</path>
		<g>
			<path d="M229.946,346.684c-7.497,1.17-17.399,1.549-24.503,0.057l9.576,8.293l2.054,12.5
				C219.52,360.698,225.024,352.459,229.946,346.684z"/>
		</g>
		
	<set id="show" attributeName="visibility" attributeType="CSS" to="visible" begin="1s; hide.end" dur="1s" fill="freeze"/>
	 
	 <set id="hide" attributeName="visibility" attributeType="CSS" to="hidden" begin="show.end" dur="1s" fill="freeze"/>
	
	</g>
</g>


<g>
	<path fill="#FFFFFF" d="M486.412,181.661c0.612,0.537,1.417,0.882,1.592,1.856c-0.881,0.091-1.15,0.796-1.592,1.325
		C485.642,184.058,486.516,182.659,486.412,181.661z"/>
	<path fill="#FFFFFF" d="M488.268,184.313c0.415,1.175,0.52,2.663,0.531,4.241c-1.021-0.569-1.531-1.652-2.387-2.387
		C486.858,185.376,487.627,184.906,488.268,184.313z"/>
	<path fill="#FFFFFF" d="M485.881,187.23c1.022,0.568,1.529,1.649,2.387,2.385c-0.513,0.99-1.688,1.318-2.387,2.121
		C485.063,190.465,486.191,188.87,485.881,187.23z"/>
	<path fill="#FFFFFF" d="M488.799,190.676c0.608,0.626,0.094,2.381,0.266,3.447c-1.509,0.095-2.895,0.066-3.446-0.795
		C486.434,192.199,487.851,191.674,488.799,190.676z"/>
	<path fill="#FFFFFF" d="M487.735,195.449c0.033-0.587,1.127-0.112,1.595-0.267c0,0.53,0,1.061,0,1.593
		C488.631,196.501,488.436,195.725,487.735,195.449z"/>
	<path fill="#FFFFFF" d="M489.33,199.427c0.619,2.651,0.646,5.891,0.793,9.015c-1.903-1.014-2.867-2.965-4.771-3.978
		C486.253,202.359,488.1,201.201,489.33,199.427z"/>
	<path fill="#FFFFFF" d="M484.557,204.992c1.99,1.28,3.269,3.273,5.302,4.51c-0.683,1.527-3.925,0.491-5.833,0.795
		C484.453,208.781,484.232,206.615,484.557,204.992z"/>
	<path fill="#FFFFFF" d="M484.024,211.357c1.238,0,2.476,0,3.711,0c-1.046,1.25-2.563,2.033-3.711,3.182
		C483.263,213.756,484.396,212.627,484.024,211.357z"/>
	<path fill="#FFFFFF" d="M490.388,211.357c0.143,2.952,0.514,5.678,0.531,8.752c-2.045-1.494-3.992-3.08-6.099-4.509
		C486.287,213.794,487.829,212.068,490.388,211.357z"/>
	<path fill="#FFFFFF" d="M483.76,216.131c2.373,1.425,4.32,3.282,6.628,4.77c-2.055,1.834-4.938,2.84-7.157,4.511
		C482.814,222.783,483.472,218.937,483.76,216.131z"/>
	<path fill="#FFFFFF" d="M490.919,221.963c0.566,2.704,0.581,5.959,0.795,9.017c-2.396-1.847-5.729-2.755-7.688-5.037
		C486.467,224.759,488.712,223.379,490.919,221.963z"/>
	<path fill="#FFFFFF" d="M482.698,227.001c3.108,1.489,5.858,3.333,8.751,5.039c-3.063,2.327-6.17,4.609-9.546,6.629
		C482.105,234.714,482.627,231.081,482.698,227.001z"/>
	<path fill="#FFFFFF" d="M491.714,233.099c0.554,3.336,0.71,7.069,0.796,10.871c-3.131-1.552-6.283-3.085-9.546-4.509
		C485.727,237.188,488.979,235.4,491.714,233.099z"/>
	<path fill="#FFFFFF" d="M481.64,239.993c3.615,1.6,7.103,3.326,10.604,5.038c-3.451,2.556-7.633,4.385-11.136,6.893
		C480.69,248.411,481.808,244.135,481.64,239.993z"/>
	<path fill="#FFFFFF" d="M492.51,246.09c0.937,4.635,0.854,10.284,1.326,15.379c-4.139-2.753-7.989-5.795-12.196-8.484
		C484.858,250.281,489.177,248.681,492.51,246.09z"/>
	<path fill="#FFFFFF" d="M480.58,253.516c4.439,2.715,8.31,6.008,12.725,8.75c-4.141,3.016-9.255,5.062-13.521,7.953
		C479.23,264.896,480.707,259.301,480.58,253.516z"/>
	<path fill="#FFFFFF" d="M493.836,263.326c0.281,6.967,1.625,12.869,3.444,18.294c-5.68-3.599-12.043-6.515-17.23-10.604
		C484.776,268.582,489.357,266.006,493.836,263.326z"/>
	<path fill="#FFFFFF" d="M504.443,304.157c-10.179-2.636-19.785-5.848-29.965-8.482c7.332-4.602,15.543-8.326,23.068-12.727
		C500.277,289.583,502.196,297.034,504.443,304.157z"/>
	<path fill="#FFFFFF" d="M503.911,305.219c-12.153,5.609-25.23,10.297-37.385,15.908c1.382-7.988,4.284-16.75,6.363-24.922
		C483.177,299.262,493.535,302.249,503.911,305.219z"/>
	<path fill="#FFFFFF" d="M510.012,322.188c-14.408,0-28.813,0-43.221,0c12.434-5.682,25.668-10.568,38.181-16.176
		C506.813,311.245,508.586,316.54,510.012,322.188z"/>
	<path fill="#FFFFFF" d="M485.352,195.183c2.019,0.283,2.773,1.821,3.713,3.182c-1.422,1.678-3.091,3.1-4.243,5.037
		C484.655,201.379,485.129,197.704,485.352,195.183z"/>
	<path fill="#FFFFFF" d="M479.254,272.339c5.729,3.377,11.846,6.361,16.97,10.341c-7.768,3.898-15.303,8.031-22.803,12.197
		C474.814,287.876,477.347,279.715,479.254,272.339z"/>
	<path d="M489.063,180.071c0.738,4.21,0.888,9.012,1.061,13.783c3.638,0.269,9.795,0.796,12.992-0.261
		c0.42-1.568-2.006-0.291-2.387-1.061c-0.317-1.466,2.01-0.292,2.387-1.06c0.13-1.282-2.535,0.235-2.121-1.328
		c0.77-0.467,2.542,0.066,2.389-1.326c0.825,0.501,1.352,1.299,2.649,1.326c0.344,1.317-1.569,0.374-1.856,1.061
		c-0.159,1.224,2.281-0.157,1.856,1.327c-0.341,0.362-1.151,0.261-1.856,0.264c-0.052,0.829,0.18,1.948-0.265,2.386
		c-4.508,0-9.015,0-13.523,0c0.271,5.121,0.636,10.149,1.063,15.114c3.801-0.176,8.307,0.352,11.666-0.266
		c0.44-1.502-1.777-0.342-2.121-1.06c-0.414-1.563,2.251-0.047,2.121-1.327c0.13-1.277-2.535,0.239-2.121-1.324
		c1.783,0.191,1.981-1.202,2.917-1.856c0.305,0.314,0.302,0.937,0.265,1.591c0.765,0.031,1.737-0.146,2.12,0.266
		c0.418,1.563-2.248,0.047-2.12,1.324c-0.092,1.329,2.783-0.306,2.388,1.327c-0.439,0.444-1.557,0.208-2.388,0.263
		c-0.028,0.765,0.146,1.738-0.265,2.123c-4.152,0-8.309,0-12.462,0c0.503,11.469,1.891,22.771,2.651,33.406
		c0.688,9.602,0.025,18.806,1.593,27.575c0.997,5.604,3.614,10.959,5.301,16.441c2.524,8.203,4.939,15.966,7.423,23.86
		c1.084,3.441,2.146,6.281,2.919,10.344c-15.027,0.441-31.904,0.441-46.931,0c2.481-7.887,4.482-16.646,6.894-25.456
		c2.312-8.441,5.418-17.072,6.895-25.454c0.233-1.34,0.134-2.777,0.265-4.506c1.386-18.264,3.045-36.662,4.507-55.947
		c-3.181-0.615-7.51-0.088-11.135-0.264c-0.472-0.5-0.19-1.752-0.266-2.652c-0.165-0.627-1.633,0.04-1.854-0.528
		c-0.424-1.482,2.016-0.105,1.854-1.325c0.476-1.712-2.532,0.055-2.12-1.591c0.978-0.349,2.55-0.103,2.386-1.591
		c0.847,0.656,1.358,1.646,2.917,1.591c0.413,1.563-2.25,0.046-2.121,1.323c-0.475,1.712,2.53-0.055,2.121,1.593
		c-0.387,0.41-1.356,0.233-2.121,0.265c0,0.53,0,1.061,0,1.59c2.829,0.617,6.805,0.09,10.073,0.266
		c1.177-4.304,0.782-10.177,1.595-14.848c-3.625-0.62-8.396-0.089-12.464-0.267c-0.444-0.438-0.211-1.557-0.266-2.386
		c-0.228-0.656-1.846,0.08-2.12-0.53c-0.178-1.15,1.229-0.713,2.12-0.793c0-0.531,0-1.063,0-1.594
		c-0.287-0.685-2.198,0.258-1.854-1.061c1.295-0.026,1.824-0.827,2.65-1.325c-0.156,1.392,1.613,0.858,2.387,1.325
		c0.176,1.15-1.231,0.715-2.121,0.796c0,0.53,0,1.061,0,1.591c0.227,0.657,1.845-0.077,2.121,0.53
		c0.334,1.396-1.791,0.329-2.121,1.061c0,0.355,0,0.707,0,1.058c3.271,0.621,7.689,0.093,11.399,0.269
		c1.081-4.05,0.579-9.673,1.593-13.787C486.331,179.814,487.933,180.179,489.063,180.071z M486.412,184.843
		c0.439-0.529,0.711-1.234,1.592-1.325c-0.175-0.975-0.979-1.319-1.592-1.856C486.516,182.659,485.642,184.058,486.412,184.843z
		 M486.412,186.168c0.854,0.734,1.364,1.817,2.387,2.387c-0.013-1.578-0.116-3.066-0.531-4.241
		C487.627,184.906,486.858,185.376,486.412,186.168z M485.881,191.736c0.698-0.803,1.874-1.131,2.387-2.121
		c-0.856-0.735-1.363-1.816-2.387-2.385C486.191,188.87,485.063,190.465,485.881,191.736z M485.617,193.328
		c0.553,0.861,1.938,0.89,3.445,0.795c-0.171-1.066,0.345-2.821-0.265-3.447C487.851,191.674,486.434,192.199,485.617,193.328z
		 M484.82,203.401c1.152-1.938,2.821-3.359,4.242-5.037c-0.938-1.36-1.693-2.898-3.712-3.182
		C485.129,197.704,484.655,201.379,484.82,203.401z M489.33,196.775c0-0.532,0-1.063,0-1.593c-0.468,0.154-1.562-0.32-1.595,0.267
		C488.436,195.725,488.631,196.501,489.33,196.775z M485.352,204.464c1.904,1.013,2.868,2.964,4.771,3.978
		c-0.146-3.124-0.174-6.363-0.793-9.015C488.1,201.201,486.253,202.359,485.352,204.464z M484.024,210.297
		c1.908-0.304,5.15,0.732,5.833-0.795c-2.033-1.236-3.312-3.229-5.302-4.51C484.232,206.615,484.453,208.781,484.024,210.297z
		 M484.024,214.539c1.148-1.148,2.665-1.932,3.711-3.182c-1.235,0-2.473,0-3.711,0C484.396,212.627,483.263,213.756,484.024,214.539
		z M484.82,215.601c2.105,1.429,4.054,3.015,6.099,4.509c-0.019-3.074-0.39-5.8-0.531-8.752
		C487.829,212.068,486.287,213.794,484.82,215.601z M483.229,225.411c2.221-1.671,5.104-2.677,7.158-4.511
		c-2.308-1.487-4.255-3.345-6.628-4.77C483.472,218.937,482.814,222.783,483.229,225.411z M484.024,225.942
		c1.959,2.282,5.292,3.19,7.688,5.037c-0.214-3.058-0.229-6.313-0.795-9.017C488.712,223.379,486.467,224.759,484.024,225.942z
		 M481.903,238.669c3.376-2.02,6.483-4.302,9.546-6.629c-2.893-1.706-5.643-3.55-8.751-5.039
		C482.627,231.081,482.105,234.714,481.903,238.669z M482.964,239.461c3.263,1.424,6.415,2.957,9.546,4.509
		c-0.086-3.802-0.242-7.535-0.796-10.871C488.979,235.4,485.727,237.188,482.964,239.461z M481.108,251.924
		c3.503-2.508,7.685-4.337,11.136-6.893c-3.503-1.712-6.989-3.438-10.604-5.038C481.808,244.135,480.69,248.411,481.108,251.924z
		 M481.64,252.984c4.207,2.689,8.059,5.731,12.196,8.484c-0.473-5.095-0.391-10.744-1.326-15.379
		C489.177,248.681,484.858,250.281,481.64,252.984z M479.783,270.219c4.267-2.892,9.381-4.938,13.521-7.953
		c-4.415-2.742-8.284-6.035-12.725-8.75C480.707,259.301,479.23,264.896,479.783,270.219z M480.05,271.016
		c5.188,4.09,11.552,7.006,17.23,10.604c-1.819-5.425-3.163-11.327-3.444-18.294C489.357,266.006,484.776,268.582,480.05,271.016z
		 M473.421,294.877c7.5-4.166,15.035-8.299,22.803-12.197c-5.124-3.979-11.241-6.964-16.97-10.341
		C477.347,279.715,474.814,287.876,473.421,294.877z M497.548,282.947c-7.526,4.4-15.735,8.125-23.067,12.728
		c10.179,2.636,19.785,5.848,29.964,8.482C502.196,297.034,500.277,289.583,497.548,282.947z M472.891,296.206
		c-2.078,8.172-4.981,16.934-6.363,24.922c12.153-5.611,25.23-10.299,37.385-15.908
		C493.535,302.249,483.177,299.262,472.891,296.206z M504.972,306.012c-12.513,5.607-25.747,10.494-38.181,16.174
		c14.406,0,28.813,0,43.221,0C508.586,316.54,506.813,311.245,504.972,306.012z"/>
</g>


<g>
	<path fill="#FFFFFF" d="M702.134,181.661c0.613,0.537,1.416,0.882,1.592,1.856c-0.881,0.091-1.148,0.796-1.592,1.325
		C701.365,184.058,702.235,182.659,702.134,181.661z"/>
	<path fill="#FFFFFF" d="M703.991,184.313c0.413,1.175,0.52,2.663,0.53,4.241c-1.022-0.569-1.531-1.652-2.389-2.387
		C702.576,185.376,703.347,184.906,703.991,184.313z"/>
	<path fill="#FFFFFF" d="M701.604,187.23c1.022,0.568,1.531,1.649,2.388,2.385c-0.515,0.99-1.688,1.318-2.388,2.121
		C700.783,190.465,701.912,188.87,701.604,187.23z"/>
	<path fill="#FFFFFF" d="M704.521,190.676c0.608,0.626,0.094,2.381,0.266,3.447c-1.51,0.095-2.896,0.066-3.447-0.795
		C702.154,192.199,703.575,191.674,704.521,190.676z"/>
	<path fill="#FFFFFF" d="M703.459,195.449c0.035-0.587,1.126-0.112,1.593-0.267c0,0.53,0,1.061,0,1.593
		C704.354,196.501,704.159,195.725,703.459,195.449z"/>
	<path fill="#FFFFFF" d="M705.052,199.427c0.617,2.651,0.649,5.891,0.794,9.015c-1.901-1.014-2.869-2.965-4.771-3.978
		C701.975,202.359,703.822,201.201,705.052,199.427z"/>
	<path fill="#FFFFFF" d="M700.279,204.992c1.987,1.28,3.268,3.273,5.303,4.51c-0.686,1.527-3.926,0.491-5.835,0.795
		C700.176,208.781,699.956,206.615,700.279,204.992z"/>
	<path fill="#FFFFFF" d="M699.747,211.357c1.239,0,2.474,0,3.712,0c-1.046,1.25-2.563,2.033-3.712,3.182
		C698.984,213.756,700.121,212.627,699.747,211.357z"/>
	<path fill="#FFFFFF" d="M706.112,211.357c0.138,2.952,0.51,5.678,0.528,8.752c-2.043-1.494-3.988-3.08-6.098-4.509
		C702.008,213.794,703.55,212.068,706.112,211.357z"/>
	<path fill="#FFFFFF" d="M699.482,216.131c2.374,1.425,4.318,3.282,6.63,4.77c-2.057,1.834-4.94,2.84-7.161,4.511
		C698.537,222.783,699.195,218.937,699.482,216.131z"/>
	<path fill="#FFFFFF" d="M706.642,221.963c0.565,2.704,0.583,5.959,0.797,9.017c-2.399-1.847-5.733-2.755-7.69-5.037
		C702.189,224.759,704.435,223.379,706.642,221.963z"/>
	<path fill="#FFFFFF" d="M698.423,227.001c3.105,1.489,5.856,3.333,8.75,5.039c-3.063,2.327-6.171,4.609-9.546,6.629
		C697.829,234.714,698.351,231.081,698.423,227.001z"/>
	<path fill="#FFFFFF" d="M707.438,233.099c0.554,3.336,0.709,7.069,0.796,10.871c-3.133-1.552-6.282-3.085-9.544-4.509
		C701.449,237.188,704.701,235.4,707.438,233.099z"/>
	<path fill="#FFFFFF" d="M697.361,239.993c3.614,1.6,7.102,3.326,10.604,5.038c-3.451,2.556-7.632,4.385-11.136,6.893
		C696.414,248.411,697.527,244.135,697.361,239.993z"/>
	<path fill="#FFFFFF" d="M708.232,246.09c0.935,4.635,0.853,10.284,1.325,15.379c-4.137-2.753-7.991-5.795-12.196-8.484
		C700.582,250.281,704.898,248.681,708.232,246.09z"/>
	<path fill="#FFFFFF" d="M696.301,253.516c4.443,2.715,8.31,6.008,12.728,8.75c-4.142,3.016-9.256,5.062-13.521,7.953
		C694.954,264.896,696.429,259.301,696.301,253.516z"/>
	<path fill="#FFFFFF" d="M709.559,263.326c0.279,6.967,1.625,12.869,3.446,18.294c-5.68-3.599-12.044-6.515-17.231-10.604
		C700.497,268.582,705.082,266.006,709.559,263.326z"/>
	<path fill="#FFFFFF" d="M720.164,304.157c-10.18-2.636-19.783-5.848-29.961-8.482c7.328-4.602,15.541-8.326,23.068-12.727
		C716.001,289.583,717.92,297.034,720.164,304.157z"/>
	<path fill="#FFFFFF" d="M719.634,305.219c-12.153,5.609-25.23,10.297-37.386,15.908c1.382-7.988,4.285-16.75,6.364-24.922
		C698.9,299.262,709.258,302.249,719.634,305.219z"/>
	<path fill="#FFFFFF" d="M725.733,322.188c-14.407,0-28.813,0-43.222,0c12.438-5.682,25.67-10.568,38.184-16.176
		C722.535,311.245,724.311,316.54,725.733,322.188z"/>
	<path fill="#FFFFFF" d="M701.075,195.183c2.015,0.283,2.773,1.821,3.712,3.182c-1.42,1.678-3.09,3.1-4.243,5.037
		C700.377,201.379,700.85,197.704,701.075,195.183z"/>
	<path fill="#FFFFFF" d="M694.976,272.339c5.729,3.377,11.848,6.361,16.969,10.341c-7.769,3.898-15.3,8.031-22.802,12.197
		C690.537,287.876,693.07,279.715,694.976,272.339z"/>
	<path d="M704.787,180.071c0.738,4.21,0.887,9.012,1.059,13.783c3.64,0.269,9.798,0.796,12.994-0.261
		c0.416-1.568-2.009-0.291-2.387-1.061c-0.318-1.466,2.008-0.292,2.387-1.06c0.13-1.282-2.536,0.235-2.123-1.328
		c0.771-0.467,2.542,0.066,2.388-1.326c0.824,0.501,1.353,1.299,2.65,1.326c0.343,1.317-1.568,0.374-1.854,1.061
		c-0.163,1.224,2.275-0.157,1.854,1.327c-0.343,0.362-1.153,0.261-1.854,0.264c-0.056,0.829,0.178,1.948-0.268,2.386
		c-4.508,0-9.017,0-13.521,0c0.271,5.121,0.632,10.149,1.061,15.114c3.803-0.176,8.308,0.352,11.667-0.266
		c0.439-1.502-1.78-0.342-2.123-1.06c-0.413-1.563,2.253-0.047,2.123-1.327c0.13-1.277-2.536,0.239-2.123-1.324
		c1.783,0.191,1.981-1.202,2.917-1.856c0.306,0.314,0.299,0.937,0.268,1.591c0.763,0.031,1.731-0.146,2.119,0.266
		c0.414,1.563-2.252,0.047-2.119,1.324c-0.092,1.329,2.779-0.306,2.385,1.327c-0.44,0.444-1.557,0.208-2.385,0.263
		c-0.032,0.765,0.144,1.738-0.268,2.123c-4.153,0-8.308,0-12.461,0c0.504,11.469,1.892,22.771,2.651,33.406
		c0.685,9.602,0.022,18.806,1.591,27.575c0.999,5.604,3.614,10.959,5.302,16.441c2.525,8.203,4.94,15.966,7.424,23.86
		c1.083,3.441,2.147,6.281,2.919,10.344c-15.027,0.441-31.904,0.441-46.933,0c2.482-7.887,4.484-16.646,6.894-25.456
		c2.313-8.441,5.42-17.072,6.896-25.454c0.235-1.34,0.133-2.777,0.265-4.506c1.388-18.264,3.045-36.662,4.511-55.947
		c-3.187-0.615-7.513-0.088-11.139-0.264c-0.47-0.5-0.194-1.752-0.265-2.652c-0.166-0.627-1.631,0.04-1.855-0.528
		c-0.423-1.482,2.019-0.105,1.855-1.325c0.474-1.712-2.531,0.055-2.122-1.591c0.979-0.349,2.55-0.103,2.387-1.591
		c0.846,0.656,1.358,1.646,2.917,1.591c0.415,1.563-2.253,0.046-2.121,1.323c-0.475,1.712,2.527-0.055,2.121,1.593
		c-0.385,0.41-1.356,0.233-2.121,0.265c0,0.53,0,1.061,0,1.59c2.83,0.617,6.805,0.09,10.075,0.266
		c1.175-4.304,0.782-10.177,1.589-14.848c-3.623-0.62-8.395-0.089-12.46-0.267c-0.443-0.438-0.211-1.557-0.265-2.386
		c-0.229-0.656-1.848,0.08-2.122-0.53c-0.178-1.15,1.231-0.713,2.122-0.793c0-0.531,0-1.063,0-1.594
		c-0.287-0.685-2.2,0.258-1.855-1.061c1.298-0.026,1.823-0.827,2.649-1.325c-0.152,1.392,1.616,0.858,2.388,1.325
		c0.179,1.15-1.231,0.715-2.121,0.796c0,0.53,0,1.061,0,1.591c0.229,0.657,1.844-0.077,2.121,0.53
		c0.336,1.396-1.792,0.329-2.121,1.061c0,0.355,0,0.707,0,1.058c3.271,0.621,7.688,0.093,11.399,0.269
		c1.079-4.05,0.581-9.673,1.593-13.787C702.055,179.814,703.655,180.179,704.787,180.071z M702.134,184.843
		c0.442-0.529,0.711-1.234,1.592-1.325c-0.176-0.975-0.979-1.319-1.592-1.856C702.235,182.659,701.365,184.058,702.134,184.843z
		 M702.134,186.168c0.856,0.734,1.365,1.817,2.388,2.387c-0.011-1.578-0.116-3.066-0.529-4.241
		C703.347,184.906,702.576,185.376,702.134,186.168z M701.604,191.736c0.699-0.803,1.873-1.131,2.388-2.121
		c-0.855-0.735-1.364-1.816-2.388-2.385C701.912,188.87,700.783,190.465,701.604,191.736z M701.34,193.328
		c0.553,0.861,1.938,0.89,3.447,0.795c-0.172-1.066,0.344-2.821-0.266-3.447C703.575,191.674,702.154,192.199,701.34,193.328z
		 M700.544,203.401c1.153-1.938,2.823-3.359,4.243-5.037c-0.938-1.36-1.697-2.898-3.712-3.182
		C700.85,197.704,700.377,201.379,700.544,203.401z M705.052,196.775c0-0.532,0-1.063,0-1.593c-0.467,0.154-1.558-0.32-1.593,0.267
		C704.159,195.725,704.354,196.501,705.052,196.775z M701.075,204.464c1.9,1.013,2.868,2.964,4.771,3.978
		c-0.145-3.124-0.177-6.363-0.794-9.015C703.822,201.201,701.975,202.359,701.075,204.464z M699.747,210.297
		c1.909-0.304,5.149,0.732,5.835-0.795c-2.035-1.236-3.314-3.229-5.303-4.51C699.956,206.615,700.176,208.781,699.747,210.297z
		 M699.747,214.539c1.15-1.148,2.666-1.932,3.712-3.182c-1.238,0-2.473,0-3.712,0C700.121,212.627,698.984,213.756,699.747,214.539z
		 M700.544,215.601c2.108,1.429,4.055,3.015,6.098,4.509c-0.02-3.074-0.392-5.8-0.528-8.752
		C703.55,212.068,702.008,213.794,700.544,215.601z M698.951,225.411c2.221-1.671,5.104-2.677,7.161-4.511
		c-2.312-1.487-4.256-3.345-6.63-4.77C699.195,218.937,698.537,222.783,698.951,225.411z M699.747,225.942
		c1.957,2.282,5.291,3.19,7.69,5.037c-0.214-3.058-0.23-6.313-0.797-9.017C704.435,223.379,702.189,224.759,699.747,225.942z
		 M697.627,238.669c3.375-2.02,6.482-4.302,9.546-6.629c-2.894-1.706-5.645-3.55-8.75-5.039
		C698.351,231.081,697.829,234.714,697.627,238.669z M698.689,239.461c3.261,1.424,6.41,2.957,9.543,4.509
		c-0.086-3.802-0.242-7.535-0.795-10.871C704.701,235.4,701.449,237.188,698.689,239.461z M696.831,251.924
		c3.504-2.508,7.685-4.337,11.136-6.893c-3.504-1.712-6.99-3.438-10.604-5.038C697.527,244.135,696.414,248.411,696.831,251.924z
		 M697.361,252.984c4.205,2.689,8.061,5.731,12.196,8.484c-0.474-5.095-0.392-10.744-1.325-15.379
		C704.898,248.681,700.582,250.281,697.361,252.984z M695.506,270.219c4.266-2.892,9.381-4.938,13.521-7.953
		c-4.418-2.742-8.283-6.035-12.728-8.75C696.429,259.301,694.954,264.896,695.506,270.219z M695.771,271.016
		c5.188,4.09,11.554,7.006,17.232,10.604c-1.821-5.425-3.167-11.327-3.446-18.294C705.082,266.006,700.497,268.582,695.771,271.016z
		 M689.143,294.877c7.501-4.166,15.033-8.299,22.802-12.197c-5.121-3.979-11.239-6.964-16.969-10.341
		C693.07,279.715,690.537,287.876,689.143,294.877z M713.271,282.947c-7.527,4.4-15.74,8.125-23.068,12.728
		c10.178,2.636,19.781,5.848,29.961,8.482C717.92,297.034,716.001,289.583,713.271,282.947z M688.612,296.206
		c-2.079,8.172-4.982,16.934-6.364,24.922c12.154-5.611,25.232-10.299,37.386-15.908C709.258,302.249,698.9,299.262,688.612,296.206
		z M720.695,306.012c-12.514,5.607-25.745,10.494-38.184,16.174c14.407,0,28.813,0,43.222,0
		C724.311,316.54,722.535,311.245,720.695,306.012z"/>
</g>
<g>

<!--house-->
	<g id ="animIdforSet">
		
			<rect x="901.878" y="348.792" transform="matrix(0.0222 -0.9998 0.9998 0.0222 546.3295 1270.7346)" fill="#FFFC9F" width="41.836" height="14.556"/>
		
			<rect x="883.878" y="348.375" transform="matrix(0.0222 -0.9998 0.9998 0.0222 529.1418 1252.3281)" fill="#FFFC9F" width="41.833" height="14.555"/>
		<path fill="#353333" d="M895.087,331.34l-1.067,48.098l38.513,0.855l1.068-48.096L895.087,331.34z M896.355,332.499l35.927,0.801
			l-1.02,45.836l-35.928-0.797L896.355,332.499z"/>
		<g>
			<path fill="#9A5548" d="M914.319,332.899l-1.021,45.838l17.965,0.396l1.02-45.834L914.319,332.899z M915.979,334.946
				l14.554,0.322l-0.93,41.818l-14.554-0.32L915.979,334.946z"/>
			
				<rect x="901.861" y="355.773" transform="matrix(0.0222 -0.9998 0.9998 0.0222 546.3164 1270.7067)" fill="#031116" width="41.833" height="0.578"/>
			
				<rect x="923.124" y="351.554" transform="matrix(0.9998 0.0221 -0.0221 0.9998 7.9916 -20.3685)" fill="#031116" width="6.99" height="0.506"/>
			
				<rect x="922.95" y="360.095" transform="matrix(0.9998 0.0221 -0.0221 0.9998 8.1801 -20.3625)" fill="#031116" width="6.99" height="0.504"/>
			
				<rect x="915.579" y="351.331" transform="matrix(0.9998 0.0224 -0.0224 0.9998 8.0887 -20.4565)" fill="#031116" width="6.99" height="0.504"/>
			
				<rect x="915.463" y="359.98" transform="matrix(0.9997 0.0226 -0.0226 0.9997 8.392 -20.7147)" fill="#031116" width="6.987" height="0.506"/>
			<path fill="#031116" d="M915.14,353.594l-0.114,5.191l0,0c-0.004,0.188-0.183,0.334-0.396,0.33
				c-0.215-0.004-0.385-0.16-0.379-0.348l0,0l0.113-5.193l0,0c0.005-0.188,0.181-0.332,0.396-0.33
				C914.975,353.25,915.146,353.405,915.14,353.594L915.14,353.594z"/>
		</g>
		<g>
			<g>
				<path fill="#9A5548" d="M896.355,332.499l-1.021,45.84l17.963,0.398l1.021-45.838L896.355,332.499z M898.017,334.547
					l14.553,0.322l-0.932,41.82l-14.549-0.324L898.017,334.547z"/>
				
					<rect x="883.917" y="355.379" transform="matrix(0.0222 -0.9998 0.9998 0.0222 529.1648 1252.3828)" fill="#031116" width="41.833" height="0.578"/>
				
					<rect x="905.181" y="351.1" transform="matrix(0.9998 0.0224 -0.0224 0.9998 8.0809 -20.2241)" fill="#031116" width="6.99" height="0.504"/>
				
					<rect x="904.987" y="359.701" transform="matrix(0.9998 0.0221 -0.0221 0.9998 8.1681 -19.9689)" fill="#031116" width="6.989" height="0.504"/>
				
					<rect x="897.598" y="350.984" transform="matrix(0.9998 0.0221 -0.0221 0.9998 7.9728 -19.8051)" fill="#031116" width="6.99" height="0.506"/>
				
					<rect x="897.499" y="359.578" transform="matrix(0.9997 0.0226 -0.0226 0.9997 8.3759 -20.3024)" fill="#031116" width="6.989" height="0.506"/>
			</g>
			<path fill="#031116" d="M913.354,353.551l-0.115,5.195l0,0c-0.004,0.188-0.183,0.334-0.396,0.328
				c-0.213-0.002-0.383-0.158-0.38-0.346l0,0l0.114-5.193l0,0c0.006-0.188,0.183-0.334,0.396-0.332
				C913.188,353.209,913.356,353.366,913.354,353.551L913.354,353.551z"/>
		</g>
	</g>
	<g>
		
			<rect x="825.561" y="252.799" transform="matrix(0.0222 -0.9998 0.9998 0.0222 567.6727 1100.5736)" fill="#FFFC9F" width="41.835" height="14.558"/>
		
			<rect x="807.542" y="252.38" transform="matrix(0.0222 -0.9998 0.9998 0.0222 550.4714 1082.1477)" fill="#FFFC9F" width="41.833" height="14.557"/>
		<path fill="#353333" d="M818.747,235.348l-1.067,48.098l38.511,0.854l1.068-48.092L818.747,235.348z M820.016,236.506
			l35.928,0.799l-1.02,45.838l-35.928-0.797L820.016,236.506z"/>
		<g>
			<path fill="#9A5548" d="M837.979,236.905l-1.018,45.839l17.963,0.398l1.02-45.838L837.979,236.905z M839.639,238.951
				l14.555,0.325l-0.932,41.819l-14.554-0.322L839.639,238.951z"/>
			
				<rect x="825.564" y="259.789" transform="matrix(0.0222 -0.9998 0.9998 0.0222 567.6738 1100.575)" fill="#031116" width="41.832" height="0.578"/>
			
				<rect x="846.789" y="255.568" transform="matrix(0.9998 0.0222 -0.0222 0.9998 5.8934 -18.8274)" fill="#031116" width="6.989" height="0.504"/>
			
				<rect x="846.612" y="264.106" transform="matrix(0.9998 0.0221 -0.0221 0.9998 6.0426 -18.7008)" fill="#031116" width="6.99" height="0.504"/>
			
				<rect x="839.238" y="255.368" transform="matrix(0.9998 0.0221 -0.0221 0.9998 5.8495 -18.5453)" fill="#031116" width="6.988" height="0.504"/>
			
				<rect x="839.034" y="263.976" transform="matrix(0.9998 0.0222 -0.0222 0.9998 6.0782 -18.653)" fill="#031116" width="6.989" height="0.504"/>
			<path fill="#031116" d="M838.801,257.6l-0.115,5.192l0,0c-0.004,0.188-0.182,0.336-0.396,0.329
				c-0.214-0.003-0.385-0.157-0.381-0.345l0,0l0.117-5.193l0,0c0.002-0.188,0.179-0.335,0.393-0.33
				C838.634,257.257,838.806,257.413,838.801,257.6L838.801,257.6z"/>
		</g>
		<g>
			<g>
				<path fill="#9A5548" d="M820.016,236.506l-1.02,45.84l17.965,0.398l1.018-45.839L820.016,236.506z M821.675,238.554
					l14.554,0.323l-0.93,41.82l-14.552-0.323L821.675,238.554z"/>
				
					<rect x="807.6" y="259.389" transform="matrix(0.0222 -0.9998 0.9998 0.0222 550.5085 1082.2236)" fill="#031116" width="41.832" height="0.577"/>
				
					<rect x="828.827" y="255.186" transform="matrix(0.9998 0.0219 -0.0219 0.9998 5.7849 -18.1398)" fill="#031116" width="6.989" height="0.505"/>
				
					<rect x="828.649" y="263.71" transform="matrix(0.9998 0.0221 -0.0221 0.9998 6.05 -18.3647)" fill="#031116" width="6.989" height="0.506"/>
				
					<rect x="821.263" y="254.999" transform="matrix(0.9998 0.0222 -0.0222 0.9998 5.8753 -18.2629)" fill="#031116" width="6.988" height="0.505"/>
				
					<rect x="821.085" y="263.547" transform="matrix(0.9998 0.0222 -0.0222 0.9998 6.0463 -18.2022)" fill="#031116" width="6.987" height="0.504"/>
			</g>
			<path fill="#031116" d="M837.013,257.559l-0.114,5.195l0,0c-0.007,0.187-0.183,0.334-0.396,0.33
				c-0.215-0.005-0.387-0.161-0.381-0.35l0,0l0.114-5.191l0,0c0.004-0.187,0.182-0.336,0.396-0.331
				C836.847,257.218,837.017,257.371,837.013,257.559L837.013,257.559z"/>
		</g>
	</g>
	<g>
		
			<rect x="901.92" y="254.968" transform="matrix(0.023 -0.9997 0.9997 0.023 639.4366 1178.8064)" fill="#FFFC9F" width="41.829" height="14.556"/>
		
			<rect x="883.958" y="254.556" transform="matrix(0.023 -0.9997 0.9997 0.023 622.2993 1160.4464)" fill="#FFFC9F" width="41.83" height="14.557"/>
		<path fill="#353333" d="M895.126,237.575l-1.106,48.097l38.513,0.888l1.106-48.094L895.126,237.575z M896.394,238.734
			l35.927,0.828l-1.057,45.838l-35.926-0.827L896.394,238.734z"/>
		<g>
			<path fill="#9A5548" d="M914.356,239.148l-1.058,45.836l17.964,0.416l1.057-45.838L914.356,239.148z M916.015,241.197
				l14.553,0.334l-0.964,41.82l-14.552-0.334L916.015,241.197z"/>
			
				<rect x="901.922" y="261.956" transform="matrix(0.023 -0.9997 0.9997 0.023 639.4383 1178.8069)" fill="#031116" width="41.828" height="0.578"/>
			
				<rect x="923.228" y="257.824" transform="matrix(0.9997 0.0232 -0.0232 0.9997 6.237 -21.4312)" fill="#031116" width="6.987" height="0.503"/>
			
				<rect x="923.041" y="266.368" transform="matrix(0.9997 0.0231 -0.0231 0.9997 6.3959 -21.299)" fill="#031116" width="6.986" height="0.505"/>
			
				<rect x="915.677" y="257.633" transform="matrix(0.9997 0.0228 -0.0228 0.9997 6.1127 -20.8705)" fill="#031116" width="6.988" height="0.504"/>
			
				<rect x="915.465" y="266.242" transform="matrix(0.9997 0.0229 -0.0229 0.9997 6.348 -20.988)" fill="#031116" width="6.989" height="0.506"/>
			<path fill="#031116" d="M915.16,259.842l-0.118,5.197l0,0c-0.004,0.184-0.182,0.332-0.396,0.328
				c-0.213-0.006-0.384-0.161-0.379-0.348l0,0l0.118-5.193l0,0c0.004-0.188,0.183-0.337,0.396-0.33
				C914.997,259.5,915.166,259.658,915.16,259.842L915.16,259.842z"/>
		</g>
		<g>
			<g>
				<path fill="#9A5548" d="M896.394,238.734l-1.056,45.839l17.962,0.411l1.058-45.836L896.394,238.734z M898.052,240.783
					l14.554,0.336l-0.964,41.817l-14.553-0.333L898.052,240.783z"/>
				
					<rect x="883.979" y="261.554" transform="matrix(0.023 -0.9997 0.9997 0.023 622.2917 1160.4673)" fill="#031116" width="41.829" height="0.574"/>
				
					<rect x="905.265" y="257.429" transform="matrix(0.9997 0.0229 -0.0229 0.9997 6.1452 -20.7623)" fill="#031116" width="6.987" height="0.507"/>
				
					<rect x="905.067" y="266.027" transform="matrix(0.9997 0.0226 -0.0226 0.9997 6.262 -20.5034)" fill="#031116" width="6.987" height="0.505"/>
				
					<rect x="897.698" y="257.253" transform="matrix(0.9997 0.0229 -0.0229 0.9997 6.1373 -20.5833)" fill="#031116" width="6.989" height="0.504"/>
				
					<rect x="897.485" y="265.85" transform="matrix(0.9997 0.0233 -0.0233 0.9997 6.4574 -20.9597)" fill="#031116" width="6.986" height="0.506"/>
			</g>
			<path fill="#031116" d="M913.373,259.806l-0.118,5.192l0,0c-0.006,0.185-0.184,0.332-0.396,0.326
				c-0.216-0.004-0.386-0.16-0.381-0.348l0,0l0.118-5.192l0,0c0.006-0.185,0.184-0.335,0.396-0.33
				C913.207,259.461,913.38,259.617,913.373,259.806L913.373,259.806z"/>
		</g>
	</g>
</g>
<g>
	<path fill="#4A7704" d="M321.667,162.518c-13.139-16.608-25.526-33.792-38.531-50.543c-6.522-8.356-13.196-16.623-20.497-24.369
		c-3.66-3.862-7.487-7.588-11.629-10.978c-4.144-3.371-8.609-6.465-13.631-8.58c-2.508-1.048-5.158-1.826-7.897-2.163
		c-0.684-0.084-1.372-0.139-2.063-0.165c-0.321-0.011-0.748-0.011-0.981-0.028l-1.005-0.043c-1.367-0.04-2.718-0.022-4.074,0.072
		c-5.426,0.348-10.759,1.833-15.65,4.147c-4.905,2.311-9.386,5.396-13.494,8.852c-4.11,3.464-7.866,7.301-11.397,11.306
		c-7.061,8.025-13.244,16.701-19.43,25.291c-3.099,4.293-6.191,8.577-9.418,12.73c-1.615,2.075-3.264,4.116-4.973,6.093
		c-1.769,2.07-3.388,4.061-5.139,6.055c-6.897,7.955-14.309,15.45-22.102,22.519c-7.809,7.056-16.027,13.651-24.513,19.893
		c-4.249,3.114-8.578,6.121-12.964,9.051c-4.37,2.953-8.799,5.824-13.272,8.629c-8.947,5.613-18.068,10.969-27.235,16.266
		c-9.135,5.352-18.314,10.649-27.426,16.068c-4.81,2.885-9.597,5.809-14.346,8.793v1.224c5.043-2.886,10.11-5.728,15.202-8.526
		c9.256-5.137,18.583-10.152,27.884-15.237c9.268-5.145,18.509-10.359,27.605-15.849c4.55-2.742,9.06-5.559,13.519-8.459
		c4.439-2.93,8.824-5.948,13.136-9.075c17.292-12.435,33.15-26.957,46.924-43.225c1.723-2.009,3.423-4.146,5.07-6.121
		c1.731-2.051,3.388-4.15,4.998-6.275c3.223-4.251,6.28-8.595,9.329-12.927c6.104-8.653,12.163-17.315,19.032-25.271
		c6.854-7.897,14.598-15.27,23.957-19.813c4.655-2.257,9.695-3.71,14.848-4.09c1.283-0.102,2.584-0.13,3.864-0.104l1.983,0.055
		c0.633,0.02,1.266,0.066,1.896,0.139c2.524,0.295,5.009,1.001,7.391,1.979c4.774,1.971,9.142,4.938,13.218,8.215
		c4.081,3.292,7.88,6.951,11.538,10.745c7.3,7.612,14.024,15.793,20.603,24.076c13.126,16.604,25.674,33.695,38.968,50.208
		c13.284,16.499,27.23,32.575,42.997,46.773l0.234-0.258C348.574,195.278,334.793,179.113,321.667,162.518z"/>
	<path fill="#4A7704" d="M423.395,215.358c-17.346-8.397-32.693-20.483-46.227-34.129c-6.792-6.821-13.176-14.033-19.365-21.389
		c-6.198-7.352-12.187-14.87-18.376-22.193c-3.1-3.656-6.253-7.263-9.568-10.695c-3.316-3.427-6.789-6.71-10.607-9.491
		c-3.806-2.76-8.024-5.037-12.568-5.86c-1.129-0.21-2.273-0.322-3.419-0.339c-1.264-0.037-2.314-0.056-3.48,0.074
		c-2.278,0.232-4.517,0.854-6.643,1.764c-4.268,1.822-8.073,4.692-11.516,7.904c-3.446,3.229-6.551,6.842-9.458,10.607
		c-5.803,7.555-10.838,15.71-15.647,23.985c-4.806,8.288-9.34,16.744-14.013,25.154c-2.338,4.206-4.708,8.402-7.235,12.53
		c-2.526,4.1-5.23,8.244-8.431,11.921c-12.229,14.979-26.467,28.352-42.094,39.735c-15.58,11.483-32.436,20.963-49.297,30.169
		c-16.942,9.094-33.979,17.914-50.591,27.571l-0.184-0.295c8.009-5.316,16.225-10.327,24.506-15.21
		c8.299-4.853,16.646-9.618,24.963-14.406c16.689-9.478,33.115-19.378,48.496-30.694c15.357-11.321,29.571-24.197,41.842-38.836
		c3.151-3.543,5.752-7.454,8.307-11.495c2.531-4.037,4.93-8.183,7.301-12.348c4.729-8.342,9.341-16.783,14.242-25.076
		c4.906-8.285,10.052-16.475,16.02-24.117c2.993-3.81,6.196-7.482,9.79-10.795c3.592-3.292,7.593-6.281,12.2-8.207
		c2.295-0.959,4.741-1.623,7.246-1.856c1.223-0.134,2.581-0.099,3.715-0.053c1.256,0.026,2.508,0.162,3.737,0.399
		c4.948,0.942,9.378,3.411,13.292,6.294c3.929,2.913,7.439,6.283,10.764,9.785c3.321,3.513,6.455,7.175,9.528,10.877
		c6.133,7.415,12.036,14.99,18.146,22.393c6.098,7.404,12.385,14.657,19.077,21.523c13.339,13.733,28.486,25.927,45.702,34.49
		L423.395,215.358z"/>
</g>


<g>
	<path fill="none" stroke="#FFFFFF" stroke-width="1.002" stroke-miterlimit="10" d="M306.35,474.524
		c10.9,0.783,7.775,17.248,14.663,20.725c3.92,1.979,11.182-1.477,15.97-0.434c4.559,0.992,10.004,3.273,13.521,6.42"/>
	<path fill="none" stroke="#FFFFFF" stroke-width="1.002" stroke-miterlimit="10" d="M311.8,471.797
		c6.931,4.74,10.464,7.438,11.993,15.811"/>
	<path fill="none" stroke="#FFFFFF" stroke-width="1.002" stroke-miterlimit="10" d="M328.154,500.69
		c-1.666-9.631,13.146-1.037,15.809,1.09"/>
	<path fill="none" stroke="#FFFFFF" stroke-width="1.002" stroke-miterlimit="10" d="M278.549,491.422
		c4.145-4.695,21.731,6.668,11.992,13.629"/>
	<path fill="none" stroke="#FFFFFF" stroke-width="1.002" stroke-miterlimit="10" d="M294.902,507.776
		c4.668-1.992,18.256,3.32,22.35,6.541"/>
	<path fill="none" stroke="#FFFFFF" stroke-width="1.002" stroke-miterlimit="10" d="M274.732,496.329
		c7.279,2.051,8.13,7.043,9.267,13.629"/>
	<path fill="none" stroke="#FFFFFF" stroke-width="1.002" stroke-miterlimit="10" d="M287.816,511.592
		c6.297-0.004,14.438-0.066,19.078,4.906"/>
	<path fill="none" stroke="#FFFFFF" stroke-width="1.002" stroke-miterlimit="10" d="M292.177,532.852
		c-3.789-2.398-9.68-4.777-14.11-5.492c-4.589-0.738-19.746-1.678-20.777,1.676"/>
</g>
<g>
	<path fill="none" stroke="#FFFFFF" stroke-width="1.002" stroke-miterlimit="10" d="M297.082,446.723
		c1.002,4.725,2.557,23.035-3.815,22.896"/>
	<path fill="none" stroke="#FFFFFF" stroke-width="1.002" stroke-miterlimit="10" d="M231.669,480.522
		c-0.11,4.395,1.371,8.348,1.09,12.779c-0.148,2.32,0.359,3.754-0.931,5.752c-1.414,2.189-4.377,2.336-3.43,3.816"/>
	<path fill="none" stroke="#FFFFFF" stroke-width="0.9174" stroke-miterlimit="10" d="M267.646,460.352
		c0.028,6.582,0.563,12.203,3.815,17.82"/>
</g>
<path id="line" fill="none" stroke="#333333" stroke-width="2" stroke-miterlimit="10" d="M300.725,306.006c0,0,94.266-43.964,170.839-116.126
	l0.588,4.673l31.326-0.098v-3.133c0,0,66.829,19.981,184.869-1.707l-0.406,4.743l31.232,0.216l0.323-3.446
	c0,0,58.058,17.132,96.558-1.368">
	
	
</path>

<circle fill="#FF9153" cx="0" cy="0" r="8">
	<animateMotion dur="1s"  begin="0s" repeatCount="indefinite" calcMode="linear">
	      <mpath xlink:href="#line" />
	</animateMotion>
</circle>

<circle fill="#FF9153" cx="0" cy="0" r="8">
	<animateMotion dur="1s"  begin="-2.5s" repeatCount="indefinite" calcMode="linear">
	      <mpath xlink:href="#line" />
	</animateMotion>
</circle>
	
<path fill="none" stroke="#333333" stroke-width="2" stroke-miterlimit="3.8637" d="M319.282,309.098
	c0,0,69.285-17.292,153.343-102.514v4.213l30.665,0.077l0.154-3.77c0,0,138.945,13.304,184.902-0.521l-0.357,4.523l31.263-0.353
	l0.235-3.526c0,0,57.066,11.531,89.316-4.219"/>
<g>
	<g>
		
			<rect x="901.86" y="348.784" transform="matrix(0.0222 -0.9998 0.9998 0.0222 546.296 1270.6982)" fill="#CCCCFF" width="41.835" height="14.555"/>
		
			<rect x="883.899" y="348.383" transform="matrix(0.0222 -0.9998 0.9998 0.0222 529.1536 1252.3577)" fill="#CCCCFF" width="41.833" height="14.556"/>
		<path fill="#353333" d="M895.09,331.34l-1.068,48.098l38.511,0.855l1.068-48.096L895.09,331.34z M896.357,332.499l35.927,0.801
			l-1.021,45.836l-35.927-0.797L896.357,332.499z"/>
		<g>
			<path fill="#9A5548" d="M914.32,332.899l-1.021,45.838l17.963,0.396l1.021-45.834L914.32,332.899z M915.98,334.946l14.552,0.322
				l-0.93,41.818l-14.552-0.32L915.98,334.946z"/>
			
				<rect x="901.862" y="355.773" transform="matrix(0.0222 -0.9998 0.9998 0.0222 546.3173 1270.7076)" fill="#031116" width="41.833" height="0.578"/>
			
				<rect x="923.126" y="351.554" transform="matrix(0.9998 0.0221 -0.0221 0.9998 7.9916 -20.3685)" fill="#031116" width="6.99" height="0.506"/>
			
				<rect x="922.952" y="360.095" transform="matrix(0.9998 0.0221 -0.0221 0.9998 8.1801 -20.3626)" fill="#031116" width="6.99" height="0.504"/>
			
				<rect x="915.58" y="351.332" transform="matrix(0.9998 0.0224 -0.0224 0.9998 8.091 -20.4622)" fill="#031116" width="6.988" height="0.504"/>
			
				<rect x="915.464" y="359.98" transform="matrix(0.9997 0.0226 -0.0226 0.9997 8.392 -20.7147)" fill="#031116" width="6.987" height="0.506"/>
			<path fill="#031116" d="M915.142,353.594l-0.115,5.191l0,0c-0.005,0.188-0.183,0.334-0.396,0.33
				c-0.214-0.004-0.384-0.16-0.379-0.348l0,0l0.114-5.193l0,0c0.004-0.188,0.18-0.332,0.396-0.33
				C914.976,353.25,915.146,353.405,915.142,353.594L915.142,353.594z"/>
		</g>
		<g>
			<g>
				<path fill="#9A5548" d="M896.357,332.499l-1.021,45.84l17.964,0.398l1.021-45.838L896.357,332.499z M898.018,334.547
					l14.554,0.322l-0.931,41.82l-14.552-0.324L898.018,334.547z"/>
				
					<rect x="883.939" y="355.39" transform="matrix(0.0222 -0.9998 0.9998 0.0222 529.1765 1252.4143)" fill="#031116" width="41.833" height="0.577"/>
				
					<rect x="905.182" y="351.1" transform="matrix(0.9998 0.0224 -0.0224 0.9998 8.0809 -20.2241)" fill="#031116" width="6.99" height="0.504"/>
				
					<rect x="904.989" y="359.697" transform="matrix(0.9998 0.0221 -0.0221 0.9998 8.1669 -19.9662)" fill="#031116" width="6.99" height="0.506"/>
				
					<rect x="897.599" y="350.986" transform="matrix(0.9998 0.0221 -0.0221 0.9998 7.9728 -19.8051)" fill="#031116" width="6.99" height="0.506"/>
				
					<rect x="897.5" y="359.578" transform="matrix(0.9997 0.0226 -0.0226 0.9997 8.3759 -20.3025)" fill="#031116" width="6.989" height="0.506"/>
			</g>
			<path fill="#031116" d="M913.354,353.551l-0.115,5.195l0,0c-0.004,0.188-0.182,0.334-0.396,0.328
				c-0.214-0.002-0.383-0.158-0.379-0.346l0,0l0.114-5.193l0,0c0.004-0.188,0.183-0.334,0.396-0.332
				C913.188,353.209,913.357,353.366,913.354,353.551L913.354,353.551z"/>
		</g>
	</g>
	<g>
		
			<rect x="825.542" y="252.792" transform="matrix(0.0222 -0.9998 0.9998 0.0222 567.6622 1100.5491)" fill="#CCCCFF" width="41.835" height="14.557"/>
		
			<rect x="807.6" y="252.399" transform="matrix(0.0222 -0.9998 0.9998 0.0222 550.5093 1082.2245)" fill="#CCCCFF" width="41.833" height="14.556"/>
		<path fill="#353333" d="M818.748,235.348l-1.068,48.098l38.512,0.854l1.068-48.092L818.748,235.348z M820.017,236.506
			l35.929,0.799l-1.02,45.838l-35.929-0.797L820.017,236.506z"/>
		<g>
			<path fill="#9A5548" d="M837.979,236.905l-1.018,45.839l17.965,0.398l1.02-45.838L837.979,236.905z M839.641,238.951
				l14.554,0.325l-0.932,41.819l-14.552-0.322L839.641,238.951z"/>
			
				<rect x="825.527" y="259.775" transform="matrix(0.0222 -0.9998 0.9998 0.0222 567.65 1100.5254)" fill="#031116" width="41.832" height="0.58"/>
			
				<rect x="846.791" y="255.57" transform="matrix(0.9998 0.0222 -0.0222 0.9998 5.8759 -18.7737)" fill="#031116" width="6.987" height="0.504"/>
			
				<rect x="846.613" y="264.114" transform="matrix(0.9998 0.0221 -0.0221 0.9998 6.0453 -18.7086)" fill="#031116" width="6.987" height="0.504"/>
			
				<rect x="839.24" y="255.363" transform="matrix(0.9998 0.0221 -0.0221 0.9998 5.8478 -18.5403)" fill="#031116" width="6.99" height="0.504"/>
			
				<rect x="839.034" y="263.976" transform="matrix(0.9998 0.0222 -0.0222 0.9998 6.0782 -18.653)" fill="#031116" width="6.989" height="0.504"/>
			<path fill="#031116" d="M838.802,257.6l-0.114,5.192l0,0c-0.006,0.188-0.182,0.336-0.396,0.329
				c-0.213-0.003-0.384-0.157-0.381-0.345l0,0l0.117-5.193l0,0c0.002-0.188,0.18-0.335,0.394-0.33
				C838.635,257.257,838.807,257.413,838.802,257.6L838.802,257.6z"/>
		</g>
		<g>
			<g>
				<path fill="#9A5548" d="M820.017,236.506l-1.02,45.84l17.964,0.398l1.018-45.839L820.017,236.506z M821.678,238.554
					l14.553,0.323l-0.932,41.82l-14.552-0.323L821.678,238.554z"/>
				
					<rect x="807.601" y="259.389" transform="matrix(0.0222 -0.9998 0.9998 0.0222 550.5095 1082.2246)" fill="#031116" width="41.832" height="0.577"/>
				
					<rect x="828.828" y="255.188" transform="matrix(0.9998 0.0219 -0.0219 0.9998 5.7858 -18.1423)" fill="#031116" width="6.988" height="0.505"/>
				
					<rect x="828.651" y="263.712" transform="matrix(0.9998 0.0221 -0.0221 0.9998 6.0313 -18.3095)" fill="#031116" width="6.988" height="0.506"/>
				
					<rect x="821.264" y="254.997" transform="matrix(0.9998 0.0222 -0.0222 0.9998 5.8744 -18.2604)" fill="#031116" width="6.989" height="0.505"/>
				
					<rect x="821.086" y="263.55" transform="matrix(0.9998 0.0221 -0.0221 0.9998 6.0276 -18.1476)" fill="#031116" width="6.986" height="0.504"/>
			</g>
			<path fill="#031116" d="M837.014,257.559l-0.114,5.195l0,0c-0.007,0.187-0.183,0.334-0.396,0.33
				c-0.214-0.005-0.385-0.161-0.381-0.35l0,0l0.114-5.191l0,0c0.006-0.187,0.183-0.336,0.396-0.331
				C836.848,257.218,837.018,257.371,837.014,257.559L837.014,257.559z"/>
		</g>
	</g>
	<g>
		
			<rect x="901.922" y="254.969" transform="matrix(0.023 -0.9997 0.9997 0.023 639.4373 1178.8086)" fill="#CCCCFF" width="41.829" height="14.557"/>
		
			<rect x="883.959" y="254.557" transform="matrix(0.023 -0.9997 0.9997 0.023 622.2999 1160.4473)" fill="#CCCCFF" width="41.829" height="14.555"/>
		<path fill="#353333" d="M895.128,237.575l-1.106,48.097l38.511,0.888l1.108-48.094L895.128,237.575z M896.394,238.734
			l35.928,0.828l-1.058,45.838l-35.924-0.827L896.394,238.734z"/>
		<g>
			<path fill="#9A5548" d="M914.357,239.148l-1.057,45.836l17.962,0.416l1.058-45.838L914.357,239.148z M916.016,241.197
				l14.554,0.334l-0.964,41.82l-14.553-0.334L916.016,241.197z"/>
			
				<rect x="901.945" y="261.964" transform="matrix(0.023 -0.9997 0.9997 0.023 639.4539 1178.8367)" fill="#031116" width="41.828" height="0.577"/>
			
				<rect x="923.228" y="257.82" transform="matrix(0.9997 0.0232 -0.0232 0.9997 6.2351 -21.4253)" fill="#031116" width="6.989" height="0.503"/>
			
				<rect x="923.043" y="266.368" transform="matrix(0.9997 0.0231 -0.0231 0.9997 6.3959 -21.299)" fill="#031116" width="6.986" height="0.505"/>
			
				<rect x="915.678" y="257.63" transform="matrix(0.9997 0.0228 -0.0228 0.9997 6.1118 -20.8676)" fill="#031116" width="6.989" height="0.504"/>
			
				<rect x="915.466" y="266.245" transform="matrix(0.9997 0.0229 -0.0229 0.9997 6.3491 -20.9909)" fill="#031116" width="6.988" height="0.506"/>
			<path fill="#031116" d="M915.162,259.842l-0.118,5.197l0,0c-0.004,0.184-0.183,0.332-0.397,0.328
				c-0.212-0.006-0.383-0.161-0.378-0.348l0,0l0.119-5.193l0,0c0.004-0.188,0.182-0.337,0.396-0.33
				C914.997,259.5,915.167,259.658,915.162,259.842L915.162,259.842z"/>
		</g>
		<g>
			<g>
				<path fill="#9A5548" d="M896.394,238.734l-1.054,45.839l17.962,0.411l1.057-45.836L896.394,238.734z M898.054,240.783
					l14.552,0.336l-0.963,41.817l-14.552-0.333L898.054,240.783z"/>
				
					<rect x="883.959" y="261.546" transform="matrix(0.023 -0.9997 0.9997 0.023 622.2999 1160.4473)" fill="#031116" width="41.829" height="0.576"/>
				
					<rect x="905.265" y="257.429" transform="matrix(0.9997 0.0229 -0.0229 0.9997 6.1452 -20.7623)" fill="#031116" width="6.987" height="0.507"/>
				
					<rect x="905.068" y="266.027" transform="matrix(0.9997 0.0226 -0.0226 0.9997 6.242 -20.4404)" fill="#031116" width="6.987" height="0.505"/>
				
					<rect x="897.699" y="257.25" transform="matrix(0.9997 0.0229 -0.0229 0.9997 6.1373 -20.5833)" fill="#031116" width="6.989" height="0.504"/>
				
					<rect x="897.487" y="265.847" transform="matrix(0.9997 0.0233 -0.0233 0.9997 6.4564 -20.9568)" fill="#031116" width="6.987" height="0.506"/>
			</g>
			<path fill="#031116" d="M913.374,259.806l-0.117,5.192l0,0c-0.006,0.185-0.184,0.332-0.396,0.326
				c-0.216-0.004-0.384-0.16-0.38-0.348l0,0l0.117-5.192l0,0c0.006-0.185,0.183-0.335,0.397-0.33
				C913.209,259.461,913.38,259.617,913.374,259.806L913.374,259.806z"/>
		</g>
	</g>
	<set id="show" attributeName="visibility" attributeType="CSS" to="visible" begin="1s; hide.end" dur="1s" fill="freeze"/>
	 
	 <set id="hide" attributeName="visibility" attributeType="CSS" to="hidden" begin="show.end" dur="1s" fill="freeze"/>
	
<!--house without light end-->	
</g>


<g>
	<polyline fill="#CECDCC" stroke="#230006" stroke-miterlimit="3.8637" points="302.114,338.639 302.114,384.417 250.69,368.713 
		251.162,322.444 	"/>
	<path fill="#CECDCC" stroke="#230006" stroke-miterlimit="3.8637" d="M251.162,322.444v7.594l50.709,12.955v-12.932
		c-1.548,1.211-2.798,2.473-3.005,4.494c-1.928-1.098-2.415-1.799-4.833-1.799c-0.359,0-1.471-0.5-1.83-0.5
		c-1.764,0-3.756-0.699-5.356-1.199c-2.448-0.771-2.318-0.299-4.834-0.998c-1.468-0.398-0.52-0.6-2.09-0.699l-1.697-0.102
		c-2.352-0.748-3.2-0.748-5.616-1.396c-1.635-0.451-3.007-1.301-4.574-1.801c-1.696-0.549-1.926,0.227-3.265-0.799
		c-0.329,0.197-1.536,0.1-1.958,0.1c-1.732,0-2.418-1.023-3.921-1.697l-3.788-0.701c-2.439-1.242-2.725-0.344-3.92-0.518
		L251.162,322.444z"/>
	<path fill="#B89760" stroke="#230006" stroke-miterlimit="3.8637" d="M347.299,327.307c-1.931-1.57-5.242-3.527-5.848-3.881
		l-0.051,10.049c0.457,0.338,0.551-0.738,1.289-0.523l0.465-1.367c0.117,0.064,0.217,0.104,0.365,0.104
		c0.385,0,0.584-0.053,0.967-0.053c0.833,0,0.883,0.971,1.716,0.971c0.332,0,0.299-0.32,0.499-0.514
		c0.682,0.168,1.014,0.422,1.665,0.641c-0.051-0.191-0.067-0.295-0.067-0.486c0.583,0.039,0.833,0.346,1.199,0.689
		c0.183-0.092,0.282-0.219,0.333-0.381c0.35,0.354,0.599,0.52,1.064,0.789v-0.318c0-1.059-0.799-1.541-1.465-2.459
		C348.532,329.317,348.565,328.336,347.299,327.307z"/>
	<path fill="none" stroke="#230006" stroke-miterlimit="3.8637" d="M251.184,329.959l50.688,12.977v-12.873
		c-1.548,1.211-2.798,2.471-3.005,4.492c-1.928-1.098-2.415-1.797-4.833-1.797c-0.359,0-1.471-0.5-1.83-0.5
		c-1.764,0-3.756-0.701-5.356-1.199c-2.448-0.771-2.318-0.299-4.834-0.998c-1.468-0.4-0.52-0.6-2.09-0.701l-1.697-0.1
		c-2.352-0.75-3.2-0.75-5.616-1.398c-1.635-0.449-3.007-1.299-4.574-1.799c-1.696-0.549-1.926,0.225-3.265-0.799
		c-0.329,0.197-1.536,0.098-1.958,0.098c-1.732,0-2.418-1.023-3.921-1.695l-3.788-0.703c-2.439-1.24-2.725-0.344-3.92-0.518
		L251.184,329.959L251.184,329.959z"/>
	<path fill="#CECDCC" stroke="#230006" stroke-miterlimit="3.8637" d="M341.277,357.877c-10.5,0.512-17.779,2.545-28.822,5.68
		c-3.981,1.115-6.951,0.988-10.584,1.377v3.879v5.268v2.734v7.604l1.11-0.281l38.21-9.711L341.277,357.877z"/>
	<path fill="#B89760" stroke="#230006" stroke-miterlimit="3.8637" d="M251.162,322.444c1.217,0.176,1.502-0.723,3.941,0.52
		l3.788,0.701c1.503,0.674,2.188,1.697,3.921,1.697c0.422,0,1.629,0.1,1.958-0.1c1.339,1.023,1.568,0.25,3.265,0.799
		c1.567,0.5,2.939,1.35,4.574,1.801c2.416,0.648,3.265,0.648,5.616,1.396l1.697,0.102c1.57,0.102,0.622,0.301,2.09,0.699
		c2.516,0.699,2.386,0.227,4.834,0.998c1.601,0.5,3.593,1.199,5.356,1.199c0.359,0,1.471,0.5,1.83,0.5
		c2.418,0,2.905,0.701,4.833,1.799c0.207-2.021,1.457-3.283,3.005-4.492c0.354-0.277,0.729-0.553,1.106-0.834
		c0.286-0.215,0.575-0.428,0.865-0.65c0.808-0.625,1.616-1.301,2.339-2.115c0.619-0.727,1.666-0.803,2.09-1.6
		c2.285-4.248,5.324-5.996,9.145-9.592c1.371-1.301,2.352-1.951,3.396-3.398c0.588-0.799,1.699-1.074,1.699-2
		c0-0.043-0.069-0.084-0.183-0.123c-0.144-0.053-0.354-0.094-0.587-0.133c-0.597-0.09-1.32-0.145-1.32-0.145
		c-4.149-0.521-6.24-1.498-10.321-1.996c-11.692-1.477-17.963-3.173-29.784-4.298c-4.018-0.374-6.173-1.101-10.19-1.101
		c-3.527,0-4.571,2.5-7.054,4.396c-2.516,1.926-4.834,2.225-7.185,4.297c-3.33,2.924-6.576,4.561-9.313,7.043
		c-1.075,0.977-2.072,2.082-2.967,3.451c0.687-0.201,5.748,0.396,5.748,0.396C250.174,322.167,250.729,322.375,251.162,322.444z"/>
	<path fill="#CECDCC" stroke="#230006" stroke-miterlimit="3.8637" d="M341.277,357.877l0.123-24.402l0.051-10.049
		c-6.529-3.906-9.372-6.631-15.283-11.152c0,0-2.71-1.424-4.05-2.801l-0.376,0.146c0.414,0.066,0.77,0.152,0.77,0.256
		c0,0.924-1.111,1.201-1.699,2c-1.045,1.447-2.025,2.098-3.396,3.396c-3.82,3.596-6.859,5.344-9.145,9.592
		c-0.424,0.799-1.471,0.875-2.09,1.6c-0.722,0.814-1.531,1.492-2.339,2.117c-0.29,0.223-0.579,0.436-0.865,0.65
		c-0.378,0.279-0.752,0.557-1.106,0.832v12.93v4.775v3.326v0.322v0.236v12.551v0.73c3.633-0.391,6.603-0.264,10.584-1.377
		C323.498,360.422,330.777,358.389,341.277,357.877z"/>
	<polygon fill="#FFFFFF" stroke="#230006" stroke-miterlimit="3.8637" points="266.731,342.42 266.517,334.075 258.026,331.975 
		258.242,340.016 	"/>
	<polygon fill="#FFFFFF" stroke="#230006" stroke-linejoin="bevel" stroke-miterlimit="3.8637" points="327.968,334.997 
		327.752,326.653 319.895,329.223 320.11,337.264 	"/>
	<polygon fill="#FFFFFF" stroke="#230006" stroke-miterlimit="3.8637" points="298.344,381.924 299.084,354.079 289.548,351.977 
		288.809,379.528 	"/>
</g>
<!--<polygon fill="#FF9153" points="10.051,26.311 21.256,19.672 25.824,23.617 34.909,11.498 25.056,20.594 20.852,17.292 "/>
<circle fill="#FF9153" cx="22.387" cy="38.594" r="6"/>-->

<!--water flow1-->

<g id ="animIdforSet">
	<g>
		<path fill="none" stroke="#FFFFFF" stroke-width="0.9976" stroke-miterlimit="10" d="M88.706,351.782
			c9.022,0,20.403-0.193,28.635,3.109c4.573,1.835,7.628,4.501,6.149,8.721c-2.192,6.267-6.45,4.95-11.203,6.541"/>
		<path fill="none" stroke="#FFFFFF" stroke-width="0.9976" stroke-miterlimit="10" d="M131.367,355.023
			c7.075-0.084,8.868,10.989,4.89,15.21c-3.21,3.402-13.386,4.977-17.973,6.943"/>
	</g>
	<g>
		<path fill="none" stroke="#FFFFFF" stroke-width="0.9976" stroke-miterlimit="10" d="M97.57,390.681
			c-4.021-1.756-12.133,7.085-15.238,9.838c-3.324,2.946-6.566,5.914-10.253,8.557c-1.936,1.386-7.074,3.447-8.233,5.393
			c-5.035,8.44,17.932,6.84,23.368,8.092"/>
		<path fill="none" stroke="#FFFFFF" stroke-width="0.9976" stroke-miterlimit="10" d="M107.382,372.312
			c-3.384,10.743-25.962,10.695-34.888,16.208"/>
		<path fill="none" stroke="#FFFFFF" stroke-width="0.9976" stroke-miterlimit="10" d="M68.134,396.625
			c-4.332,0.575-14.001,6.803-17.322,10.386c-2.654,2.863-4.727,6.702-3.938,10.685"/>
		<path fill="none" stroke="#FFFFFF" stroke-width="0.9976" stroke-miterlimit="10" d="M47.964,423.098
			c3.98,0.55,7.128,8.481,10.348,11.358c5.168,4.614,11.091,5.641,17.793,5.944c8.692,0.394,17.047,0.569,25.281,3.231"/>
	</g>
	<g>
		<path fill="none" stroke="#FFFFFF" stroke-width="0.9976" stroke-miterlimit="10" d="M103.021,406.891
			c-8.92,4.749-0.021,18.395,5.754,20.65c10.465,4.086,23.445,2.582,34.586,2.582"/>
		<path fill="none" stroke="#FFFFFF" stroke-width="0.9976" stroke-miterlimit="10" d="M164.074,430.124
			c4.209-0.501,7.983,1.551,12.05,2.229c4.723,0.786,9.748,0.481,14.523,0.474c7.644-0.015,15.407-0.404,23.04,0
			c8.913,0.473,18.28,4.037,26.157,8.104"/>
		<path fill="none" stroke="#FFFFFF" stroke-width="0.9976" stroke-miterlimit="10" d="M116.647,446.333
			c13.378,10.419,25.589,7.784,41.565,8.646c5.661,0.306,11.208,1.399,16.762,2.836c5.493,1.423,10.711,4.663,15.811,5.808"/>
		<path fill="none" stroke="#FFFFFF" stroke-width="0.9976" stroke-miterlimit="10" d="M147.722,437.149
			c4.897-0.286,12.008,4.251,17.263,5.52c5.013,1.207,9.986,1.354,15.033,2.058c5.813,0.809,11.473,1.717,17.256,3.08
			c8.104,1.908,29.649,3.199,31.669,13.113"/>
		<path fill="none" stroke="#FFFFFF" stroke-width="0.9976" stroke-miterlimit="10" d="M243.116,433.907
			c3.997-1.261,13.084,7.871,14.718,11.886"/>
		<path fill="none" stroke="#FFFFFF" stroke-width="0.9976" stroke-miterlimit="10" d="M156.441,435.527
			c12.29,7.023,32.668,5.438,46.442,7.027c7.386,0.848,14.928,2.433,22.364,3.358c6.223,0.774,9.003,2.687,12.961,7.443"/>
	</g>
	<g>
		<path fill="none" stroke="#FFFFFF" stroke-width="0.9976" stroke-miterlimit="10" d="M47.749,304.533
			c-8.545,6.802-22.584,6.517-27.525,17.052"/>
		<path fill="none" stroke="#FFFFFF" stroke-width="0.9976" stroke-miterlimit="10" d="M10.885,332.303
			c-1.431,8.706,10.538,13.726,17.204,13.641"/>
	</g>

	<set id="show" attributeName="visibility" attributeType="CSS" to="visible" begin="-3s; hide.end" dur="3s" fill="freeze"/>
	 
	 <set id="hide" attributeName="visibility" attributeType="CSS" to="hidden" begin="show.end" dur="3s" fill="freeze"/>	

	
</g>



<!--water flow2-->
<g id ="animIdforSet">
	<g>
		<path fill="none" stroke="#FFFFFF" stroke-width="0.9976" stroke-miterlimit="10" d="M86.706,352.782
			c9.022,0,20.403-0.193,28.635,3.109c4.573,1.835,7.628,4.501,6.149,8.721c-2.192,6.267-6.45,4.95-11.203,6.541"/>
		<path fill="none" stroke="#FFFFFF" stroke-width="0.9976" stroke-miterlimit="10" d="M129.367,356.023
			c7.075-0.084,8.868,10.989,4.89,15.21c-3.21,3.402-13.386,4.977-17.973,6.943"/>
	</g>
	<g>
		<path fill="none" stroke="#FFFFFF" stroke-width="0.9976" stroke-miterlimit="10" d="M95.57,391.681
			c-4.021-1.756-12.133,7.085-15.238,9.838c-3.324,2.946-6.566,5.914-10.253,8.557c-1.936,1.386-7.074,3.447-8.233,5.393
			c-5.035,8.44,17.932,6.84,23.368,8.092"/>
		<path fill="none" stroke="#FFFFFF" stroke-width="0.9976" stroke-miterlimit="10" d="M105.382,373.312
			c-3.384,10.743-25.962,10.695-34.888,16.208"/>
		<path fill="none" stroke="#FFFFFF" stroke-width="0.9976" stroke-miterlimit="10" d="M66.134,397.625
			c-4.332,0.575-14.001,6.803-17.322,10.386c-2.654,2.863-4.727,6.702-3.938,10.685"/>
		<path fill="none" stroke="#FFFFFF" stroke-width="0.9976" stroke-miterlimit="10" d="M45.964,424.098
			c3.98,0.55,7.128,8.481,10.348,11.358c5.168,4.614,11.091,5.641,17.793,5.944c8.692,0.394,17.047,0.569,25.281,3.231"/>
	</g>
	<g>
		<path fill="none" stroke="#FFFFFF" stroke-width="0.9976" stroke-miterlimit="10" d="M101.021,407.891
			c-8.92,4.749-0.021,18.395,5.754,20.65c10.465,4.086,23.445,2.582,34.586,2.582"/>
		<path fill="none" stroke="#FFFFFF" stroke-width="0.9976" stroke-miterlimit="10" d="M162.074,431.124
			c4.209-0.501,7.983,1.551,12.05,2.229c4.723,0.786,9.748,0.481,14.523,0.474c7.644-0.015,15.407-0.404,23.04,0
			c8.913,0.473,18.28,4.037,26.157,8.104"/>
		<path fill="none" stroke="#FFFFFF" stroke-width="0.9976" stroke-miterlimit="10" d="M114.647,447.333
			c13.378,10.419,25.589,7.784,41.565,8.646c5.661,0.306,11.208,1.399,16.762,2.836c5.493,1.423,10.711,4.663,15.811,5.808"/>
		<path fill="none" stroke="#FFFFFF" stroke-width="0.9976" stroke-miterlimit="10" d="M145.722,438.149
			c4.897-0.286,12.008,4.251,17.263,5.52c5.013,1.207,9.986,1.354,15.033,2.058c5.813,0.809,11.473,1.717,17.256,3.08
			c8.104,1.908,29.649,3.199,31.669,13.113"/>
		<path fill="none" stroke="#FFFFFF" stroke-width="0.9976" stroke-miterlimit="10" d="M241.116,434.907
			c3.997-1.261,13.084,7.871,14.718,11.886"/>
		<path fill="none" stroke="#FFFFFF" stroke-width="0.9976" stroke-miterlimit="10" d="M154.441,436.527
			c12.29,7.023,32.668,5.438,46.442,7.027c7.386,0.848,14.928,2.433,22.364,3.358c6.223,0.774,9.003,2.687,12.961,7.443"/>
	</g>
	<g>
		<path fill="none" stroke="#FFFFFF" stroke-width="0.9976" stroke-miterlimit="10" d="M45.749,305.533
			c-8.545,6.802-22.584,6.517-27.525,17.052"/>
		<path fill="none" stroke="#FFFFFF" stroke-width="0.9976" stroke-miterlimit="10" d="M8.885,333.303
			c-1.431,8.706,10.538,13.726,17.204,13.641"/>
	</g>
	
		
	
</g>
</svg>
