selector,english_word,engmeaning,nepali_word,nepmeaning,image
stables,stable,,तबेला,घोडा बस्ने ठाउँ,
kennels,kennel,,,कुकुरको खोर,
dens,den,,गुफा,जङ्गली जनावर बस्ने ओडार,
spins,spin,,बुन्नु,माकुराले जालो बुन्नु,
cobwebs,,,माकुराको जालो,,
burrows,burrow,,दुलो,खरायो बस्ने दुलो,
