selector,english_word,engmeaning,nepali_word,nepmeaning,image
imagining,imagine,,,कल्पना गर्नु,
skinny,skinny,very thin,दुब्‍लो; पातलो,,
bold,bold ,,निडर,नडराउने,
rush,rush,,हतार,,
imaginary,imaginary,,काल्पनिक,,
wander,wander,,,यता उता डुल्‍नु ; कहाँ जाने भनेर नसोची हिँड्नु,
