selector,english_word,engmeaning,nepali_word,nepmeaning,image
तथ्यहरू,,fact,तथ्य,साँचो कुरा,
प्रतिक्रिया,,reaction,प्रतिक्रिया,,
प्रभाव,,effect,प्रभाव,असर पर्नु,
निष्‍काशन,,remove,निष्‍काशन,निकाल्नु/ हटाउनु,
प्रकाश संश्लेषण,,photosynthesis,प्रकाश संश्लेषण,बिरुवाले खाना बनाउने प्रक्रिया ,
जीवाणु,,,जीवाणु,सूक्ष्मदर्शक यन्‍त्र मात्र देख्‍न सकिने जीव,
प्रजातिहरू,,,प्रजाति,एउटै मूल जातिभित्रका सन्तान,
सजीव,,,सजीव,जीवित,
चाल,,,चाल,चल्ने वा हिँड्ने काम,
श्‍वासप्रश्‍वास,respiration,th process of breathing in oxygen and breathing out carbon dioxide,श्‍वासप्रश्‍वास,सास फेर्नु,
चेतना,sensitivity,response to the environment,चेतना,चेत भएको,
निष्‍काशन क्रिया,excretion,removal of waste products,निष्‍काशन क्रिया,विकार वस्तु निस्कनु,
स्तनधारी,mammal,animals that directly give birth to babies,स्तनधारी,बच्‍चालाई दुध चुसाउने जनावर,
सोँस,dolphin,,सोँस,पानीमा बस्ने एक प्रकारको स्तनधारी जन्तु,
रूपान्तर,convert,,रूपान्तर,अर्को रूपमा लैजाने वा उल्थ्याउने काम,
संश्लेषण,,,संश्लेषण,सोस्‍नु,
वस्‍यक,adult,,वस्‍यक,,
अस्‍तित्व,existence,,अस्‍तित्व,बाँचेको अवस्था,
गर्भाधान,pregnancy,,गर्भाधान,पेटभित्र बच्‍चा भएको अवस्था,
