selector,english_word,engmeaning,nepali_word,nepmeaning,image
र्‍याक ,,,र्‍याक ,"काठ, चोया, बेत वा बाँसले बनेको दराज",
ग्लोब ,,,ग्लोब ,गोलाकार रूपमा बनाएको विश्वको नक्सा,
पेन्टिङ ब्रस ,,,पेन्टिङ ब्रस ,चित्रमा रङ पोत्न प्रयोग गरिने एक किसिमको औजार,
ल्यापटप ,,,ल्यापटप ,कम्प्युटर,
कुशल ,,,कुशल ,काम राम्रोसँग गर्न सक्ने; क्षमतावान,
गृहिणी ,,,गृहिणी ,घरको काम र जिम्मेवारी सम्हालेर बस्ने महिला,
जिम्मेवारी ,,,जिम्मेवारी ,कामको जिम्मा पाएको अवस्था,
व्यापारी ,,,व्यापारी ,नाफा कमाउन वस्तु वा सेवा किन्ने र बेच्ने काम गर्ने मानिस,
हुलाकी ,,,हुलाकी ,चिट्ठीपत्र ओसारपसार गर्ने काम जिम्मा लिएको मानिस,
प्रहरी ,,,प्रहरी ,शान्ति र सुरक्षाको व्यवस्था गर्ने व्यक्ति; पुलिस,
नर्स ,,,नर्स ,बिरामीको हेरचाह गर्न खटिएका डाक्टरहरूका सहायक कर्मचारी,
इन्जिनियर ,,,इन्जिनियर ,"सडक, भवन आदिको नक्सा कोर्ने व्यक्ति",
शारीरिक ,,,शारीरिक ,शरीरसँग सम्बन्ध भएको,
मानसिक ,,,मानसिक ,मन तथा दिमागसँग सम्बन्धित,
