selector,english_word,engmeaning,nepali_word,nepmeaning,image
future,future,,भविष्य,,
winter vacation,winter vacation,,जाडोको छुट्टी,,
swim,swim,,तैरन,paudi khelnu,
indicates,indicate,,संकेत गर्दछ,sanket garnu,
earlier,earlier,,पहिले,pahilo,
celebrate,celebrate,,मनाउनु,,
barked,bark,,भुक्नु,,
