selector,english_word,engmeaning,nepali_word,nepmeaning,image
चाख,,,चाख,"रूची, चासो लाग्‍नु",
ब्रह्माण्डको,,,ब्रह्माण्ड,"सूर्य, ग्रह, तारा आदिले बनेको जगत",
आत्मविश्‍वास,,,आत्मविश्‍वास,आफूभित्रको विश्‍वास,
अटेरी,,,अटेरी,भनेका कुरा नमान्‍नु,
व्यक्तित्वमा,,,व्यक्तित्व,मानिसमा हुने गुण,
