<svg version="1.1" id="Layer_1" xmlns="http://www.w3.org/2000/svg" xmlns:xlink="http://www.w3.org/1999/xlink" x="0px" y="0px"
	 width="210.877px" height="125.207px" viewBox="962.205 253.249 210.877 125.207" preserveAspectRatio='none'>
	<rect x="962.205" y="253.249" fill="#231F20" width="210.877" height="50.522"/>
	<rect x="962.205" y="327.934" fill="#231F20" width="210.877" height="50.522"/>
</svg>
