<svg version="1.1" id="Layer_1" xmlns="http://www.w3.org/2000/svg" xmlns:xlink="http://www.w3.org/1999/xlink" x="0px" y="0px"
	 width="164.748px" height="164.748px" viewBox="172.514 198.881 164.748 164.748" preserveAspectRatio='none'>
<polygon fill="#231F20" points="337.262,255.446 280.697,255.446 280.697,198.881 229.078,198.881 229.078,255.446 172.514,255.446 
	172.514,307.066 229.078,307.066 229.078,363.629 280.697,363.629 280.697,307.066 337.262,307.066 "/>
</svg>
