<?xml version="1.0" encoding="utf-8"?>
<!-- Generator: Adobe Illustrator 15.0.0, SVG Export Plug-In . SVG Version: 6.00 Build 0)  -->
<!DOCTYPE svg PUBLIC "-//W3C//DTD SVG 1.1//EN" "http://www.w3.org/Graphics/SVG/1.1/DTD/svg11.dtd">
<svg version="1.1" id="Layer_1" xmlns="http://www.w3.org/2000/svg" xmlns:xlink="http://www.w3.org/1999/xlink" x="0px" y="0px"
	 width="741.215px" height="816.38px" viewBox="0 0 741.215 816.38" enable-background="new 0 0 741.215 816.38"
	 xml:space="preserve">
<path fill="#FFFFCC" stroke="#F58220" stroke-width="0.782" stroke-miterlimit="10" d="M296.939,51.295
	c-1.213,1.916-2.254-1.394-2.601-2.613c-0.346-1.219-4.334-2.961-5.547-3.832c-1.214-0.871-2.428-1.917-2.602-3.135
	c-0.173-1.219-5.027-5.052-5.721-6.619s-3.987-0.174-6.935,0c-2.946,0.174-6.935,0-8.321,0s-5.721,2.787-7.455,4.006
	s-11.269,7.141-13.003,8.186c-1.733,1.045-7.801,2.439-12.308,2.439c-4.508,0-4.682-0.522-9.362-1.568
	c-4.681-1.044-8.148-3.831-11.442-4.876c-3.293-1.045-4.16-5.4-5.374-6.271c-1.214-0.87-4.161,1.394-6.935,2.265
	s-3.12-1.394-3.294-3.832c-0.173-2.438-2.774-2.439-5.027-4.529c-2.254-2.09,1.213-3.309,2.08-5.399
	c0.867-2.09-0.521-1.394-0.867-6.619s-11.095-9.231-13.002-9.406c-1.907-0.174-2.254-2.264-2.427-4.354
	c-0.174-2.091-5.028-2.439-8.148-3.31c-3.121-0.871-4.854,2.09-4.854,2.09l-0.866-0.522c0,0-3.295-1.916-5.549-2.787
	s-1.906,1.045-2.426,2.961c-0.521,1.916-2.428,0-3.468,0s-2.427,0.522-4.161,1.219c-1.733,0.696-6.067,1.567-7.454,1.394
	c-1.388-0.174-5.201,0.522-4.681,1.045c0.52,0.522,2.6,3.135-1.041,3.832c-3.641,0.696-6.414,0-11.615,0s-5.027,0.871-5.201,2.438
	c-0.174,1.568-1.906,2.265-3.12,4.181s-3.814,5.051-6.588,6.967s-2.774,2.09-4.335,4.529c-1.561,2.438-1.387,5.051,0,8.36
	c1.387,3.311,3.295,1.046,7.976,1.22c4.681,0.174,5.894-0.697,5.894,0.349s0,4.528,3.121,6.619c3.121,2.09,4.854,0.522,8.494,1.742
	c3.642,1.22,6.762,1.219,5.375,2.787s-4.508,5.226-0.866,6.793c3.641,1.567,5.721,1.741,8.841,3.309
	c3.121,1.568,2.428,1.917,1.388,4.18c-1.041,2.265-2.948,3.833-4.854,4.703c-1.907,0.871-5.201,2.613-5.721,4.355
	c-0.521,1.742-1.387,5.922-1.387,5.922s-1.388-1.394-2.428-1.045s-3.641,3.135-3.641,5.051c0,1.916,0.521,3.483,1.387,6.968
	s1.733,9.929,1.906,14.805c0.174,4.877,0.521,9.581,0.521,12.716c0,3.136,1.907,6.793,7.281,9.231
	c5.375,2.438,3.294,2.265,8.495,4.355s6.068,3.658,8.495,4.006c2.428,0.348,3.294-1.916,3.294-0.871s-0.867,4.528,0.693,8.013
	s3.641,0.522,8.669,0.522c5.027,0,3.813,2.786,7.28,4.181c1.206,0.484,1.883,0.84,2.368,1.064c0.911,0.42,1.137,0.375,2.833-0.194
	c2.601-0.87,2.08-1.219,4.334-2.612c2.255-1.394,3.295-1.742,5.722-3.833c0.227-0.194,0.415-0.381,0.587-0.564
	c0.033-0.035,0.067-0.07,0.098-0.105c0.157-0.174,0.292-0.344,0.406-0.511c0.021-0.032,0.041-0.064,0.063-0.096
	c0.104-0.162,0.194-0.322,0.266-0.479c0.004-0.01,0.011-0.02,0.015-0.029c0.071-0.163,0.122-0.322,0.163-0.48
	c0.009-0.033,0.019-0.067,0.025-0.1c0.035-0.152,0.059-0.302,0.071-0.453c0.003-0.032,0.005-0.063,0.007-0.095
	c0.008-0.14,0.012-0.279,0.008-0.419c-0.002-0.02,0-0.039-0.002-0.059c-0.004-0.151-0.018-0.303-0.03-0.456
	c-0.006-0.063-0.011-0.126-0.018-0.189c-0.001-0.014-0.002-0.028-0.004-0.042c-0.012-0.12-0.024-0.241-0.036-0.362
	c-0.031-0.309-0.058-0.626-0.058-0.96c0-1.916-1.561-4.007-2.428-5.574c-0.867-1.568,1.388,0.174,2.601-0.349
	c1.213-0.522,5.548-2.265,6.935-4.354c1.387-2.09,3.641-4.181,7.802-4.354c4.16-0.173,5.201-0.522,6.588-1.22
	c1.387-0.697,1.561,3.483,4.334,5.922c2.773,2.439,6.241,3.483,9.709,5.574c3.467,2.09,2.427-0.348,5.721-1.742
	s5.201-0.522,6.934,2.09c1.734,2.613,2.254,7.838,4.682,7.315c2.427-0.522,7.107-2.961,7.975-5.051
	c0.867-2.091,0.347,6.445,2.081,8.013c0.914,0.827,1.395,0.294,1.924-0.57c0.475-0.775,0.988-1.815,1.89-2.392
	c1.907-1.22,3.988-3.483,4.681-2.961c0.694,0.523,1.561,4.878,3.468,8.884s1.387,1.742,5.027,1.567
	c3.641-0.174,2.947-4.006,4.508-5.051s4.854-0.872,6.241-1.22c1.387-0.348,3.813-2.09,3.12-3.832s-1.04-3.483-2.947-5.399
	c-1.907-1.916-3.293-5.574-3.293-5.574s1.732-3.483-0.174-4.354s-4.161-0.522-5.375-2.265s-3.12-3.31-4.681-5.4
	c-1.561-2.09,0.174-4.354,1.214-4.354c1.041,0,1.734-1.568,1.561-5.748s-2.774-5.052-3.121-6.793
	c-0.346-1.741,1.041-0.871,3.987-1.22c2.947-0.348,2.947,0.349,6.589,0.697c3.64,0.349,1.906-0.349,3.64-1.917
	s1.733-12.019,1.733-12.019s3.814,0.872,4.855-0.173c1.04-1.045,2.08-4.007,3.12-4.878c1.04-0.87,3.294-0.348,4.507-1.567
	c1.214-1.22,1.734-2.09,3.121-4.355s0.693-6.271,1.387-7.141s1.561-9.581,1.561-13.238
	C301.794,47.811,298.153,49.378,296.939,51.295z"/>
<path fill="#FFFFCC" stroke="#F58220" stroke-width="0.782" stroke-miterlimit="10" d="M212.164,190.641
	c-0.313-0.158-0.597-0.277-0.864-0.378c-0.039-0.015-0.08-0.032-0.117-0.045c-0.246-0.089-0.472-0.157-0.681-0.21
	c-0.042-0.01-0.084-0.022-0.125-0.031c-0.196-0.046-0.38-0.081-0.544-0.106c-0.044-0.007-0.084-0.012-0.127-0.018
	c-0.127-0.018-0.248-0.032-0.356-0.045c-0.164-0.018-0.307-0.036-0.433-0.061c-0.014-0.002-0.027-0.004-0.039-0.007
	c-0.106-0.022-0.199-0.053-0.283-0.095c-0.013-0.006-0.025-0.014-0.038-0.021c-0.079-0.046-0.151-0.105-0.214-0.186
	c-0.007-0.009-0.014-0.021-0.02-0.031c-0.063-0.089-0.119-0.197-0.166-0.34c-0.061-0.178-0.11-0.403-0.153-0.69
	c-0.347-2.265,0.692-6.271-1.907-7.838c-2.602-1.567-3.988-2.438-4.334-3.832c-0.347-1.394-0.867-0.174-1.734,1.219
	c-0.867,1.393-3.294,1.742-3.813,1.394c-0.521-0.349-3.121-8.187-4.681-12.367c-1.561-4.181-2.254-6.445-4.335-8.884
	c-2.08-2.438-3.12-2.438-4.507-4.877c-1.388-2.438,1.561-3.832,3.641-5.574s2.427-3.135,2.427-5.748
	c-2.427,2.09-3.467,2.439-5.722,3.833c-2.254,1.393-1.733,1.742-4.334,2.612c-1.696,0.568-1.922,0.614-2.833,0.194
	c-0.224,0.68-0.443,1.403-0.656,2.221c-1.089,4.193-0.545,1.641-2.904,3.282c-2.36,1.641-3.993,1.277-8.167,2.371
	c-4.175,1.094-9.075,7.111-10.709,8.934c-1.633,1.824,0.727,2.189,1.634,4.742c0.907,2.553,1.997,3.829,1.634,4.924
	c-0.363,1.094-2.903,1.823-2.723,6.2c0.182,4.376,3.63,2.917,3.63,4.74s-4.537,0.365-6.353,3.465
	c-1.814,3.101-5.807,8.023-8.711,12.035s-3.993,2.917-3.268,6.747c0.695,3.668,0.724,3.492,0.086,4.913
	c-0.027,0.063-0.055,0.123-0.086,0.192c-0.727,1.641-1.27,2.371-0.907,3.829c0.364,1.458,4.901,1.277,11.253,1.641
	c2.483,0.142,3.489,0.452,3.986,0.733c0.775,0.438,0.305,0.806,2.185,0.361c0.194-0.046,0.378-0.087,0.552-0.125h0.001l0,0
	c2.606-0.561,3.202-0.239,5.073-0.239c1.996,0,5.445,2.188,7.441,3.829s2.178,4.012,3.63,6.747s0.726-0.365,1.634-2.006
	c0.907-1.641,2.54-3.1,3.992-3.465c1.452-0.364,1.634,1.095,4.355,0.365c2.723-0.73,2.36-1.641,3.812-1.094
	c1.452,0.547,1.634,2.188,4.175,1.641c2.541-0.547,4.355-1.458,5.444-3.829c1.089-2.372,0.908-4.012,2.179-5.835
	c1.27-1.823,3.447-2.371,4.355-1.642c0.907,0.729,2.359,1.642,3.992,1.095c1.635-0.547,0.727-3.648,1.635-5.653
	c0.907-2.005,1.27-2.371,1.814-3.283c0.544-0.911,4.719,0,4.719,0s0,0-0.182-2.553s1.814-5.835,2.904-6.564
	c0.409-0.274,1-0.937,1.575-1.656C217.459,194.085,214.761,191.945,212.164,190.641z"/>
<polygon fill="#FFFFCC" stroke="#F58220" stroke-width="0.782" stroke-miterlimit="10" points="225.729,205.737 225.729,205.737 
	225.729,205.737 "/>
<path fill="#FFFFCC" stroke="#F58220" stroke-width="0.782" stroke-miterlimit="10" d="M266.418,179.549
	c-0.48-1.066-0.97-2.265-1.378-3.54c-1.561-4.877-4.334-1.567-4.681-5.748c-0.346-4.18,1.387-9.057,0.347-12.019
	c-1.04-2.961-2.08-4.181-3.641-6.619s-3.294-4.181-2.6-6.097c0.261-0.723,0.498-1.991,0.71-3.356
	c-0.529,0.864-1.01,1.396-1.924,0.57c-1.734-1.567-1.214-10.104-2.081-8.013c-0.867,2.09-5.548,4.528-7.975,5.051
	c-2.428,0.522-2.947-4.703-4.682-7.315c-1.732-2.613-3.64-3.484-6.934-2.09s-2.254,3.833-5.721,1.742
	c-3.468-2.09-6.936-3.134-9.709-5.574c-2.773-2.439-2.947-6.619-4.334-5.922c-1.387,0.697-2.428,1.046-6.588,1.22
	c-4.161,0.173-6.415,2.264-7.802,4.354c-1.387,2.09-5.722,3.832-6.935,4.354c-1.213,0.523-3.468-1.219-2.601,0.349
	c0.867,1.567,2.428,3.658,2.428,5.574c0,0.334,0.026,0.651,0.058,0.96c0.145,1.462,0.386,2.712-1.618,4.438
	c0,2.613-0.347,4.006-2.427,5.748s-5.028,3.135-3.641,5.574c1.387,2.439,2.427,2.438,4.507,4.877
	c2.081,2.439,2.774,4.703,4.335,8.884c1.56,4.18,4.16,12.019,4.681,12.367c0.52,0.349,2.946-0.001,3.813-1.394
	c0.867-1.394,1.388-2.613,1.734-1.219c0.346,1.394,1.732,2.264,4.334,3.832c2.6,1.568,1.561,5.574,1.907,7.838
	c0.043,0.288,0.093,0.512,0.153,0.69c0.408,1.226,1.283,0.206,4.007,1.574c2.597,1.304,5.295,3.444,6.732,4.932
	c0.291,0.3,0.548,0.583,0.723,0.816c1.04,1.393,2.253,6.619,2.253,6.619s2.247,1.992,3.856,2.729h0.001
	c0.232,0.106,0.453,0.188,0.65,0.232c1.324,0.295,4.64,0.712,6.675-0.019c0.363-0.13,0.69-0.292,0.953-0.504
	c0.06-0.047,0.114-0.085,0.171-0.128c1.618-1.206,2.441-0.519,2.776-4.052c0.046-0.48,0.072-0.972,0.087-1.469
	c0.01-0.285,0.01-0.576,0.012-0.866c0.002-0.197,0.006-0.393,0.006-0.591c-0.005-1.137-0.036-2.304-0.039-3.482
	c-0.004-1.806,0.066-3.638,0.455-5.436c0.866-4.006,1.907-5.748,4.854-6.445c2.947-0.697,4.508-1.742,7.975-1.742
	c3.468,0,7.455,0.697,11.963,1.045c4.508,0.348,4.681,0.697,5.895,1.568C269.058,184.491,267.777,182.564,266.418,179.549z"/>
<path fill="#FFFFCC" stroke="#F58220" stroke-width="0.782" stroke-miterlimit="10" d="M226.38,205.969
	c-0.197-0.044-0.418-0.125-0.651-0.232c-1.609-0.738-3.856-2.729-3.856-2.729s-1.213-5.226-2.253-6.619
	c-0.175-0.234-0.432-0.516-0.723-0.816c-0.575,0.719-1.166,1.381-1.575,1.656c-1.09,0.729-3.086,4.012-2.904,6.564
	s0.182,2.553,0.182,2.553s-4.175-0.911-4.719,0c-0.545,0.912-0.907,1.277-1.814,3.283c-0.908,2.005,0,5.106-1.635,5.653
	c-1.633,0.547-3.085-0.366-3.992-1.095c-0.908-0.729-3.086-0.181-4.355,1.642c-1.271,1.823-1.09,3.463-2.179,5.835
	c-1.089,2.371-2.903,3.282-5.444,3.829c-2.541,0.547-2.723-1.094-4.175-1.641c-1.451-0.547-1.089,0.364-3.812,1.094
	c-2.722,0.73-2.903-0.729-4.355-0.365c-1.452,0.365-3.085,1.824-3.992,3.465c-0.908,1.641-0.182,4.741-1.634,2.006
	s-1.634-5.106-3.63-6.747s-5.445-3.829-7.441-3.829c-1.871,0-2.467-0.321-5.073,0.239c-0.175,0.038-0.358,0.079-0.553,0.125
	c-1.88,0.444-1.409,0.076-2.185-0.361c-0.289,1.725-0.367,3.371,0.181,4.079c1.376,1.779,1.18,3.556,1.573,6.125
	c0.394,2.567-0.197,4.148,1.572,5.136s5.702,1.382,8.455,2.766c2.753,1.383,5.506-0.395,7.668,1.186
	c2.163,1.58,3.539,3.16,4.522,6.321s2.359,3.358,1.967,6.717c-0.394,3.358-1.377,5.531,0.393,7.309
	c1.77,1.778,2.556,2.174,5.309,3.754s5.899,3.754,6.489,5.334s0.59,3.555,0,6.519c-0.591,2.963-1.377,6.519-0.197,6.321
	c1.18-0.197,4.324-0.198,4.719-1.383c0.394-1.185,1.573-3.358,2.753-5.136c1.18-1.778,3.146-2.963,4.325-1.383
	c1.18,1.58,1.377,2.963,2.949,2.963s2.949-1.778,4.129-3.161c1.18-1.383,3.146-1.976,3.736-1.777
	c0.589,0.198-0.001,1.779,0.393,3.754c0.394,1.975,0.394,6.716,0.59,8.099c0.197,1.383,1.968,2.37,3.343,1.581
	c0.65-0.373,1.487-0.966,2.534-1.592c0.359-0.215,0.744-0.432,1.156-0.647c0.053-0.027,0.107-0.054,0.161-0.082
	c0.413-0.21,0.845-0.419,1.312-0.613c0.539-0.225,1.103-0.439,1.719-0.622c3.343-0.988,3.342,0.396,4.522-2.567
	c1.18-2.964,1.376-6.915,0.786-9.482c-0.59-2.568-4.325-2.568-5.309-4.346c-0.983-1.778-10.421-2.964-10.618-5.137
	c-0.196-2.173,0.786-3.95,3.343-6.914s4.522-1.58,4.522-4.543s-0.59-8.495-1.572-11.655c-0.983-3.161-2.36-5.729-1.573-7.705
	s1.966-6.52,5.309-11.655s6.488-7.505,7.472-8.691c0.412-0.497,0.677-1.352,0.813-2.396
	C231.02,206.682,227.704,206.265,226.38,205.969z"/>
<path fill="#FFFFCC" stroke="#F58220" stroke-width="0.782" stroke-miterlimit="10" d="M317.2,210.145
	c-0.436-1.121-1.895-2.258-3.791-3.827c-2.947-2.438-10.402-3.657-12.655-5.748c-2.254-2.09-2.254-5.573-2.774-7.315
	c-0.52-1.742-4.334-4.181-8.495-5.051c-4.161-0.871-3.12,5.051-7.454,0.871c-4.334-4.18-4.508-5.399-5.721-8.883
	c-1.214-3.484-4.335-6.271-5.548-5.748c-1.214,0.522-1.561,2.612-3.121,3.832c-1.167,0.912,1.544,1.434-1.223,1.275
	c1.359,3.015,2.64,4.942,1.743,4.299c-1.214-0.871-1.387-1.22-5.895-1.568c-4.508-0.348-8.495-1.045-11.963-1.045
	c-3.467,0-5.027,1.045-7.975,1.742c-2.946,0.697-3.987,2.439-4.854,6.445c-0.389,1.798-0.459,3.63-0.455,5.436
	c0.006,2.217,0.125,4.393-0.065,6.409c-0.335,3.534-1.158,2.847-2.776,4.052c0.418,0.555,0.93,1.084,1.563,1.522
	c2.773,1.916,7.802,3.833,6.242,5.225c-1.561,1.394-5.375,3.832-5.549,6.097c-0.173,2.265-1.213,4.877,0.694,7.142
	c1.906,2.264,2.946,3.309,4.507,2.09c1.561-1.219,1.388,3.135,2.254,2.787c0.866-0.348,1.907-2.439,3.814-3.483
	c1.907-1.045,2.08-3.136,4.334-1.742s3.987,2.09,5.027,3.658s2.948,2.962,5.721,4.355c2.774,1.393,3.642,1.916,3.642,1.916
	s-1.733,0.697-2.601,1.742c-0.867,1.045-1.215,2.09,0.174,3.483c1.387,1.394,4.334,0.872,7.455,3.31
	c3.119,2.438,4.159,3.657,5.547,4.528c1.387,0.871,1.733,1.916,3.294,2.961s3.987,1.394,6.241,1.394s3.467-0.871,4.507-0.174
	s3.121,2.613,3.121,2.613s0.347-2.961,1.733-4.703c1.387-1.741,3.641-4.354,4.682-7.664c0.059-0.186,0.108-0.364,0.156-0.539
	c0.792-2.934,0.104-4.39,1.576-8.171c1.561-4.006,1.734-5.226,3.814-8.709s1.214-5.399,3.294-6.619
	c2.081-1.22,6.067-4.354,7.455-6.271C317.372,211.382,317.44,210.766,317.2,210.145z"/>
<path fill="#FFFFCC" stroke="#F58220" stroke-width="0.782" stroke-miterlimit="10" d="M249.957,306.908
	c-2.08-0.261-5.201,0.522-7.541,1.307c-2.341,0.784-4.681-0.522-5.721,0.522c-1.041,1.045-2.601,2.352-4.681,2.613
	c-2.081,0.261-4.682,1.306-2.86-1.306c1.819-2.613,4.159-3.136,4.94-4.181c0.045-0.061,0.07-0.111,0.086-0.155
	c0.006-0.014,0.006-0.025,0.008-0.038c0.004-0.028,0.006-0.054-0.002-0.076c-0.004-0.011-0.01-0.021-0.016-0.029
	c-0.014-0.02-0.031-0.037-0.056-0.052c-0.01-0.006-0.018-0.011-0.027-0.016c-0.391-0.178-1.716,0.036-2.124-0.764
	c-0.004-0.006-0.007-0.014-0.01-0.021c-0.033-0.069-0.061-0.144-0.079-0.228c-0.065-0.298-0.04-0.692,0.14-1.234
	c1.04-3.135,2.6-3.919,2.6-3.919s-0.52-0.261-3.38-3.657c-2.86-3.397-4.161-2.352-4.682-5.748c-0.52-3.396-0.52-2.874-0.52-4.703
	c0-1.184-0.661-1.503-2.392-3.558c-1.002,0.418-1.869,0.888-2.629,1.342c-1.047,0.625-1.884,1.219-2.534,1.592
	c-1.375,0.79-3.146-0.198-3.343-1.581c-0.196-1.383-0.196-6.124-0.59-8.099c-0.394-1.975,0.196-3.556-0.393-3.754
	c-0.59-0.198-2.557,0.395-3.736,1.777c-1.18,1.383-2.557,3.161-4.129,3.161s-1.77-1.383-2.949-2.963
	c-1.179-1.58-3.146-0.396-4.325,1.383c-1.18,1.777-2.359,3.951-2.753,5.136c-0.395,1.185-3.539,1.186-4.719,1.383
	c-1.18,0.198-0.394-3.358,0.197-6.321c0.59-2.963,0.59-4.938,0-6.519s-3.736-3.754-6.489-5.334s-3.539-1.976-5.309-3.754
	c-1.77-1.777-0.786-3.95-0.393-7.309c0.393-3.358-0.983-3.556-1.967-6.717s-2.359-4.741-4.522-6.321
	c-2.162-1.581-4.915,0.197-7.668-1.186c-2.753-1.383-6.686-1.778-8.455-2.766s-1.179-2.568-1.572-5.136
	c-0.394-2.568-0.197-4.346-1.573-6.125c-0.548-0.708-0.47-2.354-0.181-4.079c-0.497-0.281-1.503-0.591-3.986-0.733
	c-6.352-0.364-10.889-0.183-11.253-1.641c-0.362-1.458,0.181-2.188,0.907-3.829c0.031-0.069,0.059-0.13,0.086-0.192
	c-1.647,0.402-3.519,0.994-5.128,1.856c-3.901,2.091-7.802,0.523-9.362,4.703c-1.56,4.181-2.6,10.974-4.681,13.586
	c-2.08,2.613-4.161,10.712-7.281,13.064c-3.12,2.351-7.542,3.135-10.402,5.225s-4.16,1.045-5.721,5.748
	c-1.56,4.703-0.78,5.487-3.381,8.1c-2.6,2.613-5.46,4.442-6.501,8.361c-1.04,3.919,3.381,1.829-1.04,3.919
	c-4.421,2.09-5.461,2.874-9.882,2.874s-8.062,0.784-10.662,2.352c-2.6,1.567-2.86,3.919-6.762,2.352
	c-3.9-1.567-4.42-6.271-4.939-7.577c-0.521-1.306-1.821-3.919-3.901-3.135c-2.081,0.784-8.321,5.487-9.102,7.838
	c-0.78,2.351-1.82,4.181-3.121,6.532c-1.3,2.352-5.721,7.054-8.841,9.406c-3.121,2.352-5.201,6.271-3.901,9.929
	c1.3,3.658,5.462,7.577,7.802,8.1s9.361,0.522,9.881,4.18c0.521,3.658,0,6.271-1.56,8.622s-1.301,5.748,0.78,8.622
	c2.08,2.874,2.08,5.226,4.94,5.226s8.322-1.045,8.322,0.522s-1.041,5.748,0.52,7.838c1.561,2.09,6.762,9.406,7.021,10.451
	c0.261,1.045,1.561,6.271,1.82,7.054c0.184,0.555,0.369,2.406,0.919,3.45c0.229,0.434,0.52,0.73,0.901,0.73
	c1.301,0,10.402-0.522,13.263-0.522s7.021-0.522,9.361-0.522s3.641-0.261,6.502,1.567c2.86,1.829,3.9,3.658,6.5,4.181
	c2.602,0.522,6.242,0.522,7.803,1.829c1.56,1.307,4.42,3.396,5.461,1.045c1.039-2.352,5.461-2.613,4.421,0
	c-1.041,2.613-4.421,4.18-1.561,5.748c2.86,1.567,2.601,4.441,4.421,2.874s4.42-0.522,3.64,2.612
	c-0.779,3.136-2.86,3.136-1.04,4.704c1.82,1.568,4.941,3.658,5.982,4.965c1.039,1.305-2.082,3.396,0.52,3.656
	c2.6,0.262,3.64,0,5.98,2.092c2.341,2.09,3.641,3.656,5.981,5.224s4.161,2.352,5.722,3.396c0.006,0.004,0.017,0.006,0.024,0.012
	c1.593,1.008,7.523-1.586,9.077-3.146c1.56-1.568-4.682-2.09-2.602-3.658c0.141-0.105,0.289-0.223,0.443-0.348
	c0.024-0.02,0.052-0.043,0.077-0.064c0.136-0.111,0.274-0.227,0.419-0.35c0.018-0.016,0.035-0.031,0.053-0.047
	c0.159-0.137,0.322-0.279,0.488-0.428c0.005-0.004,0.01-0.01,0.015-0.014c0.179-0.16,0.362-0.328,0.548-0.502
	c0-0.002-0.001-0.002-0.001-0.004c1.991-1.857,4.298-4.377,5.24-6.082c1.3-2.352,0.26-2.613,1.56-5.227
	c1.301-2.612,2.08-4.441,1.301-7.577c-0.78-3.135-1.04-4.441-3.121-6.793c-2.08-2.352-2.08-0.262-2.08-4.18c0-3.92,0-3.92,0-3.92
	s-0.52-1.307,1.04-2.09c1.561-0.784,3.121-2.352,4.161-3.136s-0.521-0.784-1.561-1.829s2.081-0.783,3.9-1.829
	c1.82-1.045,6.242-4.441,5.981-2.613c-0.26,1.829-5.981,6.271-2.341,7.055c3.642,0.783,9.362,1.567,11.183,1.567
	s3.901-2.352,5.201,1.046c1.3,3.396,0.52,7.838-0.261,8.621c-0.78,0.784-0.78,1.045-1.56,3.136c-0.78,2.09,0,5.748-1.561,6.009
	c-1.561,0.262-6.241,0.784-5.461,1.829c0.78,1.046,2.86,3.136,4.421,3.397c1.561,0.261,4.16,0,5.98-1.568
	c1.82-1.567,2.861-2.352,3.641-4.18c0.78-1.83,0-5.227,3.121-6.01c3.12-0.784,6.241,1.567,9.361,2.09
	c3.121,0.522,3.901,1.307,7.281,1.568c3.381,0.261,4.421,1.045,3.121-2.613s-3.121-8.622-1.82-8.361
	c1.3,0.262,3.12,0.523,4.421-1.828c1.3-2.352-1.04-4.181-1.82-7.316c-0.78-3.135-4.421-6.531,0-6.793
	c4.42-0.261,9.882,2.874,11.182-1.045s1.3-8.1-1.561-7.577c-2.86,0.523-5.201,1.829-8.062,1.829s-2.34,1.307-7.801-1.568
	c-5.461-2.874-6.241-6.532-4.421-9.928s3.9-6.009,6.501-7.054c2.601-1.045,2.081-3.658,6.241-5.226
	c4.161-1.568,3.12-2.09,9.102-4.964s9.362-5.748,12.742-7.578c3.381-1.828,3.121-1.306,5.201-3.918
	c1.799-2.259,3.591-3.147,4.046-3.348c0.07-0.031,0.115-0.049,0.115-0.049S252.038,307.17,249.957,306.908z"/>
<path fill="#FFFFCC" stroke="#F58220" stroke-width="0.782" stroke-miterlimit="10" d="M505.748,321.774
	c-0.95-0.848-2.223-1.89-3.182-2.647c-0.147,0.562-0.276,1.056-0.402,1.499c-0.409,1.455-0.767,2.31-1.521,2.743
	c-1.214,0.697-2.08-4.355-3.641-4.006s-4.334,1.742-5.201,2.438c-0.865,0.697-3.814-1.567-5.201-1.567
	c-1.386,0-1.04,3.483-4.68,3.31c-3.641-0.174-5.028-3.484-6.242-5.226c-1.213-1.743-6.067,4.877-9.361,3.31
	s-4.508-4.006-7.107-4.703c-2.601-0.697-4.161,0-6.068-0.349c-1.907-0.348-2.6-2.786-4.16-1.741s-1.734,2.787-3.988,2.264
	c-2.253-0.523-2.254-1.045-3.12-3.135c-0.866-2.09-1.04-5.749-2.946-5.574c-1.908,0.175-4.336,2.264-5.896,3.135
	s-2.774,1.045-3.813,0.523c-1.041-0.523-2.601-3.31-2.601-3.31s-3.468-0.522-4.508-0.522s1.214-1.742-2.08-2.613
	s-4.508-1.045-5.375-1.394c-0.866-0.348-0.693-6.444-0.866-7.489c-0.174-1.045-6.242-1.916-6.762-2.09
	c-0.521-0.174-2.947-1.917-3.641-2.265s-0.347-3.309-2.428-2.438c-2.08,0.87-3.813,1.218-5.027,1.916
	c-0.995,0.571-1.876,1.598-2.925,1.857c0.88,1.538,1.656,3.014,2.058,4.065c1.301,3.396,1.562,4.964,2.861,6.793
	c1.3,1.829,0.52,2.613,2.601,4.442c2.08,1.829,7.021,6.009,8.062,8.1c1.04,2.09-1.301,1.568-5.461,1.306
	c-4.161-0.261-5.201-2.09-6.501-0.522c-1.301,1.567-4.422,2.352-1.82,3.396c2.6,1.045,5.46,1.567,6.241,3.135
	c0.779,1.568-2.602-0.261-2.602,4.181c0,4.441,2.081,4.441,4.682,5.748c2.601,1.306,11.182,4.18,11.702,5.487
	c0.521,1.306-2.601,2.09-5.462,2.874c-2.86,0.784-3.38,0-5.98,0s-3.121-2.352-4.421-0.522c-1.3,1.829-1.04,3.919-5.2,6.532
	c-4.161,2.612-7.282,3.135-9.883,6.009c-2.6,2.874-5.721,4.964-3.641,8.622c0.879,1.544,1.709,3.272,2.396,4.835
	c0.941,2.14,1.614,3.967,1.765,4.571c0.11,0.443-0.206,1.076-0.602,1.717c1.368,0.578,2.651,1.032,3.587,1.173
	c3.427,0.517,4.454,0.688,7.023-0.345c2.569-1.031,3.255-1.203,4.282-0.172c1.027,1.033,4.11-0.344,5.138,0.861
	c1.028,1.204,4.283,5.679,5.996,4.99s1.712-1.721,4.11-2.926s3.939,0,6.681,0.859c2.74,0.861,2.569,0.689,6.338-0.859
	c3.768-1.549,2.055-1.721,6.68-2.064c4.625-0.345,4.283-2.582,5.995-4.303c1.713-1.721,1.542-4.991,3.769-3.614
	s8.393,2.581,9.935,4.303c1.542,1.721,3.425,3.269,4.282,5.163c0.856,1.893,1.884,2.753,3.082,2.064
	c1.2-0.689,0.856-2.753,2.741-3.785c1.884-1.033,5.995-1.377,8.564-1.895c2.569-0.516,4.282,2.066,4.454-1.548
	c0.171-3.614-0.172-3.098,1.541-6.368c1.713-3.27,1.199-5.162,2.741-6.711c1.541-1.549,2.739-3.442,3.425-3.442
	s0.686-1.894,3.769-1.721c1.896,0.106,3.324,0.021,4.231,0.057l0,0h0.002c0.161,0.007,0.305,0.018,0.432,0.034
	c0.015,0.002,0.032,0.003,0.047,0.005c0.133,0.019,0.251,0.043,0.344,0.078c0.113,0.043,0.205,0.095,0.254,0.17
	c0.344,0.516,0.686,1.376,1.371-0.517c0.685-1.893-1.542-0.688,0-3.27c1.541-2.582,3.083-2.582,3.939-3.27
	c0.855-0.688,1.884-0.516,1.884-2.409c0-1.893-0.686-2.237-2.056-3.958c-1.369-1.721-1.884-1.721-2.397-4.303
	c-0.515-2.582-0.685-4.646,0.514-5.679c1.199-1.032,6.337-4.302,8.051-5.679C506.262,324.011,507.29,323.151,505.748,321.774z"/>
<path fill="#FFFFCC" stroke="#F58220" stroke-width="0.782" stroke-miterlimit="10" d="M520.667,275.556
	c-0.26-1.132-1.993-1.132-2.946-1.568s-3.034-0.436-4.247-0.436c-1.215,0-1.474,0.61-2.774,1.481c-1.301,0.87-2.688,1.219-3.9,2.525
	c-0.908,0.978-2.302,1.516-2.946,1.726c0.468,0.91,0.854,2.636,0.259,4.545c-0.867,2.786-0.693,2.96-2.254,6.096
	c-1.561,3.135-2.601,3.483-2.254,6.444c0.053,0.456,0.06,0.869,0.045,1.257c-0.05,1.257-0.342,2.238-0.158,3.432
	c0.483,0.035,1.059,0.015,1.5-0.073c0.867-0.174,1.733-0.087,2.774-0.436c1.039-0.349,1.733,1.219,2.514,1.567
	s2.254,0.087,2.514-0.522c0.26-0.61,0.867,0,2.773,1.132s3.034-0.435,3.728-0.435c0.396,0,1.43-0.031,2.283-0.137
	c0,0,0.001,0,0.001,0.001c0.01-0.001,0.018-0.003,0.026-0.004c0.136-0.017,0.267-0.036,0.389-0.057
	c0.036-0.006,0.07-0.013,0.105-0.02c0.102-0.019,0.195-0.039,0.28-0.061c0.064-0.017,0.115-0.037,0.168-0.056
	c0.048-0.018,0.102-0.033,0.139-0.052c0.082-0.042,0.143-0.087,0.162-0.137c0.023-0.057,0.037-0.151,0.043-0.271
	c0.046-0.801-0.216-2.777-0.216-2.777s0.292-1.003,0.646-2.421c0.442-1.768,0.981-4.181,1.174-6.114
	c0.347-3.483,0.347-3.048,0.521-4.703c0.173-1.654,0.52-3.483,1.04-5.139c0.521-1.656,1.04-2.7,1.04-3.309
	S520.927,276.688,520.667,275.556z"/>
<path fill="#FFFFCC" stroke="#F58220" stroke-width="0.782" stroke-miterlimit="10" d="M734.071,283.136
	c3.57-2.192,6.941-5.381,6.744-8.57c-0.198-3.189-1.19-5.381-3.174-8.171s-5.555-1.395-12.299-3.188s-6.148,0.199-7.537,0.797
	c-1.389,0.599-3.372-3.188-2.381-4.783c0.992-1.595,5.157-8.171,3.967-9.965c-1.189-1.793-2.182-2.989-3.768-3.787
	c-1.587-0.797-4.96,2.192-4.563,0.599c0.396-1.595,2.182-3.588,3.769-6.378c1.587-2.791-4.563-0.598-5.554-2.192
	c-0.992-1.594-2.381-2.591-9.323-0.398s-7.538,5.182-8.529,7.174s-7.935-1.196-12.497-2.192c-4.562-0.997-7.141-2.391-8.529-4.384
	s-2.182,0.399-6.744,2.79c-4.562,2.392-3.371,5.381-5.95,8.171c-2.579,2.79-6.745,4.983-10.91,6.776
	c-4.165,1.794-4.563,1.594-9.918,3.986c-5.354,2.392,0,4.185-2.578,5.58c-2.579,1.395-14.679,6.775-13.886,9.766
	c0.794,2.99,0.595,3.587-2.381,5.182c-2.975,1.595-5.751,1.993-7.141,2.79c-1.388,0.797-10.314,0.797-15.074,0
	c-1.508-0.252-2.655-0.344-3.522-0.353c0.259,2.061-1.148,3.282-0.192,5.01c1.08,1.954-1.08,4.342,2.809,4.776
	c3.891,0.434,6.051-0.435,7.348,1.085c1.297,1.52,0,5.21,0.648,6.514c0.648,1.303,1.944,3.04,1.944,4.994
	c0,0.101-0.012,0.203-0.017,0.304c-0.082,1.869-0.903,3.821-1.928,3.821c-0.319,0-0.678-0.21-1.065-0.47
	c-0.018,0.637,0.046,1.024,0.322,1.024c1.587,0,2.579-0.399,5.356-0.797c2.777-0.399,4.761,0.598,10.314-1.196
	s7.537,0.398,11.9,0.598c4.365,0.2,3.571-1.196,5.753-1.595c2.183-0.399,6.546-0.399,11.108-1.793s2.777-4.384,5.554-5.979
	s3.174-4.783,5.753-6.377c2.578-1.594,2.777-2.989,2.777-2.989s1.389-1.195,2.975-1.195c1.587,0,5.555,0,8.133-0.997
	c2.578-0.996,8.728-4.384,13.29-5.979c4.562-1.594,9.521-2.193,14.084-2.193s3.372,0.998,1.784,3.389
	c-1.586,2.391-0.197,4.783,0.397,7.374s1.785,3.188,1.785,3.188s0,0,1.587,1.396c1.587,1.395-0.793,1.395-3.174,2.192
	c-2.381,0.797-2.776,1.793-5.752,2.192c-2.976,0.399-2.976-0.398-4.166,0.997c-1.19,1.396-3.174,3.189-5.555,4.783
	c-1.408,0.943-1.841,1.541-1.88,2.447c-0.027,0.625,0.132,1.397,0.294,2.536c0.256,1.803,1.184,2.846,2.604,3.205
	c0.778,0.196,1.699,0.195,2.752-0.017c2.975-0.598,7.339-5.58,12.1-9.167s6.744-4.783,10.117-5.979
	c3.371-1.195,11.107-1.793,12.893-1.793s4.364,4.186,6.546,5.381c2.182,1.195,4.165,1.594,3.174,0.199s-5.554-7.174-5.554-10.164
	S730.501,285.328,734.071,283.136z"/>
<path fill="#FFFFCC" stroke="#F58220" stroke-width="0.782" stroke-miterlimit="10" d="M684.481,309.442
	c-0.162-1.139-0.321-1.91-0.294-2.536c-0.729-0.195-1.375-0.468-2.312-0.509c-2.481-0.109-3.345,2.168-6.258,2.602
	c-2.914,0.434-5.936,3.903-7.662,5.204s-2.266,1.626-3.237,4.445s-3.453,1.084-3.453,1.084s-0.863,0.542-2.05,2.169
	c-1.188,1.626-3.562,4.119-4.209,7.372c-0.647,3.252-2.158,7.589-4.316,8.565c-2.157,0.976-3.776,0-5.611,1.192
	c-1.834,1.193-2.59,3.036-6.366,6.831c-3.776,3.794,0,2.276,0.863,3.035c0.112,0.099,0.202,0.247,0.273,0.428
	c0.473,1.211,0.074,4.041-0.489,5.644c-0.188,0.537-0.331,0.711-0.463,0.771c1.377,0.604,2.846,0.413,4.26,0.163
	c2.122-0.376,1.248-1.755,3.869-3.51c2.619-1.755,1.871-3.886,3.992-5.015c2.121-1.129,3.369-0.125,6.114,0.25
	s3.243,0.878,6.238,0.125c2.84-0.713,2.208-1.765,4.899-3.047c0.147-0.07,0.299-0.141,0.466-0.212
	c3.245-1.379,1.997,2.507,3.619,3.635c1.622,1.128,2.995-0.25,5.49-4.262c2.495-4.012,1.372-5.767,3.618-8.148
	c2.246-2.382,1.996-3.761,1.872-5.893c-0.125-2.132,0-4.388,0.499-6.394s0.125-4.388,0.125-5.266c0-0.877,0.124-3.259,1.622-4.137
	c0.614-0.36,1.116-0.886,1.503-1.384C685.665,312.289,684.737,311.245,684.481,309.442z"/>
<path fill="#FFFFCC" stroke="#F58220" stroke-width="0.782" stroke-miterlimit="10" d="M669.361,355.902
	c0-2.131-0.125-4.011-0.874-5.892c-0.446-1.123-0.359-3.537-0.217-5.304c-2.691,1.282-2.06,2.334-4.899,3.047
	c-2.995,0.752-3.493,0.25-6.238-0.125s-3.993-1.379-6.114-0.25c-2.121,1.128-1.373,3.26-3.992,5.015
	c-2.621,1.755-1.747,3.134-3.869,3.51c-1.414,0.25-2.883,0.441-4.26-0.163c-0.32,0.147-0.575-0.397-1.264,1.831
	c-0.971,3.144-1.942,6.071-4.64,8.89c-2.698,2.819-1.511,3.253-2.914,5.205c-1.195,1.663-0.592,5.526-1.122,7.908
	c-0.092,0.412-0.213,0.786-0.389,1.09c-0.252,0.438-0.516,0.682-0.797,0.791c0.261,0.871,0.531,1.756,0.786,2.779
	c0.999,4.012,0.874,2.257,3.37,4.138c1.056,0.796,1.752,0.757,2.235,0.442c0.657-0.428,0.917-1.373,1.133-1.445
	c0.375-0.125,3.868,0.752,4.492,1.63s2.246,1.003,4.242,0.626c1.996-0.375,4.617,0,7.237,0s3.369,1.505,5.988,1.505
	c2.621,0,1.872-3.134,2.746-5.642c0.874-2.507,2.87-8.524,4.492-10.53c1.621-2.006,3.618-3.761,4.367-5.391
	c0.748-1.63,2.37-5.767,2.246-7.396C670.983,360.542,669.361,358.033,669.361,355.902z"/>
<path fill="#FFFFCC" stroke="#F58220" stroke-width="0.782" stroke-miterlimit="10" d="M610.117,384.133
	c-1.152-0.268-1.938-2.58-2.184-4.299c-0.282,0.121-0.594,0.252-0.976,0.405c-2.379,0.955-2.616,0.955-3.389,2.03
	s-2.26,2.509-2.498,3.346c-0.237,0.836-0.891,0.896-2.853,0.896s-3.39,0.239-4.519,0.776s-2.735,1.075-2.854,1.852
	c-0.118,0.777-2.081-0.299-2.854,0.061c-0.772,0.357-1.011,1.851-0.832,2.27c0.179,0.418-0.833,1.971-1.665,3.942
	c-0.831,1.972-2.794,3.642-3.15,5.017s2.913,4.002,2.913,4.002s1.248,3.346,1.604,4.541c0.357,1.193,0.477,1.312,1.189,1.433
	c0.714,0.119,1.487-0.539,2.26,1.313s1.427,5.139,1.427,5.496s3.032,1.732,3.032,1.732s1.664-1.91,1.427-3.346
	c-0.238-1.434,0.178-3.881,0.416-5.734c0.237-1.851,0.772-2.15,2.141-3.761c1.366-1.613,1.664,0.596,1.604-2.211
	s0.179-4.719,0.476-5.316c0.298-0.598,1.308-0.178,2.2-0.178c0.892,0,1.664-0.301,2.496-0.42c0.833-0.119,1.844-0.18,2.914-0.836
	c0.512-0.314,1.416-0.668,2.287-0.979c0.323-2.033,0.584-3.89,0.584-4.757c0-1.509-0.607-2.495,0.336-5.737
	C611.116,385.121,610.909,384.316,610.117,384.133z"/>
<path fill="#FFFFCC" stroke="#F58220" stroke-width="0.782" stroke-miterlimit="10" d="M637.683,397.225
	c-0.355-2.864-0.534-2.506-1.604-4.385c-0.596-1.049-1.357-2.736-1.915-4.025c-0.483,0.314-1.18,0.354-2.235-0.442
	c-2.496-1.881-2.371-0.126-3.37-4.138c-0.255-1.023-0.525-1.908-0.786-2.779c-1.037,0.408-2.321-1.113-4.274-2.309
	c-2.481-1.519-2.267-0.977-4.425,1.409c-2.017,2.229-2.339,4.554-4.663,5.378c-0.162,0.058-0.333,0.109-0.517,0.151
	c-1.223,0.284-1.83,0.01-2.242-0.415c-0.943,3.242-0.336,4.229-0.336,5.737c0,0.867-0.261,2.725-0.584,4.757
	c-0.244,1.533-0.522,3.166-0.752,4.551c-0.535,3.223,2.494,3.313,2.762,5.012c0.267,1.701,0.979,3.85,0.445,5.906
	c-0.535,2.059-0.179,4.744,0.178,8.324c0.357,3.58,0.979,5.102,2.049,7.43c1.068,2.326,0.98,4.564,1.96,6.623s0,5.369,0.179,8.322
	c0.178,2.953,1.157,2.953,1.246,2.596s1.693-2.686,3.563-2.686s1.692,1.344,2.851,1.791s2.138-0.268,3.385-0.984
	c1.248-0.717,1.782-1.969,2.673-3.043c0.89-1.074,1.781-2.686,1.781-6.176s-0.089-4.117-1.158-7.34
	c-1.068-3.221-1.426-6.174-0.445-8.412s3.028-0.18,3.83-0.715c0.802-0.537,1.336-1.523,1.069-4.029
	c-0.268-2.506,0-2.596,1.336-6.173C639.02,403.581,638.039,400.088,637.683,397.225z"/>
<path fill="#FFFFCC" stroke="#F58220" stroke-width="0.782" stroke-miterlimit="10" d="M617.563,358.547
	c1.402-0.542,3.021-1.518,5.287-3.252c2.266-1.735-0.432-2.603-1.834-3.47c-1.402-0.867-3.237-0.867-3.237-0.867
	s-0.216-1.951-0.432-4.445c-0.216-2.493-1.295-3.361-3.993-4.337c-2.698-0.976-6.042,0.651-6.799-0.325
	c-0.755-0.976,1.403-6.288,2.051-9.106c0.648-2.819-2.051,0.108-4.424-0.434c-2.374-0.542-2.914-0.542-5.504-0.759
	s-5.287,2.602-6.042,4.336c-0.756,1.735-3.776,2.385-6.69,3.469s-3.453,0.542-6.799-0.542s-3.668-1.734-6.258-2.276
	s-4.965-0.326-8.85-1.952c-3.885-1.626-4.315,0.109-7.337,0.759c-2.376,0.512-5.347,2.225-6.93,2.883
	c-0.368,1.793-0.655,3.738-0.466,4.836c0.416,2.404,1.457,2.508-0.104,4.808c-1.561,2.3-2.497,1.151-2.497,3.764
	s-2.081,2.717,3.745,3.972s8.114,1.15,13.732,1.463c5.618,0.314,7.075,0.001,11.757,0.314s9.468,0.313,12.796,0.313
	c3.33,0,5.723-0.314,9.572,0s6.555,0.313,8.843,0.626c2.289,0.314,3.75,0.561,7.39,1.849
	C615.513,358.98,616.16,359.089,617.563,358.547z"/>
<path fill="#FFFFCC" stroke="#F58220" stroke-width="0.782" stroke-miterlimit="10" d="M704.714,294.296
	c-1.587-1.396-1.587-1.396-1.587-1.396s-1.19-0.598-1.785-3.188s-1.983-4.982-0.397-7.374c1.588-2.391,2.778-3.389-1.784-3.389
	s-9.522,0.599-14.084,2.193c-4.563,1.595-10.712,4.983-13.29,5.979c-2.578,0.997-6.546,0.997-8.133,0.997
	c-1.586,0-2.975,1.195-2.975,1.195s-0.199,1.396-2.777,2.989c-2.579,1.595-2.977,4.783-5.753,6.377s-0.991,4.584-5.554,5.979
	s-8.926,1.395-11.108,1.793c-2.182,0.399-1.388,1.794-5.753,1.595c-4.363-0.2-6.347-2.392-11.9-0.598s-7.537,0.797-10.314,1.196
	c-2.777,0.398-3.77,0.797-5.356,0.797c-0.276,0-0.34-0.387-0.322-1.024c-0.929-0.621-2.038-1.534-3.257-0.616
	c-1.729,1.303-2.16,2.389-6.051,2.389c-3.89,0-6.267-0.435-8.644,0.217c-2.377,0.651-4.754-0.218-8.428,0.651
	s-6.051,1.737-7.996,0.869c-1.944-0.869,0.433-3.041-5.186-2.822c-5.618,0.217-4.322,1.086-8.86,2.171
	c-3.845,0.92-5.053,2.305-6.383,2.971c0.257,0.296,0.594,1.563,0.764,2.502c0.173,0.958,0.693,2.439,0.173,3.745
	s-2.515,3.659-2.86,4.268c-0.253,0.444-0.828,1.625-1.356,2.404c0.977,1.363,2.484,3.718,2.912,5.795
	c0.647,3.144,1.294,5.421,2.158,5.529c0.185,0.023,0.518-0.082,0.947-0.261c1.583-0.658,4.554-2.371,6.93-2.883
	c3.021-0.65,3.452-2.385,7.337-0.759c3.885,1.626,6.26,1.41,8.85,1.952s2.912,1.192,6.258,2.276s3.885,1.626,6.799,0.542
	s5.935-1.734,6.69-3.469c0.755-1.734,3.452-4.553,6.042-4.336s3.13,0.217,5.504,0.759c2.373,0.542,5.072-2.385,4.424,0.434
	c-0.647,2.818-2.806,8.131-2.051,9.106c0.757,0.976,4.101-0.651,6.799,0.325c2.698,0.976,3.777,1.844,3.993,4.337
	c0.216,2.494,0.432,4.445,0.432,4.445s1.835,0,3.237,0.867c1.402,0.868,4.1,1.735,1.834,3.47c-2.266,1.734-3.885,2.709-5.287,3.252
	c-1.403,0.542-2.051,0.434-3.021,1.626c-0.972,1.192-2.914-1.952-1.835,0.867s2.914,4.336,0.647,4.878
	c-2.266,0.542-1.942-1.409-3.237,0.217c-1.294,1.626-1.295,4.12-1.618,6.181c-0.324,2.06-0.647,4.879-0.647,6.505
	c0,0.29,0.028,0.638,0.082,1.013c0.245,1.719,1.031,4.031,2.184,4.299c0.792,0.184,0.999,0.988,1.534,1.537
	c0.412,0.425,1.02,0.699,2.242,0.415c2.807-0.65,3.021-3.144,5.18-5.529s1.943-2.928,4.425-1.409
	c1.953,1.195,3.237,2.717,4.274,2.309c0.281-0.109,0.545-0.353,0.797-0.791c0.086-0.148,0.158-0.314,0.221-0.492
	c0.006-0.018,0.011-0.037,0.017-0.055c0.055-0.158,0.101-0.33,0.142-0.508c0.003-0.012,0.007-0.023,0.01-0.035
	c-0.001-0.001-0.002-0.001-0.002-0.001c0.53-2.381-0.071-6.243,1.124-7.907c1.403-1.952,0.216-2.386,2.914-5.205
	c2.697-2.818,3.669-5.746,4.64-8.89c0.688-2.228,0.943-1.683,1.264-1.831c0.132-0.06,0.274-0.235,0.463-0.771
	c0.064-0.183,0.125-0.386,0.185-0.597c0.009-0.031,0.019-0.062,0.026-0.093c0.056-0.205,0.107-0.419,0.156-0.641
	c0.008-0.04,0.017-0.08,0.025-0.119c0.047-0.228,0.092-0.459,0.129-0.695c0.004-0.025,0.008-0.05,0.012-0.076
	c0.078-0.5,0.133-1.007,0.154-1.486c0.001-0.022,0.002-0.044,0.003-0.065c0.009-0.232,0.009-0.456,0.001-0.669
	c-0.001-0.023-0.002-0.046-0.004-0.069c-0.011-0.214-0.028-0.417-0.06-0.602c-0.001-0.007-0.003-0.014-0.005-0.021
	c-0.032-0.191-0.076-0.364-0.134-0.511c-0.002,0.001-0.004,0.002-0.006,0.003c-0.07-0.181-0.155-0.333-0.268-0.431
	c-0.863-0.759-4.64,0.759-0.863-3.035c3.776-3.795,4.532-5.638,6.366-6.831c1.835-1.192,3.454-0.217,5.611-1.192
	c2.158-0.976,3.669-5.313,4.316-8.565c0.647-3.253,3.021-5.746,4.209-7.372c1.187-1.627,2.05-2.169,2.05-2.169
	s2.481,1.735,3.453-1.084s1.511-3.145,3.237-4.445s4.748-4.771,7.662-5.204c2.913-0.434,3.776-2.711,6.258-2.602
	c0.937,0.041,1.582,0.313,2.312,0.509c0.039-0.906,0.472-1.504,1.88-2.447c0.269-0.18,0.531-0.363,0.788-0.547
	c2.028-1.447,3.71-2.998,4.767-4.236c1.19-1.395,1.19-0.598,4.166-0.997c2.976-0.398,3.371-1.395,5.752-2.192
	C703.921,295.691,706.301,295.691,704.714,294.296z"/>
<polygon fill="#FFFFCC" stroke="#F58220" stroke-width="0.782" stroke-miterlimit="10" points="143.272,443.449 143.272,443.449 
	143.272,443.451 "/>
<path fill="#FFFFCC" stroke="#F58220" stroke-width="0.782" stroke-miterlimit="10" d="M149.313,417.477
	c-0.083-0.459-0.159-1.01-0.229-1.605c-0.008-0.006-0.019-0.008-0.024-0.012c-1.561-1.045-3.381-1.828-5.722-3.396
	s-3.641-3.134-5.981-5.224c-2.341-2.092-3.381-1.83-5.98-2.092c-2.602-0.26,0.52-2.352-0.52-3.656
	c-1.041-1.307-4.162-3.396-5.982-4.965c-1.82-1.568,0.261-1.568,1.04-4.704c0.78-3.135-1.819-4.18-3.64-2.612
	s-1.561-1.307-4.421-2.874c-2.86-1.568,0.52-3.135,1.561-5.748c1.04-2.613-3.382-2.352-4.421,0
	c-1.041,2.352-3.901,0.262-5.461-1.045c-1.561-1.307-5.201-1.307-7.803-1.829c-2.6-0.522-3.64-2.352-6.5-4.181
	c-2.861-1.828-4.162-1.567-6.502-1.567s-6.501,0.522-9.361,0.522s-11.962,0.522-13.263,0.522c-0.382,0-0.673-0.297-0.901-0.73
	c-0.465,0.63-0.797,1.396-0.701,2.267c0.273,2.47,2.185,3.703,1.912,5.076c-0.273,1.372-1.775,1.508-3.551,2.194
	s-2.457,2.058-3.549,2.606c-1.093,0.549-2.322,1.098-4.097,0.549c-1.775-0.549-2.458-0.686-2.868-2.743
	c-0.408-2.058,0.137-3.292-1.638-2.47c-1.774,0.823-1.364,1.098-4.642,1.921s-5.598,0.96-5.734,2.194
	c-0.138,1.234-0.273,1.922-2.867,2.195c-2.594,0.274-4.916,0.686-6.69-0.137c-1.775-0.824,0.137-1.646-4.232-2.059
	c-4.369-0.411-6.144-0.549-9.694-0.549c-3.55,0-7.236-0.273-8.328,0.412s-3.003,0-2.457,1.92c0.545,1.922,0.409,3.156,0.409,4.527
	s-0.409,2.332-0.683,3.018s-0.956,2.881-1.911,3.979c-0.956,1.098-4.369,4.803-3.276,6.586c1.092,1.783,1.229,5.896,5.733,6.035
	c0,0-3.413,2.881-1.638,3.84c1.774,0.961,8.738,6.586,12.015,7.408c3.277,0.822,12.697,2.881,15.292,2.059
	c2.594-0.824,6.416-2.059,8.191-2.881c1.775-0.824,1.366-2.881,1.366-2.881s2.866,1.92,4.642,1.92s1.366-1.508,2.73-2.332
	c1.365-0.822,2.048-0.549,1.365,1.234s-4.232,6.721-4.779,7.957c-0.545,1.234-1.774,3.703-3.003,4.664
	c-1.229,0.959-0.955,0.412-4.096,1.783s-5.735,3.018-7.782,3.977c-2.049,0.961-2.594,1.236-4.779,1.236
	c-2.184,0-4.232,0.41-5.598,1.098c-1.365,0.686-3.55,1.098-4.506,0.41c-0.955-0.686-0.683-2.469-2.185-2.605
	c-1.502-0.139-3.003,0.273-2.593,0.959c0.408,0.688,1.229,3.842,3.686,5.352c2.458,1.508,12.151,12.207,13.106,13.305
	c0.956,1.098,3.276,0.002,4.097,1.098c0.818,1.098-0.547,1.785,0.818,3.705s4.232,7.955,9.559,10.836
	c5.324,2.881,9.557,7.957,14.745,7.957c5.188,0,7.782,0.137,12.424-1.234c4.643-1.373,9.422-3.705,13.653-6.037
	c4.232-2.332,8.875-6.309,9.831-7.818c0.955-1.51,3.822-5.076,3.958-6.721c0.138-1.646-0.271-3.842-0.954-4.939
	s-0.41-4.938-0.956-6.311c-0.547-1.371-1.638,0.275,0.137-2.605c1.773-2.881,3.413-4.391,3.413-6.311s1.229-2.607,2.185-1.92
	c0.955,0.686,0.409,1.645,3.413,1.645s6.417,0.824,7.782,1.098c1.365,0.275,3.414,1.236-0.409,2.059s-2.867,0.275-6.144,1.51
	c-3.277,1.234-3.823,2.742-2.73,5.211c1.092,2.471,1.501,5.764,1.773,6.859c0.273,1.098,3.961,1.234,4.916,1.234
	s-2.184,2.469-2.867,2.607c-0.683,0.137-1.502,1.783-0.547,2.469c0.957,0.686,1.229,1.371-0.271,3.43
	c-1.503,2.057-0.138,3.979,0.408,4.938c0.547,0.961,2.049,3.156,2.73,3.979c0.684,0.822,5.188,9.604,4.643,11.797
	c-0.547,2.195-3.276,7.82-3.959,9.191c-0.378,0.758-0.158,1.34,0.402,1.717c0.453,0.305,1.125,0.479,1.918,0.479
	c1.774,0,5.325,1.645,8.875,0.822s4.642-2.744,5.324-5.213s1.775-2.469,1.912-4.801c0.136-2.332-0.683-3.842-1.502-5.35
	c-0.819-1.51,0.955,1.371,4.643,1.783c3.686,0.412,3.276,1.371,6.279-1.098c3.004-2.469,2.049-7.133-0.682-8.643
	c-2.73-1.508-5.599-3.428-6.145-3.84s3.686-2.195,5.871-3.293c2.184-1.098,2.048-2.469,4.096-3.842
	c2.049-1.371,6.417-3.43,7.373-3.703s-3.55-0.275-6.826-0.137c-3.277,0.137-5.053,0.686-5.188-1.098
	c-0.138-1.783,1.093-4.801,0.955-5.898c-0.136-1.098,2.731-1.373,4.233-2.744c0.593-0.541,1.678-1.598,2.838-2.729
	c-0.028-0.145-0.047-0.313-0.063-0.492c-0.062-0.631-0.106-1.465-0.462-2.5v-0.002c-0.104-0.303-0.227-0.617-0.395-0.953
	c-1.398-2.813,0.561-4.217,1.398-4.498c0.84-0.281,2.52-3.092,1.399-3.654c-1.118-0.563,0.561-4.217,3.078-5.904
	c2.519-1.688,2.798-1.406,3.077-4.498C152.111,420.85,149.873,420.568,149.313,417.477z"/>
<polygon fill="#FFFFCC" stroke="#F58220" stroke-width="0.782" stroke-miterlimit="10" points="364.122,384.471 364.122,384.483 
	364.122,384.471 "/>
<path fill="#FFFFCC" stroke="#F58220" stroke-width="0.782" stroke-miterlimit="10" d="M414.828,339.829
	c-0.521-1.307-9.102-4.181-11.702-5.487c-2.601-1.307-4.682-1.307-4.682-5.748c0-4.442,3.381-2.613,2.602-4.181
	c-0.781-1.568-3.642-2.09-6.241-3.135c-2.602-1.045,0.52-1.829,1.82-3.396c1.3-1.567,2.34,0.261,6.501,0.522
	c4.16,0.262,6.501,0.784,5.461-1.306c-1.041-2.09-5.981-6.271-8.062-8.1c-2.081-1.829-1.301-2.613-2.601-4.442
	c-1.3-1.829-1.561-3.396-2.861-6.793c-0.401-1.051-1.178-2.527-2.058-4.065c-0.229,0.057-0.466,0.09-0.715,0.059
	c-1.01-0.126-1.745-0.896-2.604-1.442c-0.321-0.204-0.659-0.379-1.038-0.474c-1.387-0.348-5.548-1.219-6.415-0.697
	c-0.866,0.522-1.732,4.006-1.732,4.006s-2.774-1.045-3.642-1.916s-3.467-1.917-4.508-1.917c-1.039,0-2.427,0.697-4.68-0.348
	c-2.254-1.045-2.428-1.22-2.602-3.833c-0.173-2.613-1.733-4.006-3.12-3.309c-1.387,0.696-1.907,1.742-4.507,1.394
	c-2.601-0.349-6.588-4.006-9.189-5.748c-2.6-1.742-4.334-1.567-4.334-0.522s-0.867,1.742-0.867,1.742s-1.559-2.266-4.507-3.484
	c-2.946-1.219-5.894-3.833-7.28-5.226c-1.388-1.393-3.642-2.438-5.028-3.831c-1.388-1.395,0-3.659-4.161-4.53
	c-4.16-0.871-6.067-1.916-8.148-4.006c-2.08-2.09-3.293-5.052-4.507-3.833s0.174,4.356-2.601,2.962
	c-2.773-1.394-3.814-0.872-6.067-3.832c-2.254-2.961-3.987-3.659-4.854-4.878c-1.387,1.742-1.733,4.703-1.733,4.703
	s-2.081-1.916-3.121-2.613s-2.253,0.174-4.507,0.174s-4.681-0.349-6.241-1.394s-1.907-2.09-3.294-2.961
	c-1.388-0.871-2.428-2.09-5.547-4.528c-3.121-2.438-6.068-1.917-7.455-3.31c-1.389-1.394-1.041-2.438-0.174-3.483
	c0.867-1.045,2.601-1.742,2.601-1.742s-0.867-0.522-3.642-1.916c-2.772-1.393-4.681-2.787-5.721-4.355s-2.773-2.264-5.027-3.658
	s-2.427,0.697-4.334,1.742c-1.907,1.044-2.948,3.135-3.814,3.483c-0.866,0.348-0.693-4.006-2.254-2.787
	c-1.561,1.219-2.601,0.174-4.507-2.09c-1.907-2.265-0.867-4.877-0.694-7.142c0.174-2.265,3.988-4.703,5.549-6.097
	c1.56-1.393-3.469-3.31-6.242-5.225c-0.633-0.438-1.145-0.967-1.563-1.522c-0.057,0.042-0.111,0.081-0.171,0.128
	c-0.263,0.212-0.59,0.374-0.953,0.504c-0.136,1.044-0.4,1.899-0.813,2.396c-0.983,1.186-4.129,3.556-7.472,8.691
	s-4.521,9.68-5.309,11.655s0.59,4.544,1.573,7.705c0.982,3.161,1.572,8.692,1.572,11.655s-1.966,1.58-4.522,4.543
	s-3.539,4.741-3.343,6.914c0.197,2.173,9.635,3.358,10.618,5.137c0.983,1.777,4.719,1.777,5.309,4.346
	c0.59,2.567,0.394,6.519-0.786,9.482c-1.181,2.963-1.18,1.58-4.522,2.567c-0.616,0.183-1.18,0.397-1.719,0.622
	c1.73,2.054,2.392,2.374,2.392,3.558c0,1.829,0,1.307,0.52,4.703c0.521,3.396,1.821,2.351,4.682,5.748
	c2.86,3.396,3.38,3.657,3.38,3.657s-1.56,0.784-2.6,3.919c-0.18,0.542-0.205,0.936-0.14,1.234c0.315,1.43,2.865,0.514,2.22,1.378
	c-0.781,1.045-3.121,1.567-4.94,4.181c-1.821,2.612,0.779,1.567,2.86,1.306c2.08-0.261,3.64-1.568,4.681-2.613
	c1.04-1.045,3.38,0.261,5.721-0.522c2.34-0.784,5.461-1.568,7.541-1.307c2.081,0.262,0.261,2.352,0.261,2.352s1.561,0.261,2.6,0.522
	c1.041,0.262,2.081,0.262,2.081,0.262s0,0,3.641,1.045s4.421,0.261,4.421,0.261s0,0,1.561,0.522c1.56,0.522,4.16,3.658,5.201,5.748
	c1.04,2.09,2.6,3.135,1.82,6.793c-0.78,3.658-1.82,4.181-2.861,7.838c-1.04,3.658-3.9,6.271-4.421,8.361
	c-0.52,2.09-0.52,2.613-4.94,5.226s-6.502,3.135-7.021,3.919s0.52,4.18,1.04,7.054s-1.56,1.045-2.86,4.181s-2.08,7.838-1.04,10.189
	s0,3.396,0.78,5.486c0.78,2.091,1.561,4.182,2.86,5.227s2.341-0.523,3.381-1.045c1.04-0.523,2.341,1.045,2.341,1.045
	s5.721,3.657,7.541,2.09c1.82-1.568,2.6-7.577,1.82-8.361c-0.78-0.783-3.901-2.352-4.682-4.18c-0.779-1.829-0.779-4.965-2.6-7.577
	c-1.821-2.613-1.821-5.748-3.121-7.577c-1.3-1.829,0-3.658,2.341-5.226c2.341-1.567,2.601-1.045,5.461-2.351
	c2.86-1.307,1.82-0.523,1.82,0.261c0,0.784,0.78,5.487,1.04,6.271s-0.78,2.874,5.981,3.396c6.761,0.522,4.421-1.045,5.98,0.261
	c1.561,1.307,0,0,1.821,0.522c1.82,0.523,2.34-0.261,2.34-0.261s0,0,2.6,0.261c2.602,0.261,1.561-0.261,3.901-1.567
	c2.341-1.307,1.3-1.829,1.3-1.829s1.561-1.045,4.682-3.396c3.12-2.352,3.12-1.829,5.721-1.045s0,0,0.521,1.045
	c0.52,1.045,1.3,2.613,1.04,4.442c-0.26,1.829-3.381,4.18-2.861,5.486c0.521,1.307,7.802-2.09,10.143-2.874
	c2.34-0.784,4.16,0,4.16,0l0.261,3.658c0,0,5.2,1.567,8.582,1.306c3.38-0.261,0.779-3.396,3.38-5.487c2.601-2.09,3.12,1.568,3.641,0
	c0.521-1.567,2.601-1.045,2.601-1.045l2.08,2.352c0,0,4.421,1.306,5.201,1.306s1.82,3.135,2.341,4.964
	c0.52,1.829,5.721,0,7.021,1.829c1.3,1.829,1.82,3.657,4.94,4.702c3.12,1.046,1.301-1.828,1.301-1.828s4.16,0.522,6.761,1.045
	s1.04,3.396,1.04,5.486c0,2.091-0.78,3.658-0.78,5.748c0,0.242,0.001,0.493,0.004,0.748c0,0.004,0,0.009,0,0.013
	c0.001,0.081,0.005,0.166,0.006,0.248c0.004,0.183,0.008,0.366,0.017,0.556c0.005,0.105,0.014,0.213,0.02,0.319
	c0.011,0.172,0.022,0.345,0.04,0.521c0.012,0.115,0.026,0.232,0.04,0.35c0.021,0.173,0.046,0.347,0.075,0.521
	c0.021,0.121,0.044,0.244,0.068,0.367c0.035,0.176,0.076,0.354,0.123,0.532c0.03,0.124,0.063,0.246,0.1,0.371
	c0.055,0.185,0.12,0.37,0.188,0.556c0.044,0.121,0.085,0.24,0.134,0.36c0.083,0.205,0.185,0.411,0.286,0.616
	c0.051,0.104,0.095,0.205,0.15,0.309c0.168,0.31,0.354,0.619,0.57,0.93c0.764,1.096,1.444,1.807,2.236,2.244
	c1.096,0.605,2.412,0.672,4.525,0.368c3.641-0.522,3.381-1.567,5.721-3.396c1.318-1.03,1.89-2.153,2.326-3.536
	c0.302-0.953,0.55-2.039,0.918-3.308c0.046-0.157,0.087-0.308,0.137-0.472c1.041-3.396,0.78-5.486,0.78-6.271
	c0-0.45,0.684-1.333,1.219-2.201c0.396-0.641,0.712-1.273,0.602-1.717c-0.018-0.071-0.044-0.162-0.076-0.266
	c-0.009-0.03-0.021-0.067-0.032-0.1c-0.025-0.082-0.053-0.168-0.086-0.265c-0.013-0.039-0.028-0.083-0.043-0.125
	c-0.037-0.105-0.076-0.217-0.119-0.337c-0.015-0.039-0.029-0.08-0.044-0.121c-0.052-0.14-0.105-0.285-0.164-0.441
	c-0.012-0.03-0.023-0.061-0.035-0.092c-0.303-0.791-0.698-1.764-1.161-2.814c0-0.004-0.002-0.007-0.004-0.011
	c-0.688-1.563-1.518-3.291-2.396-4.835c-2.08-3.658,1.041-5.748,3.641-8.622c2.601-2.874,5.722-3.397,9.883-6.009
	c4.16-2.613,3.9-4.703,5.2-6.532c1.3-1.829,1.82,0.522,4.421,0.522s3.12,0.784,5.98,0
	C412.228,341.919,415.349,341.135,414.828,339.829z"/>
<path fill="#FFFFCC" stroke="#F58220" stroke-width="0.782" stroke-miterlimit="10" d="M365.938,391.039
	c-1.609-2.311-1.795-4.619-1.816-6.568c-0.003-0.255-0.004-0.506-0.004-0.748c0-2.09,0.78-3.657,0.78-5.748
	c0-2.09,1.561-4.964-1.04-5.486s-6.761-1.045-6.761-1.045s1.819,2.874-1.301,1.828c-3.12-1.045-3.641-2.873-4.94-4.702
	c-1.301-1.829-6.502,0-7.021-1.829c-0.521-1.829-1.561-4.964-2.341-4.964s-5.201-1.306-5.201-1.306l-2.08-2.352
	c0,0-2.08-0.522-2.601,1.045c-0.521,1.568-1.04-2.09-3.641,0c-2.601,2.09,0,5.226-3.38,5.487c-3.382,0.261-8.582-1.306-8.582-1.306
	l-0.261-3.658c0,0-1.82-0.784-4.16,0c-2.341,0.784-9.622,4.181-10.143,2.874c-0.52-1.306,2.602-3.658,2.861-5.486
	c0.26-1.829-0.521-3.397-1.04-4.442c-0.521-1.045,2.08-0.261-0.521-1.045s-2.601-1.307-5.721,1.045
	c-3.121,2.352-4.682,3.396-4.682,3.396s1.041,0.522-1.3,1.829c-2.341,1.306-1.3,1.829-3.901,1.567c-2.6-0.261-2.6-0.261-2.6-0.261
	s-0.52,0.784-2.34,0.261c-1.821-0.522-0.261,0.784-1.821-0.522c-1.56-1.306,0.78,0.261-5.98-0.261
	c-6.762-0.522-5.722-2.613-5.981-3.396s-1.04-5.487-1.04-6.271c0-0.784,1.04-1.568-1.82-0.261c-2.86,1.306-3.12,0.784-5.461,2.351
	c-2.341,1.568-3.641,3.397-2.341,5.226c1.3,1.829,1.3,4.964,3.121,7.577c1.82,2.612,1.82,5.748,2.6,7.577
	c0.78,1.828,3.901,3.396,4.682,4.18c0.779,0.784,0,6.793-1.82,8.361c-1.82,1.567-7.541-2.09-7.541-2.09s-1.301-1.568-2.341-1.045
	c-1.04,0.521-2.081,2.09-3.381,1.045s-2.08-3.136-2.86-5.227c-0.78-2.09,0.26-3.135-0.78-5.486s-0.261-7.054,1.04-10.189
	s3.381-1.307,2.86-4.181s-1.56-6.271-1.04-7.054s2.601-1.306,7.021-3.919s4.421-3.135,4.94-5.226
	c0.521-2.09,3.381-4.703,4.421-8.361c1.041-3.658,2.081-4.18,2.861-7.838c0.779-3.658-0.78-4.703-1.82-6.793
	c-1.041-2.09-3.642-5.226-5.201-5.748c-1.561-0.522-1.561-0.522-1.561-0.522s-0.78,0.784-4.421-0.261s-3.641-1.045-3.641-1.045
	s-1.04,0-2.081-0.262c-1.039-0.261-2.6-0.522-2.6-0.522s-0.045,0.018-0.115,0.049c-0.455,0.201-2.247,1.089-4.046,3.348
	c-2.08,2.613-1.82,2.09-5.201,3.918c-3.38,1.83-6.761,4.704-12.742,7.578s-4.94,3.396-9.102,4.964
	c-4.16,1.568-3.641,4.18-6.241,5.226c-2.601,1.045-4.681,3.658-6.501,7.054s-1.04,7.055,4.421,9.928
	c5.461,2.875,4.94,1.568,7.801,1.568s5.201-1.306,8.062-1.829c2.86-0.522,2.86,3.658,1.561,7.577s-6.762,0.784-11.182,1.045
	c-4.421,0.262-0.78,3.658,0,6.793c0.78,3.136,3.12,4.965,1.82,7.316c-1.301,2.352-3.121,2.09-4.421,1.828
	c-1.301-0.261,0.521,4.703,1.82,8.361s0.26,2.874-3.121,2.613c-3.38-0.262-4.16-1.046-7.281-1.568
	c-3.12-0.522-6.241-2.874-9.361-2.09c-3.121,0.783-2.341,4.18-3.121,6.01c-0.779,1.828-1.82,2.612-3.641,4.18
	c-1.82,1.568-4.42,1.829-5.98,1.568c-1.561-0.262-3.641-2.352-4.421-3.397c-0.78-1.045,3.9-1.567,5.461-1.829
	c1.561-0.261,0.78-3.919,1.561-6.009c0.779-2.091,0.779-2.352,1.56-3.136c0.78-0.783,1.561-5.225,0.261-8.621
	c-1.3-3.397-3.381-1.046-5.201-1.046s-7.541-0.784-11.183-1.567c-3.641-0.784,2.081-5.226,2.341-7.055
	c0.261-1.829-4.161,1.568-5.981,2.613c-1.819,1.045-4.94,0.784-3.9,1.829s2.601,1.045,1.561,1.829s-2.601,2.352-4.161,3.136
	c-1.56,0.783-1.04,2.09-1.04,2.09s0,0,0,3.92c0,3.918,0,1.828,2.08,4.18c2.081,2.352,2.341,3.658,3.121,6.793
	c0.779,3.136,0,4.965-1.301,7.577c-1.3,2.613-0.26,2.875-1.56,5.227c-0.942,1.703-3.248,4.227-5.239,6.086
	c-0.756,0.707-1.47,1.32-2.043,1.752c-2.08,1.568,4.161,2.089,2.602,3.658c-1.554,1.561-7.484,4.154-9.077,3.146
	c0.07,0.596,0.146,1.146,0.229,1.605c0.56,3.092,2.798,3.373,2.518,6.465c-0.279,3.092-0.559,2.811-3.077,4.498
	c-2.518,1.688-4.196,5.342-3.078,5.904c1.12,0.563-0.56,3.373-1.399,3.654c-0.838,0.281-2.797,1.686-1.398,4.498
	c0.168,0.336,0.29,0.65,0.395,0.953c0.456,1.328,0.397,2.342,0.525,2.994c0.087,0.445,0.261,0.73,0.759,0.832
	c1.399,0.281,4.478-1.688,6.436-0.563c1.959,1.125,1.12,3.092,3.078,6.746c1.959,3.654,4.477,1.688,7.274,3.094
	c2.799,1.404,4.477,3.936,7.835,4.496c3.357,0.563,4.197,1.688,10.632,2.25c6.436,0.563,11.193-1.688,12.871,0.563
	c1.679,2.248,3.637,9.277,6.155,8.152s8.114-1.969,9.233-4.498c1.12-2.531,1.12-4.498,3.639-7.59
	c2.518-3.092,1.679-3.938,7.555-4.779c5.875-0.844,9.233-2.531,10.912-0.563s1.398,4.498,0.279,5.061s-0.56,3.092,1.959,3.092
	s6.995,1.967,9.513,0.281c2.519-1.688,8.115-4.779,8.954-4.779s12.592,3.654,15.669,2.531c3.077-1.125,10.072-4.779,11.472-4.779
	s3.357,0.842,6.995,1.686c3.637,0.844,5.316,1.688,10.353,1.688c1.676,0,3.222,0.031,4.556,0.105
	c2.679,0.145,4.491,0.455,4.678,1.02c0.28,0.842,4.757,3.092,4.757,4.496c0,0.461,0.423,0.463,0.99,0.146
	c1.16-0.65,2.926-2.656,2.926-4.924c0-3.373,0.84-3.938,2.799-7.592s0.839-6.184,3.077-10.119c2.239-3.936,4.478-7.59,5.597-8.434
	s4.196,0.563,8.114-1.969c3.917-2.529,6.716-3.373,8.394-7.871c1.679-4.498-0.279-4.217,3.358-6.746
	c3.637-2.531,7.274-4.498,5.596-7.309c-1.679-2.812-5.036-4.216-8.114-5.341s-5.597,2.248-6.715,0.561
	c-1.119-1.686,1.119-5.059,1.119-5.059s0.279-1.688,0-3.654c-0.28-1.969-0.841-3.655,0.839-2.812
	c1.679,0.843,3.358,1.405,4.478,1.405c1.118,0,2.518-0.563,6.715-0.563s6.436,1.688,8.114,1.969s3.357-0.564,4.196-1.407
	c0.84-0.843,3.079-2.811,4.478-2.811c0.405,0,1.517,0.471,2.854,0.826C367.383,392.846,366.702,392.135,365.938,391.039z"/>
<path fill="#FFFFCC" stroke="#F58220" stroke-width="0.782" stroke-miterlimit="10" d="M499.083,364.824
	c-2.427-2.787-3.813-4.529-4.681-6.096c-0.535-0.968-0.938-2.798-1.413-4.426c-0.188-0.071-0.471-0.103-0.824-0.117
	c-0.907-0.037-2.336,0.049-4.231-0.057c-3.083-0.172-3.083,1.721-3.769,1.721s-1.884,1.893-3.425,3.442
	c-1.542,1.549-1.028,3.441-2.741,6.711c-1.713,3.271-1.37,2.754-1.541,6.368c-0.172,3.614-1.885,1.032-4.454,1.548
	c-2.569,0.518-6.681,0.861-8.564,1.895c-1.885,1.032-1.541,3.096-2.741,3.785c-1.198,0.688-2.226-0.172-3.082-2.064
	c-0.857-1.895-2.74-3.442-4.282-5.163c-1.542-1.722-7.708-2.926-9.935-4.303s-2.056,1.894-3.769,3.614
	c-1.712,1.721-1.37,3.958-5.995,4.303c-4.625,0.344-2.912,0.516-6.68,2.064c-3.769,1.549-3.598,1.721-6.338,0.859
	c-2.741-0.859-4.282-2.064-6.681-0.859s-2.397,2.237-4.11,2.926s-4.968-3.786-5.996-4.99c-1.027-1.205-4.11,0.172-5.138-0.861
	c-1.027-1.031-1.713-0.859-4.282,0.172c-2.569,1.033-3.597,0.861-7.023,0.345c-0.936-0.141-2.219-0.595-3.587-1.173
	c-0.535,0.868-1.219,1.751-1.219,2.201c0,0.785,0.261,2.875-0.78,6.271c-0.047,0.153-0.084,0.293-0.128,0.44
	c-0.374,1.283-0.622,2.378-0.927,3.339c0.883,0.814,1.82,1.863,2.354,3.014c1.214,2.613,4.681,5.051,5.201,6.444
	c0.521,1.395,1.562,3.834,2.428,5.053s3.294,2.611,4.507,2.264c1.214-0.348,1.907-1.393,1.907-1.393s-0.521,5.051,0.173,5.922
	c0.694,0.871,1.734,2.263,1.734,4.353c0,2.092,3.467,5.924,6.067,6.969s3.121,1.566,2.254,3.135s-3.467,4.18-4.507,4.529
	c-0.865,0.289-3.4,2.021-4.333,3.297c-0.19,0.26-0.319,0.502-0.349,0.709c-0.134,0.943-0.151,2.299,0.885,3.27
	c0.305,0.283,0.686,0.539,1.195,0.736c2.254,0.871,2.254,2.09,4.161,1.742c1.907-0.35,3.294-1.742,7.108-1.742s6.414,0.35,9.535,0
	c3.12-0.348,4.334-1.219,4.16,0c-0.173,1.219,0.174,4.355-0.346,6.271c-0.521,1.916-1.388,2.438,0.173,2.961
	c1.561,0.521,2.601,1.74,3.12,1.566c0.521-0.174,0-2.611,2.602-2.611c2.6,0,3.64-0.871,4.507-0.35
	c0.866,0.523,4.16,1.395,5.721,2.092c1.561,0.695,2.601,3.832,3.987,2.611c1.387-1.219,2.774-0.174,2.947-3.135
	c0.174-2.961,0.174-4.529,0.174-7.49s0.347-6.619,1.387-5.922c1.041,0.697,4.16,2.611,6.414,3.832
	c2.254,1.219,8.669,2.439,8.842,3.309c0.174,0.871,2.428,2.266,3.468,2.613c0.259,0.086,0.538,0.021,0.797-0.164
	c0.782-0.561,1.372-2.227,0.59-4.191c-1.04-2.611-2.601-5.922-3.987-7.314c-0.119-0.119-0.258-0.244-0.404-0.371
	c-0.034-0.029-0.069-0.059-0.106-0.09c-0.149-0.125-0.306-0.252-0.474-0.383c-0.012-0.008-0.023-0.018-0.035-0.025
	c-0.168-0.129-0.344-0.26-0.524-0.391c-0.038-0.027-0.075-0.055-0.112-0.082c-0.191-0.139-0.387-0.277-0.584-0.416h-0.002
	c-1.416-0.998-2.942-2.018-3.479-2.771c-0.867-1.219-0.174-3.658,0.173-4.877s-1.733-0.174-4.681-1.045s-3.121-1.568-4.681-2.264
	c-1.561-0.697-4.509-1.047-5.548-1.916c-1.041-0.871-1.733-3.658-1.214-6.619c0.521-2.961,2.255-3.311,3.468-4.182
	c1.214-0.871,2.253-2.264,3.986-1.045c1.734,1.221,3.121,4.182,4.855,3.137c1.732-1.045,3.294-4.182,4.681-4.703
	c1.386-0.523,3.293-0.35,5.895-1.742c2.6-1.395,4.161-3.659,4.507-4.704c0.347-1.045,4.161,0,5.201,0.349s1.388-0.175,3.641-1.394
	c2.254-1.219,0.867-2.613,0.693-3.136c-0.173-0.522,2.254-0.348,4.334-1.394c2.08-1.045,1.734,0.523,3.814-2.438
	c2.08-2.962,2.947-3.311,4.681-6.619c1.733-3.311,2.254-2.961,2.774-6.619c0.52-3.658,0.173-5.922,0.692-6.793
	C497.696,365.695,501.511,367.611,499.083,364.824z"/>
<path fill="#FFFFCC" stroke="#F58220" stroke-width="0.782" stroke-miterlimit="10" d="M547.8,316.75
	c-0.17-0.939-0.507-2.206-0.764-2.502c-0.006-0.006-0.012-0.018-0.018-0.023c-0.215-0.216-1.516-0.498-3.677-1.082
	c-0.446-0.121-0.917-0.25-1.437-0.399c-3.034-0.871-3.555-1.045-4.595-1.655c-1.04-0.61-3.294-0.436-5.027-0.522
	c-1.733-0.087-2.514-0.087-4.507-0.784c-1.994-0.696-3.382-1.045-4.942-2.352c-1.56-1.306-1.732-3.135-1.993-3.919
	c-0.135-0.403-1.072-1.269-1.951-2.013c-0.006,0.12-0.02,0.215-0.043,0.271c-0.074,0.188-0.623,0.308-1.27,0.387
	c-0.855,0.104-1.89,0.136-2.284,0.136c-0.693,0-1.821,1.567-3.728,0.435s-2.514-1.742-2.773-1.132
	c-0.26,0.609-1.733,0.871-2.514,0.522s-1.475-1.916-2.514-1.567c-1.041,0.348-1.907,0.262-2.774,0.436
	c-0.441,0.088-1.017,0.108-1.5,0.073c0.128,0.832,0.484,1.765,1.327,2.975c2.427,3.484,4.16,5.052,4.16,7.664
	c0,2.613-0.866,1.916-1.906,5.574c-0.196,0.692-0.357,1.294-0.505,1.855c0.959,0.757,2.231,1.799,3.182,2.647
	c1.542,1.377,0.514,2.237-1.199,3.614c-1.714,1.377-6.852,4.647-8.051,5.679c-1.198,1.033-1.028,3.098-0.514,5.679
	c0.514,2.582,1.028,2.582,2.397,4.303c1.37,1.721,2.056,2.065,2.056,3.958c0,1.894-1.028,1.721-1.884,2.409
	c-0.856,0.688-2.398,0.688-3.939,3.27c-1.542,2.582,0.685,1.376,0,3.27c-0.686,1.893-1.027,1.033-1.371,0.517
	c-0.049-0.075-0.141-0.127-0.254-0.17c0.475,1.628,0.878,3.458,1.413,4.426c0.867,1.567,2.254,3.309,4.681,6.096
	c2.428,2.787-1.387,0.871-1.907,1.742c-0.52,0.871-0.173,3.135-0.692,6.793c-0.521,3.658-1.041,3.309-2.774,6.619
	c-1.733,3.309-2.601,3.657-4.681,6.619c-2.08,2.961-1.734,1.393-3.814,2.438c-2.08,1.046-4.507,0.871-4.334,1.394
	c0.174,0.522,1.561,1.917-0.693,3.136c-2.253,1.219-2.601,1.742-3.641,1.394s-4.854-1.394-5.201-0.349
	c-0.346,1.045-1.907,3.309-4.507,4.704c-2.602,1.393-4.509,1.219-5.895,1.742c-1.387,0.521-2.948,3.658-4.681,4.703
	c-1.734,1.045-3.121-1.916-4.855-3.137c-1.733-1.219-2.772,0.174-3.986,1.045c-1.213,0.871-2.947,1.221-3.468,4.182
	c-0.52,2.96,0.173,5.748,1.214,6.619c1.039,0.869,3.987,1.219,5.548,1.916c1.56,0.695,1.733,1.393,4.681,2.264
	s5.027-0.174,4.681,1.045s-1.04,3.658-0.173,4.877c0.536,0.754,2.063,1.773,3.48,2.771c0.876,0.617,1.711,1.225,2.24,1.758
	c1.387,1.393,2.947,4.703,3.987,7.314c0.782,1.965,0.192,3.631-0.59,4.191c0.265,0.799,0.573,1.541,1.11,2.08
	c1.56,1.568,2.254-0.086,3.814,1.045c1.56,1.133,0.605,0.871,0.692,3.137c0.087,2.264,2.515,1.74,4.247,1.393
	c1.734-0.35,0.608,1.48,1.214,2.699c0.606,1.219,4.248,2.961,5.548,3.396c0.523,0.176,1.241,0.35,1.969,0.496
	c1.086,0.219,2.194,0.375,2.712,0.375c0.867,0,1.474-0.26,4.421-1.393c2.948-1.133,4.681-4.355,5.375-5.139
	c0.693-0.783,1.907-4.703,1.561-6.357c-0.348-1.656-1.646-1.568-2.947-2.613s-1.301-3.223-1.301-4.441s-0.434-1.742,3.207,0.783
	s1.994,2.525,3.207,5.922c1.214,3.396,0.261,6.707,1.388,8.361s4.247-2.525,6.241-3.309c1.994-0.785,2.86-0.697,2.427-2.875
	c-0.435-2.178,0.606-5.66,2.254-6.27c1.647-0.611,1.646,2.178,3.207,1.654c1.56-0.523,1.82-2.525,0.174-4.791
	c-1.646-2.264-2.341-5.398-2.081-5.398c0.261,0,5.808,1.131,5.808,0.174s-1.646-1.395-3.12-4.529
	c-1.475-3.135,1.387,0.35,3.381-0.783c1.993-1.133,1.3-0.174,0.866-2.09c-0.433-1.916-0.347-3.92-0.087-5.922
	c0.261-2.004-0.779-2.439-2.167-3.137c-1.387-0.695-2.946-0.783-5.287-2.264c-2.341-1.48,0.953-1.306,1.82-2.265
	c0.867-0.957,1.561-1.74,0.866-2.699c-0.693-0.957-1.301-2.178-3.381-3.658c-2.08-1.479-1.906-4.441-1.732-5.922
	c0.173-1.481,2.08-3.135,2.773-4.964s0.693-3.57,1.3-5.226c0.606-1.654,0.347-2.961-0.866-3.919
	c-1.214-0.958-5.201-1.219-7.802-2.352c-2.601-1.132-7.714-5.399-8.668-6.88s0.606-3.31,1.04-4.268
	c0.434-0.957,2.6-4.529,3.381-4.006c0.78,0.522,3.9-0.435,3.987-0.696s1.04-4.529,0.867-5.487c-0.174-0.958,2.773-2.352,4.247-2.525
	c1.473-0.174,9.188,0.522,9.015-0.523c-0.173-1.045-2.08-3.919-3.207-5.313s-4.594-2.961-9.015-5.051
	c-4.421-2.09-2.774-2.526-3.814-3.658c-1.041-1.132-4.074-4.441-4.334-5.313s0.26-3.919,0.953-4.964s4.248-3.658,5.114-4.877
	c0.867-1.219,1.907-3.658,1.474-4.093c-0.433-0.435-2.08-0.784-2.427-1.394s0.26-4.877,0.867-5.399
	c0.606-0.522,1.56,1.916,3.554,3.483c1.993,1.567,3.294,2.787,6.328,5.139c3.033,2.352,2.86-0.349,2.86-0.958
	s1.907-1.306,3.728-1.306s2.253,1.655,2.86,4.964c0.606,3.31,0.78,1.742,3.381,4.268c2.601,2.525,2.773,1.655,4.767,2.351
	c1.994,0.697,1.907,0.087,3.555-0.871c1.647-0.958,2.254-4.18,2.86-4.615c0.165-0.118,0.354-0.355,0.551-0.645
	c0.528-0.778,1.104-1.959,1.356-2.404c0.346-0.609,2.34-2.961,2.86-4.268S547.973,317.708,547.8,316.75z"/>
<polygon fill="#FFFFCC" stroke="#F58220" stroke-width="0.782" stroke-miterlimit="10" points="332.96,551.928 332.96,551.93 
	332.96,551.928 "/>
<path fill="#FFFFCC" stroke="#F58220" stroke-width="0.782" stroke-miterlimit="10" d="M405.119,419.344
	c-2.601-1.045-6.067-4.877-6.067-6.969c0-2.09-1.04-3.482-1.734-4.353c-0.693-0.871-0.173-5.922-0.173-5.922
	s-0.693,1.045-1.907,1.393c-1.213,0.348-3.641-1.045-4.507-2.264s-1.907-3.658-2.428-5.053c-0.521-1.393-3.987-3.831-5.201-6.444
	c-0.534-1.15-1.472-2.199-2.354-3.014c-0.437,1.383-1.008,2.506-2.326,3.536c-2.34,1.829-2.08,2.874-5.721,3.396
	c-2.113,0.304-3.43,0.237-4.525-0.368c-1.338-0.355-2.449-0.826-2.854-0.826c-1.398,0-3.638,1.968-4.478,2.811
	c-0.839,0.842-2.518,1.688-4.196,1.407s-3.917-1.969-8.114-1.969s-5.597,0.563-6.715,0.563c-1.119,0-2.799-0.563-4.478-1.405
	c-1.68-0.843-1.119,0.843-0.839,2.812c0.279,1.967,0,3.654,0,3.654s-2.238,3.373-1.119,5.059c1.118,1.688,3.637-1.686,6.715-0.561
	s6.436,2.529,8.114,5.341c1.679,2.811-1.959,4.777-5.596,7.309c-3.638,2.529-1.68,2.248-3.358,6.746
	c-1.678,4.498-4.477,5.342-8.394,7.871c-3.918,2.531-6.995,1.125-8.114,1.969s-3.357,4.498-5.597,8.434
	c-2.238,3.936-1.118,6.465-3.077,10.119s-2.799,4.219-2.799,7.592c0,2.268-1.766,4.273-2.926,4.924
	c0.283,0.764,0.458,1.242,0.458,1.242s-4.854,2.09-6.241,3.832c-1.387,1.74,1.388,3.832,3.468,6.27
	c2.08,2.439,0.347,4.182,2.08,6.967c1.733,2.787,0,4.529,0,5.924c0,1.393-0.347,3.482-4.507,4.877
	c-4.162,1.393-2.081,2.09,0.693,3.832c2.774,1.74,1.04,2.438,1.04,3.482c0,1.047-1.04,2.787,0.693,4.877
	c1.733,2.092,5.894,5.227,7.975,6.969c2.08,1.742,2.427,4.877-0.693,5.922s-3.813,0.697-6.241,0
	c-0.694-0.199-1.215-0.102-1.675,0.172c0-0.002-0.001-0.004-0.002-0.006c-0.016,0.01-0.03,0.025-0.046,0.035
	c-0.134,0.084-0.266,0.184-0.392,0.297c-0.019,0.018-0.038,0.033-0.056,0.051c-0.135,0.127-0.27,0.268-0.402,0.42
	c-0.007,0.008-0.014,0.016-0.021,0.023c-0.291,0.34-0.588,0.727-0.923,1.146c-0.003,0.004-0.006,0.008-0.009,0.012
	c-0.096,0.119-0.192,0.238-0.297,0.361c-0.129,0.152-0.264,0.309-0.407,0.463c-0.043,0.047-0.09,0.094-0.134,0.139
	c-0.127,0.135-0.261,0.268-0.401,0.398c-0.055,0.053-0.109,0.104-0.167,0.156c-0.193,0.174-0.395,0.346-0.616,0.512
	c-2.774,2.092-0.693,6.619-0.693,8.711c0,1.613-1.037,3.012-2.466,3.891c0.948,1.9,1.887,3.352,2.573,3.428
	c2.068,0.23,4.828-0.23,6.667,1.387c1.839,1.615,2.989,3.926,3.678,5.773c0.689,1.848,1.84,3.465,2.989,4.158
	c1.149,0.691,2.759,0.691,2.989,2.771c0.229,2.078,2.299,6.93,2.987,6.93c0.69,0,4.369-0.002,5.748-0.232
	c0.979-0.164,2.3-0.342,3.234-1.252c0.381-0.371,0.703-0.85,0.903-1.52c0.534-1.787,0.387-4.119,0.822-5.621
	c0.128-0.438,0.298-0.816,0.558-1.076c1.149-1.156,4.138-4.619,6.437-6.93s4.367-4.389,4.827-6.006s4.369-2.309,5.978-5.082
	c1.609-2.771-0.46-7.391-0.46-11.316c0-3.928-3.218-5.545-3.907-10.164c-0.69-4.619-1.84-3.465-2.989-6.697
	c-1.149-3.234-0.23-6.236,1.379-5.545c1.61,0.693,1.15,0.693,4.139,2.08c2.988,1.385,2.528,2.541,5.287,3.002
	c2.759,0.463,1.38,0.463,5.518,1.617s4.368,0.924,4.368-1.154c0-2.08-0.46-3.004-1.15-3.234c-0.688-0.23-4.597,0-5.747-1.385
	c-1.148-1.387-1.148-6.469-1.148-8.777c0-2.311-1.38-9.934-1.38-11.781s3.678-2.771,4.827-4.619c1.15-1.848,1.839-5.543,3.219-5.543
	s6.896,0.23,8.736,0.463c1.839,0.23,3.219,3.695,5.058,0c1.839-3.697,3.908-5.314,4.598-6.469s0.689-4.387,1.149-7.16
	c0.46-2.771,3.679-9.238,4.828-11.086c1.149-1.85-1.61-5.082,1.379-6.006s3.449-1.617,7.127-3.002
	c1.088-0.41,2.276-1.045,3.481-1.773c-1.036-0.971-1.019-2.326-0.885-3.27c0.014-0.098,0.055-0.203,0.107-0.314
	c0.009-0.018,0.019-0.035,0.028-0.055c0.057-0.107,0.126-0.221,0.213-0.34c0.933-1.275,3.468-3.008,4.333-3.297
	c1.04-0.35,3.64-2.961,4.507-4.529S407.72,420.389,405.119,419.344z"/>
<path fill="#FFFFCC" stroke="#F58220" stroke-width="0.782" stroke-miterlimit="10" d="M316.01,513.402
	c-2.081-1.742-6.241-4.877-7.975-6.969c-1.733-2.09-0.693-3.83-0.693-4.877c0-1.045,1.734-1.742-1.04-3.482
	c-2.774-1.742-4.855-2.439-0.693-3.832c4.16-1.395,4.507-3.484,4.507-4.877c0-1.395,1.733-3.137,0-5.924
	c-1.733-2.785,0-4.527-2.08-6.967c-2.08-2.438-4.854-4.529-3.468-6.27c1.388-1.742,6.241-3.832,6.241-3.832
	s-0.175-0.479-0.458-1.242c-0.567,0.316-0.99,0.314-0.99-0.146c0-1.404-4.477-3.654-4.757-4.496
	c-0.021-0.064-0.069-0.123-0.131-0.182c-0.018-0.016-0.04-0.031-0.061-0.047c-0.056-0.043-0.121-0.084-0.199-0.123
	c-0.026-0.014-0.05-0.027-0.079-0.039c-0.229-0.102-0.531-0.191-0.903-0.268c-0.03-0.008-0.063-0.014-0.095-0.02
	c-0.174-0.035-0.36-0.068-0.562-0.098c-0.022-0.004-0.045-0.008-0.069-0.01c-0.473-0.07-1.014-0.127-1.613-0.172
	c-0.004-0.002-0.007-0.002-0.011-0.002c-0.304-0.023-0.622-0.043-0.955-0.061c-0.001,0-0.001,0-0.001,0.002
	c-1.336-0.074-2.875-0.107-4.555-0.107c-5.036,0-6.716-0.844-10.353-1.688c-3.638-0.844-5.596-1.686-6.995-1.686
	s-8.395,3.654-11.472,4.779c-3.077,1.123-14.83-2.531-15.669-2.531s-6.436,3.092-8.954,4.779c-2.518,1.686-6.994-0.281-9.513-0.281
	s-3.078-2.529-1.959-3.092s1.399-3.092-0.279-5.061s-5.037-0.281-10.912,0.563c-5.876,0.842-5.037,1.688-7.555,4.779
	c-2.519,3.092-2.519,5.059-3.639,7.59c-1.119,2.529-6.715,3.373-9.233,4.498s-4.477-5.904-6.155-8.152
	c-1.678-2.25-6.436,0-12.871-0.563c-6.435-0.563-7.274-1.688-10.632-2.25c-3.358-0.561-5.036-3.092-7.835-4.496
	c-2.798-1.406-5.315,0.561-7.274-3.094c-1.958-3.654-1.119-5.621-3.078-6.746c-1.958-1.125-5.036,0.844-6.436,0.563
	c-0.498-0.102-0.672-0.387-0.759-0.832c-1.16,1.131-2.245,2.188-2.838,2.729c-1.502,1.371-4.369,1.646-4.233,2.744
	c0.138,1.098-1.093,4.115-0.955,5.898c0.136,1.783,1.911,1.234,5.188,1.098c3.276-0.139,7.782-0.137,6.826,0.137
	s-5.324,2.332-7.373,3.703c-2.048,1.373-1.912,2.744-4.096,3.842c-2.186,1.098-6.417,2.881-5.871,3.293s3.414,2.332,6.145,3.84
	c2.73,1.51,3.686,6.174,0.682,8.643c-3.003,2.469-2.594,1.51-6.279,1.098c-3.688-0.412-5.462-3.293-4.643-1.783
	c0.819,1.508,1.638,3.018,1.502,5.35c-0.137,2.332-1.229,2.332-1.912,4.801s-1.774,4.391-5.324,5.213s-7.101-0.822-8.875-0.822
	c-0.793,0-1.465-0.174-1.918-0.479c-0.196,0.512-0.36,1.053-0.465,1.631c-0.693,3.832-2.08,8.012-0.693,12.193
	c1.387,4.18,0.693,2.787,1.041,7.314c0.346,4.529,1.732,5.924,2.426,9.756s0.347,4.18,1.04,9.404
	c0.694,5.227,2.081,9.059,2.774,11.496c0.693,2.439,1.387,6.969,2.773,12.891c1.388,5.922,3.121,17.07,4.508,23.689
	s1.581,17.621,3.467,23.688c5.561,17.885,12.635,20.324,14.022,22.414c1.021,1.537,0.396-8.74,1.187-9.932
	c0.28-0.424,1.231-0.104,1.781-0.289c2.08-0.697,4.162-1.393,5.548-4.18c1.387-2.787,4.508-5.227,4.161-7.316
	c-0.348-2.09-2.08-3.832-3.12-6.27c-1.041-2.439,0-4.877,2.079-6.271c2.081-1.395,5.201-1.742,8.669-4.529
	c3.467-2.787,4.508-6.967,9.015-5.922c4.508,1.045,8.322-0.35,12.135-0.697c3.814-0.348-1.039-3.482,0.348-8.012
	s-1.387-7.664,3.467-5.574c4.855,2.09,11.442,2.787,13.87,2.787c2.427,0,1.04-1.045,3.12-5.225c2.08-4.182,5.201-7.316,7.628-7.316
	s2.773-3.832,6.588-6.619s2.081-7.314,5.201-8.012s7.281-1.742,8.669-0.35c0.34,0.342,0.533,0.389,0.663,0.23
	c0.399-0.486,0.193-2.92,1.764-4.758c0.373-0.438,0.744-0.873,1.108-1.301c0.048-0.057,0.096-0.113,0.144-0.17
	c0.374-0.441,0.737-0.869,1.083-1.281c0.01-0.014,0.022-0.027,0.032-0.039l0,0c1.133-1.35,2.066-2.498,2.486-3.133
	c0.693-1.045,3.814-3.83,3.814-3.83s-3.468-4.182-3.121-8.014s1.388-4.529,3.815-3.482c2.426,1.045,4.16,1.393,4.854,0.348
	s0.346-2.09,2.773-4.877s2.428-10.104,2.428-10.104s5.201-1.395,7.628,0.348s1.733,3.832,6.935,5.227
	c5.201,1.393,5.894,2.787,5.894,2.787s5.548-1.742,6.588-1.742c1.041,0,9.708-1.393,11.096,0.697s2.081,8.012,1.733,9.754
	c-0.346,1.742-0.346,9.057,0.693,10.451c1.041,1.393,3.468,3.832,5.549,3.135c0.475-0.158,0.926-0.379,1.348-0.637
	c1.429-0.879,2.466-2.277,2.466-3.891c0-2.092-2.081-6.619,0.693-8.711c1.979-1.49,2.726-3.332,3.871-4.014
	c0.46-0.273,0.981-0.365,1.677-0.166c2.428,0.697,3.121,1.045,6.241,0S318.09,515.145,316.01,513.402z"/>
<path fill="#FFFFCC" stroke="#F58220" stroke-width="0.782" stroke-miterlimit="10" d="M227.08,779.834
	c-0.731-0.92-5.304-2.941-5.304-3.676c0-0.736,2.012-5.33,2.012-7.168s0.365-4.594,0.549-6.064s0.548-4.779-1.646-4.594
	c-2.195,0.184-4.573,3.307-6.951,2.203c-2.377-1.102-3.109-4.041-2.561-5.879c0.549-1.84,0.549-2.941,0.732-5.514
	c0.183-2.574,0.549-2.574-0.549-3.676c-1.098-1.104-3.476-1.471-3.476-2.574c0-1.102,2.012-0.734,1.464-3.49
	c-0.549-2.756,0.914-4.227-1.464-4.227s-5.305,0.551-5.67-0.367c-0.366-0.92,2.013-0.369-0.366-2.941
	c-2.377-2.574-4.756-4.41-4.756-4.41s0-0.184,1.646-1.838c0.721-0.725,1.471-1.729,2.123-2.709c-1.341-0.363-0.24-0.693-1.391-1.705
	c-0.536-0.471-1.488-1.09-2.508-1.711c-1.766-1.078-3.73-2.166-4.077-2.516c-0.55-0.551-2.562,0.553-2.562,0.553
	s-8.597-4.779-11.523-7.352c-2.927-2.574-10.06-10.477-10.975-11.578c-0.849-1.023-4.994-2.99-5.592-3.271
	c0.319,1.434,0.824,3.252,1.567,4.742c1.462,2.941,4.755,9.006,7.499,12.682c2.743,3.676,6.036,5.881,7.499,9.924
	c1.464,4.043,3.476,4.227,5.671,10.107c2.194,5.881,3.475,10.293,4.207,13.783c0.73,3.492,3.108,5.146,3.657,7.902
	s4.939,10.293,5.671,12.865s2.927,10.291,3.293,12.129c0.365,1.838-1.83,2.205-1.83,2.205s1.282,4.227,2.379,6.615
	c1.098,2.391,0.366,3.678,3.109,7.719c2.744,4.045,10.794,12.313,13.537,15.254c0.509,0.545,0.954,0.803,1.338,0.842
	c1.688,0.172,2.184-3.945,1.587-7.09c-0.731-3.859-1.28-5.328-1.097-5.881c0.183-0.551,0.366-4.043-0.184-5.146
	c-0.549-1.102,0.183-2.02,2.013-5.145C225.983,785.713,227.812,780.752,227.08,779.834z"/>
<path fill="#FFFFCC" stroke="#F58220" stroke-width="0.782" stroke-miterlimit="10" d="M414.828,525.072c0,0-4.941,3.135-5.722,3.92
	c-0.78,0.783-4.681,4.701-7.801,5.748c-3.121,1.045-5.461-1.83-8.322-3.92c-2.86-2.09-3.641-4.18-4.42-4.965
	c-0.781-0.783-3.901,0.785-3.901,0.785s-2.86,1.566-3.641,3.135s0.521,3.135,0.521,3.135s-3.9,1.568-5.981,2.875
	c-2.08,1.307-2.86,3.135-2.86,3.135s-0.52,3.92-0.78,6.793c-0.261,2.875-4.421,0-4.421,0s-4.16,2.613-4.941,2.613
	c-0.779,0-2.34-2.613-2.6-4.182c-0.261-1.566-1.82-0.783-3.381,1.83s-2.081,7.314-2.601,8.621c-0.521,1.307-3.9,0.523-5.722,0
	c-1.819-0.521-3.64,2.352-7.28,3.396c-0.6,0.172-1.094,0.359-1.524,0.553c-0.671,1.486-1.969,3.393-3.902,4.797
	c-3.292,2.389-1.097,3.123-2.012,5.697c-0.914,2.572-2.743,3.492-4.756,4.227s-4.938,2.756-9.145,3.676
	c-4.208,0.918-1.281,1.285-3.477,3.123s-1.463-0.367-5.853-0.367s-3.109,0.734-5.305,1.287c-2.195,0.551-4.024,1.654-6.22,2.205
	s-2.377,6.432-4.023,7.352c-1.646,0.918-5.854-0.184-15.182,1.102s-3.841,5.697-3.841,7.352s-2.379,4.043-4.573,4.043
	c-2.195,0-2.195,1.838-5.854,4.227c-3.658,2.391-5.488-0.184-7.865-0.367s-6.585,2.572-9.328,4.043
	c-2.744,1.471-2.927,1.287-7.135,1.654c-2.957,0.258-7.081-1.117-9.339-2.404c-1.53,0.031-2.904-0.178-4.196-0.352
	c-2.743-0.367-6.585,0.367-7.865,1.654s-1.463,6.248-1.829,9.188c-0.366,2.941,0.183,3.309,2.195,5.697
	c2.011,2.389,1.28,4.596,0.548,6.984c-0.73,2.389-7.499,0.918-7.316,1.654c0.184,0.734,1.098,3.492,0.184,5.697
	s-0.184,5.697,0.731,6.982c0.915,1.287,1.28,2.205,0.731,4.043c-0.549,1.84,3.841,3.859,3.841,3.859s4.756-0.551,7.317-0.184
	c2.561,0.367,0.73,2.391,0.73,2.941s-7.498,1.469-7.682,2.756c-0.182,1.285-0.914,3.125-0.914,4.777c0,1.654,1.28,2.574,2.012,1.654
	c0.731-0.918,4.391-1.285,5.121-1.654c0.731-0.365,2.744,0.92,2.744,0.92s0.366,2.389,2.562,3.123s2.744-0.734,5.487-2.572
	c2.743-1.836,4.572-2.389,6.402-3.309c1.829-0.918,2.012,0.736,2.743,1.471c0.732,0.734,2.013,5.146,2.561,5.881
	c0.549,0.736,3.841,1.654,4.391,2.021c0.549,0.367,0.731,4.41,0.731,6.248s3.109,0.92,3.658,1.104s0.184,5.145-0.914,7.902
	c-1.099,2.756-3.659,3.307-5.122,3.859c-0.624,0.234-1.347,0.736-2.042,1.191c1.633,1.625,0.963,2.756,3.872,4.139
	c3.476,1.654,1.829-1.102,3.292-2.939c1.464-1.838,2.195-5.514,5.854-7.535s5.67,0.734,9.877-0.551
	c4.207-1.287,1.281-0.184,3.842-1.838s3.293-3.125,6.95-4.043c3.658-0.92,2.927,0.734,5.671,1.285
	c2.743,0.553,1.463-0.184,2.926-2.205c1.377-1.902,3.082-4.113,4.956-4.982c0.219-0.629,0.409-1.248,0.531-1.816
	c0.549-2.574,3.658-3.492,2.927-6.617c-0.732-3.123-0.915-3.676-1.646-6.982c-0.731-3.309,0-4.045,0.366-6.984
	c0.365-2.939-0.732-2.389-0.732-6.248c0-3.857-1.464-13.232-1.464-16.723c0-3.494,2.013-5.146,3.11-7.352
	c1.097-2.205,4.024-5.697,6.95-8.27c2.927-2.574,7.5-0.92,9.694-0.92c2.196,0,2.562,1.654,2.562,1.654s3.658-3.125,4.756-4.963
	s2.743-7.166,5.67-9.555c2.926-2.391,10.063-0.553,11.16-0.553c1.097,0,4.206-1.102,5.67-1.654c1.463-0.551,5.853-2.941,6.219-4.043
	c0.365-1.102-0.184-6.248,0.183-8.27c0.365-2.021,2.013-3.309,3.293-6.617c1.28-3.307,4.024-3.123,5.67-4.594
	c1.646-1.471,6.95-3.492,11.341-6.248c4.39-2.758,4.023-2.572,6.585-4.41c2.561-1.838,2.561-4.779,3.841-6.984
	c1.279-2.205,6.402-3.492,8.963-5.146c2.561-1.652,9.693-7.533,12.438-10.658s7.683-9.373,9.146-11.211
	c0.798-1.002,1.647-3.256,2.258-5.102C414.958,524.969,414.828,525.072,414.828,525.072z"/>
<path fill="#FFFFCC" stroke="#F58220" stroke-width="0.782" stroke-miterlimit="10" d="M256.53,680.775
	c-0.549-0.184-3.658,0.734-3.658-1.104s-0.183-5.881-0.731-6.248c-0.55-0.367-3.842-1.285-4.391-2.021
	c-0.548-0.734-1.828-5.146-2.561-5.881c-0.731-0.734-0.914-2.389-2.743-1.471c-1.83,0.92-3.659,1.473-6.402,3.309
	c-2.743,1.838-3.292,3.307-5.487,2.572s-2.562-3.123-2.562-3.123s-2.013-1.285-2.744-0.92c-0.73,0.369-4.39,0.736-5.121,1.654
	c-0.731,0.92-2.012,0-2.012-1.654c0-1.652,0.732-3.492,0.914-4.777c0.184-1.287,7.682-2.205,7.682-2.756s1.83-2.574-0.73-2.941
	c-2.562-0.367-7.317,0.184-7.317,0.184s-4.39-2.02-3.841-3.859c0.549-1.838,0.184-2.756-0.731-4.043
	c-0.915-1.285-1.646-4.777-0.731-6.982s0-4.963-0.184-5.697c-0.183-0.736,6.586,0.734,7.316-1.654
	c0.732-2.389,1.463-4.596-0.548-6.984c-2.013-2.389-2.562-2.756-2.195-5.697c0.366-2.939,0.549-7.9,1.829-9.188
	s5.122-2.021,7.865-1.654c1.292,0.174,2.666,0.383,4.196,0.352c-0.954-0.545-1.581-1.072-1.636-1.455
	c-0.011-0.08-0.012-0.172-0.004-0.273c0.003-0.043,0.014-0.092,0.02-0.137c0.009-0.064,0.016-0.123,0.029-0.191
	c0.012-0.057,0.029-0.121,0.045-0.18c0.017-0.064,0.03-0.125,0.05-0.193s0.045-0.141,0.067-0.211
	c0.023-0.066,0.042-0.133,0.067-0.203c0.024-0.07,0.054-0.145,0.08-0.217c0.029-0.074,0.056-0.15,0.087-0.229
	c0.026-0.068,0.056-0.139,0.084-0.209c0.036-0.088,0.071-0.174,0.109-0.264c0.023-0.059,0.05-0.119,0.075-0.178
	c0.046-0.105,0.091-0.213,0.138-0.32c0.014-0.029,0.028-0.063,0.042-0.096c0.061-0.137,0.121-0.273,0.183-0.41
	c0.558-1.254,1.123-2.494,1.123-3.123c0-1.285-2.012-1.469-3.109-1.469s-2.927-0.734-3.658-1.838
	c-0.732-1.104,2.744-4.043,3.293-5.514s0.548-5.514,0.548-8.453c0-2.941-0.548-7.535-0.365-8.637
	c0.183-1.104,5.853-6.801,4.206-7.168c-1.646-0.369-4.206-1.471-4.389-3.125c-0.184-1.654,2.012-4.41,4.023-6.615
	c2.012-2.207,0.549-5.146-0.183-9.006c-0.191-1.012-0.499-2.342-0.844-3.75c-0.13,0.158-0.323,0.111-0.663-0.23
	c-1.388-1.393-5.549-0.348-8.669,0.35s-1.387,5.225-5.201,8.012s-4.161,6.619-6.588,6.619s-5.548,3.135-7.628,7.316
	c-2.08,4.18-0.693,5.225-3.12,5.225c-2.428,0-9.015-0.697-13.87-2.787c-4.854-2.09-2.08,1.045-3.467,5.574s3.467,7.664-0.348,8.012
	c-3.813,0.348-7.627,1.742-12.135,0.697c-4.507-1.045-5.548,3.135-9.015,5.922c-3.468,2.787-6.588,3.135-8.669,4.529
	c-2.079,1.395-3.12,3.832-2.079,6.271c1.04,2.438,2.772,4.18,3.12,6.27c0.347,2.09-2.774,4.529-4.161,7.316
	c-1.386,2.787-3.468,3.482-5.548,4.18c-0.55,0.186-1.37,0.119-2.301-0.105c0.155,1.385,0.276,2.688,0.276,3.357
	c0,1.838-2.377,3.307-0.548,7.533c1.828,4.229,5.67,9.924,7.864,14.703c2.195,4.779,3.293,5.697,4.391,13.783
	c1.097,8.086,4.39,17.641,5.853,21.318c1.463,3.674,3.476,12.863,4.939,14.701c0,0,0.031,0.016,0.078,0.037
	c0.598,0.281,4.743,2.248,5.592,3.271c0.915,1.102,8.048,9.004,10.975,11.578c2.927,2.572,11.523,7.352,11.523,7.352
	s2.012-1.104,2.562-0.553c0.347,0.35,2.312,1.438,4.077,2.516c0.23,0.141,0.456,0.281,0.677,0.42
	c0.036,0.023,0.074,0.049,0.111,0.07c0.222,0.141,0.437,0.279,0.636,0.416c0.014,0.008,0.027,0.018,0.042,0.027
	c0.177,0.119,0.339,0.234,0.491,0.348c0.043,0.029,0.084,0.061,0.123,0.09c0.159,0.119,0.307,0.234,0.428,0.34
	c1.15,1.012,0.05,1.342,1.391,1.705c0.364,0.1,0.898,0.199,1.718,0.316c3.842,0.553,6.037,0.92,6.585,0.92
	c0.549,0,4.024-3.125,4.756-3.309c0.732-0.184,4.207-0.184,5.122-0.184s7.316,0,7.316,0s1.098-2.756,1.646-2.939
	s3.476-0.553,4.938-2.207c1.464-1.652,3.11-2.754,0.731-3.857c-2.377-1.104-6.219-1.838-6.401-2.391
	c-0.184-0.551,2.926-5.328,3.109-5.881c0.183-0.551,0.549-4.777,1.28-6.063c0.731-1.287,2.195-0.92,3.841-2.941
	c1.646-2.021,1.28-2.939,3.109-2.021c1.559,0.781,3.77,1.43,4.959,1.947c0.067,0.027,0.128,0.057,0.188,0.084
	c0.129,0.059,0.249,0.119,0.342,0.174c0.524,0.316,1.411-0.215,2.348-0.83c0.695-0.455,1.418-0.957,2.042-1.191
	c1.463-0.553,4.023-1.104,5.122-3.859C256.714,685.92,257.079,680.959,256.53,680.775z"/>
<path fill="#FFFFCC" stroke="#F58220" stroke-width="0.782" stroke-miterlimit="10" d="M300.064,677.836
	c-1.28-1.654-2.013-3.676-4.024-2.939c-0.117,0.043-0.232,0.109-0.349,0.162c-1.874,0.869-3.579,3.08-4.956,4.982
	c-1.463,2.021-0.183,2.758-2.926,2.205c-2.744-0.551-2.013-2.205-5.671-1.285c-3.657,0.918-4.39,2.389-6.95,4.043
	s0.365,0.551-3.842,1.838c-4.207,1.285-6.219-1.471-9.877,0.551s-4.39,5.697-5.854,7.535c-1.463,1.838,0.184,4.594-3.292,2.939
	c-2.909-1.383-2.239-2.514-3.872-4.139c-0.937,0.615-1.823,1.146-2.348,0.83c-0.137-0.082-0.322-0.17-0.531-0.26
	c-1.189-0.516-3.398-1.164-4.957-1.945c-1.829-0.918-1.463,0-3.109,2.021c-1.646,2.021-3.109,1.654-3.841,2.941
	c-0.731,1.285-1.098,5.512-1.28,6.063c-0.184,0.553-3.293,5.33-3.109,5.881c0.183,0.553,4.024,1.287,6.401,2.391
	c2.379,1.104,0.732,2.205-0.731,3.857c-1.463,1.654-4.39,2.023-4.938,2.207s-1.646,2.939-1.646,2.939s-6.401,0-7.316,0
	s-4.39,0-5.122,0.184c-0.731,0.184-4.207,3.309-4.756,3.309c-0.548,0-2.743-0.367-6.585-0.92c-0.819-0.117-1.354-0.217-1.718-0.316
	c-0.652,0.98-1.402,1.984-2.123,2.709c-1.646,1.654-1.646,1.838-1.646,1.838s2.379,1.836,4.756,4.41
	c2.379,2.572,0,2.021,0.366,2.941c0.365,0.918,3.292,0.367,5.67,0.367s0.915,1.471,1.464,4.227c0.548,2.756-1.464,2.389-1.464,3.49
	c0,1.104,2.378,1.471,3.476,2.574c1.098,1.102,0.731,1.102,0.549,3.676c-0.184,2.572-0.184,3.674-0.732,5.514
	c-0.549,1.838,0.184,4.777,2.561,5.879c2.378,1.104,4.756-2.02,6.951-2.203c2.194-0.186,1.83,3.123,1.646,4.594
	s-0.549,4.227-0.549,6.064s-2.012,6.432-2.012,7.168c0,0.734,4.572,2.756,5.304,3.676c0.731,0.918-1.097,5.879-2.926,9.004
	c-1.83,3.125-2.562,4.043-2.013,5.145c0.55,1.104,0.366,4.596,0.184,5.146c-0.184,0.553,0.365,2.021,1.097,5.881
	c0.597,3.145,0.101,7.262-1.587,7.09c0.531,0.801,1.077,1.494,1.588,1.914c2.013,1.654,4.757,2.758,7.866,1.287
	s8.597-5.33,10.792-6.801c2.194-1.469,3.291-2.939,3.841-5.879c0.549-2.941,1.097-6.064,2.378-8.271
	c1.28-2.205,3.658-4.41,5.854-5.695c2.194-1.287,7.133-1.838,9.146-2.758c2.012-0.92,3.841-2.021,5.122-1.654
	c1.28,0.367-1.099-0.551-1.83-4.043c-0.73-3.49,1.464-4.227,3.841-8.82c2.379-4.596,4.208-4.594,4.208-7.902s1.829-4.963,4.756-5.33
	c2.926-0.367,8.596-0.918,9.877-0.367c1.28,0.551,2.194,0.551,2.012-4.779c-0.184-5.33,0.915-22.053-0.549-23.891
	c-1.463-1.838-3.841-2.941-2.744-6.432c1.099-3.492,2.744-6.064,3.109-9.006c0.366-2.939,5.854-10.291,7.684-13.967
	s2.194-7.168,2.743-11.578C302.077,683.717,301.345,679.49,300.064,677.836z"/>
<path fill="#FFFFCC" stroke="#F58220" stroke-width="0.782" stroke-miterlimit="10" d="M334.733,561.129
	c-0.139,0.027-0.292,0.016-0.452-0.01c-0.04-0.008-0.08-0.016-0.121-0.027c-0.154-0.037-0.315-0.09-0.484-0.168
	c-0.01-0.004-0.019-0.008-0.028-0.012c-0.192-0.092-0.396-0.211-0.605-0.348c-0.021-0.014-0.044-0.029-0.066-0.045
	c-0.207-0.139-0.421-0.295-0.64-0.473c-0.358-0.287-0.727-0.615-1.102-0.979c-0.935,0.91-2.255,1.088-3.234,1.252
	c-1.379,0.23-5.058,0.232-5.748,0.232c-0.688,0-2.759-4.852-2.987-6.93c-0.23-2.08-1.84-2.08-2.989-2.771
	c-1.149-0.693-2.3-2.311-2.989-4.158c-0.688-1.848-1.839-4.158-3.678-5.773c-1.839-1.617-4.599-1.156-6.667-1.387
	c-0.687-0.076-1.625-1.527-2.573-3.428c-0.422,0.258-0.873,0.479-1.348,0.637c-2.081,0.697-4.508-1.742-5.549-3.135
	c-1.039-1.395-1.039-8.709-0.693-10.451c0.348-1.742-0.346-7.664-1.733-9.754s-10.055-0.697-11.096-0.697
	c-1.04,0-6.588,1.742-6.588,1.742s-0.692-1.395-5.894-2.787c-5.201-1.395-4.508-3.484-6.935-5.227s-7.628-0.348-7.628-0.348
	s0,7.316-2.428,10.104s-2.08,3.832-2.773,4.877s-2.428,0.697-4.854-0.348c-2.428-1.047-3.469-0.35-3.815,3.482
	s3.121,8.014,3.121,8.014s-3.121,2.785-3.814,3.83c-0.42,0.635-1.354,1.785-2.486,3.133c-0.733,0.875-1.549,1.83-2.367,2.791
	c-1.57,1.838-1.364,4.271-1.764,4.758c0.345,1.408,0.652,2.738,0.844,3.75c0.731,3.859,2.194,6.799,0.183,9.006
	c-2.012,2.205-4.207,4.961-4.023,6.615c0.183,1.654,2.743,2.756,4.389,3.125c1.646,0.367-4.023,6.064-4.206,7.168
	c-0.183,1.102,0.365,5.695,0.365,8.637c0,2.939,0.001,6.982-0.548,8.453s-4.025,4.41-3.293,5.514
	c0.731,1.104,2.561,1.838,3.658,1.838s3.109,0.184,3.109,1.469c0,0.629-0.565,1.869-1.123,3.123
	c-0.587,1.318-1.166,2.65-1.072,3.311c0.055,0.383,0.682,0.91,1.636,1.455c2.258,1.287,6.382,2.662,9.339,2.404
	c4.208-0.367,4.391-0.184,7.135-1.654c2.743-1.471,6.951-4.227,9.328-4.043s4.207,2.758,7.865,0.367
	c3.658-2.389,3.658-4.227,5.854-4.227c2.194,0,4.573-2.389,4.573-4.043s-5.487-6.066,3.841-7.352s13.536-0.184,15.182-1.102
	c1.646-0.92,1.828-6.801,4.023-7.352s4.024-1.654,6.22-2.205c2.195-0.553,0.915-1.287,5.305-1.287s3.657,2.205,5.853,0.367
	s-0.731-2.205,3.477-3.123c4.207-0.92,7.132-2.941,9.145-3.676s3.842-1.654,4.756-4.227c0.915-2.574-1.28-3.309,2.012-5.697
	c1.934-1.404,3.231-3.311,3.902-4.797C337.271,559.527,336.904,560.691,334.733,561.129z"/>
<path fill="#FFFFCC" stroke="#F58220" stroke-width="0.782" stroke-miterlimit="10" d="M485.647,454.354
	c-1.3-0.436-4.941-2.178-5.548-3.396c-0.605-1.219,0.521-3.049-1.214-2.699c-1.732,0.348-4.16,0.871-4.247-1.393
	c-0.087-2.266,0.867-2.004-0.692-3.137c-1.561-1.131-2.255,0.523-3.814-1.045c-0.537-0.539-0.846-1.281-1.11-2.08
	c-0.259,0.186-0.538,0.25-0.797,0.164c-1.04-0.348-3.294-1.742-3.468-2.613c-0.173-0.869-6.588-2.09-8.842-3.309
	c-2.254-1.221-5.373-3.135-6.414-3.832c-1.04-0.697-1.387,2.961-1.387,5.922s0,4.529-0.174,7.49
	c-0.173,2.961-1.561,1.916-2.947,3.135c-1.387,1.221-2.427-1.916-3.987-2.611c-1.561-0.697-4.854-1.568-5.721-2.092
	c-0.867-0.521-1.907,0.35-4.507,0.35c-2.602,0-2.081,2.438-2.602,2.611c-0.52,0.174-1.56-1.045-3.12-1.566
	c-1.561-0.523-0.694-1.045-0.173-2.961c0.52-1.916,0.173-5.053,0.346-6.271c0.174-1.219-1.04-0.348-4.16,0
	c-3.121,0.35-5.721,0-9.535,0s-5.201,1.393-7.108,1.742c-1.907,0.348-1.907-0.871-4.161-1.742c-0.51-0.197-0.891-0.453-1.195-0.736
	c-1.205,0.729-2.394,1.363-3.481,1.773c-3.678,1.385-4.138,2.078-7.127,3.002s-0.229,4.156-1.379,6.006
	c-1.149,1.848-4.368,8.314-4.828,11.086c-0.46,2.773-0.46,6.006-1.149,7.16s-2.759,2.771-4.598,6.469
	c-1.839,3.695-3.219,0.23-5.058,0c-1.84-0.232-7.356-0.463-8.736-0.463s-2.068,3.695-3.219,5.543
	c-1.149,1.848-4.827,2.771-4.827,4.619s1.38,9.471,1.38,11.781c0,2.309,0,7.391,1.148,8.777c1.15,1.385,5.059,1.154,5.747,1.385
	c0.69,0.23,1.15,1.154,1.15,3.234c0,2.078-0.23,2.309-4.368,1.154s-2.759-1.154-5.518-1.617c-2.759-0.461-2.299-1.617-5.287-3.002
	c-2.988-1.387-2.528-1.387-4.139-2.08c-1.609-0.691-2.528,2.311-1.379,5.545c1.149,3.232,2.299,2.078,2.989,6.697
	c0.689,4.619,3.907,6.236,3.907,10.164c0,3.926,2.069,8.545,0.46,11.316c-1.608,2.773-5.518,3.465-5.978,5.082
	s-2.528,3.695-4.827,6.006s-5.287,5.773-6.437,6.93c-0.26,0.26-0.43,0.639-0.558,1.076v0.002c-0.051,0.174-0.092,0.361-0.129,0.555
	c-0.005,0.027-0.01,0.053-0.015,0.078c-0.164,0.914-0.21,2.012-0.329,3.086c-0.004,0.027-0.007,0.055-0.01,0.082
	c-0.03,0.258-0.066,0.51-0.107,0.758c-0.012,0.074-0.023,0.148-0.037,0.221c-0.054,0.289-0.115,0.572-0.195,0.84
	c-0.2,0.67-0.522,1.148-0.903,1.52c0.375,0.363,0.743,0.691,1.102,0.979c0.935,0.754,1.783,1.205,2.397,1.082
	c2.171-0.438,2.537-1.602,4.717-2.584c0.431-0.193,0.925-0.381,1.524-0.553c3.641-1.045,5.461-3.918,7.28-3.396
	c1.821,0.523,5.201,1.307,5.722,0c0.52-1.307,1.04-6.008,2.601-8.621s3.12-3.396,3.381-1.83c0.26,1.568,1.82,4.182,2.6,4.182
	c0.781,0,4.941-2.613,4.941-2.613s4.16,2.875,4.421,0c0.261-2.873,0.78-6.793,0.78-6.793s0.78-1.828,2.86-3.135
	c2.081-1.307,5.981-2.875,5.981-2.875s-1.301-1.566-0.521-3.135s3.641-3.135,3.641-3.135s3.12-1.568,3.901-0.785
	c0.779,0.785,1.56,2.875,4.42,4.965c2.861,2.09,5.201,4.965,8.322,3.92c3.12-1.047,7.021-4.965,7.801-5.748
	c0.78-0.785,5.722-3.92,5.722-3.92s0.13-0.104,0.353-0.279c1.504-1.193,7.424-5.865,9.009-6.775
	c1.82-1.045,13.522-8.361,18.724-10.451s12.222-4.18,14.823-8.883c2.6-4.703,7.541-4.441,8.321-8.361
	c0.78-3.918,1.039-4.18,1.3-6.27s2.86-4.441,3.901-5.488c1.039-1.045-0.261-1.045-1.301-6.008c-1.04-4.965-2.601-6.533,1.301-8.885
	c3.9-2.352,5.721-4.701,9.621-6.531c3.721-1.744,6.488,1.484,6.736-2.291C486.889,454.703,486.171,454.529,485.647,454.354z"/>
</svg>
