{
  "grade1": {
    "Animal body parts": {
      "en": "Animal body parts",
      "np": "जनावरको शरीरका अङ्गहरू",
      "id": "abp",
      "subId": "english",
      "type": "Biology",
      "image": "images/thumb/science/animal-body-parts-Gr-1_01.png",
      "imagebig": "images/thumb/science/animal-body-parts-Gr-1_02.png",
      "levels": [
        {
          "name": {
            "en": "Level I",
            "np": "तह १"
          },
          "thumbnail": "images/thumb/english/short-vowels-gr1-01.png",
          "id": "smthForEx",
          "desc": {
            "en": "Animal body partsgrade3",
            "np": "जनावरको शरीरका अङ्गहर"
          },
          "folder": "grade1/science/animal_body_parts",
          "exercise": [
            "playtime/playtime.html"
          ],
          "pages": [
            "page1.html",
            "page2.html"
          ],
          "sections": [
            {
              "en": "Animal body parts",
              "np": "जनावरको शरीरका अङ्गहर",
              "startpage": 1,
              "endPage": 2
            }
          ]
        }
      ]
    },
    "Grass and Flesh Eating Animals": {
      "en": "Grass and Flesh Eating Animals",
      "np": "घा\u200dँस खाने र मासु खाने जनावर",
      "id": "gfa",
      "subID": "science",
      "type": "Biology",
      "image": "images/thumb/science/grass-and-flesh-eating-animals-Gr-101.png",
      "imagebig": "images/thumb/science/grass-and-flesh-eating-animals-Gr-102.png",
      "levels": [
        {
          "name": {
            "en": "Level I",
            "np": "तह १"
          },
          "thumbnail": "images/grade3/water_cycle.png",
          "desc": {
            "en": "Grass and Flesh Eating Animals",
            "np": "घा\u200dँस खाने र मासु खाने जनावर"
          },
          "folder": "grade1/science/grass_and_flesh_eating_animals",
          "exercise": [
            "exercise/exercise.html"
          ],
          "pages": [
            "page1.html",
            "page2.html",
            "page3.html",
            "page4.html"
          ],
          "sections": [
            {
              "en": "Grass and Flesh Eating Animals",
              "np": "घा\u200dँस खाने र मासु खाने जनावर",
              "startpage": 1,
              "endPage": 4
            }
          ]
        }
      ]
    },
    "Babies of Animals": {
      "en": "Babies of Animals",
      "np": "जनावरका बच्\u200dचाहरू",
      "id": "boa",
      "subID": "science",
      "type": "Biology",
      "image": "images/thumb/science/babies--of-animals--Gr-1-01.png",
      "imagebig": "images/thumb/science/babies--of-animals--Gr-1-02.png",
      "levels": [
        {
          "name": {
            "en": "Level I",
            "np": "तह १"
          },
          "thumbnail": "images/grade3/water_cycle.png",
          "desc": {
            "en": "Babies of Animals",
            "np": "जनावरका बच्\u200dचाहरू"
          },
          "folder": "grade1/science/babies_of_animals",
          "exercise": [
            "exercise/exercise.html"
          ],
          "pages": [
            "page1.html",
            "page2.html",
            "page3.html"
          ],
          "sections": [
            {
              "en": "Babies of Animals",
              "np": "जनावरका बच्\u200dचाहरू",
              "startpage": 1,
              "endPage": 3
            }
          ]
        }
      ]
    },
    "Animals with Horns and Tails": {
      "en": "Animals with Horns and Tails",
      "np": " सिङ तथा पुच्\u200dछर भएका जनावरहरू",
      "id": "awt",
      "subId": "science",
      "type": "Biology",
      "image": "images/thumb/science/animals-with-horns-and-tails-Gr-1_01.png",
      "imagebig": "images/thumb/science/animals-with-horns-and-tails-Gr-1_02.png",
      "levels": [
        {
          "name": {
            "en": "Level I",
            "np": "तह १"
          },
          "thumbnail": "images/thumb/english/short-vowels-gr1-01.png",
          "id": "smthForEx",
          "desc": {
            "en": "Animals with Horns and Tails",
            "np": " सिङ तथा पुच्\u200dछर भएका जनावरहरू"
          },
          "folder": "grade1/science/animals_with_horns_and_tails",
          "exercise": [
            "playtime/playtime.html"
          ],
          "pages": [
            "page1.html",
            "page2.html"
          ],
          "sections": [
            {
              "en": "Animals With Horns And Tails",
              "np": " सिङ तथा पुच्\u200dछर भएका जनावरहरू",
              "startpage": 1,
              "endPage": 2
            }
          ]
        }
      ]
    },
    "Animals with Wings": {
      "en": "Animals with Wings",
      "np": " पखेटा भएका जनावरहरू",
      "id": "aww",
      "subId": "science",
      "type": "Biology",
      "image": "images/thumb/science/animals-with-wings-Gr-101.png",
      "imagebig": "images/thumb/science/animals-with-wings-Gr-102.png",
      "levels": [
        {
          "name": {
            "en": "Level I",
            "np": "तह १"
          },
          "thumbnail": "images/thumb/english/short-vowels-gr1-01.png",
          "id": "smthForEx",
          "desc": {
            "en": "Animals with Wings",
            "np": " पखेटा भएका जनावरहरू"
          },
          "folder": "grade1/science/animals_with_wings",
          "exercise": [
            "playtime/playtime.html"
          ],
          "pages": [
            "page1.html",
            "page2.html"
          ],
          "sections": [
            {
              "en": "Animals With Wings",
              "np": " पखेटा भएका जनावरहरू",
              "startpage": 1,
              "endPage": 2
            }
          ]
        }
      ]
    },
    "Types of plants": {
      "en": "Types of plants",
      "np": "विभिन्\u200dन प्रकारका बिरुवाहरू",
      "id": "top",
      "subId": "science",
      "type": "Biology",
      "image": "images/thumb/science/type-of-plants-Gr-101.png",
      "imagebig": "images/thumb/science/type-of-plants-Gr-102.png",
      "levels": [
        {
          "name": {
            "en": "Level I",
            "np": "तह १"
          },
          "thumbnail": "images/thumb/english/short-vowels-gr1-01.png",
          "id": "smthForEx",
          "desc": {
            "en": "Types of plants",
            "np": "विभिन्\u200dन प्रकारका बिरुवाहरू"
          },
          "folder": "grade1/science/types_of_plants",
          "exercise": [
            "playtime/playtime.html"
          ],
          "pages": [
            "page1.html"
          ],
          "sections": [
            {
              "en": "Types of plants",
              "np": "विभिन्\u200dन प्रकारका बिरुवाहरू",
              "startpage": 1,
              "endPage": 1
            }
          ]
        }
      ]
    },
    "Parts of a plant": {
      "en": "Parts of a plant",
      "np": "बिरुवाका विभिन्\u200dन भागहरू",
      "id": "pop",
      "subId": "english",
      "type": "Biology",
      "image": "images/thumb/science/parts-of-a-plant-Gr-1-01.png",
      "imagebig": "images/thumb/science/parts-of-a-plant-Gr-1-02.png",
      "levels": [
        {
          "name": {
            "en": "Level I",
            "np": "तह १"
          },
          "thumbnail": "images/thumb/science/parts-of-a-plant-Gr-1-01.png",
          "id": "smthForEx",
          "desc": {
            "en": "Parts of a plant",
            "np": "बिरुवाका विभिन्\u200dन भागहरू"
          },
          "folder": "grade1/science/parts_of_a_plant",
          "exercise": [
            "playtime/playtime.html"
          ],
          "pages": [
            "page1.html",
            "page2.html"
          ],
          "sections": [
            {
              "en": "Parts of a plant",
              "np": "बिरुवाका विभिन्\u200dन भागहरू",
              "startpage": 1,
              "endPage": 2
            }
          ]
        }
      ]
    },
    "Care of Animals and Plants": {
      "en": "Care of Animals and Plants",
      "np": "जनावर र बिरूवाको हेरचाह",
      "id": "cap",
      "subId": "science",
      "type": "Biology",
      "image": "images/thumb/science/care-of-animals-and-plants-Gr-101.png",
      "imagebig": "images/thumb/science/care-of-animals-and-plants-Gr-102.png",
      "levels": [
        {
          "name": {
            "en": "Level I",
            "np": "तह १"
          },
          "thumbnail": "images/thumb/english/short-vowels-gr1-01.png",
          "id": "smthForEx",
          "desc": {
            "en": "Care of animals and plants",
            "np": "जनावर र बिरुवाहरूक"
          },
          "folder": "grade1/science/care_of_animals_and_plants",
          "exercise": [
            "playtime/playtime.html"
          ],
          "pages": [
            "page1.html",
            "page2.html"
          ],
          "sections": [
            {
              "en": "Care of animals and plants",
              "np": "जनावर र बिरुवाहरूक",
              "startpage": 1,
              "endPage": 2
            }
          ]
        }
      ]
    },
    "Shapes and Sizes": {
      "en": "Shapes and Sizes",
      "np": "आकार र साइज",
      "id": "ifs",
      "subId": "science",
      "type": "Physics",
      "image": "images/thumb/science/identifying_shapes_and_sizes_gr-101.png",
      "imagebig": "images/thumb/science/identifying_shapes_and_sizes_gr-102.png",
      "levels": [
        {
          "name": {
            "en": "Level I",
            "np": "तह १"
          },
          "thumbnail": "images/thumb/english/making-words-gr1-02.png",
          "id": "smthForEx",
          "desc": {
            "en": "Shapes and Sizes",
            "np": "आकार र साइज"
          },
          "folder": "grade1/science/identifying_shapes_size",
          "exercise": [
            "playtime/playtime.html"
          ],
          "pages": [
            "page1.html",
            "page2.html"
          ],
          "sections": [
            {
              "en": "Shapes and Sizes",
              "np": "Shapes and Sizes",
              "startpage": 1,
              "endPage": 2
            }
          ]
        }
      ]
    },
    "weather": {
      "en": "Weather",
      "np": "मौसम",
      "id": "wth",
      "subId": "science",
      "type": "Geology and Astronomy",
      "image": "images/thumb/science/weather_gr1_01.png",
      "imagebig": "images/thumb/science/weather_gr1_02.png",
      "levels": [
        {
          "name": {
            "en": "Level I",
            "np": "तह १"
          },
          "thumbnail": "images/thumb/english/making-words-gr1-02.png",
          "id": "smthForEx",
          "desc": {
            "en": "Weather",
            "np": "मौसम"
          },
          "folder": "grade1/science/weather",
          "exercise": [
            "exercise/exercise.html"
          ],
          "pages": [
            "page1.html",
            "page2.html"
          ],
          "sections": [
            {
              "en": "Weather",
              "np": "मौसम",
              "startpage": 1,
              "endPage": 1
            }
          ]
        }
      ]
    }
  },
  "grade2": {
    "Characteristics of Animals": {
      "en": "Characteristics of animals",
      "np": "जनावरका गुणहरू",
      "id": "anm",
      "subId": "science",
      "type": "biology",
      "image": "images/grade2/science/characteristics-of-animals-Gr-2-01.png",
      "imagebig": "images/grade2/science/characteristics-of-animals-Gr-2-02.png",
      "levels": [
        {
          "name": {
            "en": "Level I",
            "np": "तह १"
          },
          "thumbnail": "images/activity-under-construction.png",
          "id": "smthForEx",
          "desc": {
            "en": "Characteristics of Animals",
            "np": "जनावरका गुणहरू"
          },
          "folder": "grade2/science/char_of_animals",
          "exercise": [
            "exercise/exercise.html"
          ],
          "pages": [
            "page1.html",
            "page2.html",
            "page3.html",
            "page4.html",
            "page5.html"
          ],
          "sections": [
            {
              "en": "Characteristics of Animals",
              "np": "जनावरका गुणहरू",
              "startpage": 1,
              "endPage": 5
            }
          ]
        }
      ]
    },
    "Living and Nonliving Things": {
      "en": "Living and nonliving things",
      "np": "सजीव र निर्जीव वस्तुहरू",
      "id": "lan",
      "subId": "english",
      "type": "biology",
      "image": "images/grade2/science/living-and-nonliving-things-Gr-2-01.png",
      "imagebig": "images/grade2/science/living-and-nonliving-things-Gr-2-02.png",
      "levels": [
        {
          "name": {
            "en": "Level I",
            "np": "तह १"
          },
          "thumbnail": "images/activity-under-construction.png",
          "id": "smthForEx",
          "desc": {
            "en": "Living and nonliving things",
            "np": "सजीव र निर्जीव वस्तुहरू"
          },
          "folder": "grade2/science/living_and_nonliving",
          "exercise": [
            "exercise/exercise.html"
          ],
          "pages": [
            "page1.html",
            "page2.html",
            "page3.html"
          ],
          "sections": [
            {
              "en": "Living and nonliving things",
              "np": "सजीव र निर्जीव वस्तुहरू",
              "startpage": 1,
              "endPage": 3
            }
          ]
        }
      ]
    },
    "Animal's Home": {
      "en": "Animal's Home",
      "np": "जनावरको वासस्\u200dथान",
      "id": "anh",
      "subId": "science",
      "type": "biology",
      "image": "images/grade2/science/animal’s-home-Gr-2_01.png",
      "imagebig": "images/grade2/science/animal’s-home-Gr-2_02.png",
      "levels": [
        {
          "name": {
            "en": "Level I",
            "np": "तह १"
          },
          "thumbnail": "images/grade3/science/consonant-blends-gr3-02.png",
          "id": "smthForEx",
          "desc": {
            "en": "Animal's Home",
            "np": "जनावरको वासस्\u200dथान"
          },
          "folder": "grade2/science/animal's_home",
          "exercise": [
            "exercise/exercise.html"
          ],
          "pages": [
            "page1.html",
            "page2.html",
            "page3.html"
          ],
          "sections": [
            {
              "en": "Animal's Home",
              "np": "जनावरको वासस्\u200dथान",
              "startpage": 1,
              "endPage": 3
            }
          ]
        }
      ]
    },
    "Domestic and Wild Animals": {
      "en": "Domestic and wild animals",
      "np": "घरपालुवा र जङ्गली जनावर",
      "id": "dwa",
      "subId": "science",
      "type": "biology",
      "image": "images/grade2/science/domestic_and_wild1.png",
      "imagebig": "images/grade2/science/domestic_and_wild2.png",
      "levels": [
        {
          "name": {
            "en": "Level I",
            "np": "तह १"
          },
          "thumbnail": "images/grade2/domestic_and_wild1.png",
          "id": "smthForEx",
          "desc": {
            "en": "Domestic and Wild Animals",
            "np": "घरपालुवा र जङ्गली जनावर"
          },
          "folder": "grade2/science/domestic_and_wild",
          "exercise": [
            "exercise/exercise.html"
          ],
          "pages": [
            "page1.html",
            "page2.html",
            "page3.html"
          ],
          "sections": [
            {
              "en": "Domestic and Wild Animals",
              "np": "घरपालुवा र जङ्गली जनावर",
              "startpage": 1,
              "endPage": 3
            }
          ]
        }
      ]
    },
    "Animal food": {
      "en": "Animal's food and modes of feeding",
      "np": "जनावरको खाना र खाने तरीका",
      "id": "anf",
      "subId": "science",
      "type": "biology",
      "image": "images/thumb/science/Animal’s-food---Gr-2-01.png",
      "imagebig": "images/thumb/science/Animal’s-food---Gr-2-02.png",
      "levels": [
        {
          "name": {
            "en": "Level I",
            "np": "तह १"
          },
          "thumbnail": "images/grade2/animal_food1.png",
          "id": "smthForEx",
          "desc": {
            "en": "Animal's food and modes of feeding",
            "np": " जनावरको खाना र खाने तरीका"
          },
          "folder": "grade2/science/animal_food",
          "exercise": [
            "exercise/exercise.html"
          ],
          "pages": [
            "page1.html",
            "page2.html",
            "page3.html"
          ],
          "sections": [
            {
              "en": "Animal's food and modes of feeding",
              "np": "DHeat and Light",
              "startpage": 1,
              "endPage": 3
            }
          ]
        }
      ]
    },
    "Types_of_plant": {
      "en": "Types of plants",
      "np": "विभिन्&#8205;न किसिमका बिरुवाहरू",
      "id": "top",
      "subId": "science",
      "type": "biology",
      "image": "images/grade2/science/types_of_plants1.png",
      "imagebig": "images/grade2/science/types_of_plants2.png",
      "levels": [
        {
          "name": {
            "en": "Level I",
            "np": "तह १"
          },
          "thumbnail": "images/grade2/types_of_plants1.png",
          "id": "smthForEx",
          "desc": {
            "en": "Types of Plants",
            "np": "विभिन्&#8205;न किसिमका बिरुवाहरू"
          },
          "folder": "grade2/science/types_of_plant",
          "exercise": [
            "exercise/exercise.html"
          ],
          "pages": [
            "page1.html",
            "page2.html"
          ],
          "sections": [
            {
              "en": "Types of Plants",
              "np": "Types of Plants",
              "startpage": 1,
              "endPage": 2
            }
          ]
        }
      ]
    },
    "Foods from animals and plants": {
      "en": "Foods from animals and plants",
      "np": "जनावर र बिरुवाबाट पाइने खानेकुरा",
      "id": "fap",
      "subId": "science",
      "type": "biology",
      "image": "images/thumb/science/foods-from-animals-and-plants-Gr-201.png",
      "imagebig": "images/thumb/science/foods-from-animals-and-plants-Gr-202.png",
      "levels": [
        {
          "name": {
            "en": "Level II",
            "np": "तह १"
          },
          "thumbnail": "images/thumb/science/foods-from-animals-and-plants-Gr-202.png",
          "id": "smthForEx",
          "desc": {
            "en": "Shadow",
            "np": "जनावर र बिरुवाबाट पाइने खानेकुरा"
          },
          "folder": "grade2/science/food_from_animals_plants",
          "exercise": [
            "exercise/exercise.html"
          ],
          "pages": [
            "page1.html",
            "page2.html",
            "page3.html",
            "page4.html"
          ],
          "sections": [
            {
              "en": "Foods from animals and plants",
              "np": "जनावर र बिरुवाहरूबाट पाइने खानेकुरा",
              "startpage": 1,
              "endPage": 4
            }
          ]
        }
      ]
    },
    "Heat and Light": {
      "en": "Heat and light",
      "np": "ताप र प्रकाश",
      "id": "hal",
      "subId": "science",
      "type": "physics",
      "image": "images/grade2/science/heat_and_light1.png",
      "imagebig": "images/grade2/science/heat_and_light2.png",
      "levels": [
        {
          "name": {
            "en": "Level I",
            "np": "तह १"
          },
          "thumbnail": "images/grade2/heat_and_light1.png",
          "id": "smthForEx",
          "desc": {
            "en": "Heat and Light",
            "np": "ताप र प्रकाश"
          },
          "folder": "grade2/science/heat_and_light",
          "exercise": [
            "exercise/exercise.html",
            "exercise/exercise2.html"
          ],
          "pages": [
            "page1.html",
            "page2.html"
          ],
          "sections": [
            {
              "en": "Heat and Light",
              "np": "ताप र प्रकाश",
              "startpage": 1,
              "endPage": 2
            }
          ]
        }
      ]
    },
    "Shadow": {
      "en": "Shadow",
      "np": "छाया",
      "id": "shd",
      "subId": "science",
      "type": "Geology and Astronomy",
      "image": "images/thumb/science/shadow-Gr-201.png",
      "imagebig": "images/thumb/science/shadow-Gr-202.png",
      "levels": [
        {
          "name": {
            "en": "Level II",
            "np": "तह १"
          },
          "thumbnail": "images/activity-under-construction.png",
          "id": "smthForEx",
          "desc": {
            "en": "Shadow",
            "np": "छाया"
          },
          "folder": "grade2/science/shadow",
          "exercise": [
            "exercise/exercise.html"
          ],
          "pages": [
            "page1.html",
            "page2.html",
            "page3.html",
            "page4.html"
          ],
          "sections": [
            {
              "en": "Shadow",
              "np": "छाया",
              "startpage": 1,
              "endPage": 4
            }
          ]
        }
      ]
    },
    "Day And Night": {
      "en": "Day And Night",
      "np": "दिन र रात",
      "id": "dan",
      "subId": "science",
      "type": "geology",
      "image": "images/thumb/science/day_and_night-Gr-201.png",
      "imagebig": "images/thumb/science/day_and_night-Gr-202.png",
      "levels": [
        {
          "name": {
            "en": "Level II",
            "np": "तह १"
          },
          "thumbnail": "images/activity-under-construction.png",
          "id": "smthForEx",
          "desc": {
            "en": "Day And Night",
            "np": "दिन र रात"
          },
          "folder": "grade2/science/day_and_night",
          "exercise": [
            "exercise/exercise.html"
          ],
          "pages": [
            "page1.html",
            "page2.html",
            "page3.html"
          ],
          "sections": [
            {
              "en": "Day And Night",
              "np": "दिन र रात",
              "startpage": 1,
              "endPage": 3
            }
          ]
        }
      ]
    },
    "Colours of Sunlight": {
      "en": "Colours of Sunlight",
      "np": "सूर्यको प्रकाशका रङहरू",
      "id": "cos",
      "subId": "science",
      "type": "geology",
      "image": "images/thumb/science/colours_of_sunlight-Gr-201.png",
      "imagebig": "images/thumb/science/colours_of_sunlight-Gr-202.png",
      "levels": [
        {
          "name": {
            "en": "Level II",
            "np": "तह १"
          },
          "thumbnail": "images/thumb/science/colours_of_sunlight-Gr-202.png",
          "id": "smthForEx",
          "desc": {
            "en": "Colours of Sunlight",
            "np": "सूर्यको प्रकाशका रङहरू"
          },
          "folder": "grade2/science/colours_of_sunlight",
          "exercise": [
            "exercise/exercise.html"
          ],
          "pages": [
            "page1.html",
            "page2.html",
            "page3.html",
            "page4.html",
            "page5.html"
          ],
          "sections": [
            {
              "en": "Colours of Sunlight",
              "np": "सूर्यको प्रकाशका रङहरू",
              "startpage": 1,
              "endPage": 5
            }
          ]
        }
      ]
    },
    "Hand Washing": {
      "en": "Hand washing",
      "np": "हात धुने तरिका",
      "id": "hwa",
      "subId": "science",
      "type": "Health and Nutrition",
      "image": "images/thumb/science/handwashing_gr_201.png",
      "imagebig": "images/thumb/science/handwashing_gr_202.png",
      "levels": [
        {
          "name": {
            "en": "Level I",
            "np": "तह १"
          },
          "thumbnail": "images/activity-under-construction.png",
          "id": "smthForEx",
          "desc": {
            "en": "Hand washing",
            "np": "हात धुने तरिका"
          },
          "folder": "grade2/science/hand_washing",
          "exercise": [
            "exercise/exercise2.html"
          ],
          "pages": [
            "page1.html",
            "page2.html"
          ],
          "sections": [
            {
              "en": "Hand washing",
              "np": "हात धुने तरिका",
              "startpage": 1,
              "endPage": 2
            }
          ]
        }
      ]
    },
    "Personal hygiene": {
      "en": "Personal hygiene",
      "np": "शरीरको सफाइ",
      "id": "phy",
      "subId": "science",
      "type": "Health and Nutrition",
      "image": "images/grade2/science/personal-hygiene-Gr-2-01.png",
      "imagebig": "images/grade2/science/personal-hygiene-Gr-2-02.png",
      "levels": [
        {
          "name": {
            "en": "Level I",
            "np": "तह १"
          },
          "thumbnail": "images/activity-under-construction.png",
          "id": "smthForEx",
          "desc": {
            "en": "Personal hygiene",
            "np": "शरीरको सफाइ"
          },
          "folder": "grade2/science/personal_hygiene",
          "exercise": [
            "exercise/exercise.html"
          ],
          "pages": [
            "page1.html",
            "page2.html"
          ],
          "sections": [
            {
              "en": "Personal hygiene",
              "np": "शरीरको सफाइ",
              "startpage": 1,
              "endPage": 2
            }
          ]
        }
      ]
    },
    "Foods I eat": {
      "en": "Foods I eat",
      "np": "मेरो खानेकुरा",
      "id": "fie",
      "subId": "science",
      "type": "Health",
      "image": "images/thumb/science/food-i-eat-Gr-2-01.png",
      "imagebig": "images/thumb/science/food-i-eat-Gr-2-02.png",
      "levels": [
        {
          "name": {
            "en": "Level I",
            "np": "तह १"
          },
          "thumbnail": "images/activity-under-construction.png",
          "id": "smthForEx",
          "desc": {
            "en": "Foods I eat",
            "np": "मेरो खानेकुरा"
          },
          "folder": "grade2/science/foods_i_eat",
          "exercise": [
            "exercise/exercise.html"
          ],
          "pages": [
            "page1.html",
            "page2.html",
            "page3.html"
          ],
          "sections": [
            {
              "en": "Foods I eat",
              "np": "मेरो खानेकुरा",
              "startpage": 1,
              "endPage": 3
            }
          ]
        }
      ]
    }
  },
  "grade3": {
    "Living and Non-living Things": {
      "en": "Living and Non-living things",
      "np": "सजीव र निर्जीव वस्तुहरू",
      "id": "lnv",
      "subId": "english",
      "type": "biology",
      "image": "images/thumb/science/Living-and-nonliving-things-Gr-301.png",
      "imagebig": "images/thumb/science/Living-and-nonliving-things-Gr-302.png",
      "levels": [
        {
          "name": {
            "en": "Level I",
            "np": "तह १"
          },
          "thumbnail": "images/activity-under-construction.png",
          "id": "smthForEx",
          "desc": {
            "en": "Living and Non-living Things",
            "np": "सजीव र निर्जीव वस्तुहरू"
          },
          "folder": "grade3/science/living_nonliving",
          "exercise": [
            "exercise/exercise.html"
          ],
          "pages": [
            "page1.html",
            "page2.html",
            "page3.html"
          ],
          "sections": [
            {
              "en": "Living and Non-living Things",
              "np": "सजीव र निर्जीव वस्तुहरू",
              "startpage": 1,
              "endPage": 3
            }
          ]
        }
      ]
    },
    "Animal home": {
      "en": "Animal's home",
      "np": "जनावरको वासस्थान",
      "id": "anh",
      "subId": "science",
      "type": "biology",
      "image": "images/grade3/science/animal_home1.png",
      "imagebig": "images/grade3/science/animal_home2.png",
      "levels": [
        {
          "name": {
            "en": "Level I",
            "np": "तह १"
          },
          "thumbnail": "images/grade3/animal_home1.png",
          "id": "smthForEx",
          "desc": {
            "en": "Animal's Home",
            "np": "जनावरको वासस्थान"
          },
          "folder": "grade3/science/animal_home",
          "exercise": [
            "exercise/exercise.html"
          ],
          "pages": [
            "page1.html",
            "page2.html",
            "page3.html"
          ],
          "sections": [
            {
              "en": "Animal's home",
              "np": "जनावरको वासस्थान",
              "startpage": 1,
              "endPage": 3
            }
          ]
        }
      ]
    },
    "Animal's food and mode of feeding": {
      "en": "Animal's food and mode of feeding",
      "np": "जनावरहरूको खाना र खाने तरीका",
      "id": "aff",
      "subId": "science",
      "type": "biology",
      "image": "images/thumb/science/Animals-food-and-mode-of-eating-Gr-301.png",
      "imagebig": "images/thumb/science/Animals-food-and-mode-of-eating-Gr-302.png",
      "levels": [
        {
          "name": {
            "en": "Level I",
            "np": "तह १"
          },
          "thumbnail": "images/grade2/animal_food1.png",
          "id": "smthForEx",
          "desc": {
            "en": "Animal's food and mode of feeding",
            "np": " जनावरहरूको खाना र खाने तरीका"
          },
          "folder": "grade3/science/animal_feeding_habit",
          "exercise": [
            "exercise/exercise.html"
          ],
          "pages": [
            "page1.html",
            "page2.html",
            "page3.html"
          ],
          "sections": [
            {
              "en": "Animal's food and mode of feeding",
              "np": "जनावरहरूको खाना र खाने तरीका",
              "startpage": 1,
              "endPage": 3
            }
          ]
        }
      ]
    },
    "Types of Plants": {
      "en": "Types of Plants",
      "np": "विभिन्न प्रकारका बिरुवाहरू",
      "id": "typ",
      "subId": "science",
      "type": "biology",
      "image": "images/thumb/science/types-of-plants-gr-301.png",
      "imagebig": "images/thumb/science/types-of-plants-gr-302.png",
      "levels": [
        {
          "name": {
            "en": "Level I",
            "np": "तह १"
          },
          "thumbnail": "images/grade2/animal_food1.png",
          "id": "smthForEx",
          "desc": {
            "en": "Types of Plants",
            "np": " विभिन्न प्रकारका बिरुवाहरू"
          },
          "folder": "grade3/science/types_of_plants",
          "exercise": [
            "exercise/exercise.html"
          ],
          "pages": [
            "page1.html",
            "page2.html",
            "page3.html",
            "page4.html"
          ],
          "sections": [
            {
              "en": "Types of Plants",
              "np": "विभिन्न प्रकारका बिरुवाहरू",
              "startpage": 1,
              "endPage": 4
            }
          ]
        }
      ]
    },
    "Advantages of Plants": {
      "en": "Advantages of plants",
      "np": "बिरुवाबाट पाइने फाइदा",
      "id": "plt",
      "subID": "science",
      "type": "biology",
      "image": "images/grade3/science/Advantages-of-plants-Gr-3-01.png",
      "imagebig": "images/grade3/science/Advantages-of-plants-Gr-3-02.png",
      "levels": [
        {
          "name": {
            "en": "Level I",
            "np": "तह १"
          },
          "thumbnail": "images/activity-under-construction.png",
          "id": "smthForEx",
          "desc": {
            "en": "Advantages of Plants",
            "np": "Advantages of Plants"
          },
          "folder": "grade3/science/advantages_of_plants",
          "exercise": [
            "exercise/exercise.html"
          ],
          "pages": [
            "page1.html",
            "page2.html",
            "page3.html"
          ],
          "sections": [
            {
              "en": "Advantages of Plants",
              "np": "बिरुवाबाट पाइने फाइदा",
              "startpage": 1,
              "endPage": 3
            }
          ]
        }
      ]
    },
    "Advantages of Animals": {
      "en": "Advantages of animals",
      "np": "जनावरबाट हुने फाइदा",
      "id": "anm",
      "subID": "science",
      "type": "biology",
      "image": "images/grade3/science/advantages_of_animals1.png",
      "imagebig": "images/grade3/science/advantages_of_animals2.png",
      "levels": [
        {
          "name": {
            "en": "Level I",
            "np": "तह १"
          },
          "thumbnail": "images/grade3/advantages_of_animals1.png",
          "id": "smthForEx",
          "desc": {
            "en": "Advantages of Animals",
            "np": "जनावरबाट हुने फाइदा"
          },
          "folder": "grade3/science/advantages_of_animals",
          "exercise": [
            "exercise/exercise.html"
          ],
          "pages": [
            "page1.html",
            "page2.html",
            "page3.html",
            "page4.html",
            "page5.html"
          ],
          "sections": [
            {
              "en": "Advantages of Animals",
              "np": "जनावरबाट हुने फाइदा",
              "startpage": 1,
              "endPage": 5
            }
          ]
        }
      ]
    },
    "Clean Environment": {
        "en": "Clean Environment",
        "np": "सफा वातावरण",
        "id": "cle",
        "subID": "science",
        "type": "Geology and Astronomy",
        "image": "images/thumb/science/clean-enviornment-Gr-3-01.png",
        "imagebig": "images/thumb/science/clean-enviornment-Gr-3-02.png",
        "levels": [
          {
            "name": {
              "en": "Level I",
              "np": "तह १"
            },
            "thumbnail": "images/grade3/advantages_of_animals1.png",
            "desc": {
              "en": "Clean environment",
              "np": "सफा वातावरण"
            },
            "folder": "grade3/science/clean_environment",
            "exercise": [
              "exercise/exercise.html"
            ],
            "pages": [
              "page1.html",
              "page2.html",
              "page3.html"
            ],
            "sections": [
              {
                "en": "Clean Environment",
                "np": "सफा वातावरण",
                "startpage": 1,
                "endPage": 3
              }
            ]
          }
        ]
      },
    "Types of matter": {
        "en": "Types of matter",
        "np": "विभिन्न प्रकारका पदार्थहरू",
        "id": "tom",
        "subId": "science",
        "type": "Physics",
        "image": "images/thumb/science/Types-of-matters-Gr-301.png",
        "imagebig": "images/thumb/science/Types-of-matters-Gr-302.png",
        "levels": [
          {
            "name": {
              "en": "Level I",
              "np": "तह १"
            },
            "thumbnail": "images/grade2/animal_food1.png",
            "id": "smthForEx",
            "desc": {
              "en": "Types of matter",
              "np": "विभिन्न प्रकारका पदार्थहरू"
            },
            "folder": "grade3/science/types_of_matter",
            "exercise": [
              "exercise/exercise.html"
            ],
            "pages": [
              "page1.html",
              "page2.html",
              "page3.html",
              "page4.html",
              "page5.html"
            ],
            "sections": [
              {
                "en": "Types of matter",
                "np": "विभिन्न प्रकारका पदार्थहरू",
                "startpage": 1,
                "endPage": 5
              }
            ]
          }
        ]
      },
    "Water Cycle": {
        "en": "Clouds and water",
        "np": "बादल र पानी",
        "id": "wtc",
        "subID": "science",
        "type": "Geology and Astronomy",
        "image": "images/thumb/science/water-cycle-Gr-301.png",
        "imagebig": "images/thumb/science/water-cycle-Gr-302.png",
        "levels": [
          {
            "name": {
              "en": "Level I",
              "np": "तह १"
            },
            "thumbnail": "images/grade3/water_cycle.png",
            "desc": {
              "en": "Clouds and water",
              "np": "बादल र पानी"
            },
            "folder": "grade3/science/water_cycle",
            "exercise": [
              "exercise/exercise.html"
            ],
            "pages": [
              "page1.html",
              "page2.html",
              "page3.html",
              "page4.html",
              "page5.html"
            ],
            "sections": [
              {
                "en": "Water Cycle",
                "np": "बादल र पानी",
                "startpage": 1,
                "endPage": 5
              }
            ]
          }
        ]
      },
    "Biogas and Compost": {
        "en": "Biogas and compost",
        "np": "गोबर ग्यास र कम्पोष्ट",
        "id": "bgc",
        "subId": "english",
        "type": "Biology",
        "image": "images/thumb/science/biogas-and-compost-Gr-3-01.png",
        "imagebig": "images/thumb/science/biogas-and-compost-Gr-3-02.png",
        "levels": [
          {
            "name": {
              "en": "Level I",
              "np": "तह १"
            },
            "thumbnail": "images/activity-under-construction.png",
            "id": "smthForEx",
            "desc": {
              "en": "Tell the Time",
              "np": "गोबर ग्यास र कम्पोष्ट"
            },
            "folder": "grade3/science/bio_gas_compost",
            "exercise": [
              "exercise/exercise.html"
            ],
            "pages": [
              "page1.html",
              "page2.html"
            ],
            "sections": [
              {
                "en": "Biogas and Compost",
                "np": "गोबर ग्यास र कम्पोष्ट",
                "startpage": 1,
                "endPage": 2
              }
            ]
          }
        ]
      },
    "Clean body": {
      "en": "Clean body",
      "np": "सफा शरीर",
      "id": "clb",
      "subID": "science",
      "type": "Health and Nutrition",
      "image": "images/thumb/science/cleanbody-gr-301.png",
      "imagebig": "images/thumb/science/cleanbody-gr-302.png",
      "levels": [
        {
          "name": {
            "en": "Level I",
            "np": "तह १"
          },
          "thumbnail": "images/grade3/advantages_of_animals1.png",
          "desc": {
            "en": "Clean body",
            "np": "सफा शरीर"
          },
          "folder": "grade3/science/clean_body",
          "exercise": [
            "exercise/exercise.html"
          ],
          "pages": [
            "page1.html",
            "page2.html"
          ],
          "sections": [
            {
              "en": "Clean body",
              "np": "सफा शरीर",
              "startpage": 1,
              "endPage": 2
            }
          ]
        }
      ]
    },
    "Nutritious food": {
      "en": "Nutritious food",
      "np": "पौष्\u200dटिक खाना",
      "id": "Nfd",
      "subID": "science",
      "type": "Health and Nutrition",
      "image": "images/thumb/science/nutritious-food-Gr-301.png",
      "imagebig": "images/thumb/science/nutritious-food-Gr-302.png",
      "levels": [
        {
          "name": {
            "en": "Level I",
            "np": "तह १"
          },
          "thumbnail": "images/grade3/water_cycle.png",
          "desc": {
            "en": "Nutritious food",
            "np": "पौष्\u200dटिक खानाा"
          },
          "folder": "grade3/science/nutritious_food",
          "exercise": [
            "exercise/exercise.html"
          ],
          "pages": [
            "page1.html",
            "page2.html",
            "page3.html",
            "vocab.html"
          ],
          "sections": [
            {
              "en": "Nutritious food",
              "np": "पौष्\u200dटिक खाना",
              "startpage": 1,
              "endPage": 4
            }
          ]
        }
      ]
    }
  },
  "grade4": {
    "Vertebrates and Invertebrates": {
    "en": "Vertebrate and Invertebrate Animals",
    "np": "ढाड भएका र नभएका जनावरहरू",
    "id": "vai",
    "subId": "science",
    "type": "Biology",
    "image": "images/thumb/science/vertebrates-and-invertebrates-Gr-4-01.png",
    "imagebig": "images/thumb/science/vertebrates-and-invertebrates-Gr-4-02.png",
    "levels": [
      {
        "name": {
          "en": "Level I",
          "np": "तह १"
        },
        "thumbnail": "images/thumb/science/vertebrates-and-invertebrates-Gr-4-02.png",
        "id": "smthForEx",
        "desc": {
          "en": "Vertebrate and Invertebrate Animals",
          "np": "ढाड भएका र नभएका जनावरहरू"
        },
        "folder": "grade4/science/vertebrates_invertebrates",
        "exercise": [
          "exercise/exercise.html"
        ],
        "pages": [
          "page1.html",
          "page2.html",
          "page3.html",
          "page4.html",
          "page5.html",
          "page6.html",
          "page7.html"
        ],
        "sections": [
          {
            "en": "Vertebrate and Invertebrate Animals",
            "np": "ढाड भएका र नभएका जनावरहरू",
            "startpage": 1,
            "endPage": 7
          }
        ]
      }
    ]
  },
    "Oviparous and Viviparous Animals": {
    "en": "Oviparous and Viviparous Animals",
    "np": "फुल पार्ने र बच्चा जन्माउने जनावरहरू",
    "id": "ega",
    "subId": "english",
    "type": "Biology",
    "image": "images/thumb/science/Egg-laying-and-birth-giving-animals-Gr-401.png",
    "imagebig": "images/thumb/science/Egg-laying-and-birth-giving-animals-Gr-402.png",
    "levels": [
      {
        "name": {
          "en": "Level I",
          "np": "तह १"
        },
        "thumbnail": "images/activity-under-construction.png",
        "id": "smthForEx",
        "desc": {
          "en": "Tell the Time",
          "np": "Tell the Time"
        },
        "folder": "grade4/science/egglaying",
        "exercise": [
          "exercise/exercise.html"
        ],
        "pages": [
          "page1.html",
          "page2.html",
          "page3.html",
          "page4.html"
        ],
        "sections": [
          {
            "en": "Oviparous and Viviparous Animals",
            "np": "फुल पार्ने र बच्चा जन्माउने जनावरहरू",
            "startpage": 1,
            "endPage": 4
          }
        ]
      }
    ]
  },
    "Animals Found on Land and in Water": {
    "en": "Animals Found on Land and in Water",
    "np": "पानीमा बस्ने र जमिनमा बस्ने जनावरहरू",
    "id": "alw",
    "subId": "science",
    "type": "Biology",
    "image": "images/grade4/science/animals-found-on-land-and-water-Gr-401.png",
    "imagebig": "images/grade4/science/animals-found-on-land-and-water-Gr-402.png",
    "levels": [
      {
        "name": {
          "en": "Level I",
          "np": "तह १"
        },
        "thumbnail": "images/thumb/science/vertebrates-and-invertebrates-Gr-4-02.png",
        "id": "smthForEx",
        "desc": {
          "en": "Animals Found on Land and in Water",
          "np": "पानीमा बस्ने र जमिनमा बस्ने जनावरहरू"
        },
        "folder": "grade4/science/animals_on_land_water",
        "exercise": [
          "exercise/exercise.html"
        ],
        "pages": [
          "page1.html",
          "page2.html",
          "page3.html",
          "page4.html"
        ],
        "sections": [
          {
            "en": "Animals Found on Land and in Water",
            "np": "पानीमा बस्ने र जमिनमा बस्ने जनावरहरू",
            "startpage": 1,
            "endPage": 4
          }
        ]
      }
    ]
  },
    "Life Processes": {
    "en": "Life Processes",
    "np": "जीवन प्रक्रिया",
    "id": "afl",
    "subId": "science",
    "type": "Biology",
    "image": "images/thumb/science/life-processes-Gr-401.png",
    "imagebig": "images/thumb/science/life-processes-Gr-402.png",
    "levels": [
      {
        "name": {
          "en": "Level I",
          "np": "तह १"
        },
        "thumbnail": "images/thumb/science/vertebrates-and-invertebrates-Gr-4-02.png",
        "id": "smthForEx",
        "desc": {
          "en": "Life Processes",
          "np": "जीवन प्रक्रिया"
        },
        "folder": "grade4/science/life_processes",
        "exercise": [
          "exercise/exercise.html"
        ],
        "pages": [
          "page1.html",
          "page2.html",
          "page3.html"
        ],
        "sections": [
          {
            "en": "Life Processes",
            "np": "जीवन प्रक्रिया",
            "startpage": 1,
            "endPage": 3
          }
        ]
      }
    ]
  },
    "Different Stages Of Plants": {
    "en": "Different Stages of Plants",
    "np": "बिरुवाका विकासका चरणहरू",
    "id": "stp",
    "subId": "science",
    "type": "Biology",
    "image": "images/grade4/science/Different-stages-of-plant-Gr-4-01.png",
    "imagebig": "images/grade4/science/Different-stages-of-plant-Gr-4-02.png",
    "levels": [
      {
        "name": {
          "en": "Level I",
          "np": "तह १"
        },
        "thumbnail": "images/grade4/stagesofplant.png",
        "id": "smthForEx",
        "desc": {
          "en": "Different Stages of Plants",
          "np": "बिरुवाका विकासका चरणहरू"
        },
        "folder": "grade4/science/different_stages_of_plants",
        "exercise": [
          "exercise/exercise0.html",
          "exercise/exercise.html"
        ],
        "pages": [
          "page1.html",
          "page2.html"
        ],
        "sections": [
          {
            "en": "Different Stages of Plants",
            "np": "बिरुवाका विकासका चरणहरू",
            "startpage": 1,
            "endPage": 2
          }
        ]
      }
    ]
  },
    "Plants Found in Land and Water": {
    "en": "Plants found on land and in water",
    "np": "जमिन र पानीमा पाइने बिरुवाहरू",
    "id": "plw",
    "subId": "science",
    "type": "Biology",
    "image": "images/thumb/science/plants_found-in_land-and-water-gr-401.png",
    "imagebig": "images/thumb/science/plants_found-in_land-and-water-gr-402.png",
    "levels": [
      {
        "name": {
          "en": "Level I",
          "np": "तह १"
        },
        "thumbnail": "images/grade4/stagesofplant.png",
        "id": "smthForEx",
        "desc": {
          "en": "Plants Found on Land and in Water",
          "np": "जमिन र पानीमा पाइने बिरुवाहरू"
        },
        "folder": "grade4/science/plants_land_water",
        "exercise": [
          "exercise/exercise.html"
        ],
        "pages": [
          "page1.html",
          "page2.html",
          "page3.html",
          "page4.html"
        ],
        "sections": [
          {
            "en": "Plants Found in Land and Water",
            "np": "जमिन र पानीमा पाइने बिरुवाहरू",
            "startpage": 1,
            "endPage": 4
          }
        ]
      }
    ]
  },
    "Matter": {
    "en": "Matter",
    "np": "पदार्थ",
    "id": "mat",
    "subId": "science",
    "type": "Physics",
    "image": "images/grade4/science/matters_1.png",
    "imagebig": "images/grade4/science/matters_2.png",
    "levels": [
      {
        "name": {
          "en": "Level I",
          "np": "तह १"
        },
        "thumbnail": "images/grade4/science/matters_1.png",
        "id": "smthForEx",
        "desc": {
          "en": "Matter",
          "np": "पदार्थ"
        },
        "folder": "grade4/science/matters",
        "exercise": [
          "exercise/exercise.html"
        ],
        "pages": [
          "page1.html",
          "page2.html",
          "page3.html",
          "page4.html",
          "page5.html"
        ],
        "sections": [
          {
            "en": "Matter",
            "np": "पदार्थ",
            "startpage": 1,
            "endPage": 5
          }
        ]
      }
    ]
  },
    "Energy": {
    "en": "Energy",
    "np": "शक्ति",
    "id": "eyy",
    "subId": "english",
    "type": "Physics",
    "image": "images/thumb/science/Energy-Gr-401.png",
    "imagebig": "images/thumb/science/Energy-Gr-402.png",
    "levels": [
      {
        "name": {
          "en": "Level I",
          "np": "तह १"
        },
        "thumbnail": "images/activity-under-construction.png",
        "id": "smthForEx",
        "desc": {
          "en": "Energy",
          "np": "शक्ति"
        },
        "folder": "grade4/science/energy",
        "exercise": [
          "exercise/exercise.html"
        ],
        "pages": [
          "page1.html",
          "page2.html",
          "page3.html",
          "page4.html",
          "page5.html"
        ],
        "sections": [
          {
            "en": "Energy",
            "np": "शक्ति",
            "startpage": 1,
            "endPage": 5
          }
        ]
      }
    ]
  },
    "The Earth": {
    "en": "The Earth",
    "np": "पृथ्वी",
    "id": "tea",
    "subId": "english",
    "type": "Geology and Astronomy",
    "image": "images/thumb/science/the-earth-gr-401.png",
    "imagebig": "images/thumb/science/the-earth-gr-402.png",
    "levels": [
      {
        "name": {
          "en": "Level I",
          "np": "तह १"
        },
        "thumbnail": "images/activity-under-construction.png",
        "id": "smthForEx",
        "desc": {
          "en": "The Earth",
          "np": "पृथ्वी"
        },
        "folder": "grade4/science/the_earth",
        "exercise": [
          "exercise/exercise.html"
        ],
        "pages": [
          "page1.html",
          "page2.html",
          "page3.html",
          "page4.html",
          "page5.html"
        ],
        "sections": [
          {
            "en": "The Earth",
            "np": "पृथ्वी",
            "startpage": 1,
            "endPage": 5
          }
        ]
      }
    ]
  },
    "Solar System": {
        "en": "Solar System",
        "np": "सौर्यमण्डल",
        "id": "sos",
        "subId": "science",
        "type": "Geology and Astronomy",
        "image": "images/grade4/science/solar_system_1.png",
        "imagebig": "images/grade4/science/solar_system_2.png",
        "levels": [
          {
            "name": {
              "en": "Level I",
              "np": "तह १"
            },
            "thumbnail": "images/grade4/solar_system_2.png",
            "id": "smthForEx",
            "desc": {
              "en": "Solar System",
              "np": "सौर्यमण्डल"
            },
            "folder": "grade4/science/solar_system",
            "exercise": [
              "exercise/exercise.html"
            ],
            "pages": [
              "page1.html",
              "page2.html",
              "page3.html",
              "page4.html"
            ],
            "sections": [
              {
                "en": "Solar System",
                "np": "सौर्यमण्डल",
                "startpage": 1,
                "endPage": 4
              }
            ]
          }
        ]
      },
    "Information and communication technology": {
      "en": "Information and communication technology",
      "np": "सूचना र सञ्चार प्रविधि",
      "id": "ict",
      "subId": "english",
      "type": "Physics",
      "image": "images/thumb/science/Information-communication-and-technology-Gr-401.png",
      "imagebig": "images/thumb/science/Information-communication-and-technology-Gr-402.png",
      "levels": [
        {
          "name": {
            "en": "Level I",
            "np": "तह १"
          },
          "thumbnail": "images/activity-under-construction.png",
          "id": "smthForEx",
          "desc": {
            "en": "Tell the Time",
            "np": "Tell the Time"
          },
          "folder": "grade4/science/informationtech",
          "exercise": [
            "exercise/exercise.html"
          ],
          "pages": [
            "page1.html",
            "page2.html",
            "page3.html",
            "page4.html"
          ],
          "sections": [
            {
              "en": "Information and communication technology",
              "np": "सूचना र सञ्चार प्रविधि",
              "startpage": 1,
              "endPage": 4
            }
          ]
        }
      ]
    },
    "Local Technology": {
      "en": "Local technology",
      "np": "स्थानीय प्रविधि",
      "id": "lte",
      "subId": "science",
      "type": "Physics",
      "image": "images/thumb/science/Local-technology-gr4-01.png",
      "imagebig": "images/thumb/science/Local-technology-gr4-02.png",
      "levels": [
        {
          "name": {
            "en": "Level I",
            "np": "तह १"
          },
          "thumbnail": "images/activity-under-construction.png",
          "id": "smthForEx",
          "desc": {
            "en": "Local Technology",
            "np": "स्थानीय प्रविधि"
          },
          "folder": "grade4/science/local_tech",
          "exercise": [
            "exercise/exercise.html"
          ],
          "pages": [
            "page1.html",
            "page2.html",
            "page3.html",
            "page4.html"
          ],
          "sections": [
            {
              "en": "Local Technology",
              "np": "स्थानीय प्रविधि",
              "startpage": 1,
              "endPage": 4
            }
          ]
        }
      ]
    },
    "Cleanliness": {
      "en": "Cleanliness",
      "np": "शरीरको सफाइ",
      "id": "ttt",
      "subId": "english",
      "type": "Health and Nutrition",
      "image": "images/thumb/science/cleanliness-gr-401.png",
      "imagebig": "images/thumb/science/cleanliness-gr-402.png",
      "levels": [
        {
          "name": {
            "en": "Level I",
            "np": "तह १"
          },
          "thumbnail": "images/activity-under-construction.png",
          "id": "smthForEx",
          "desc": {
            "en": "Tell the Time",
            "np": "Tell the Time"
          },
          "folder": "grade4/science/cleanliness",
          "exercise": [
            "exercise/exercise2.html"
          ],
          "pages": [
            "page1.html",
            "page2.html",
            "page3.html",
            "page4.html",
            "page5.html"
          ],
          "sections": [
            {
              "en": "Cleanliness",
              "np": "शरीरको सफाइ",
              "startpage": 1,
              "endPage": 5
            }
          ]
        }
      ]
    },
    "Nutritious food": {
      "en": "Nutritious food",
      "np": "पौष्टिक खाना",
      "id": "ntf",
      "subId": "english",
      "type": "Health and Nutrition",
      "image": "images/thumb/science/Nutritious-food-Gr-401.png",
      "imagebig": "images/thumb/science/Nutritious-food-Gr-402.png",
      "levels": [
        {
          "name": {
            "en": "Level I",
            "np": "तह १"
          },
          "thumbnail": "images/activity-under-construction.png",
          "id": "smthForEx",
          "desc": {
            "en": "Tell the Time",
            "np": "Tell the Time"
          },
          "folder": "grade4/science/nutritiousfood",
          "exercise": [
            "exercise/exercise.html"
          ],
          "pages": [
            "page1.html",
            "page2.html",
            "page3.html",
            "page4.html",
            "page5.html"
          ],
          "sections": [
            {
              "en": "Nutritious food",
              "np": "Nutritious food",
              "startpage": 1,
              "endPage": 5
            }
          ]
        }
      ]
    }
  },
  "grade5": {
    "Classification of vertebrates": {
    "en": "Classification of vertebrates",
    "np": "ढाड भएका जनावरको वर्गीकरण",
    "id": "clv",
    "subId": "science",
    "type": "Biology",
    "image": "images/thumb/science/classification-of-vertebrates--Gr-5-01.png",
    "imagebig": "images/thumb/science/classification-of-vertebrates--Gr-5-02.png",
    "levels": [
      {
        "name": {
          "en": "Level I",
          "np": "तह १"
        },
        "thumbnail": "images/thumb/science/classification-of-vertebrates--Gr-5-01.png",
        "id": "smthForEx",
        "desc": {
          "en": "Classification of vertebrates",
          "np": "ढाड भएका जनावरको वर्गीकरण"
        },
        "folder": "grade5/science/cls_of_vert",
        "exercise": [
          "exercise/exercise.html"
        ],
        "pages": [
          "page1.html",
          "page2.html",
          "page3.html",
          "page4.html",
          "page5.html",
          "page6.html",
          "page7.html",
          "page8.html"
        ],
        "sections": [
          {
            "en": "Classification of vertebrates",
            "np": "मानव क्रियाकलाप र वातावरण",
            "startpage": 1,
            "endPage": 8
          }
        ]
      }
    ]
  },
    "Classification of invertebrates": {
    "en": "Classification of invertebrates",
    "np": "ढाड नभएका जनावरको वर्गीकरण",
    "id": "cli",
    "subId": "science",
    "type": "Biology",
    "image": "images/thumb/science/classification-of-invertebrates-Gr-501.png",
    "imagebig": "images/thumb/science/classification-of-invertebrates-Gr-502.png",
    "levels": [
      {
        "name": {
          "en": "Level I",
          "np": "तह १"
        },
        "thumbnail": "images/thumb/science/classification-of-vertebrates--Gr-5-01.png",
        "id": "smthForEx",
        "desc": {
          "en": "Classification of invertebrates",
          "np": "ढाड नभएका जनावरको वर्गीकरण"
        },
        "folder": "grade5/science/cls_of_invert",
        "exercise": [
          "exercise/exercise.html"
        ],
        "pages": [
          "page1.html",
          "page2.html",
          "page3.html"
        ],
        "sections": [
          {
            "en": "Classification of invertebrates",
            "np": "ढाड नभएका जनावरको वर्गीकरण",
            "startpage": 1,
            "endPage": 3
          }
        ]
      }
    ]
  },
    "Life cycle of Butterfly": {
    "en": "Life cycle of a butterfly",
    "np": "पुतलीको जीवनचक्र",
    "id": "buf",
    "subId": "science",
    "type": "Biology",
    "image": "images/grade5/sci/life-cycle-of-butterfly-Gr-5-01.png",
    "imagebig": "images/grade5/sci/life-cycle-of-butterfly-Gr-5-02.png",
    "levels": [
      {
        "name": {
          "en": "Level I",
          "np": "तह १"
        },
        "thumbnail": "images/activity-under-construction.png",
        "id": "smthForEx",
        "desc": {
          "en": "Life cycle of a butterfly",
          "np": "पुतलीको जीवनचक्र"
        },
        "folder": "grade5/science/life_cycle_of_butterfly",
        "exercise": [
          "exercise/exercise.html"
        ],
        "pages": [
          "page1.html",
          "page2.html",
          "page3.html",
          "page4.html"
        ],
        "sections": [
          {
            "en": "Life cycle of a butterfly",
            "np": "पुतलीको जीवनचक्र",
            "startpage": 1,
            "endPage": 4
          }
        ]
      }
    ]
  },
    "Parts of a Plant": {
      "en": "Parts of a plant",
      "np": "बिरुवाका विभिन्&#8205;न भागहरू ",
      "id": "pop",
      "subId": "science",
      "type": "Biology",
      "image": "images/grade5/sci/parts-of-plant-gr-5-01.png",
      "imagebig": "images/grade5/sci/parts-of-plant-gr-5-02.png",
      "levels": [
        {
          "name": {
            "en": "Level I",
            "np": "तह १"
          },
          "thumbnail": "images/activity-under-construction.png",
          "id": "smthForEx",
          "desc": {
            "en": "Parts of a Plant",
            "np": "बिरुवाका विभिन्&#8205;न भागहरू "
          },
          "folder": "grade5/science/parts_of_a_plant",
          "exercise": [
            "exercise/exercise1.html",
            "exercise/exercise2.html"
          ],
          "pages": [
            "page1.html",
            "page2.html",
            "page3.html"
          ],
          "sections": [
            {
              "en": "Parts of a Plant",
              "np": "बिरुवाका विभिन्&#8205;न भागहरू ",
              "startpage": 1,
              "endPage": 3
            }
          ]
        }
      ]
    },
    "Parts of a Flower": {
      "en": "Parts of a flower",
      "np": "फूलका विभिन्&#8205;न भागहरू ",
      "id": "pof",
      "subId": "science",
      "type": "Biology",
      "image": "images/grade5/sci/parts-of-flower-gr-5-01.png",
      "imagebig": "images/grade5/sci/parts-of-flower-gr-5-02.png",
      "levels": [
        {
          "name": {
            "en": "Level I",
            "np": "तह १"
          },
          "thumbnail": "images/activity-under-construction.png",
          "id": "smthForEx",
          "desc": {
            "en": "Parts of a Flower",
            "np": "फूलका विभिन्&#8205;न भागहरू "
          },
          "folder": "grade5/science/parts_of_a_flower",
          "exercise": [
            "exercise/exercise.html"
          ],
          "pages": [
            "page1.html",
            "page2.html",
            "page3.html",
            "page4.html"
          ],
          "sections": [
            {
              "en": "Parts of a Flower",
              "np": "फूलका विभिन्&#8205;न भागहरू ",
              "startpage": 1,
              "endPage": 4
            }
          ]
        }
      ]
    },
    "Monocotyledon and Dicotyledon": {
      "en": "Monocotyledon and dicotyledon",
      "np": "एकदलिय र दुईदलिय बिरुवाहरू",
      "id": "mdi",
      "subId": "science",
      "type": "Biology",
      "image": "images/grade5/sci/monocotyledon-and-dicotyledon-Gr-5-01.png",
      "imagebig": "images/grade5/sci/monocotyledon-and-dicotyledon-Gr-5-02.png",
      "levels": [
        {
          "name": {
            "en": "Level I",
            "np": "तह १"
          },
          "thumbnail": "images/activity-under-construction.png",
          "id": "smthForEx",
          "desc": {
            "en": "Density",
            "np": "एकदलिय र दुईदलिय बिरुवाहरू"
          },
          "folder": "grade5/science/mo_di",
          "exercise": [
            "exercise/exercise.html"
          ],
          "pages": [
            "page1.html",
            "page2.html",
            "page3.html",
            "page4.html"
          ],
          "sections": [
            {
              "en": "Density",
              "np": "एकदलिय र दुईदलिय बिरुवाहरू",
              "startpage": 1,
              "endPage": 4
            }
          ]
        }
      ]
    },
    "Life processes of a plant": {
      "en": "Life processes of a plant",
      "np": "बिरुवाको जीवन प्रक्रिया",
      "id": "lpp",
      "subId": "science",
      "type": "Biology",
      "image": "images/thumb/science/life_processes_of_a_plant_gr-501.png",
      "imagebig": "images/thumb/science/life_processes_of_a_plant_gr-502.png",
      "levels": [
        {
          "name": {
            "en": "Level I",
            "np": "तह १"
          },
          "thumbnail": "images/thumb/science/life_processes_of_a_plant_gr-502.png",
          "id": "smthForEx",
          "desc": {
            "en": "Life processes of a plant",
            "np": "बिरुवाको जीवन प्रक्रिया"
          },
          "folder": "grade5/science/life_prc_plant",
          "exercise": [
            "exercise/exercise.html"
          ],
          "pages": [
            "page1.html",
            "page2.html",
            "page3.html",
            "page4.html"
          ],
          "sections": [
            {
              "en": "Life processes of a plant",
              "np": "बिरुवाको जीवन प्रक्रिया",
              "startpage": 1,
              "endPage": 4
            }
          ]
        }
      ]
    },
    "Human activities and environment": {
      "en": "Human activities and environment",
      "np": "मानव क्रियाकलाप र वातावरण",
      "id": "hae",
      "subId": "science",
      "type": "Biology",
      "image": "images/grade5/sci/human-activities-and-environment-Gr-5-01.png",
      "imagebig": "images/grade5/sci/human-activities-and-environment-Gr-5-02.png",
      "levels": [
        {
          "name": {
            "en": "Level I",
            "np": "तह १"
          },
          "thumbnail": "images/activity-under-construction.png",
          "id": "smthForEx",
          "desc": {
            "en": "Conservation of Environment",
            "np": "मानव क्रियाकलाप र वातावरण"
          },
          "folder": "grade5/science/hum_act_and_env",
          "exercise": [
            "exercise/exercise.html"
          ],
          "pages": [
            "page1.html",
            "page2.html",
            "page3.html",
            "page4.html",
            "page5.html",
            "page6.html"
          ],
          "sections": [
            {
              "en": "Human activities and environment",
              "np": "मानव क्रियाकलाप र वातावरण",
              "startpage": 1,
              "endPage": 6
            }
          ]
        }
      ]
    },
    "Conservation of Environment": {
      "en": "Conservation of the Environment",
      "np": "वातावरण संरक्षण",
      "id": "coe",
      "subId": "science",
      "type": "Biology",
      "image": "images/thumb/science/conservation-of-environment-Gr-5-01.png",
      "imagebig": "images/thumb/science/conservation-of-environment-Gr-5-02.png",
      "levels": [
        {
          "name": {
            "en": "Level I",
            "np": "तह १"
          },
          "thumbnail": "images/thumb/science/conservation-of-environment-Gr-5-02.png",
          "id": "smthForEx",
          "desc": {
            "en": "Conservation of the Environment",
            "np": "वातावरण संरक्षण"
          },
          "folder": "grade5/science/conservation_of_environment",
          "exercise": [
            "exercise/exercise.html"
          ],
          "pages": [
            "page1.html",
            "page2.html",
            "page3.html",
            "page4.html",
            "page5.html",
            "page6.html",
            "page7.html"
          ],
          "sections": [
            {
              "en": "Conservation of the Environment",
              "np": "वातावरण संरक्षण",
              "startpage": 1,
              "endPage": 7
            }
          ]
        }
      ]
    },
    "Weather": {
      "en": "Weather",
      "np": "मौसम",
      "id": "wtr",
      "subId": "science",
      "type": "Geology and Astronomy",
      "image": "images/thumb/science/Weatehr-Gr-501.png",
      "imagebig": "images/thumb/science/Weatehr-Gr-502.png",
      "levels": [
        {
          "name": {
            "en": "Level I",
            "np": "तह १"
          },
          "thumbnail": "images/activity-under-construction.png",
          "id": "smthForEx",
          "desc": {
            "en": "Weather",
            "np": "मौसम"
          },
          "folder": "grade5/science/weather",
          "exercise": [
            "exercise/exercise.html"
          ],
          "pages": [
            "page1.html",
            "page2.html",
            "page3.html",
            "page4.html"
          ],
          "sections": [
            {
              "en": "Weather",
              "np": "Weather",
              "startpage": 1,
              "endPage": 4
            }
          ]
        }
      ]
    },
    "Information and communication": {
      "en": "Information and communication",
      "np": "सूचना र सञ्चार",
      "id": "iac",
      "subId": "science",
      "type": "Physics",
      "image": "images/thumb/science/iInformation-and-communication-Gr-501.png",
      "imagebig": "images/thumb/science/iInformation-and-communication-Gr-502.png",
      "levels": [
        {
          "name": {
            "en": "Level I",
            "np": "तह १"
          },
          "thumbnail": "images/activity-under-construction.png",
          "id": "smthForEx",
          "desc": {
            "en": "Information and communication",
            "np": "सूचना र सञ्चार"
          },
          "folder": "grade5/science/information_and_communication",
          "exercise": [
            "exercise/exercise.html"
          ],
          "pages": [
            "page1.html",
            "page2.html",
            "page3.html",
            "page4.html",
            "page5.html"
          ],
          "sections": [
            {
              "en": "Information and communication",
              "np": "सूचना र सञ्चार",
              "startpage": 1,
              "endPage": 5
            }
          ]
        }
      ]
    },
    "Personal hygiene": {
      "en": "Personal hygiene",
      "np": "शरीरको सफाइ",
      "id": "phy",
      "subId": "science",
      "type": "Health and Nutrition",
      "image": "images/thumb/science/personal-hygieneGr-501.png",
      "imagebig": "images/thumb/science/personal-hygieneGr-502.png",
      "levels": [
        {
          "name": {
            "en": "Level I",
            "np": "तह १"
          },
          "thumbnail": "images/activity-under-construction.png",
          "id": "smthForEx",
          "desc": {
            "en": "Personal hygiene",
            "np": "शरीरको सफाइ"
          },
          "folder": "grade5/science/personal_hygiene",
          "exercise": [
            "exercise/exercise.html"
          ],
          "pages": [
            "page1.html",
            "page2.html"
          ],
          "sections": [
            {
              "en": "Personal hygiene",
              "np": "शरीरको सफाइ",
              "startpage": 1,
              "endPage": 2
            }
          ]
        }
      ]
    },
    "Menstruation": {
      "en": "Menstruation",
      "np": "महिनावारी",
      "id": "cle",
      "subID": "science",
      "type": "Health and Nutrition",
      "image": "images/thumb/science/menstruation-Gr-501.png",
      "imagebig": "images/thumb/science/menstruation-Gr-502.png",
      "levels": [
        {
          "name": {
            "en": "Level I",
            "np": "तह १"
          },
          "thumbnail": "images/grade3/advantages_of_animals1.png",
          "desc": {
            "en": "Menstruation",
            "np": "महिनावारी"
          },
          "folder": "grade5/science/menstruation",
          "exercise": [
            "exercise/exercise.html"
          ],
          "pages": [
            "page1.html",
            "page2.html",
            "page3.html",
            "page4.html",
            "page5.html"
          ],
          "sections": [
            {
              "en": "Menstruation",
              "np": "महिनावारी",
              "startpage": 1,
              "endPage": 5
            }
          ]
        }
      ]
    },
    "Balanced diet": {
      "en": "Balanced diet",
      "np": "सन्तुलित आहार",
      "id": "bet",
      "subId": "science",
      "type": "Health and Nutrition",
      "image": "images/thumb/science/balanced_diet_gr5_01.png",
      "imagebig": "images/thumb/science/balanced_diet_gr5_02.png",
      "levels": [
        {
          "name": {
            "en": "Level I",
            "np": "तह १"
          },
          "thumbnail": "images/activity-under-construction.png",
          "id": "smthForEx",
          "desc": {
            "en": "Balanced diet",
            "np": "Balanced diet"
          },
          "folder": "grade5/science/balanced_diet",
          "exercise": [
            "exercise/exercise.html"
          ],
          "pages": [
            "page1.html",
            "page2.html",
            "page3.html",
            "page4.html",
            "page5.html",
            "page6.html"
          ],
          "sections": [
            {
              "en": "Personal hygiene",
              "np": "Personal hygiene",
              "startpage": 1,
              "endPage": 6
            }
          ]
        }
      ]
    }
  },
  "grade6": {
    "Measurement": {
      "en": "Measurement",
      "np": "नाप",
      "id": "mmt",
      "subId": "science",
      "type": "Physics",
      "image": "images/thumb/science/measurement-Gr-6-01.png",
      "imagebig": "images/thumb/science/measurement-Gr-6-02.png",
      "levels": [
        {
          "name": {
            "en": "Level I",
            "np": "तह १"
          },
          "thumbnail": "images/activity-under-construction.png",
          "id": "smthForEx",
          "desc": {
            "en": "Mixture",
            "np": "Mixture"
          },
          "folder": "grade6/science/measurement",
          "exercise": [
            "exercise/exercise.html"
          ],
          "pages": [
            "page1.html",
            "page2.html",
            "page3.html",
            "page4.html",
            "page5.html",
            "page6.html"
          ],
          "sections": [
            {
              "en": "Measurement",
              "np": "नाप",
              "startpage": 1,
              "endPage": 6
            }
          ]
        }
      ]
    },
    "Force and Motion-III": {
      "en": "Force and Motion",
      "np": "बल र चाल",
      "id": "fnm",
      "subId": "science",
      "type": "Physics",
      "image": "images/thumb/science/force-and-motion-Gr-601.png",
      "imagebig": "images/thumb/science/force-and-motion-Gr-602.png",
      "levels": [
        {
          "name": {
            "en": "Level I",
            "np": "तह १"
          },
          "thumbnail": "images/thumb/science/making-your-own-battery-using-lemons-Gr-602.png",
          "id": "smthForEx",
          "desc": {
            "en": "Force and Motion",
            "np": "बल र चाल"
          },
          "folder": "grade6/science/force_and_motion_3",
          "exercise": [
            "exercise/exercise.html"
          ],
          "pages": [
            "page1.html",
            "page2.html",
            "page3.html",
            "page4.html",
            "page5.html",
            "page6.html",
            "page7.html",
            "page8.html"
          ],
          "sections": [
            {
              "en": "Force and Motion",
              "np": "बल र चाल",
              "startpage": 1,
              "endPage": 8
            }
          ]
        }
      ]
    },
    "SimpleMachine": {
        "en": "Simple machine",
        "np": "सरल यन्त्र",
        "id": "sim",
        "subId": "science",
        "type": "Physics",
        "image": "images/grade6/science/sm01.png",
        "imagebig": "images/grade6/science/sm02.png",
        "levels": [
          {
            "name": {
              "en": "Level I",
              "np": "तह १"
            },
            "thumbnail": "images/activity-under-construction.png",
            "id": "smthForEx",
            "desc": {
              "en": "Simple Machine",
              "np": "सरल यन्त्र"
            },
            "folder": "grade6/science/simple_machine",
            "exercise": [
              "exercise/exercise.html"
            ],
            "pages": [
              "page1.html",
              "page2.html",
              "page3.html",
              "page4.html"
            ],
            "sections": [
              {
                "en": "Simple Machine",
                "np": "सरल यन्त्र",
                "startpage": 1,
                "endPage": 4
              }
            ]
          }
        ]
      },
    "Effects of Heat": {
        "en": "Effects of Heat",
        "np": "तापका असरहरू",
        "id": "efh",
        "subId": "science",
        "type": "Physics",
        "image": "images/thumb/science/effects-of-heat-Gr-601.png",
        "imagebig": "images/thumb/science/effects-of-heat-Gr-602.png",
        "levels": [
          {
            "name": {
              "en": "Level II",
              "np": "तह १"
            },
            "thumbnail": "images/effects-of-heat-Gr-602.png",
            "id": "smthForEx",
            "desc": {
              "en": "Effects of Heat",
              "np": "वतापका असरहरू"
            },
            "folder": "grade6/science/heat",
            "exercise": [
              "exercise/exercise.html"
            ],
            "pages": [
              "page1.html",
              "page2.html",
              "page3.html",
              "page4.html",
              "page5.html",
              "page6.html",
              "page7.html"
            ],
            "sections": [
              {
                "en": "Effects of Heat",
                "np": "तापका असरहरू",
                "startpage": 1,
                "endPage": 7
              }
            ]
          }
        ]
      },
    "Sources of Heat": {
        "en": "Sources of Heat",
        "np": "तापका स्रोतहरू",
        "id": "soh",
        "subId": "science",
        "type": "Physics",
        "image": "images/thumb/science/sources-of-heat--Gr-601.png",
        "imagebig": "images/thumb/science/sources-of-heat--Gr-602.png",
        "levels": [
          {
            "name": {
              "en": "Level II",
              "np": "तह १"
            },
            "thumbnail": "images/activity-under-construction.png",
            "id": "smthForEx",
            "desc": {
              "en": "Sources of Heat",
              "np": "तापका स्रोतहरू"
            },
            "folder": "grade6/science/heat_part_2",
            "exercise": [
              "exercise/exercise.html"
            ],
            "pages": [
              "page1.html",
              "page2.html",
              "page3.html",
              "page4.html",
              "page5.html"
            ],
            "sections": [
              {
                "en": "Sources of Heat",
                "np": "तापका स्रोतहरू",
                "startpage": 1,
                "endPage": 5
              }
            ]
          }
        ]
      },
    "Light": {
        "en": "Light",
        "np": "प्रकाश",
        "id": "lgt",
        "subId": "science",
        "type": "Physics",
        "image": "images/grade6/science/light-Gr-6_01.png",
        "imagebig": "images/grade6/science/light-Gr-6_02.png",
        "levels": [
          {
            "name": {
              "en": "Level I",
              "np": "तह १"
            },
            "thumbnail": "images/grade6/light-Gr-6_01.png",
            "id": "smthForEx",
            "desc": {
              "en": "Light",
              "np": "प्रकाश"
            },
            "folder": "grade6/science/light",
            "exercise": [
              "exercise/exercise.html"
            ],
            "pages": [
              "page1.html",
              "page2.html",
              "page3.html",
              "page4.html",
              "page5.html",
              "page6.html",
              "page7.html"
            ],
            "sections": [
              {
                "en": "Light",
                "np": "प्रकाश",
                "startpage": 1,
                "endPage": 7
              }
            ]
          }
        ]
      },
    "Magnet": {
        "en": "Magnet",
        "np": "चुम्बक",
        "id": "mag",
        "subId": "science",
        "type": "Physics",
        "image": "images/grade6/science/Magnet-Gr-6-01.png",
        "imagebig": "images/grade6/science/Magnet-Gr-6-02.png",
        "levels": [
          {
            "name": {
              "en": "Level I",
              "np": "तह १"
            },
            "thumbnail": "images/activity-under-construction.png",
            "id": "smthForEx",
            "desc": {
              "en": "Magnet",
              "np": "चुम्बक"
            },
            "folder": "grade6/science/magnet",
            "exercise": [
              "exercise/exercise.html"
            ],
            "pages": [
              "page1.html",
              "page2.html",
              "page3.html",
              "page4.html",
              "page5.html",
              "page6.html",
              "page7.html"
            ],
            "sections": [
              {
                "en": "Magnet",
                "np": "चुम्बक",
                "startpage": 1,
                "endPage": 7
              }
            ]
          }
        ]
      },
    "Conductivity": {
        "en": "Conductivity",
        "np": " चालकता ",
        "id": "epc",
        "subId": "science",
        "type": "Physics",
        "image": "images/thumbnails/electricity_III-Gr-601.png",
        "imagebig": "images/thumbnails/electricity_III-Gr-602.png",
        "levels": [
          {
            "name": {
              "en": "Level I",
              "np": "तह १"
            },
            "thumbnail": "images/grade6/light-Gr-6_01.png",
            "id": "smthForEx",
            "desc": {
              "en": "Conductivity",
              "np": " चालकता "
            },
            "folder": "grade6/science/electricity_conductivity",
            "exercise": [
              "exercise/exercise.html"
            ],
            "pages": [
              "page1.html",
              "page2.html",
              "page3.html"
            ],
            "sections": [
              {
                "en": "Conductivity",
                "np": "चालकता ",
                "startpage": 1,
                "endPage": 3
              }
            ]
          }
        ]
      },
    "Electrical Circuit": {
        "en": "Electrical Circuit",
        "np": "विद्युत परिपथ",
        "id": "el3",
        "subId": "science",
        "type": "Physics",
        "image": "images/thumb/science/electricity_II-Gr-601.png",
        "imagebig": "images/thumb/science/electricity_II-Gr-602.png",
        "levels": [
          {
            "name": {
              "en": "Level II",
              "np": "तह १"
            },
            "thumbnail": "images/activity-under-construction.png",
            "id": "smthForEx",
            "desc": {
              "en": "Electrical Circuit",
              "np": "विद्युत परिपथ"
            },
            "folder": "grade6/science/electricity2",
            "exercise": [
              "exercise/exercise.html"
            ],
            "pages": [
              "page1.html",
              "page2.html"
            ],
            "sections": [
              {
                "en": "Electrical Circuit",
                "np": "विद्युत परिपथ",
                "startpage": 1,
                "endPage": 2
              }
            ]
          }
        ]
      },
    "Sources of Electricity": {
      "en": "Sources of Electricity",
      "np": "विद्युतीय स्रोतहरू",
      "id": "el1",
      "subId": "science",
      "type": "Physics",
      "image": "images/thumb/science/sources_of_electricity-Gr-601.png",
      "imagebig": "images/thumb/science/sources_of_electricity-Gr-602.png",
      "levels": [
        {
          "name": {
            "en": "Level II",
            "np": "तह १"
          },
          "thumbnail": "images/activity-under-construction.png",
          "id": "smthForEx",
          "desc": {
            "en": "Sources of Electricity",
            "np": "विद्युतीय स्रोतहरू"
          },
          "folder": "grade6/science/electricity_sources",
          "exercise": [
            "exercise/exercise.html"
          ],
          "pages": [
            "page1.html",
            "page2.html",
            "page3.html",
            "page4.html",
            "page5.html",
            "page6.html",
            "page7.html",
            "page8.html",
            "page9.html"
          ],
          "sections": [
            {
              "en": "Sources of Electricity",
              "np": "विद्युतीय स्रोतहरू",
              "startpage": 1,
              "endPage": 9
            }
          ]
        }
      ]
    },
    "Mixture": {
      "en": "Mixture",
      "np": "मिश्रण",
      "id": "mix",
      "subId": "science",
      "type": "Chemistry",
      "image": "images/grade6/science/mixture-Gr-6-01.png",
      "imagebig": "images/grade6/science/mixture-Gr-6-02.png",
      "levels": [
        {
          "name": {
            "en": "Level I",
            "np": "तह १"
          },
          "thumbnail": "images/activity-under-construction.png",
          "id": "smthForEx",
          "desc": {
            "en": "Mixture",
            "np": "मिश्रण"
          },
          "folder": "grade6/science/mixture",
          "exercise": [
            "exercise/exercise.html"
          ],
          "pages": [
            "page1.html",
            "page2.html",
            "page3.html",
            "page4.html"
          ],
          "sections": [
            {
              "en": "Mixture",
              "np": "मिश्रण",
              "startpage": 1,
              "endPage": 4
            }
          ]
        }
      ]
    },
    "Cell": {
      "en": "Cell",
      "np": "कोष",
      "id": "cel",
      "subId": "science",
      "type": "Biology",
      "image": "images/thumb/science/cell-gr-6_01.png",
      "imagebig": "images/thumb/science/cell-gr-6_02.png",
      "levels": [
        {
          "name": {
            "en": "Level I",
            "np": "तह १"
          },
          "thumbnail": "images/activity-under-construction.png",
          "id": "smthForEx",
          "desc": {
            "en": "Cell",
            "np": "कोष"
          },
          "folder": "grade6/science/cell",
          "exercise": [
            "exercise/exercise.html"
          ],
          "pages": [
            "page1.html",
            "page2.html",
            "page3.html",
            "page4.html",
            "page5.html",
            "page6.html"
          ],
          "sections": [
            {
              "en": "Cell",
              "np": "कोष",
              "startpage": 1,
              "endPage": 6
            }
          ]
        }
      ]
    }
  }
}
