selector,english_word,engmeaning,nepali_word,nepmeaning,image
चुम्बकीय,,,,चुम्बकको गुण भएको,
अचुम्बकीय,,,,चुम्बकको गुण नभएको,
प्राकृतिक,,,,प्रकृतिमा पाइने,
तलुवा,,,,जुत्ताको तल्लो भाग,
होल्डर,,,,सामान झुन्ड्याउन प्रयोग हुने वस्तु,
