<?xml version="1.0" encoding="utf-8"?>
<!DOCTYPE svg PUBLIC "-//W3C//DTD SVG 1.1//EN" "http://www.w3.org/Graphics/SVG/1.1/DTD/svg11.dtd">
<svg version="1.1" id="Layer_1" xmlns="http://www.w3.org/2000/svg" xmlns:xlink="http://www.w3.org/1999/xlink" x="0px" y="0px"
	 width="280.143px" height="425.65px" viewBox="0 0 280.143 425.65" enable-background="new 0 0 280.143 425.65"
	 xml:space="preserve">
<g>
	<g>
		<path fill="#C98763" stroke="#000000" stroke-width="1.146" stroke-miterlimit="10" d="M102.769,326.977
			c0,0-18.726,0.659-11.23-14.537c7.484-15.195,23.712-26.102,18.097-41.96c-5.615-15.854-28.395-34.358-57.725-25.438
			c-24.958,7.59-43.374,32.377-42.126,52.201c1.206,19.137,24.169,26.649,32.453,9.912c3.432-6.939-9.771,2.889-9.363-7.271
			c0.401-10.089,5.316-14.176,10.298-16.519c14.041-6.608,21.87,14.251,0,40.968c-20.28,24.779-16.568,58.251,12.796,68.721
			c30.577,10.903,49.924-14.536,49.924-14.536L102.769,326.977z"/>
		<path fill="#AF7558" d="M102.769,326.977c0,0-18.726,0.659-11.23-14.537c7.484-15.195,23.712-26.102,18.097-41.96
			c-5.615-15.854-28.395-34.358-57.725-25.438c-24.958,7.59-43.374,32.377-42.126,52.201c1.206,19.137,21.671,25.163,32.453,9.912
			c0.93-1.314-26.157,16.043-28.104-7.813c-1.526-18.718,12.547-33.768,22.729-40.969c31.322-22.157,65.702,7.064,58.443,28.076
			c-10.484,30.356-55.009,60.737-24.354,77.067c12.438,6.627,32.184-29.028,32.184-29.028L102.769,326.977z"/>
		<path opacity="0.44" fill="none" stroke="#000000" stroke-width="1.3216" stroke-miterlimit="10" enable-background="new    " d="
			M85.564,373.263c0,0-55.011,4.011-27.543-39.68c21.404-34.045,33.479-40.527,30.837-55.064
			c-2.642-14.537-24.445-32.155-46.254-16.299c-21.805,15.856-27.092,36.563-18.501,43.172"/>
		<path display="none" opacity="0.39" fill="#FFE6C7" enable-background="new    " d="M75.25,386.441
			c-14.897,0.285-58.063-8.405-21.202-58.16c10.086-13.613,26.009-31.624,25.024-48.419c-0.385-6.493-5.353-15.661-16.045-17.19
			c-20.595-2.94-38.97,14.899-38.588,33.616c0.273,13.34,11.466,18.336,16.646,9.718c1.728-2.875-13.183,4.729-10.818-8.094
			c2.005-10.888,7.284-15.842,12.033-18.621c16.417-9.615,28.363,18.146,3.914,46.412c-20.946,24.217-17.902,54.47,11.46,64.939
			c30.579,10.898,42.021-14.137,42.021-14.137S90.147,386.153,75.25,386.441z"/>
	</g>
	<g>
		<path fill="#C98763" stroke="#000000" stroke-width="1.146" stroke-miterlimit="10" d="M101.342,333.332
			c0,0-7.713-9.074-17.242-4.536c-10.64,5.065-26.085,35.778,0.906,56.332c28.063,21.368,3.633,10.621-4.036,8.62
			c-5.218-1.36-12.705,11.116-0.907,13.158c16.993,2.938,36.442,2.646,41.604-3.854c5.157-6.497-13.52-48.326-13.52-48.326
			L101.342,333.332z"/>
		<path fill="none" stroke="#000000" stroke-width="1.146" stroke-miterlimit="10" d="M79.382,407.133
			c-1.926-3.269,2.041-7.26,5.22-6.578"/>
	</g>
	<g>
		<path fill="#C98763" stroke="#000000" stroke-width="1.146" stroke-miterlimit="10" d="M197.749,339.063
			c0,0,7.715-9.07,17.244-4.532c10.639,5.063,26.292,35.698-0.908,49.452c-15.066,7.615-12.801,10.621-5.132,8.621
			c5.217-1.359,12.702,11.115,0.904,13.156c-16.991,2.941-27.271,2.651-32.433-3.848c-5.157-6.5,13.516-48.33,13.516-48.33
			L197.749,339.063z"/>
		<path fill="none" stroke="#000000" stroke-width="1.146" stroke-miterlimit="10" d="M210.542,405.986
			c1.926-3.271-2.043-7.262-5.217-6.579"/>
	</g>
	<path fill="#C98763" stroke="#000000" stroke-width="1.146" stroke-miterlimit="10" d="M129.115,283.3
		c0,0-37.818,8.022-40.688,26.933c-2.37,15.646,12.608,19.771,18.338,18.053C112.495,326.563,129.115,283.3,129.115,283.3z"/>
	<path fill="#C98763" stroke="#000000" stroke-width="1.4113" stroke-miterlimit="10" d="M179.81,326.379
		c0,0,66.571-8.252,74.162-52.385c8.063-46.845-35.88-39.897-38.4-38.829c-2.526,1.066-11.446-4.71-13.438,0.948
		c-0.912,2.597-0.259,5.188,16.171,3.239c2.302-0.271-8.018,9.92,1.543,12.57c15.773,4.372,14.213-7.253,14.213-7.253
		s4.188,0.365,6.739,1.904c10.285,6.207,5.445,22.077-5.132,31.383c-21.411,18.836-63.619,18.771-63.619,18.771L179.81,326.379z"/>
	<path fill="none" stroke="#000000" stroke-width="1.4301" stroke-miterlimit="10" d="M99.238,314.979
		c3.869,0.353,7.854-3.011,10.755-5.798"/>
	<g>
		<g>
			<path fill="#C98763" stroke="#000000" stroke-width="1.146" stroke-miterlimit="10" d="M128.327,284.81
				c0,0-29.082,21.892-32.458,59.853c-2.224,24.979,9.437,47.734,27.755,57.177c40.338,20.778,79.185-7.979,78.064-42.896
				c-1.337-41.828-8.596-52.145-19.86-68.951C172.549,276.146,128.327,284.81,128.327,284.81z"/>
			<path fill="#FFE6C7" stroke="#000000" stroke-width="1.146" stroke-miterlimit="10" d="M138.272,283.486
				c0,0-37.565,46.729-20.567,85.414c10.729,24.422,47.01,32.843,61.8,12.211c13.021-18.164,11.638-30.508,4.235-57.896
				c-7.4-27.385-15.705-40.175-15.705-40.175L138.272,283.486z"/>
		</g>
		<g>
			<path fill="#C98763" stroke="#000000" stroke-width="0.9912" stroke-miterlimit="10" d="M178.501,202.656
				c0,0,2.975-17.511,22.465-14.205c0.924,0.155,8.813,12.554-5.584,28.661C188.849,224.421,178.501,202.656,178.501,202.656z"/>
			<g>
				<path fill="#FFE6C7" stroke="#000000" stroke-width="0.6589" stroke-miterlimit="10" d="M191.042,216.202
					c0,0,13.16-8.757,6.959-21.506c-1.055-2.175-13.051-3.549-17.69,9.237C178.941,207.699,191.042,216.202,191.042,216.202z"/>
			</g>
		</g>
		<g>
			<g>
				<path fill="#C98763" stroke="#000000" stroke-width="0.9912" stroke-miterlimit="10" d="M111.433,234.374
					c0,0-19.984-13.05-10.568-32.047c1.603-3.239,19.816-5.286,26.869,13.765C129.81,221.705,111.433,234.374,111.433,234.374z"/>
			</g>
			<g>
				<path fill="#FFE6C7" stroke="#000000" stroke-width="0.7323" stroke-miterlimit="10" d="M113.854,230.74
					c0,0-14.768-9.645-7.813-23.678c1.187-2.391,14.646-3.906,19.854,10.171C127.428,221.379,113.854,230.74,113.854,230.74z"/>
			</g>
		</g>
		<path fill="#C98763" stroke="#000000" stroke-width="0.9912" stroke-miterlimit="10" d="M200.531,232.832
			c-1.983-16.96-8.813-35.461-40.53-32.818c-31.717,2.646-44.271,19.823-48.237,30.396c-3.962,10.571-9.469,47.573,30.396,57.707
			c28.923,7.351,35.941,3.61,46.692-3.965C200.417,276.004,202.183,247,200.531,232.832z"/>
		<path fill="#FFE6C7" stroke="#000000" stroke-width="0.9912" stroke-miterlimit="10" d="M129.384,282.831
			c0,0-20.762-40.177-5.063-54.274c18.481-16.602,31.438,17.49,33.2,22.337c1.764,4.85,12.559-3.798,12.559-3.798
			s-17.351-29.551-0.163-37.92c12.639-6.158,24.888,5.816,25.77,6.916c0.884,1.104,21.585,53.963-11.896,72.688
			C154.177,305.337,129.384,282.831,129.384,282.831z"/>
		<path fill="#C98763" stroke="#000000" stroke-width="0.9912" stroke-miterlimit="10" d="M130.708,210.117
			c0,0-0.278-6.199,1.748-13.479c0.936-3.371,2.743,6.987,2.743,6.987s5.737-10.734,13.729-10.734c1.313,0-9.172,8.987-9.172,8.987
			s17.878-13.829,35.757-9.36c1.499,0.373-11.604,6.864-11.604,6.864L130.708,210.117z"/>
		<path stroke="#000000" stroke-width="0.5449" stroke-miterlimit="10" d="M153.656,250.753c0,0,2.299-5.628,7.429-8.48
			c3.828-2.133,10.384-1.692,11.655-0.567c1.947,1.721-0.899,8.434-5.621,10.217C162.394,253.7,154.373,254.752,153.656,250.753z"/>
		<g>
			<path stroke="#000000" stroke-width="0.3201" stroke-miterlimit="10" d="M143.797,242.711c-1.254-3.834-3.267-7.094-7.278-5.123
				c-1.771,0.869-2.021,5.804-0.827,8.431c1.319,2.908,3.989,3.774,5.933,3.063C144.286,248.104,144.677,245.404,143.797,242.711z"
				/>
			<path fill="none" stroke="#000000" stroke-width="1.392" stroke-miterlimit="10" d="M136.558,229.095
				c0,0-15.091-5.029-10.263,10.862"/>
		</g>
		<g>
			<path stroke="#000000" stroke-width="0.3238" stroke-miterlimit="10" d="M176.642,228.022c-0.326-4.065,0.284-7.896,4.798-7.618
				c1.993,0.12,4.148,4.629,4.062,7.547c-0.104,3.229-2.255,5.078-4.341,5.168C178.287,233.248,176.87,230.88,176.642,228.022z"/>
			<path fill="none" stroke="#000000" stroke-width="1.4077" stroke-miterlimit="10" d="M173.266,212.439
				c0,0,4.76,7.059,13.801,4.067"/>
		</g>
		<g>
			<path fill="none" stroke="#000000" stroke-width="1.6519" stroke-miterlimit="10" d="M147.572,258.749
				c0,0,1.727,5.189,9.966,8.046c11.006,3.815,15.38-3.233,15.38-3.233"/>
			<path fill="none" stroke="#000000" stroke-width="1.6519" stroke-miterlimit="10" d="M147.059,261.957
				c0.111-1.808,0.78-4.459,2.063-5.668"/>
		</g>
	</g>
</g>

<path fill="none" stroke="#0095DA" stroke-width="20" stroke-linecap="round" stroke-miterlimit="10" stroke-dasharray="280" stroke-dashoffset="280" d="M173.9,97.333
	c0,0-16.519-19.127-15.456-41.925s26.721-37.336,43.47-35.838c17.065,1.526,27.824,17.922,28.491,41.922s-6.5,51.167-6.5,70
	s0.776,28.459,7.834,40.833">
	<animate id="questionheadanim" attributeName="stroke-dashoffset" from="280" to="0" dur="2s" begin="0s;questiondotanim.end+5s" fill="freeze"/>
</path>

<circle id="questiondot" fill="#0095DA" cx="235.313" cy="207.841" r="0">
	<animate id="questiondotanim" attributeName="r" from="0" to="15.393" dur="0.3s" begin="questionheadanim.end" fill="freeze"/>
	<set xlink:href="#questiondot" attributeName="r" to="0" begin="questiondotanim.end+5s" dur="0s"/>
</circle>
</svg>
