<?xml version="1.0" encoding="utf-8"?>
<!DOCTYPE svg PUBLIC "-//W3C//DTD SVG 1.1//EN" "http://www.w3.org/Graphics/SVG/1.1/DTD/svg11.dtd">
<svg version="1.1" id="Layer_1" xmlns="http://www.w3.org/2000/svg" xmlns:xlink="http://www.w3.org/1999/xlink" x="0px" y="0px" width="403.765px" height="527.501px" viewBox="0 0 403.765 527.501" enable-background="new 0 0 403.765 527.501" xml:space="preserve">
<g>
	<path fill="#FF1314" stroke="#231F20" stroke-miterlimit="10" d="M106.014,218.918c0,0-23.958-13.594-64.569-11.385
		c0,0-7.477,1.02-7.477,13.084s9.006,11.554,9.006,11.554s43.839,0.34,60.491,11.555
		C103.465,243.726,111.11,220.787,106.014,218.918z"/>
	<path fill="#FF1314" stroke="#231F20" stroke-miterlimit="10" d="M123.855,192.07c0,0-29.056-14.104-50.636-16.652
		s-26.508-2.379-26.508-2.379s-7.646,1.359-7.646,14.783s18.861,10.875,18.861,10.875s40.612,5.607,52.336,14.443
		C110.263,213.14,127.594,194.109,123.855,192.07z"/>
	<path fill="#667CFF" stroke="#231F20" stroke-miterlimit="10" d="M100.087,163.526c0,0-50.681-13.388-54.824-15.3
		s-1.988-15.724,0.154-23.652c1.643-6.078,6.75-9.321,31.401-2.166c16.166,4.692,76.499,19.443,76.499,19.443
		s-5.157,23.646-6.216,26.822S100.087,163.526,100.087,163.526z"/>
	<path fill="#FF1314" stroke="#231F20" stroke-miterlimit="10" d="M300.679,217.119c0,0,23.958-13.594,64.569-11.385
		c0,0,7.477,1.02,7.477,13.084s-9.006,11.554-9.006,11.554s-43.839,0.34-60.491,11.555
		C303.228,241.927,295.582,218.988,300.679,217.119z"/>
	<path fill="#FF1314" stroke="#231F20" stroke-miterlimit="10" d="M282.837,190.271c0,0,29.056-14.104,50.636-16.652
		s26.508-2.379,26.508-2.379s7.646,1.359,7.646,14.783s-18.861,10.875-18.861,10.875s-40.612,5.607-52.336,14.443
		C296.43,211.341,279.099,192.31,282.837,190.271z"/>
	<path fill="#667CFF" stroke="#231F20" stroke-miterlimit="10" d="M120.146,354.365c-6.737-4.242-12.11-8.925-16.214-14.334
		l-4.199,153.357c0,0,10.639,2.732,24.69,2.732s21.001-2.732,21.001-2.732L144.1,385.781c-3.458-4.703-5.775-8.245-7.126-9.779
		C130.362,368.488,120.146,354.365,120.146,354.365z"/>
	<path fill="#FF1314" stroke="#231F20" stroke-miterlimit="10" d="M227.377,441.062c-0.006,0.095-0.01,0.179-0.01,0.236v46.479
		c0,0-0.957,12.216,26.4,12.216c22.773,0,22.14-15.776,22.14-15.776l0.563-34.11l0.007-0.168
		c-16.771-2.116-29.521-6.326-29.521-6.326C240.045,443.19,233.533,442.303,227.377,441.062z"/>
	<path fill="#667CFF" stroke="#231F20" stroke-miterlimit="10" d="M101.89,261.95L99.732,86.599c0,0,6.949-2.733,21.001-2.733
	s24.69,2.733,24.69,2.733l-2.388,146.153C143.036,232.751,119.168,242.775,101.89,261.95z"/>
</g>
<g id="leftauricle">
	<path id="SVGID_1_" fill="#FFD2D1" stroke="#FFD2D1" d="M261.827,275.803c0,0-1.247,4.567-7.682,1.868s-18.061-13.286-25.326-19.099s-25.119-16.815-29.894-23.458 s-12.663-16.815-13.078-20.552s1.453-8.718,1.868-11.625s8.097-11.833,18.269-14.739s30.516-12.871,57.088-6.851 c0,0,14.325,3.737,21.383,12.041s13.7,24.496,16.399,32.592s0,13.286,0.623,18.684s-1.661,11.418-3.114,13.286 s-6.021,6.435-7.474,8.511s-8.718,12.455-8.511,16.815c0.207,4.359,0.687,9.669,0.687,9.669l-4.424-0.535 C278.642,292.411,265.979,274.765,261.827,275.803z"/>
	<!-- <clipPath id="SVGID_2_">
		<use xlink:href="#SVGID_1_"  overflow="visible"/>
	</clipPath>
	<circle clip-path="url(#SVGID_2_)" fill="#FF1314" stroke="#FF1314" cx="297" cy="204" r="0">
		<animate id="animleftauriclefill" attributeName="r" from="0" to="137" begin="animarrowleftauriclerightup.end" dur="1.5s" fill="freeze"/>
		<set attributeName="cx" to="280" begin="animleftauriclefill.end" dur="0s"/>
		<set attributeName="cy" to="300" begin="animleftauriclefill.end" dur="0s"/>
		<animate id="animleftauricleunfill" attributeName="r" from="137" to="0" begin="animleftauriclefill.end" dur="1.5s" fill="freeze"/>
		<set attributeName="cx" to="297" begin="animleftauricleunfill.end" dur="0s"/>
		<set attributeName="cy" to="204" begin="animleftauricleunfill.end" dur="0s"/>
	</circle> -->
</g>
<g id="leftventricle">
	<path id="SVGID_3_" fill="#FFD2D1" stroke="#FFD2D1" d="M316.519,398.484c0,0,11.007-7.986,4.532-29.137s-20.719-70.357-19.855-76.401s0.432-20.719,2.158-25.251 c0,0,1.295-2.591,0.216-3.886s-7.77-5.396-7.77-5.396l-2.244,0.158c0,0-8.116,10.85-9.411,18.188s-1.079,16.187-1.079,16.187 l-3.021-0.432c0,0-13.813-23.093-18.561-21.583l-1.942,9.281l-2.806,13.813l-7.554,4.532l-5.611-0.432l-2.807,3.453l0.433,8.849 l-5.181,2.806l-3.669,3.885l1.727,9.929l37.985,50.934l31.727,23.741C303.785,401.721,309.828,404.742,316.519,398.484z"/>
	<!-- <clipPath id="SVGID_4_">
		<use xlink:href="#SVGID_3_"  overflow="visible"/>
	</clipPath>
	<circle clip-path="url(#SVGID_4_)" fill="#FF1314" stroke="#FF1314" stroke-miterlimit="10" cx="280" cy="284" r="0">
		<animate id="animleftventriclefill" attributeName="r" from="0" to="158" begin="animleftauricleunfill.begin" dur="1.5s" fill="freeze"/>
		<set attributeName="cx" to="245" begin="animleftventriclefill.end" dur="0s"/>
		<set attributeName="cy" to="300" begin="animleftventriclefill.end" dur="0s"/>
		<animate id="animleftventricleunfill" attributeName="r" from="158" to="0" begin="animleftventriclefill.end" dur="1.5s" fill="freeze"/>
		<set attributeName="cx" to="280" begin="animleftventricleunfill.end" dur="0s"/>
		<set attributeName="cy" to="284" begin="animleftventricleunfill.end" dur="0s"/>
	</circle> -->
</g>
<path fill="#FF1314" stroke="#231F20" stroke-miterlimit="10" d="M276.517,56.98c-8.681-5.237-17.021,9.196-17.021,9.196
	c-4.528,8.753-22.185,27.015-26.26,29.731s9.056-18.563,13.583-29.43s-2.415-13.432-2.415-13.432
	c-11.396-6.201-15.695-1.057-15.695-1.057c-5.886,19.167-22.791,43.315-25.508,44.673s0.151-45.729,0.151-45.729
	s-1.271-7.546-10.564-7.546c-10.451,0-12.074,4.528-12.074,5.735s3.472,23.695,0.604,22.789s-8.15-19.167-13.433-19.771
	s-18.412,11.018-17.507,13.735s11.168,12.224,14.036,22.034s10.266,17.507-4.978,40.598s-19.318,33.204-20.827,69.424
	c-0.145,3.467-0.091,6.759,0.109,9.893c0.681,10.691,3.152,19.456,6.041,26.288c3.944,9.331,8.646,15.066,10.591,17.196
	c0.575,0.63,0.916,0.955,0.916,0.955c16.673,6.353,31.538,9.649,44.689,10.446c-1.794-8.614-0.25-18.447,1.25-24.874
	c-6.062-3.874-14.622-22.648-14.622-22.648s-0.795-2.775-1.49-7.363c-2.043-13.485-3.227-42.66,19.157-63.304c0,0,23.334-11,28,16
	c0.293,1.695,0.456,3.487,0.506,5.356c14.847,3.709,25.331,12.211,30.999,17.92c3.734,2.053,10.333,6.111,16.565,12.092
	c0.323-2.021,0.598-4.058,0.813-6.109c0.912-8.702,0-56.294-10.866-65.953s-9.357-14.942-10.112-17.206s20.979-32.146,23.242-36.07
	S285.998,62.701,276.517,56.98z"/>
<path id="wallleftauricle" fill="#B33A64" stroke="#B33A64" stroke-linejoin="round" stroke-width="8" d="M264.293,183.716 c3.707,2.026,10.402,6.117,16.716,12.175c5.353,5.135,10.431,11.683,13.18,19.598c0,0,7.569,12.617,6.423,23.399 s-4.303,16.701-7.056,19.683l6.263,5.852c0,0,1.129,0.424,1.854,0.469c0,0,8.45,0.223,10.451-2.446 c2.001-2.668,5.114-4.446,1.557-9.116s-8.005-9.783-8.895-14.23c-0.867-4.333-1.844-43.617-36.224-59.828 c0,0-67.277-12.642-83.162,22.85l1.005,7.953C186.404,210.074,197.564,176.494,264.293,183.716z">
<!-- 	<animate id="animwallleftauriclestretch" attributeName="stroke-width" from="8" to="0" begin="0s;animredoutunfill.end" dur="1s" fill="freeze"/>
	<animate id="animwallleftauriclesqueeze" attributeName="stroke-width" from="0" to="8" begin="animleftauriclefill.end" dur="1s" fill="freeze"/> -->
</path>
<path fill="#667CFF" stroke="#231F20" stroke-miterlimit="10" d="M360.183,136.751c-2.231-15.938-17.85-16.256-17.85-16.256
	s-43.987,6.374-70.762,20.718s-35.699,15.938-48.449,14.663s-22.956-6.293-22.956-6.293s-14.945,14.423-14.627,33.546
	c0,0,8.305-0.7,13.694,3.971c1.423,1.232,2.74,2.838,3.807,4.934c2.255,4.433,3.379,11.038,1.914,20.899
	c0,0,9.562-11.476,13.387-10.838s22.632,9.243,22.95,11.475c0.131,0.916,0.8,1.883,1.543,2.708c1.064,1.185,2.282,2.073,2.282,2.073
	s4.463-4.781,7.331-13.068c1.375-3.975,4.084-11.324,9.545-18.669c0.719-0.968,1.482-1.936,2.301-2.896
	c1.289-1.512,2.713-3.001,4.269-4.444c5.587-5.185,12.971-9.733,22.772-12.241c0,0,42.394-12.431,63.749-12.431
	C355.083,154.601,362.414,152.688,360.183,136.751z"/>
<g id="rightauricle">
	<path id="SVGID_5_" fill="#B3BEFF" stroke="#B3BEFF" d="M138.734,365.392c1.105-3.289,7.47-10.453,13.528-10.785c6.397-0.35,16.688-6.856,16.461-7.148 c0.217-0.271,7.543-5.701,6.545-11.264c-0.998-5.561,0.428-21.961,6.418-30.232c0,0,3.526-3.443,5.788-5.352 c-4.335-5.206-8.84-9.17-8.84-9.17s0.232-3.67,0.448-5.402c0.203-1.623,0.614-4.621,0.614-4.621s-6.402-6.098-11.739-11.129 c-2.917-2.751-8.2-10.649-12.691-19.237c-1.945-2.13-9.203-13.421-9.203-13.421c-21.679,3.585-23.729,8.706-38.238,29.702 c-13.645,19.744-5.704,53.673-1.585,63.328c0.262,0.613,0.508,1.135,0.732,1.541c1.951,3.547,7.54,8.936,13.537,14.612 C120.688,346.838,124.475,350.642,138.734,365.392z"/>
	<clipPath id="SVGID_6_">
		<use xlink:href="#SVGID_5_" overflow="visible"/>
	</clipPath>
	<circle clip-path="url(#SVGID_6_)" fill="#667CFF" stroke="#667CFF" cx="90" cy="280" r="0">
		<animate id="animrightauriclefill" attributeName="r" from="0" to="120" begin="animarrowrightauricleinup.end" dur="1.5s" fill="freeze"/>
		<set attributeName="cx" to="170" begin="animrightauriclefill.end" dur="0s"/>
		<set attributeName="cy" to="345" begin="animrightauriclefill.end" dur="0s"/>
		<animate id="animrightauricleunfill" attributeName="r" from="120" to="0" begin="animrightauriclefill.end" dur="0.1s" fill="freeze"/>
		<set attributeName="cx" to="90" begin="animrightauricleunfill.end" dur="0s"/>
		<set attributeName="cy" to="280" begin="animrightauricleunfill.end" doeur="0s"/>
	</circle>
</g>
<g id="redout">
	<path id="SVGID_11_" fill="#FFD2D1" stroke="#FFD2D1" stroke-miterlimit="10" d="M159.659,205.835c0,0,13.629-4.991,19.389,2.88s10.751,16.125,14.398,20.349s8.063,10.367,8.063,10.367 s20.349,14.783,20.925,15.358s14.399,11.326,15.935,13.63c1.535,2.303,15.55,11.326,16.317,15.357s2.688,10.943,1.152,11.711 s-10.367,1.728-10.367,1.728s-1.536,0.769-1.92,4.032c-0.384,3.263-4.416,14.59-8.255,12.285 c-3.839-2.303-7.871-3.84-11.135-5.759s-5.572-3.241-6.703-4.534c-1.824-2.084-5.608-6.102-9.64-8.597s-8.176-6.179-12.591-6.946 c-4.415-0.769-14.452-7.76-14.452-7.76s-7.679-6.335-10.175-10.559c-2.496-4.223-19.965-30.715-19.773-42.234 S156.204,206.987,159.659,205.835z"/>
	<!-- <clipPath id="SVGID_12_">
		<use xlink:href="#SVGID_11_"  overflow="visible"/>
	</clipPath>	
	<circle clip-path="url(#SVGID_12_)" fill="#FF1314" stroke="#FF1314" cx="250" cy="305" r="0">
		<animate id="animredoutfill" attributeName="r" from="0" to="140" begin="animrightventricleunfill1.begin" dur="1.5s" fill="freeze"/>
		<set attributeName="cx" to="160" begin="animredoutfill.end" dur="0s"/>
		<set attributeName="cy" to="200" begin="animredoutfill.end" dur="0s"/>
		<animate id="animredoutunfill" attributeName="r" from="140" to="0" begin="animredoutfill.end" dur="1.5s" fill="freeze"/>
		<set attributeName="cx" to="250" begin="animredoutunfill.end" dur="0s"/>
		<set attributeName="cy" to="305" begin="animredoutunfill.end" dur="0s"/>
	</circle> -->
</g>
<g id="rightventricle">
	<path id="SVGID_7_" fill="#B3BEFF" stroke="#B3BEFF" d="M299.979,422.591c-2.561-10.924-53.088-53.771-53.088-53.771
	s-42.777-42.025-31.209-52.408c0.09-0.518,0.206-0.908,0.206-0.908c-0.82-3.557-2.409-9.967-2.999-12.336
	c-9.7-12.604-20.991-13.27-22.207-12.422l1.113,7.416l-3.153,1.525c-0.312,0.219-5.492-2.693-5.942-2.313
	c-2.262,1.908-5.164,2.486-5.164,2.486c-5.99,8.271-9.402,25.153-8.404,30.715s-0.19,16.611-0.407,16.883
	c0.227,0.292-17.113-2.813-23.511-2.461c-6.059,0.332-16.107,5.891-17.213,9.18c-0.062,0.185,10.619,11.578,10.591,11.736
	l-0.146,0.018c1.856,2.166,3.731,4.286,5.488,6.223c4.824,5.32,8.731,9.299,8.731,9.299c16.046,17.752,19.631,20.654,44.554,34.822
	s54.454,21.68,72.72,22.705c18.266,1.023,20.994-0.512,20.994-0.512C294.688,438.126,302.539,433.517,299.979,422.591z"/>
	<!-- <clipPath id="SVGID_8_">
		<use xlink:href="#SVGID_7_"  overflow="visible"/>
	</clipPath>	
	<circle clip-path="url(#SVGID_8_)" fill="#667CFF" stroke="#667CFF" cx="130" cy="300" r="0">
		<animate id="animrightventriclefill" attributeName="r" from="0" to="190" begin="animrightauricleunfill.begin-0.3s" dur="1.5s" fill="freeze"/>
		<set attributeName="cx" to="170" begin="animrightventriclefill.end" dur="0s"/>
		<set attributeName="cy" to="345" begin="animrightventriclefill.end" dur="0s"/>
		<animate id="animrightventricleunfill1" attributeName="cx" to="300" begin="animrightventriclefill.end" dur="1.5s" fill="freeze"/>
		<animate id="animrightventricleunfill2" attributeName="cy" to="10" begin="animrightventriclefill.end" dur="1.5s" fill="freeze"/>
		<set attributeName="cx" to="130" begin="animrightventricleunfill1.end" dur="0s"/>
		<set attributeName="cy" to="300" begin="animrightventricleunfill1.end" dur="0s"/>
		<set attributeName="r" to="0" begin="animrightventricleunfill1.end" dur="0s"/>
	</circle> -->
</g>
<!-- may not be needed following 3 commented -->
<!-- <path fill="#FFCCCC" stroke="#231F20" stroke-linejoin="round" stroke-miterlimit="10" d="M263.1,185.168
	c0.387-0.485,0.782-0.97,1.193-1.452C263.882,184.199,263.484,184.683,263.1,185.168z"/> -->
<!-- <path fill="#FFCCCC" stroke="#231F20" stroke-miterlimit="10" d="M233.711,259.913c-0.396,1.267-0.792,2.524-1.183,3.763
	C232.919,262.437,233.314,261.18,233.711,259.913L233.711,259.913z"/> -->
<!-- <path fill="none" d="M188.463,229.079c-3.506-7.623-9.605-21.345-15.855-21.345s-19.21,5.031-18.295,13.111
	s1.22,23.632,15.703,39.64l11.447,12.127c0.493-1.364,1.063-2.721,1.724-4.041c2.667-5.333,7.514-18.397,12.249-30.939
	C194.424,237.175,191.342,235.34,188.463,229.079z"/> -->
<path fill="#FFCCCC" stroke="#231F20" stroke-miterlimit="10" d="M265.124,283.113c-3.83-5.714-9.926-9.568-11.673-10.074
	c-5.485-4.251-9.35-6.027-19.723-13.1l-0.018-0.026c-0.396,1.267-0.792,2.524-1.183,3.763c-0.367,1.164-1.689,5.135-2.047,6.259
	c1.852,1.416,9.185,6.358,16.671,11.585c4.373,3.053,9.963,5.18,5.407,10.847l6.183,3.356l7.065-12.012L265.124,283.113z"/>

<path fill="#FFCCCC" stroke="#231F20" stroke-miterlimit="10" d="M170.016,260.485c-14.483-16.008-14.788-31.56-15.703-39.64
	s12.045-13.111,18.295-13.111s12.35,13.722,15.855,21.345c2.879,6.261,5.961,8.096,6.973,8.553c0.895-2.372,1.786-4.723,2.658-7.001
	l-8.259-13.902c-9.758-16.313-12.349-16.618-26.984-14.179s-17.38,16.313-15.551,28.51c0.104,0.696,0.25,1.428,0.425,2.184
	c2.896,12.499,14.973,32.558,20.005,37.302c4.692,4.424,10.205,9.67,11.468,10.873c0.467-2.77,1.179-5.805,2.266-8.807
	L170.016,260.485z"/>
<path id="wallseptum" fill="#B33A64" stroke="#B33A64" stroke-linejoin="round" stroke-width="8" d="M300.318,396.472c0,0-5.631-2.9-23.726-23.215
	c-18.095-20.313-38.579-65.039-58.21-58.381c-0.119,0.041-0.224,0.09-0.338,0.133c-18.699,7.104,28.846,53.811,28.846,53.811
	s50.527,42.848,53.088,53.771c0.183,0.779,0.309,1.523,0.391,2.238c4.425-4.62,6.479-16.497,7.418-25.46
	C305.611,399.373,303.09,398.627,300.318,396.472z">
	<!-- <animate id="animwallseptumstretch" attributeName="stroke-width" from="8" to="0" begin="animrightventriclefill.begin" dur="1s" fill="freeze"/>
	<animate id="animwallseptumsqueeze" attributeName="stroke-width" from="0" to="8" begin="animrightventricleunfill1.begin" dur="1s" fill="freeze"/> -->
</path>
<path id="wallleftventricle" fill="#B33A64" stroke="#B33A64" stroke-width="8" stroke-linejoin="round" d="M314.715,257.418c0,0-10.299,0.785-13.323,9.026 c0,0-7.218,7.975-0.561,40.75s28.337,70.328,15.192,88.082c0,0-3.176,4.085-8.236,4.093c-0.4,3.83-1.009,8.19-1.915,12.29 l28.302,25.219c12.629-16.084,13.894-43.145,16.755-58.773C354.835,356.769,348.215,280.418,314.715,257.418z">
	<animate id="animwallleftventriclestretch" attributeName="stroke-width" from="8" to="0" begin="animleftventriclefill.begin" dur="1s" fill="freeze"/>
	<animate id="animwallleftventriclesqueeze" attributeName="stroke-width" from="0" to="8" begin="animleftventricleunfill.begin" dur="1s" fill="freeze"/>
</path>
<path id="wallrightventricle" fill="#B33A64" stroke="#B33A64" stroke-width="8" stroke-linejoin="round" d="M300.369,424.83c0.605,5.283-1.386,8.858-3.863,11.021 c-1.891,1.651-4.063,2.48-5.574,2.618c0,0-2.729,1.535-20.994,0.512c-18.266-1.025-47.797-8.537-72.72-22.705 s-28.508-17.07-44.554-34.822c0,0-3.907-3.979-8.731-9.299c-1.757-1.937-3.632-4.057-5.488-6.223 c-1.021-1.193-2.038-2.396-3.022-3.598c-0.049-0.061-0.106-0.124-0.156-0.185c-2.939-3.557-7.207-7.704-11.585-11.858l-3.97,3.791 c0.147,0.094,0.286,0.19,0.435,0.283c0,0,10.217,14.123,16.828,21.637c1.351,1.534,3.668,5.076,7.126,9.779 c11.883,16.154,37.26,46,83.277,55.281c6.156,1.241,12.668,2.128,19.579,2.551c0,0,12.749,4.21,29.521,6.326 c9.198,1.161,19.604,1.686,29.785,0.545c3.001-0.336,5.982-0.81,8.907-1.463c8.278-1.848,14.393-6.27,19.005-12.143l-28.302-25.219 C304.657,417.156,302.903,422.183,300.369,424.83z">
<!-- 	<animate id="animwallrightventriclestretch" attributeName="stroke-width" from="8" to="0" begin="animrightventriclefill.begin" dur="1s" fill="freeze"/>
	<animate id="animwallrightventriclesqueeze" attributeName="stroke-width" from="0" to="8" begin="animrightventricleunfill1.begin" dur="1s" fill="freeze"/> -->
</path>
<path fill="#FFCCCC" stroke="#231F20" stroke-miterlimit="10" d="M234.408,309.386c-3.871,1.105-11.229-3.975-13.836-5.906
		c-1.584-6.242-2.815-7.178-2.815-7.178l-5.098,5.947c0,0,0.086,0.344,0.229,0.918c0.59,2.369,2.179,8.779,2.999,12.336
		c0,0,3.996,1.061,10.874,2.039c6.428,0.913,7.71,1.028,7.71,1.028c2.34-0.726,2.752-1.165,4.298-2.492
		C238.77,316.079,234.629,309.324,234.408,309.386z"/>

<!-- all valves but blueout -->
<g id="allvalves">
	<g>
		<path fill="none" stroke="#000000" stroke-width="10" stroke-linecap="round" d="M127.741,353.58c0,0,1.306-1.588,3.539-3.205 c6.729-4.874,22.77-13.584,42.304,3.127">
			<!-- <animate id="animrightchambervalverightopen" attributeName="d" to="M127.741,353.58c0,0,1.306-1.588,3.539-3.205 c6.729-4.874,22.053-11.782,36.672,15.805" begin="animrightauriclefill.end" dur="1s" fill="freeze"/>
			<animate id="animrightchambervalverightclose" attributeName="d" to="M127.741,353.58c0,0,1.306-1.588,3.539-3.205 c6.729-4.874,22.77-13.584,42.304,3.127" begin="animrightventricleunfill1.begin" dur="0.1s" fill="freeze"/> -->
		</path>
		<path fill="none" stroke="#000000" stroke-width="10" stroke-linecap="round" d="M181.892,295.201c0,0-0.826,1.041-1.864,2.083 c-3.001,3.009-21.564,28.499-6.381,56.155">
			<!-- <animate id="animrightchambervalveleft" attributeName="d" to="M181.892,295.201c0,0-0.826,1.041-1.864,2.083 c-3.001,3.009-20.8,19.146,6.551,51.919" begin="animrightauriclefill.end" dur="1s" fill="freeze"/>
			<animate id="animrightchambervalveleftclose" attributeName="d" to="M181.892,295.201c0,0-0.826,1.041-1.864,2.083 c-3.001,3.009-21.564,28.499-6.381,56.155" begin="animrightventricleunfill1.begin" dur="0.1s" fill="freeze"/> -->
		</path>
	</g>
	<g>
		<path fill="none" stroke="#000000" stroke-width="8.5" stroke-linecap="round" d="M236.975,312.765l2.411-1.521
			c0,0,5.996-6.02-8.481-14.715">
			<!-- <animate id="animredoutrightopen" attributeName="d" to="M236.975,312.765l2.411-1.521
			c0,0,6.163-6.965-11.107-14.254" begin="animleftventricleunfill.begin" dur="1.5s" fill="freeze"/>
			<animate id="animredoutrightclose" attributeName="d" to="M236.975,312.765l2.411-1.521
			c0,0,5.996-6.02-8.481-14.715" begin="animredoutfill.end" dur="0.1s" fill="freeze"/> -->
		</path>
		<path fill="none" stroke="#000000" stroke-width="8.5" stroke-linecap="round" d="M255.622,294.556l-1.666,2.932 c0,0-7.976,3.953-17.93-7.328">
			<!-- <animate id="animredoutleftopen" attributeName="d" to="M255.622,294.556l-1.666,2.932
			c0,0-3.942,2.785-12.545-11.268" begin="animleftventricleunfill.begin" dur="1.5s" fill="freeze"/>
			<animate id="animredoutleftclose" attributeName="d" to="M255.622,294.556l-1.666,2.932 c0,0-7.976,3.953-17.93-7.328" begin="animredoutfill.end" dur="0.1s" fill="freeze"/> -->
		</path>
	</g>
	<g>
		<path fill="none" stroke="#000000" stroke-width="8.5" stroke-linecap="round" d="M296.293,261.542l-3.216,3.522
			c0,0-12.863,13.783-5.973,30.934">
			<!-- <animate id="animleftchambervalveleftopen" attributeName="d" to="M296.293,261.542l-3.216,3.522
			c0,0-12.056,8.625-0.556,31.375" begin="animleftauricleunfill.begin" dur="1.5s" fill="freeze"/>
			<animate id="animleftchambervalveleftclose" attributeName="d" to="M296.293,261.542l-3.216,3.522
			c0,0-12.863,13.783-5.973,30.934" begin="animleftventricleunfill.begin" dur="0.1s" fill="freeze"/> -->
		</path>
		<path fill="none" stroke="#000000" stroke-width="8.5" stroke-linecap="round" d="M258.949,276.06l3.041-3.951
			c0,0,10.702-3.848,16.531,26.33">
			<!-- <animate id="animleftchambervalverightopen" attributeName="d" to="M258.949,276.06l3.041-3.951
			c0,0,15.281-4.42,9.281,28.08" begin="animleftauricleunfill.begin" dur="1.5s" fill="freeze"/>
			<animate id="animleftchambervalverightclose" attributeName="d" to="M258.949,276.06l3.041-3.951
			c0,0,10.702-3.848,16.531,26.33" begin="animleftventricleunfill.begin" dur="0.1s" fill="freeze"/> -->
		</path>
	</g>
	
</g>
<path id="wallrightauricle" fill="#B33A64" stroke="#B33A64" stroke-width="8" stroke-linejoin="round" d="M122.755,349.412c-0.827-0.782-1.653-1.564-2.474-2.34 c-5.997-5.676-11.586-11.065-13.537-14.611c-0.225-0.408-0.471-0.93-0.732-1.541c-4.119-9.656-12.06-43.585,1.585-63.328 c14.51-20.997,16.56-26.118,38.238-29.703l-1.145-2.822l-0.372-0.917l-1.335-3.289c0,0-39.365,6.01-46.577,46.577 c-5.216,29.339-3.196,48.458,7.525,62.594c4.014,5.29,9.25,9.883,15.779,14.051l3.97-3.791c-0.023-0.023-0.048-0.045-0.071-0.068 C123.325,349.953,123.041,349.682,122.755,349.412z">
	<animate id="animwallrightauriclestretch" attributeName="stroke-width" from="8" to="0" begin="0s;animrightauricleunfill.end" dur="1s" fill="freeze"/>
	<animate id="animwallrightauriclesqueeze" attributeName="stroke-width" from="0" to="8" begin="animrightauricleunfill.begin" dur="1s" fill="freeze"/>
</path>
<g id="blueout">
	<path id="SVGID_9_" fill="#B3BEFF" stroke="#B3BEFF" d="M219.772,282.291c4.573-11.566,21.907-64.625,18.293-68.329c-2.988-3.063-12.821-8.821-19.907-7.802 c-7.885,1.134-12.375,28.785-22.328,47.347c-9.953,18.561-13.037,36.786-9.54,37.323c2.235,0.344,3.572,0.15,4.253-0.034 c0.396,0.44,0.725,2.009,0.947,3.763l10.045-3.437c0,0,3.637,5.289,8.596,8.265c0.882,0.529,1.611,0.787,2.244,0.849l-0.682-3.658 C211.693,296.577,215.199,293.859,219.772,282.291z"/>
	<!-- <clipPath id="SVGID_10_">
		<use xlink:href="#SVGID_9_"  overflow="visible"/>
	</clipPath>	
	<circle clip-path="url(#SVGID_10_)" fill="#667CFF" stroke="#667CFF" cx="198" cy="300" r="0">
		<animate id="animblueoutfill" attributeName="r" from="0" to="100" begin="animrightventricleunfill1.begin" dur="1.5s" fill="freeze"/>
		<set attributeName="cx" to="230" begin="animblueoutfill.end" dur="0s"/>
		<set attributeName="cy" to="200" begin="animblueoutfill.end" dur="0s"/>
		<animate id="animblueoutunfill" attributeName="r" from="100" to="0" begin="animblueoutfill.end" dur="1.5s" fill="freeze"/>
		<set attributeName="cx" to="198" begin="animblueoutunfill.end" dur="0s"/>
		<set attributeName="cy" to="300" begin="animblueoutunfill.end" dur="0s"/>
	</circle> -->
</g>
<path fill="#FFCCCC" stroke="#231F20" stroke-miterlimit="10" d="M245.96,217.344c-0.246-4.539-2.852-10.941-14.082-15.219
	c-16.948-6.456-20.444,1.614-24.749,7.532c-1.768,2.43-5.215,10.989-9.035,20.974c-0.872,2.278-1.764,4.629-2.658,7.001
	c-4.735,12.542-9.582,25.606-12.249,30.939c-0.66,1.32-1.23,2.677-1.724,4.041c-0.811,2.238-1.411,4.494-1.858,6.646
	c-0.153,0.733-0.288,1.456-0.407,2.161c-1.049,6.229-0.853,11.094-0.853,11.094l2.645,2.141l6.754,5.467l0.898-0.434l3.153-1.525
	l-0.009-0.096c-0.043-1.064-0.146-2.328-0.296-3.508c-0.223-1.754-0.551-3.322-0.947-3.763c-0.681,0.185-2.018,0.378-4.253,0.034
	c-3.497-0.537-0.413-18.762,9.54-37.323c9.953-18.562,14.443-46.213,22.328-47.347c7.086-1.019,16.919,4.739,19.907,7.802
	c3.614,3.704-13.72,56.762-18.293,68.329c-4.573,11.568-8.079,14.286-8.079,14.286l0.682,3.658l0.646,3.476
	c3.532-1.906,8.634-9.584,11.862-17.115c1.076-2.512,3.619-10.23,6.559-19.489c0.357-1.124,0.719-2.267,1.086-3.431
	c0.391-1.238,0.786-2.496,1.183-3.763c5.374-17.142,11.146-36.201,11.618-37.612C245.602,221.484,246.086,219.655,245.96,217.344z"
	/>

<g id="valveblueout">
	<path fill="none" stroke="#000000" stroke-width="8" stroke-linecap="round" d="M191.576,294.941l2.205-0.098
		c0,0,4.521-0.387,3.976-11.84">
		<!-- <animate id="animblueoutrightopen" attributeName="d" to="M191.576,294.941l2.205-0.098 c0,0,4.642-1.963-0.023-14.627" begin="animrightventriclefill.end" dur="1.5" fill="freeze"/>
		<animate id="animblueoutrightclose" attributeName="d" to="M191.576,294.941l2.205-0.098 c0,0,4.521-0.387,3.976-11.84" begin="animblueoutfill.end" dur="0.1" fill="freeze"/> -->
	</path>
	<path fill="none" stroke="#000000" stroke-width="8" stroke-linecap="round" d="M211.875,300.333l-3.09,0.484 c0,0-8.13-2.77-4.735-17.191">
		<!-- <animate id="animblueoutleftopen" attributeName="d" to="M211.875,300.333l-3.09,0.484 c0,0-11.402-2.233,4.598-19.899" begin="animrightventriclefill.end" dur="1.5s" fill="freeze"/>
		<animate id="animblueoutleftclose" attributeName="d" to="M211.875,300.333l-3.09,0.484 c0,0-8.13-2.77-4.735-17.191" begin="animblueoutfill.end" dur="0.1s" fill="freeze"/> -->
	</path>
</g>
<g id="allarrows">
	<!-- taking blood into the heart following arrows-->
	<g>
		<path id="arrowrightauricleinup" fill="none" stroke="#231F20" stroke-width="2" stroke-dasharray="100" stroke-dashoffset="100" d="M119,140L119,240">
			<animate id="animarrowrightauricleinup" attributeType="XML" attributeName="stroke-dashoffset" from="100" to="0" dur="1.5s" begin="0s;animrightauricleunfill.end"/>
		</path>
		<polygon transform="translate(-119,-230)" fill="#231F20" points="119,235 115,225 119,228 123,225">
			<animateMotion dur="1.5s" begin="0s;animrightauricleunfill.end">
				<mpath xlink:href="#arrowrightauricleinup"/>
			</animateMotion>
		</polygon>
	</g>
	<g>
		<path id="arrowrightauricleindown" fill="none" stroke="#231F20" stroke-width="2" stroke-dasharray="56" stroke-dashoffset="56" d="M119,456L119,400">
			<animate attributeType="XML" attributeName="stroke-dashoffset" from="56" to="0" dur="1.5s" begin="0s;animrightauricleunfill.end"/>
		</path>
		<polygon transform="translate(-119,-395)" fill="#231F20" points="119,393 123,403 119,401 115,403">
			<animateMotion dur="1.5s" begin="0s;animrightauricleunfill.end">
				<mpath xlink:href="#arrowrightauricleindown"/>
			</animateMotion>
		</polygon>
	</g>
	<g>
		<path id="arrowleftauriclerightup" fill="none" stroke="#231F20" stroke-width="3" stroke-dasharray="22" stroke-dashoffset="22" d="M46.94,185.617c0,0,6.687-1.911,21.738,2.096">
			<!-- <animate id="animarrowleftauriclerightup" attributeType="XML" attributeName="stroke-dashoffset" from="22" to="0" dur="1.5s" begin="0s;animrightauricleunfill.end"/> -->
		</path>
		<polygon transform="translate(-70,-188)" fill="#231F20" points="75,189 64,190 68,187 67,183">
			<!-- <animateMotion dur="1.5s" begin="0s;animrightauricleunfill.end">
				<mpath xlink:href="#arrowleftauriclerightup"/>
			</animateMotion> -->
		</polygon>
	</g>
	<g>
		<path id="arrowleftauriclerightdown" fill="none" stroke="#231F20" stroke-width="3" stroke-dasharray="22" stroke-dashoffset="22" d="M46.94,220.317c0,0,6.687-1.911,21.738,2.096">
			<!-- <animate attributeType="XML" attributeName="stroke-dashoffset" from="22" to="0" dur="1.5s" begin="0s;animrightauricleunfill.end"/> -->
		</path>
		<polygon transform="translate(-75,-224)" fill="#231F20" points="75.443,224.448 64.752,225.542 68.163,222.308 67.044,217.743">
			<!-- <animateMotion dur="1.5s" begin="0s;animrightauricleunfill.end">
				<mpath xlink:href="#arrowleftauriclerightdown"/>
			</animateMotion> -->
		</polygon>
	</g>
	<g>
		<path id="arrowleftauricleleftup" fill="none" stroke="#231F20" stroke-width="3" stroke-dasharray="22" stroke-dashoffset="22" d="M356.942,185.617c0,0-6.687-1.911-21.738,2.096">
			<!-- <animate attributeType="XML" attributeName="stroke-dashoffset" from="22" to="0" dur="1.5s" begin="0s;animarrowblueoutleft.end"/> -->
		</path>
		<polygon transform="translate(-330,-189)" fill="#231F20" points="328.439,189.748 336.838,183.042 335.72,187.608 339.131,190.842">
			<!-- <animateMotion dur="1.5s" begin="0s;animarrowblueoutleft.end">
				<mpath xlink:href="#arrowleftauricleleftup"/>
			</animateMotion> -->
		</polygon>
	</g>
	<g>
		<path id="arrowleftauricleleftdown" fill="none" stroke="#231F20" stroke-width="3" stroke-dasharray="22" stroke-dashoffset="22" d="M356.942,220.317c0,0-6.687-1.911-21.738,2.096">
			<!-- <animate attributeType="XML" attributeName="stroke-dashoffset" from="22" to="0" dur="1.5s" begin="0s;animarrowblueoutleft.end"/> -->
		</path>
		<polygon transform="translate(-330,-224)" fill="#231F20" points="328.439,224.448 336.838,217.742 335.72,222.308 339.131,225.542">
			<!-- <animateMotion dur="1.5s" begin="0s;animarrowblueoutleft.end">
				<mpath xlink:href="#arrowleftauricleleftdown"/>
			</animateMotion> -->
		</polygon>
	</g>

	<!-- taking blood out of the heart following arrows-->
	<g>
		<path id="arrowblueoutleft" fill="none" stroke="#231F20" stroke-width="2" stroke-dasharray="64" stroke-dashoffset="64" d="M276,154c0,0,14-12,61-14">
			<!-- <animate id="animarrowblueoutleft" attributeType="XML" attributeName="stroke-dashoffset" from="64" to="0" dur="1.5s" begin="animblueoutunfill.end"/> -->
		</path>
		<polygon transform="translate(-342,-140)" fill="#231F20" points="345,140 336,144 338,140 335,136">
			<!-- <animateMotion dur="1.5s" begin="animblueoutunfill.end">
				<mpath xlink:href="#arrowblueoutleft"/>
			</animateMotion> -->
		</polygon>
	</g>
	<g>
		<path id="arrowblueoutright" fill="none" stroke="#231F20" stroke-width="2" stroke-dasharray="31" stroke-dashoffset="31" d="M90,143L60,135">
			<!-- <animate attributeType="XML" attributeName="stroke-dashoffset" from="31" to="0" dur="1.5s" begin="animblueoutunfill.end"/> -->
		</path>
		<polygon transform="translate(-60,-135)" fill="#231F20" points="53.214,133.432 63.881,132.122 60.536,135.424 61.747,139.966">
			<!-- <animateMotion dur="1.5s" begin="animblueoutunfill.end">
				<mpath xlink:href="#arrowblueoutright"/>
			</animateMotion> -->
		</polygon>
	</g>
	<g>
		<path id="arrowredoutdown" fill="none" stroke="#231F20" stroke-width="2" stroke-dasharray="22" stroke-dashoffset="22" d="M250,454L250,476">
			<!-- <animate attributeType="XML" attributeName="stroke-dashoffset" from="22" to="0" dur="1.5s" begin="animblueoutunfill.end"/> -->
		</path>
		<polygon transform="translate(-250,-480)" fill="#231F20" points="250,483 246,473 250,476 254,473">
			<!-- <animateMotion dur="1.5s" begin="animblueoutunfill.end">
				<mpath xlink:href="#arrowredoutdown"/>
			</animateMotion> -->
		</polygon>
	</g>
	<g>
		<path id="arrowredoutup1" fill="none" stroke="#231F20" stroke-width="2" stroke-dasharray="22" stroke-dashoffset="22" d="M180.371,97.141c0,0-0.589-6.929-9.679-19.577">
			<!-- <animate attributeType="XML" attributeName="stroke-dashoffset" from="22" to="0" dur="1.5s" begin="animblueoutunfill.end"/> -->
		</path>
		<polygon transform="translate(-170,-77)" fill="#231F20" points="166.389,71.962 175.641,77.433 170.975,78.009 169.162,82.346">
			<!-- <animateMotion dur="1.5s" begin="animblueoutunfill.end">
				<mpath xlink:href="#arrowredoutup1"/>
			</animateMotion> -->
		</polygon>
	</g>
	<g>
		<path id="arrowredoutup2" fill="none" stroke="#231F20" stroke-width="2" stroke-dasharray="22" stroke-dashoffset="22" d="M192.195,91.958c0,0-2.876-6.332-1.137-21.809">
			<!-- <animate attributeType="XML" attributeName="stroke-dashoffset" from="22" to="0" dur="1.5s" begin="animblueoutunfill.end"/> -->
		</path>
		<polygon transform="translate(-192,-66)" fill="#231F20" points="192.072,63.158 194.734,73.571 191.031,70.675 186.681,72.456">
			<!-- <animateMotion dur="1.5s" begin="animblueoutunfill.end">
				<mpath xlink:href="#arrowredoutup2"/>
			</animateMotion> -->
		</polygon>
	</g>
	<g>
		<path id="arrowredoutup3" fill="none" stroke="#231F20" stroke-width="2" stroke-dasharray="22" stroke-dashoffset="22" d="M219.196,97.335c0,0,0.392-6.943,9.117-19.844">
			<!-- <animate attributeType="XML" attributeName="stroke-dashoffset" from="22" to="0" dur="1.5s" begin="animblueoutunfill.end"/> -->
		</path>
		<polygon transform="translate(-228,-78)" fill="#231F20" points="232.456,71.769 229.98,82.227 228.045,77.943 223.365,77.501">
			<!-- <animateMotion dur="1.5s" begin="animblueoutunfill.end">
				<mpath xlink:href="#arrowredoutup3"/>
			</animateMotion> -->
		</polygon>
	</g>
	<g>
		<path id="arrowredoutup4" fill="none" stroke="#231F20" stroke-width="2" stroke-dasharray="22" stroke-dashoffset="22" d="M249.667,104.452c0,0,0.589-6.929,9.679-19.577">
			<!-- <animate attributeType="XML" attributeName="stroke-dashoffset" from="22" to="0" dur="1.5s" begin="animblueoutunfill.end"/> -->
		</path>
		<polygon transform="translate(-259,-85)" fill="#231F20" points="263.649,79.273 260.877,89.657 259.064,85.319 254.398,84.744">
			<!-- <animateMotion dur="1.5s" begin="animblueoutunfill.end">
				<mpath xlink:href="#arrowredoutup4"/>
			</animateMotion> -->
		</polygon>
	</g>	
</g>
<!-- cover up rect do not remove -->
<rect x="-2" y="-2" width="30" height="30" fill="#ffffff"/>
</svg>
