<?xml version="1.0" encoding="utf-8"?>
<!-- Generator: Adobe Illustrator 15.0.0, SVG Export Plug-In . SVG Version: 6.00 Build 0)  -->
<!DOCTYPE svg PUBLIC "-//W3C//DTD SVG 1.1//EN" "http://www.w3.org/Graphics/SVG/1.1/DTD/svg11.dtd">
<svg version="1.1" id="Layer_1" xmlns="http://www.w3.org/2000/svg" xmlns:xlink="http://www.w3.org/1999/xlink" x="0px" y="0px"
	 width="1012.97px" height="823.43px" viewBox="0 0 1012.97 823.43" enable-background="new 0 0 1012.97 823.43"
	 xml:space="preserve">
<rect id="p-water"  x="93.57" y="375.287" fill="#ABE0F4" width="821.959" opacity= '0.6' height="450"/>
<path id="p-2" display="none" fill="#FBBE94" d="M521.437,684.78c-84.184,6.195-117.297,30.327-179.033,7.316
	s-70.154-33.673-65.664-105.511s16.837-47.144-17.959-94.287s1.123-100.459,48.827-111.122
	c57.148-12.774,78.626,3.192,175.104-5.898c107.195-10.102,164.772,1.647,219.441-0.837c74.083-3.366,88.114,31.43,90.919,110.001
	c4.047,113.331-33.674,101.583-17.959,153.777c17.06,56.662-84.746,72.55-131.889,63.214S605.62,678.585,521.437,684.78z"/>
<path id="p-3" display="none" fill="#FBBE94" d="M521.437,807.78c-84.184,6.195-343.832,18.649-411.832-1.351
	c-35.703-10.501-17.49-148.006-13-219.844s-1-119.156-6-175.156c-1.442-16.157-8.979-27.289,10.623-31.667
	c51.203-11.436,169.224,1.387,204.377-2.333c63-6.667,80.63,6.939,177.107-2.151c107.195-10.102,329.224,1.647,383.893-0.837
	c74.082-3.366,50.662,31.43,53.467,110.001c4.047,113.331-16.395,262.857-0.467,314.987c11,36-195,10-275,17
	C596.729,820.619,605.62,801.585,521.437,807.78z"/>
<path id="p-down" display="none" fill="#ABE0F4" d="M521.437,811.78c-84.184,6.195-343.832,18.649-411.832-1.351
	c-35.703-10.501-14.117,22.126-13-49.844c0.333-21.489,7.333,50.845,0.333,34.511c-6.39-14.91-15.312-16.956,4.29-21.334
	c51.203-11.436,169.224,1.387,204.377-2.333c63-6.667,80.63,6.939,177.107-2.151c107.195-10.102,329.224,1.647,383.893-0.837
	c74.082-3.366,47-8.011,53.467,20.001c2.308,9.992,0.89,11.285-0.467,14.987c-12.95,35.346-195,10-275,17
	C596.729,824.619,605.62,805.585,521.437,811.78z"/>
<path id="p-up" display="none" fill="#ABE0F4" d="M521.437,389.78c-84.184,6.195-343.832,18.649-411.832-1.351
	c-35.703-10.501-14.117,22.126-13-49.844c0.333-21.489,7.333,50.845,0.333,34.511c-6.39-14.91-15.312-16.956,4.29-21.334
	c51.203-11.436,169.224,1.387,204.377-2.333c63-6.667,80.63,6.939,177.107-2.151c107.195-10.102,329.224,1.647,383.893-0.837
	c74.082-3.366,47-8.011,53.467,20.001c2.308,9.992,0.89,11.285-0.467,14.987c-12.95,35.346-195,10-275,17
	C596.729,402.619,605.62,383.585,521.437,389.78z"/>
<path id="p-1" opacity="0" fill="#FBBE94" d="M524.173,444.076c-66.305,4.182-55.334,17.288-98.97,0.501
	c-61.49-23.656-123.477,53.245-137.633-17.327c-1.358-6.771,0.436-4.366-8.777-17.38c-33.855-47.824,35.611-32.645,84.109-38.759
	c60.073-7.575,23.446,5.748,120.013-2.331c107.295-8.978,125.825,1.726,180.516-0.186c74.113-2.59,45.957,10.629,73.057,23.867
	c17.818,8.706,18.494,17.044,8.549,28.217c-23.114,25.969-54.979,21.975-102.021,12.145
	C595.973,422.994,608.417,438.764,524.173,444.076z"/>
<path fill="#0077A5" d="M904.924,823.43H108.021c-12.131,0-22.417-9.869-22.417-22V99.092l0.231-0.338
	C89.04,51.422,26.907,27.326,0,19.164l2.872-9.595L5.801,0c21.713,6.586,40.297,15.016,55.707,25.079
	c30.792,20.108,46.097,45.925,44.097,74.677V801.43c0,1.103,1.314,2,2.417,2h796.902c1.138,0,1.681-0.916,1.681-2V99.747
	c-1-28.759,13.773-54.579,44.566-74.688c15.41-10.063,34.279-18.488,55.877-25.04l5.922,19.119l-0.038,0.02
	c-26.889,8.157-89.285,32.243-86.153,79.611l-0.174,0.66v702C926.604,813.561,917.108,823.43,904.924,823.43z"/>
</svg>
