selector,english_word,engmeaning,nepali_word,nepmeaning,image
unique,unique,,अनौठो,"फरक, भिन्‍न",
notation,notation,,सङ्केत,,
curly,curly,,घुमेको,,
elements,element,,सदस्य,,
crayons,crayon,,रङ्गिन खरी,चकजस्तो रङ्गिन लेख्‍ने कुरो,
specific,specific,,विशेष ,तोकिएको,
notation,notation,,सङ्केत,,
