selector,english_word,engmeaning,nepali_word,nepmeaning,image
protects,protect,,बचाउनु,,
strength,strength,,शक्ति,,
Carrot,Carrot,,गाजर,,
Functions,Function,,काम/कार्य,,
Conversion,Conversion,,,रूपान्तर गर्नु,
buckwheat,buckwheat,,फापर,,
Millet,Millet,,कोदो,,
Yam,Yam,,पिँडालु,,
Sweet potato,Sweet potato,,सख्खरखण्ड,,
Prevent,Prevent,,बचाउनु,,
Enable,Enable,,,सक्षम बनाउनु,
Malnutrition,Malnutrition,,कुपोषण,,
Mushroom,Mushroom,,च्याउ,,
Clot,Clot,,जम्नु,बगेको रगत जम्नु,
Cuts,Cuts,,चोट,,
Wounds,Wound,,घाउ,,
Against,Against,,विरूद्द,,
Infections,Infection,,सङ्क्रमण,,
Excessive,Excessive,,बढी हुनु,,
bleeding,bleeding,,रगत बग्‍नु,,
Gums,Gum,,गिजा,,
repair,repair,,,मर्मत गर्नु,
tissues,tissue,,तन्तु,जीवकोषहरूको समूह,
Strengthen,Strengthen,,,बलियो पार्नु,
Kidney beans,kidney beans,,राजमा,एक प्रकारको सिमी,
Butter milk,Butter milk,,महि,दहिबाट मखन निकालेपछिको तरल पदार्थ,
benefits,benefit,,फाइदा,,
Properly,Properly,,,सही तरिकाले,
illness,illness,,रोग,,
capacity,capacity,,क्षमता,,
stomach ache,stomach ache,,,पेट दुख्‍नु,
suffering,suffering,,दु:ख पाउनु,रोगले ग्रसित हुनु,
chowmin,chowmin,,चाउमिन,पिठो र तरकारीबाट बनाइने एक प्रकारको खानेकुरा,
junk,junk,,तैयारी/बजारिया,,
street foods,street food,,,बाटोमा पाइने खुला खानेकुरा,
flies,fly,,झिँगा,,
contaminate,contaminate,,,दुषित हुनु,
stale,stale,,,बासी,
available,available,,,उपलब्ध हुनु,
treatment,treatment,,उपचार,,
medicine,medicine,,औषधी,,
worry,worry,,डराउनु,,
explained,explain,,बताउनु,,
harmful,harmful,,हानिकारक,,
hygienic,hygiene,,स्वस्थ,,
rinse,rinse,,पखाल्नु,,
raw food,raw food,,काँचो खाना,,
storing,store,,"भण्डार गर्नु, सङ्ग्रह गर्नु",,
spices,spice,,मसाला,,
iodine,iodine,,आयोडिन,शरीरको लागि चाहिने एक प्रकारको खनिज,
enough,enough,,पर्याप्‍त,,
goiter,goiter,,गलगाँड,गला सुनिने रोग,
swelling,swell,,सुनिनु,,
consume,consume,,उपभोग गर्नु,प्रयोग गर्नु,
airtight jar,airtight jar,,,हावा नछिर्ने भाँडो,
