<?xml version="1.0" encoding="utf-8"?>
<!-- Generator: Adobe Illustrator 15.0.0, SVG Export Plug-In . SVG Version: 6.00 Build 0)  -->
<!DOCTYPE svg PUBLIC "-//W3C//DTD SVG 1.1//EN" "http://www.w3.org/Graphics/SVG/1.1/DTD/svg11.dtd">
<svg version="1.1" id="Layer_1" xmlns="http://www.w3.org/2000/svg" xmlns:xlink="http://www.w3.org/1999/xlink" x="0px" y="0px"
	 width="961px" height="581px" viewBox="0 0 961 581" enable-background="new 0 0 961 581" xml:space="preserve">
<g>
	<g>
		<rect x="13.676" y="77.444" fill="#DADFA1" width="50.193" height="50.179"/>
		<text transform="matrix(1.0003 0 0 1 30.3818 112.3633)" fill="#231F20" font-family="'Calibri-Bold'" font-size="26.5879">H</text>
		<g>
			<g>
				<text transform="matrix(1.0003 0 0 1 35.0703 89.3555)" fill="#231F20" font-family="'Calibri-Bold'" font-size="14.5974">1</text>
			</g>
		</g>
	</g>
	<text transform="matrix(1.0003 0 0 1 25.8398 121.0391)" fill="#231F20" font-family="'Calibri-Bold'" font-size="6.3864">Hydro­gen</text>
</g>
<g>
	<g>
		<rect x="898.096" y="77.444" fill="#DADFA1" width="50.188" height="50.179"/>
		<text transform="matrix(1.0003 0 0 1 908.1055 111.8916)" fill="#231F20" font-family="'Calibri-Bold'" font-size="26.5879">He</text>
		<text transform="matrix(1.0003 0 0 1 913.624 122.3945)" fill="#231F20" font-family="'Calibri-Bold'" font-size="6.3864">Helium</text>
	</g>
	<g>
		<g>
			<text transform="matrix(1.0003 0 0 1 919.4893 89.3555)" fill="#231F20" font-family="'Calibri-Bold'" font-size="14.5974">2</text>
		</g>
	</g>
</g>
<g>
	<rect x="65.831" y="129.447" fill="#DADFA1" width="50.191" height="50.179"/>
	<text transform="matrix(1.0003 0 0 1 76.7783 163.8955)" fill="#231F20" font-family="'Calibri-Bold'" font-size="26.5879">Be</text>
	<text transform="matrix(1.0003 0 0 1 78.1533 174.3965)" fill="#231F20" font-family="'Calibri-Bold'" font-size="6.3864">Beryl­lium</text>
	<g>
		<g>
			<text transform="matrix(1.0003 0 0 1 87.2275 141.3574)" fill="#231F20" font-family="'Calibri-Bold'" font-size="14.5974">4</text>
		</g>
	</g>
</g>
<g>
	<g>
		<rect x="638.01" y="129.447" fill="#DADFA1" width="50.192" height="50.179"/>
		<text transform="matrix(1.0003 0 0 1 655.6523 164.918)" font-family="'Calibri-Bold'" font-size="26.5879">B</text>
		<text transform="matrix(1.0003 0 0 1 654.9727 175.4199)" font-family="'Calibri-Bold'" font-size="6.3864">Boron</text>
	</g>
	<g>
		<g>
			<text transform="matrix(1.0003 0 0 1 659.4072 141.3574)" font-family="'Calibri-Bold'" font-size="14.5974">5</text>
		</g>
	</g>
</g>
<g>
	<g>
		<rect x="690.029" y="129.447" fill="#DADFA1" width="50.189" height="50.179"/>
		<text transform="matrix(1.0003 0 0 1 708.084 163.8955)" fill="#231F20" font-family="'Calibri-Bold'" font-size="26.5879">C</text>
		<text transform="matrix(1.0003 0 0 1 705.5156 174.3965)" fill="#231F20" font-family="'Calibri-Bold'" font-size="6.3864">Carbon</text>
	</g>
	<g>
		<g>
			<text transform="matrix(1.0003 0 0 1 711.4238 141.3574)" fill="#231F20" font-family="'Calibri-Bold'" font-size="14.5974">6</text>
		</g>
	</g>
</g>
<g>
	<g>
		<rect x="742.044" y="129.447" fill="#DADFA1" width="50.194" height="50.179"/>
		<text transform="matrix(1.0003 0 0 1 758.3789 163.8955)" fill="#231F20" font-family="'Calibri-Bold'" font-size="26.5879">N</text>
		<text transform="matrix(1.0003 0 0 1 755.3936 174.3965)" fill="#231F20" font-family="'Calibri-Bold'" font-size="6.3864">Nitro­gen</text>
	</g>
	<g>
		<g>
			<text transform="matrix(1.0003 0 0 1 763.4395 141.3574)" fill="#231F20" font-family="'Calibri-Bold'" font-size="14.5974">7</text>
		</g>
	</g>
</g>
<g>
	<g>
		<rect x="794.062" y="129.447" fill="#DADFA1" width="50.19" height="50.179"/>
		<text transform="matrix(1.0003 0 0 1 810.1621 163.8955)" fill="#231F20" font-family="'Calibri-Bold'" font-size="26.5879">O</text>
		<text transform="matrix(1.0003 0 0 1 809.1191 174.3965)" fill="#231F20" font-family="'Calibri-Bold'" font-size="6.3864">Oxy­gen</text>
	</g>
	<g>
		<g>
			<text transform="matrix(1.0003 0 0 1 815.4561 141.3574)" fill="#231F20" font-family="'Calibri-Bold'" font-size="14.5974">8</text>
		</g>
	</g>
</g>
<g>
	<g>
		<rect x="846.077" y="129.447" fill="#DADFA1" width="50.191" height="50.179"/>
		<text transform="matrix(1.0003 0 0 1 865.0684 163.8955)" fill="#231F20" font-family="'Calibri-Bold'" font-size="26.5879">F</text>
		<text transform="matrix(1.0003 0 0 1 860.1895 174.3965)" fill="#231F20" font-family="'Calibri-Bold'" font-size="6.3864">Fluor­ine</text>
	</g>
	<g>
		<g>
			<text transform="matrix(1.0003 0 0 1 867.4736 141.3574)" fill="#231F20" font-family="'Calibri-Bold'" font-size="14.5974">9</text>
		</g>
	</g>
</g>
<g>
	<g>
		<rect x="898.096" y="129.447" fill="#DADFA1" width="50.188" height="50.179"/>
		<text transform="matrix(1.0003 0 0 1 907.7354 163.8955)" fill="#231F20" font-family="'Calibri-Bold'" font-size="26.5879">Ne</text>
		<text transform="matrix(1.0003 0 0 1 915.9854 174.3965)" fill="#231F20" font-family="'Calibri-Bold'" font-size="6.3864">Neon</text>
	</g>
	<g>
		<g>
			<text transform="matrix(1.0003 0 0 1 915.7891 141.3574)" fill="#231F20" font-family="'Calibri-Bold'" font-size="14.5974">10</text>
		</g>
	</g>
</g>
<g>
	<rect x="65.831" y="181.449" fill="#DADFA1" width="50.191" height="50.182"/>
	<text transform="matrix(1.0003 0 0 1 72.999 215.8984)" fill="#231F20" font-family="'Calibri-Bold'" font-size="26.5879">Mg</text>
	<text transform="matrix(1.0003 0 0 1 75.29 226.4004)" fill="#231F20" font-family="'Calibri-Bold'" font-size="6.3864">Magne­sium</text>
	<g>
		<g>
			<text transform="matrix(1.0003 0 0 1 83.5273 193.3604)" fill="#231F20" font-family="'Calibri-Bold'" font-size="14.5974">12</text>
		</g>
	</g>
</g>
<g>
	<g>
		<rect x="638.01" y="181.449" fill="#DADFA1" width="50.192" height="50.182"/>
		<text transform="matrix(1.0003 0 0 1 651.7832 216.9209)" fill="#231F20" font-family="'Calibri-Bold'" font-size="26.5879">Al</text>
		<text transform="matrix(1.0003 0 0 1 648.4189 227.4238)" fill="#231F20" font-family="'Calibri-Bold'" font-size="6.3864">Alumin­ium</text>
	</g>
	<g>
		<g>
			<text transform="matrix(1.0003 0 0 1 655.707 193.3604)" fill="#231F20" font-family="'Calibri-Bold'" font-size="14.5974">13</text>
		</g>
	</g>
</g>
<g>
	<g>
		<rect x="690.029" y="181.449" fill="#DADFA1" width="50.189" height="50.182"/>
		<text transform="matrix(1.0003 0 0 1 705.5713 216.9209)" fill="#231F20" font-family="'Calibri-Bold'" font-size="26.5879">Si</text>
		<text transform="matrix(1.0003 0 0 1 706.4326 227.4238)" fill="#231F20" font-family="'Calibri-Bold'" font-size="6.3864">Sili­con</text>
	</g>
	<g>
		<g>
			<text transform="matrix(1.0003 0 0 1 707.7246 193.3604)" fill="#231F20" font-family="'Calibri-Bold'" font-size="14.5974">14</text>
		</g>
	</g>
</g>
<g>
	<g>
		<rect x="742.044" y="181.449" fill="#DADFA1" width="50.194" height="50.182"/>
		<text transform="matrix(1.0003 0 0 1 760.0605 215.8984)" fill="#231F20" font-family="'Calibri-Bold'" font-size="26.5879">P</text>
		<text transform="matrix(1.0003 0 0 1 751.4053 226.4004)" fill="#231F20" font-family="'Calibri-Bold'" font-size="6.3864">Phos­phorus</text>
	</g>
	<g>
		<g>
			<text transform="matrix(1.0003 0 0 1 759.7402 193.3604)" fill="#231F20" font-family="'Calibri-Bold'" font-size="14.5974">15</text>
		</g>
	</g>
</g>
<g>
	<g>
		<rect x="794.062" y="181.449" fill="#DADFA1" width="50.19" height="50.182"/>
		<text transform="matrix(1.0003 0 0 1 812.8701 215.8984)" fill="#231F20" font-family="'Calibri-Bold'" font-size="26.5879">S</text>
		<text transform="matrix(1.0003 0 0 1 811.2285 226.4004)" fill="#231F20" font-family="'Calibri-Bold'" font-size="6.3864">Sulfur</text>
	</g>
	<g>
		<g>
			<text transform="matrix(1.0003 0 0 1 811.7559 193.3604)" fill="#231F20" font-family="'Calibri-Bold'" font-size="14.5974">16</text>
		</g>
	</g>
</g>
<g>
	<g>
		<rect x="846.077" y="181.449" fill="#DADFA1" width="50.191" height="50.182"/>
		<text transform="matrix(1.0003 0 0 1 860.8682 215.8984)" fill="#231F20" font-family="'Calibri-Bold'" font-size="26.5879">Cl</text>
		<text transform="matrix(1.0003 0 0 1 859.9648 226.4004)" fill="#231F20" font-family="'Calibri-Bold'" font-size="6.3864">Chlor­ine</text>
	</g>
	<g>
		<g>
			<text transform="matrix(1.0003 0 0 1 863.7734 193.3604)" fill="#231F20" font-family="'Calibri-Bold'" font-size="14.5974">17</text>
		</g>
	</g>
</g>
<g>
	<g>
		<rect x="898.096" y="181.449" fill="#DADFA1" width="50.188" height="50.182"/>
		<text transform="matrix(1.0003 0 0 1 910.4033 215.8984)" fill="#231F20" font-family="'Calibri-Bold'" font-size="26.5879">Ar</text>
		<text transform="matrix(1.0003 0 0 1 915.1123 226.4004)" fill="#231F20" font-family="'Calibri-Bold'" font-size="6.3864">Argon</text>
	</g>
	<g>
		<g>
			<text transform="matrix(1.0003 0 0 1 915.7891 193.3604)" fill="#231F20" font-family="'Calibri-Bold'" font-size="14.5974">18</text>
		</g>
	</g>
</g>
<g>
	<rect x="65.831" y="233.454" fill="#DADFA1" width="50.191" height="50.181"/>
	<text transform="matrix(1.0003 0 0 1 77.3232 267.9014)" fill="#231F20" font-family="'Calibri-Bold'" font-size="26.5879">Ca</text>
	<text transform="matrix(1.0003 0 0 1 80.3809 278.4043)" fill="#231F20" font-family="'Calibri-Bold'" font-size="6.3864">Cal­cium</text>
	<g>
		<g>
			<text transform="matrix(1.0003 0 0 1 83.5273 245.3643)" fill="#231F20" font-family="'Calibri-Bold'" font-size="14.5974">20</text>
		</g>
	</g>
</g>
<g>
	<g>
		<rect x="117.848" y="233.454" fill="#DADFA1" width="50.192" height="50.181"/>
		<text transform="matrix(1.0003 0 0 1 131.0908 267.9014)" fill="#231F20" font-family="'Calibri-Bold'" font-size="26.5879">Sc</text>
		<text transform="matrix(1.0003 0 0 1 129.9336 278.4043)" fill="#231F20" font-family="'Calibri-Bold'" font-size="6.3864">Scan­dium</text>
	</g>
	<g>
		<g>
			<text transform="matrix(1.0003 0 0 1 135.5439 245.3643)" fill="#231F20" font-family="'Calibri-Bold'" font-size="14.5974">21</text>
		</g>
	</g>
</g>
<g>
	<g>
		<rect x="169.864" y="233.454" fill="#DADFA1" width="50.19" height="50.181"/>
		<text transform="matrix(1.0003 0 0 1 185.1094 267.9014)" fill="#231F20" font-family="'Calibri-Bold'" font-size="26.5879">Ti</text>
		<text transform="matrix(1.0003 0 0 1 183.0391 278.4043)" fill="#231F20" font-family="'Calibri-Bold'" font-size="6.3864">Tita­nium</text>
	</g>
	<g>
		<g>
			<text transform="matrix(1.0003 0 0 1 187.5605 245.3643)" fill="#231F20" font-family="'Calibri-Bold'" font-size="14.5974">22</text>
		</g>
	</g>
</g>
<g>
	<g>
		<rect x="221.881" y="233.454" fill="#DADFA1" width="50.19" height="50.181"/>
		<text transform="matrix(1.0003 0 0 1 239.1104 267.9014)" fill="#231F20" font-family="'Calibri-Bold'" font-size="26.5879">V</text>
		<text transform="matrix(1.0003 0 0 1 233.3486 278.4043)" fill="#231F20" font-family="'Calibri-Bold'" font-size="6.3864">Vana­dium</text>
	</g>
	<g>
		<g>
			<text transform="matrix(1.0003 0 0 1 239.5762 245.3643)" fill="#231F20" font-family="'Calibri-Bold'" font-size="14.5974">23</text>
		</g>
	</g>
</g>
<g>
	<g>
		<rect x="273.897" y="233.454" fill="#DADFA1" width="50.19" height="50.181"/>
		<text transform="matrix(1.0003 0 0 1 287.2256 267.9014)" fill="#231F20" font-family="'Calibri-Bold'" font-size="26.5879">Cr</text>
		<text transform="matrix(1.0003 0 0 1 284.9805 278.4043)" fill="#231F20" font-family="'Calibri-Bold'" font-size="6.3864">Chrom­ium</text>
	</g>
	<g>
		<g>
			<text transform="matrix(1.0003 0 0 1 291.5928 245.3643)" fill="#231F20" font-family="'Calibri-Bold'" font-size="14.5974">24</text>
		</g>
	</g>
</g>
<g>
	<g>
		<rect x="325.913" y="233.454" fill="#DADFA1" width="50.194" height="50.181"/>
		<text transform="matrix(1.0003 0 0 1 332.25 267.9014)" fill="#231F20" font-family="'Calibri-Bold'" font-size="26.5879">Mn</text>
		<text transform="matrix(1.0003 0 0 1 335.5703 278.4043)" fill="#231F20" font-family="'Calibri-Bold'" font-size="6.3864">Manga­nese</text>
	</g>
	<g>
		<g>
			<text transform="matrix(1.0003 0 0 1 343.6084 245.3643)" fill="#231F20" font-family="'Calibri-Bold'" font-size="14.5974">25</text>
		</g>
	</g>
</g>
<g>
	<g>
		<rect x="377.93" y="233.454" fill="#DADFA1" width="50.191" height="50.181"/>
		<text transform="matrix(1.0003 0 0 1 390.2256 267.9014)" fill="#231F20" font-family="'Calibri-Bold'" font-size="26.5879">Fe</text>
		<text transform="matrix(1.0003 0 0 1 397.5459 278.4043)" fill="#231F20" font-family="'Calibri-Bold'" font-size="6.3864">Iron</text>
	</g>
	<g>
		<g>
			<text transform="matrix(1.0003 0 0 1 395.626 245.3643)" fill="#231F20" font-family="'Calibri-Bold'" font-size="14.5974">26</text>
		</g>
	</g>
</g>
<g>
	<g>
		<rect x="429.946" y="233.454" fill="#DADFA1" width="50.191" height="50.181"/>
		<text transform="matrix(1.0003 0 0 1 440.8525 267.9014)" fill="#231F20" font-family="'Calibri-Bold'" font-size="26.5879">Co</text>
		<text transform="matrix(1.0003 0 0 1 446.3906 278.4043)" fill="#231F20" font-family="'Calibri-Bold'" font-size="6.3864">Cobalt</text>
	</g>
	<g>
		<g>
			<text transform="matrix(1.0003 0 0 1 447.6406 245.3643)" fill="#231F20" font-family="'Calibri-Bold'" font-size="14.5974">27</text>
		</g>
	</g>
</g>
<g>
	<g>
		<rect x="481.963" y="233.454" fill="#DADFA1" width="50.189" height="50.181"/>
		<text transform="matrix(1.0003 0 0 1 495.0313 267.9014)" fill="#231F20" font-family="'Calibri-Bold'" font-size="26.5879">Ni</text>
		<text transform="matrix(1.0003 0 0 1 498.8477 278.4043)" fill="#231F20" font-family="'Calibri-Bold'" font-size="6.3864">Nickel</text>
	</g>
	<g>
		<g>
			<text transform="matrix(1.0003 0 0 1 499.6572 245.3643)" fill="#231F20" font-family="'Calibri-Bold'" font-size="14.5974">28</text>
		</g>
	</g>
</g>
<g>
	<g>
		<rect x="533.979" y="233.454" fill="#DADFA1" width="50.193" height="50.181"/>
		<text transform="matrix(1.0003 0 0 1 544.8984 267.9014)" fill="#231F20" font-family="'Calibri-Bold'" font-size="26.5879">Cu</text>
		<text transform="matrix(1.0003 0 0 1 549.4336 278.4043)" fill="#231F20" font-family="'Calibri-Bold'" font-size="6.3864">Copper</text>
	</g>
	<g>
		<g>
			<text transform="matrix(1.0003 0 0 1 551.6738 245.3643)" fill="#231F20" font-family="'Calibri-Bold'" font-size="14.5974">29</text>
		</g>
	</g>
</g>
<g>
	<g>
		<rect x="585.995" y="233.454" fill="#DADFA1" width="50.191" height="50.181"/>
		<text transform="matrix(1.0003 0 0 1 597.5977 267.9014)" fill="#231F20" font-family="'Calibri-Bold'" font-size="26.5879">Zn</text>
		<text transform="matrix(1.0003 0 0 1 605.6689 278.4043)" fill="#231F20" font-family="'Calibri-Bold'" font-size="6.3864">Zinc</text>
	</g>
	<g>
		<g>
			<text transform="matrix(1.0003 0 0 1 603.6904 245.3643)" fill="#231F20" font-family="'Calibri-Bold'" font-size="14.5974">30</text>
		</g>
	</g>
</g>
<g>
	<g>
		<rect x="638.01" y="233.454" fill="#DADFA1" width="50.192" height="50.181"/>
		<text transform="matrix(1.0003 0 0 1 648.0684 268.9238)" fill="#231F20" font-family="'Calibri-Bold'" font-size="26.5879">Ga</text>
		<text transform="matrix(1.0003 0 0 1 652.7695 279.4268)" fill="#231F20" font-family="'Calibri-Bold'" font-size="6.3864">Gallium</text>
	</g>
	<g>
		<g>
			<text transform="matrix(1.0003 0 0 1 655.707 245.3643)" fill="#231F20" font-family="'Calibri-Bold'" font-size="14.5974">31</text>
		</g>
	</g>
</g>
<g>
	<g>
		<rect x="690.029" y="233.454" fill="#DADFA1" width="50.189" height="50.181"/>
		<text transform="matrix(1.0003 0 0 1 699.9561 268.9238)" fill="#231F20" font-family="'Calibri-Bold'" font-size="26.5879">Ge</text>
		<text transform="matrix(1.0003 0 0 1 699.2998 279.4268)" fill="#231F20" font-family="'Calibri-Bold'" font-size="6.3864">Germa­nium</text>
	</g>
	<g>
		<g>
			<text transform="matrix(1.0003 0 0 1 707.7246 245.3643)" fill="#231F20" font-family="'Calibri-Bold'" font-size="14.5974">32</text>
		</g>
	</g>
</g>
<g>
	<g>
		<rect x="742.044" y="233.454" fill="#DADFA1" width="50.194" height="50.181"/>
		<text transform="matrix(1.0003 0 0 1 753.7764 268.9238)" fill="#231F20" font-family="'Calibri-Bold'" font-size="26.5879">As</text>
		<text transform="matrix(1.0003 0 0 1 757.291 279.4268)" fill="#231F20" font-family="'Calibri-Bold'" font-size="6.3864">Arsenic</text>
	</g>
	<g>
		<g>
			<text transform="matrix(1.0003 0 0 1 759.7402 245.3643)" fill="#231F20" font-family="'Calibri-Bold'" font-size="14.5974">33</text>
		</g>
	</g>
</g>
<g>
	<g>
		<rect x="794.062" y="233.454" fill="#DADFA1" width="50.19" height="50.181"/>
		<text transform="matrix(1.0003 0 0 1 806.1758 267.9014)" fill="#231F20" font-family="'Calibri-Bold'" font-size="26.5879">Se</text>
		<text transform="matrix(1.0003 0 0 1 806.7744 278.4043)" fill="#231F20" font-family="'Calibri-Bold'" font-size="6.3864">Sele­nium</text>
	</g>
	<g>
		<g>
			<text transform="matrix(1.0003 0 0 1 811.7559 245.3643)" fill="#231F20" font-family="'Calibri-Bold'" font-size="14.5974">34</text>
		</g>
	</g>
</g>
<g>
	<g>
		<rect x="846.077" y="233.454" fill="#DADFA1" width="50.191" height="50.181"/>
		<text transform="matrix(1.0003 0 0 1 858.9893 267.9014)" fill="#231F20" font-family="'Calibri-Bold'" font-size="26.5879">Br</text>
		<text transform="matrix(1.0003 0 0 1 859.7656 278.4043)" fill="#231F20" font-family="'Calibri-Bold'" font-size="6.3864">Bromine</text>
	</g>
	<g>
		<g>
			<text transform="matrix(1.0003 0 0 1 863.7734 245.3643)" fill="#231F20" font-family="'Calibri-Bold'" font-size="14.5974">35</text>
		</g>
	</g>
</g>
<g>
	<g>
		<rect x="898.096" y="233.454" fill="#DADFA1" width="50.188" height="50.181"/>
		<text transform="matrix(1.0003 0 0 1 911.1895 267.9014)" fill="#231F20" font-family="'Calibri-Bold'" font-size="26.5879">Kr</text>
		<text transform="matrix(1.0003 0 0 1 912.4814 278.4043)" fill="#231F20" font-family="'Calibri-Bold'" font-size="6.3864">Kryp­ton</text>
	</g>
	<g>
		<g>
			<text transform="matrix(1.0003 0 0 1 915.7891 245.3643)" fill="#231F20" font-family="'Calibri-Bold'" font-size="14.5974">36</text>
		</g>
	</g>
</g>
<g>
	<rect x="65.831" y="285.457" fill="#DADFA1" width="50.191" height="50.179"/>
	<text transform="matrix(1.0003 0 0 1 79.9131 319.9043)" fill="#231F20" font-family="'Calibri-Bold'" font-size="26.5879">Sr</text>
	<text transform="matrix(1.0003 0 0 1 77.501 330.4082)" fill="#231F20" font-family="'Calibri-Bold'" font-size="6.3864">Stront­ium</text>
	<g>
		<g>
			<text transform="matrix(1.0003 0 0 1 83.5273 297.3691)" fill="#231F20" font-family="'Calibri-Bold'" font-size="14.5974">38</text>
		</g>
	</g>
</g>
<g>
	<g>
		<rect x="117.848" y="285.457" fill="#DADFA1" width="50.192" height="50.179"/>
		<text transform="matrix(1.0003 0 0 1 136.0332 319.9043)" fill="#231F20" font-family="'Calibri-Bold'" font-size="26.5879">Y</text>
		<text transform="matrix(1.0003 0 0 1 132.8945 330.4082)" fill="#231F20" font-family="'Calibri-Bold'" font-size="6.3864">Yttrium</text>
	</g>
	<g>
		<g>
			<text transform="matrix(1.0003 0 0 1 135.5439 297.3691)" fill="#231F20" font-family="'Calibri-Bold'" font-size="14.5974">39</text>
		</g>
	</g>
</g>
<g>
	<g>
		<rect x="169.864" y="285.457" fill="#DADFA1" width="50.19" height="50.179"/>
		<text transform="matrix(1.0003 0 0 1 183.876 319.9043)" fill="#231F20" font-family="'Calibri-Bold'" font-size="26.5879">Zr</text>
		<text transform="matrix(1.0003 0 0 1 181.5889 330.4082)" fill="#231F20" font-family="'Calibri-Bold'" font-size="6.3864">Zirco­nium</text>
	</g>
	<g>
		<g>
			<text transform="matrix(1.0003 0 0 1 187.5605 297.3691)" fill="#231F20" font-family="'Calibri-Bold'" font-size="14.5974">40</text>
		</g>
	</g>
</g>
<g>
	<g>
		<rect x="221.881" y="285.457" fill="#DADFA1" width="50.19" height="50.179"/>
		<text transform="matrix(1.0003 0 0 1 231.0781 319.9043)" fill="#231F20" font-family="'Calibri-Bold'" font-size="26.5879">Nb</text>
		<text transform="matrix(1.0003 0 0 1 235.5 330.4082)" fill="#231F20" font-family="'Calibri-Bold'" font-size="6.3864">Nio­bium</text>
	</g>
	<g>
		<g>
			<text transform="matrix(1.0003 0 0 1 239.5762 297.3691)" fill="#231F20" font-family="'Calibri-Bold'" font-size="14.5974">41</text>
		</g>
	</g>
</g>
<g>
	<g>
		<rect x="273.897" y="285.457" fill="#DADFA1" width="50.19" height="50.179"/>
		<text transform="matrix(1.0003 0 0 1 280.2197 319.9043)" fill="#231F20" font-family="'Calibri-Bold'" font-size="26.5879">Mo</text>
		<text transform="matrix(1.0003 0 0 1 281.0645 330.4082)" fill="#231F20" font-family="'Calibri-Bold'" font-size="6.3864">Molyb­denum</text>
	</g>
	<g>
		<g>
			<text transform="matrix(1.0003 0 0 1 291.5928 297.3691)" fill="#231F20" font-family="'Calibri-Bold'" font-size="14.5974">42</text>
		</g>
	</g>
</g>
<g>
	<g>
		<rect x="325.913" y="285.457" fill="#DADFA1" width="50.194" height="50.179"/>
		<text transform="matrix(1.0003 0 0 1 338.8604 319.9043)" fill="#231F20" font-family="'Calibri-Bold'" font-size="26.5879">Tc</text>
		<text transform="matrix(1.0003 0 0 1 335.2041 330.4082)" fill="#231F20" font-family="'Calibri-Bold'" font-size="6.3864">Tech­netium</text>
	</g>
	<g>
		<g>
			<text transform="matrix(1.0003 0 0 1 343.6084 297.3691)" fill="#231F20" font-family="'Calibri-Bold'" font-size="14.5974">43</text>
		</g>
	</g>
</g>
<g>
	<g>
		<rect x="377.93" y="285.457" fill="#DADFA1" width="50.191" height="50.179"/>
		<text transform="matrix(1.0003 0 0 1 388.4014 319.9043)" fill="#231F20" font-family="'Calibri-Bold'" font-size="26.5879">Ru</text>
		<text transform="matrix(1.0003 0 0 1 388.2139 330.4082)" fill="#231F20" font-family="'Calibri-Bold'" font-size="6.3864">Ruthe­nium</text>
	</g>
	<g>
		<g>
			<text transform="matrix(1.0003 0 0 1 395.626 297.3691)" fill="#231F20" font-family="'Calibri-Bold'" font-size="14.5974">44</text>
		</g>
	</g>
</g>
<g>
	<g>
		<rect x="429.946" y="285.457" fill="#DADFA1" width="50.191" height="50.179"/>
		<text transform="matrix(1.0003 0 0 1 440.417 319.9043)" fill="#231F20" font-family="'Calibri-Bold'" font-size="26.5879">Rh</text>
		<text transform="matrix(1.0003 0 0 1 442.9414 330.4082)" fill="#231F20" font-family="'Calibri-Bold'" font-size="6.3864">Rho­dium</text>
	</g>
	<g>
		<g>
			<text transform="matrix(1.0003 0 0 1 447.6406 297.3691)" fill="#231F20" font-family="'Calibri-Bold'" font-size="14.5974">45</text>
		</g>
	</g>
</g>
<g>
	<g>
		<rect x="481.963" y="285.457" fill="#DADFA1" width="50.189" height="50.179"/>
		<text transform="matrix(1.0003 0 0 1 492.8428 319.9043)" fill="#231F20" font-family="'Calibri-Bold'" font-size="26.5879">Pd</text>
		<text transform="matrix(1.0003 0 0 1 493.7646 330.4082)" fill="#231F20" font-family="'Calibri-Bold'" font-size="6.3864">Pallad­ium</text>
	</g>
	<g>
		<g>
			<text transform="matrix(1.0003 0 0 1 499.6572 297.3691)" fill="#231F20" font-family="'Calibri-Bold'" font-size="14.5974">46</text>
		</g>
	</g>
</g>
<g>
	<g>
		<rect x="533.979" y="285.457" fill="#DADFA1" width="50.193" height="50.179"/>
		<text transform="matrix(1.0003 0 0 1 544.7109 319.9043)" fill="#231F20" font-family="'Calibri-Bold'" font-size="26.5879">Ag</text>
		<text transform="matrix(1.0003 0 0 1 551.6816 330.4082)" fill="#231F20" font-family="'Calibri-Bold'" font-size="6.3864">Silver</text>
	</g>
	<g>
		<g>
			<text transform="matrix(1.0003 0 0 1 551.6738 297.3691)" fill="#231F20" font-family="'Calibri-Bold'" font-size="14.5974">47</text>
		</g>
	</g>
</g>
<g>
	<g>
		<rect x="585.995" y="285.457" fill="#DADFA1" width="50.191" height="50.179"/>
		<text transform="matrix(1.0003 0 0 1 596.916 319.9043)" fill="#231F20" font-family="'Calibri-Bold'" font-size="26.5879">Cd</text>
		<text transform="matrix(1.0003 0 0 1 598.3555 330.4082)" fill="#231F20" font-family="'Calibri-Bold'" font-size="6.3864">Cad­mium</text>
	</g>
	<g>
		<g>
			<text transform="matrix(1.0003 0 0 1 603.6904 297.3691)" fill="#231F20" font-family="'Calibri-Bold'" font-size="14.5974">48</text>
		</g>
	</g>
</g>
<g>
	<g>
		<rect x="638.01" y="285.457" fill="#DADFA1" width="50.192" height="50.179"/>
		<text transform="matrix(1.0003 0 0 1 652.4258 320.9268)" fill="#231F20" font-family="'Calibri-Bold'" font-size="26.5879">In</text>
		<text transform="matrix(1.0003 0 0 1 653.6699 331.4307)" fill="#231F20" font-family="'Calibri-Bold'" font-size="6.3864">Indium</text>
	</g>
	<g>
		<g>
			<text transform="matrix(1.0003 0 0 1 655.707 297.3691)" fill="#231F20" font-family="'Calibri-Bold'" font-size="14.5974">49</text>
		</g>
	</g>
</g>
<g>
	<g>
		<rect x="690.029" y="285.457" fill="#DADFA1" width="50.189" height="50.179"/>
		<text transform="matrix(1.0003 0 0 1 701.7012 320.9268)" fill="#231F20" font-family="'Calibri-Bold'" font-size="26.5879">Sn</text>
		<text transform="matrix(1.0003 0 0 1 710.9834 331.4307)" fill="#231F20" font-family="'Calibri-Bold'" font-size="6.3864">Tin</text>
	</g>
	<g>
		<g>
			<text transform="matrix(1.0003 0 0 1 707.7246 297.3691)" fill="#231F20" font-family="'Calibri-Bold'" font-size="14.5974">50</text>
		</g>
	</g>
</g>
<g>
	<g>
		<rect x="742.044" y="285.457" fill="#DADFA1" width="50.194" height="50.179"/>
		<text transform="matrix(1.0003 0 0 1 753.7178 320.9268)" fill="#231F20" font-family="'Calibri-Bold'" font-size="26.5879">Sb</text>
		<text transform="matrix(1.0003 0 0 1 754.0186 331.4307)" fill="#231F20" font-family="'Calibri-Bold'" font-size="6.3864">Anti­mony</text>
	</g>
	<g>
		<g>
			<text transform="matrix(1.0003 0 0 1 759.7402 297.3691)" fill="#231F20" font-family="'Calibri-Bold'" font-size="14.5974">51</text>
		</g>
	</g>
</g>
<g>
	<g>
		<rect x="794.062" y="285.457" fill="#DADFA1" width="50.19" height="50.179"/>
		<text transform="matrix(1.0003 0 0 1 805.8779 320.9268)" fill="#231F20" font-family="'Calibri-Bold'" font-size="26.5879">Te</text>
		<text transform="matrix(1.0003 0 0 1 806.3916 331.4307)" fill="#231F20" font-family="'Calibri-Bold'" font-size="6.3864">Tellur­ium</text>
	</g>
	<g>
		<g>
			<text transform="matrix(1.0003 0 0 1 811.7559 297.3691)" fill="#231F20" font-family="'Calibri-Bold'" font-size="14.5974">52</text>
		</g>
	</g>
</g>
<g>
	<g>
		<rect x="846.077" y="285.457" fill="#DADFA1" width="50.191" height="50.179"/>
		<text transform="matrix(1.0003 0 0 1 867.626 319.9043)" fill="#231F20" font-family="'Calibri-Bold'" font-size="26.5879">I</text>
		<text transform="matrix(1.0003 0 0 1 862.7227 330.4082)" fill="#231F20" font-family="'Calibri-Bold'" font-size="6.3864">Iodine</text>
	</g>
	<g>
		<g>
			<text transform="matrix(1.0003 0 0 1 863.7734 297.3691)" fill="#231F20" font-family="'Calibri-Bold'" font-size="14.5974">53</text>
		</g>
	</g>
</g>
<g>
	<g>
		<rect x="898.096" y="285.457" fill="#DADFA1" width="50.188" height="50.179"/>
		<text transform="matrix(1.0003 0 0 1 909.1689 319.9043)" fill="#231F20" font-family="'Calibri-Bold'" font-size="26.5879">Xe</text>
		<text transform="matrix(1.0003 0 0 1 914.6162 330.4082)" fill="#231F20" font-family="'Calibri-Bold'" font-size="6.3864">Xenon</text>
	</g>
	<g>
		<g>
			<text transform="matrix(1.0003 0 0 1 915.7891 297.3691)" fill="#231F20" font-family="'Calibri-Bold'" font-size="14.5974">54</text>
		</g>
	</g>
</g>
<g>
	<rect x="65.831" y="337.461" fill="#DADFA1" width="50.191" height="50.178"/>
	<text transform="matrix(1.0003 0 0 1 76.9082 371.7178)" fill="#231F20" font-family="'Calibri-Bold'" font-size="26.5879">Ba</text>
	<text transform="matrix(1.0003 0 0 1 81.2666 382.4111)" fill="#231F20" font-family="'Calibri-Bold'" font-size="6.3864">Barium</text>
	<g>
		<g>
			<text transform="matrix(1.0003 0 0 1 83.5273 349.3721)" fill="#231F20" font-family="'Calibri-Bold'" font-size="14.5974">56</text>
		</g>
	</g>
</g>
<g>
	<g>
		<g>
			<rect x="117.848" y="462.792" fill="#7DD9EF" width="50.192" height="50.18"/>
			<text transform="matrix(1.0003 0 0 1 130.7549 498.2617)" fill="#231F20" font-family="'Calibri-Bold'" font-size="26.5879">La</text>
			<text transform="matrix(1.0003 0 0 1 127.8164 508.7656)" fill="#231F20" font-family="'Calibri-Bold'" font-size="6.3864">Lan­thanum</text>
		</g>
		<g>
			<g>
				<text transform="matrix(1.0003 0 0 1 135.5439 474.7041)" fill="#231F20" font-family="'Calibri-Bold'" font-size="14.5974">57</text>
			</g>
		</g>
	</g>
	<g>
		<g>
			<rect x="117.848" y="337.461" fill="#7DD9EF" width="50.192" height="50.178"/>
			<text transform="matrix(1.0003 0 0 1 126.2334 354.0723)" fill="#231F20" font-family="'Calibri-Bold'" font-size="14.3165">57-71</text>
		</g>
		<text transform="matrix(1.0003 0 0 1 128.1621 370.4941)" fill="#231F20" font-family="'Calibri-Bold'" font-size="10.9481">La-Lu</text>
		<text transform="matrix(1.0003 0 0 1 119.3945 381.1777)" fill="#231F20" font-family="'Calibri-Bold'" font-size="8.9028">Lanthanide</text>
	</g>
	<g>
		<g>
			<rect x="169.864" y="462.792" fill="#7DD9EF" width="50.19" height="50.18"/>
			<text transform="matrix(1.0003 0 0 1 181.2266 498.2617)" fill="#231F20" font-family="'Calibri-Bold'" font-size="26.5879">Ce</text>
			<text transform="matrix(1.0003 0 0 1 185.3682 508.7656)" fill="#231F20" font-family="'Calibri-Bold'" font-size="6.3864">Cerium</text>
		</g>
		<g>
			<g>
				<text transform="matrix(1.0003 0 0 1 187.5605 474.7041)" fill="#231F20" font-family="'Calibri-Bold'" font-size="14.5974">58</text>
			</g>
		</g>
	</g>
	<g>
		<g>
			<rect x="221.881" y="462.792" fill="#7DD9EF" width="50.19" height="50.18"/>
			<text transform="matrix(1.0003 0 0 1 235.1699 498.2617)" fill="#231F20" font-family="'Calibri-Bold'" font-size="26.5879">Pr</text>
			<text transform="matrix(1.0003 0 0 1 226.9824 508.7656)" fill="#231F20" font-family="'Calibri-Bold'" font-size="6.3864">Praseo­dymium</text>
		</g>
		<g>
			<g>
				<text transform="matrix(1.0003 0 0 1 239.5762 474.7041)" fill="#231F20" font-family="'Calibri-Bold'" font-size="14.5974">59</text>
			</g>
		</g>
	</g>
	<g>
		<g>
			<rect x="273.897" y="462.792" fill="#7DD9EF" width="50.19" height="50.18"/>
			<text transform="matrix(1.0003 0 0 1 283.0957 498.2617)" fill="#231F20" font-family="'Calibri-Bold'" font-size="26.5879">Nd</text>
			<text transform="matrix(1.0003 0 0 1 282.5811 508.7656)" fill="#231F20" font-family="'Calibri-Bold'" font-size="6.3864">Neo­dymium</text>
		</g>
		<g>
			<g>
				<text transform="matrix(1.0003 0 0 1 291.5928 474.7041)" fill="#231F20" font-family="'Calibri-Bold'" font-size="14.5974">60</text>
			</g>
		</g>
	</g>
	<g>
		<g>
			<rect x="325.913" y="462.792" fill="#7DD9EF" width="50.194" height="50.18"/>
			<text transform="matrix(1.0003 0 0 1 333.1133 498.2617)" fill="#231F20" font-family="'Calibri-Bold'" font-size="26.5879">Pm</text>
			<text transform="matrix(1.0003 0 0 1 334.2725 508.7656)" fill="#231F20" font-family="'Calibri-Bold'" font-size="6.3864">Prome­thium</text>
		</g>
		<g>
			<g>
				<text transform="matrix(1.0003 0 0 1 343.6084 474.7041)" fill="#231F20" font-family="'Calibri-Bold'" font-size="14.5974">61</text>
			</g>
		</g>
	</g>
	<g>
		<g>
			<rect x="377.93" y="462.792" fill="#7DD9EF" width="50.191" height="50.18"/>
			<text transform="matrix(1.0003 0 0 1 385.9209 498.2617)" fill="#231F20" font-family="'Calibri-Bold'" font-size="26.5879">Sm</text>
			<text transform="matrix(1.0003 0 0 1 389.4717 508.7656)" fill="#231F20" font-family="'Calibri-Bold'" font-size="6.3864">Sama­rium</text>
		</g>
		<g>
			<g>
				<text transform="matrix(1.0003 0 0 1 395.626 474.7041)" fill="#231F20" font-family="'Calibri-Bold'" font-size="14.5974">62</text>
			</g>
		</g>
	</g>
	<g>
		<g>
			<rect x="429.946" y="462.792" fill="#7DD9EF" width="50.191" height="50.18"/>
			<text transform="matrix(1.0003 0 0 1 441.417 498.2617)" fill="#231F20" font-family="'Calibri-Bold'" font-size="26.5879">Eu</text>
			<text transform="matrix(1.0003 0 0 1 442.0459 508.7656)" fill="#231F20" font-family="'Calibri-Bold'" font-size="6.3864">Europ­ium</text>
		</g>
		<g>
			<g>
				<text transform="matrix(1.0003 0 0 1 447.6416 474.7041)" fill="#231F20" font-family="'Calibri-Bold'" font-size="14.5974">63</text>
			</g>
		</g>
	</g>
	<g>
		<g>
			<rect x="481.963" y="462.792" fill="#7DD9EF" width="50.189" height="50.18"/>
			<text transform="matrix(1.0003 0 0 1 491.4463 498.2617)" fill="#231F20" font-family="'Calibri-Bold'" font-size="26.5879">Gd</text>
			<text transform="matrix(1.0003 0 0 1 491.5752 508.7656)" fill="#231F20" font-family="'Calibri-Bold'" font-size="6.3864">Gadolin­ium</text>
		</g>
		<g>
			<g>
				<text transform="matrix(1.0003 0 0 1 499.6572 474.7041)" fill="#231F20" font-family="'Calibri-Bold'" font-size="14.5974">64</text>
			</g>
		</g>
	</g>
	<g>
		<g>
			<rect x="533.979" y="462.792" fill="#7DD9EF" width="50.193" height="50.18"/>
			<text transform="matrix(1.0003 0 0 1 545.3535 498.2617)" fill="#231F20" font-family="'Calibri-Bold'" font-size="26.5879">Tb</text>
			<text transform="matrix(1.0003 0 0 1 547.8779 508.7656)" fill="#231F20" font-family="'Calibri-Bold'" font-size="6.3864">Ter­bium</text>
		</g>
		<g>
			<g>
				<text transform="matrix(1.0003 0 0 1 551.6748 474.7041)" fill="#231F20" font-family="'Calibri-Bold'" font-size="14.5974">65</text>
			</g>
		</g>
	</g>
	<g>
		<g>
			<rect x="585.995" y="462.792" fill="#7DD9EF" width="50.191" height="50.18"/>
			<text transform="matrix(1.0003 0 0 1 596.4102 498.2617)" fill="#231F20" font-family="'Calibri-Bold'" font-size="26.5879">Dy</text>
			<text transform="matrix(1.0003 0 0 1 595.293 508.7656)" fill="#231F20" font-family="'Calibri-Bold'" font-size="6.3864">Dyspro­sium</text>
		</g>
		<g>
			<g>
				<text transform="matrix(1.0003 0 0 1 603.6895 474.7041)" fill="#231F20" font-family="'Calibri-Bold'" font-size="14.5974">66</text>
			</g>
		</g>
	</g>
	<g>
		<g>
			<rect x="638.01" y="462.792" fill="#7DD9EF" width="50.192" height="50.18"/>
			<text transform="matrix(1.0003 0 0 1 647.5684 498.2617)" fill="#231F20" font-family="'Calibri-Bold'" font-size="26.5879">Ho</text>
			<text transform="matrix(1.0003 0 0 1 650.835 508.7656)" fill="#231F20" font-family="'Calibri-Bold'" font-size="6.3864">Hol­mium</text>
		</g>
		<g>
			<g>
				<text transform="matrix(1.0003 0 0 1 655.707 474.7041)" fill="#231F20" font-family="'Calibri-Bold'" font-size="14.5974">67</text>
			</g>
		</g>
	</g>
	<g>
		<g>
			<rect x="690.029" y="462.792" fill="#7DD9EF" width="50.189" height="50.18"/>
			<text transform="matrix(1.0003 0 0 1 703.9102 498.2617)" fill="#231F20" font-family="'Calibri-Bold'" font-size="26.5879">Er</text>
			<text transform="matrix(1.0003 0 0 1 705.5596 508.7656)" fill="#231F20" font-family="'Calibri-Bold'" font-size="6.3864">Erbium</text>
		</g>
		<g>
			<g>
				<text transform="matrix(1.0003 0 0 1 707.7227 474.7041)" fill="#231F20" font-family="'Calibri-Bold'" font-size="14.5974">68</text>
			</g>
		</g>
	</g>
	<g>
		<g>
			<rect x="742.044" y="462.792" fill="#7DD9EF" width="50.194" height="50.18"/>
			<text transform="matrix(1.0003 0 0 1 749.7373 498.2617)" fill="#231F20" font-family="'Calibri-Bold'" font-size="26.5879">Tm</text>
			<text transform="matrix(1.0003 0 0 1 756.1885 508.7656)" fill="#231F20" font-family="'Calibri-Bold'" font-size="6.3864">Thulium</text>
		</g>
		<g>
			<g>
				<text transform="matrix(1.0003 0 0 1 759.7402 474.7041)" fill="#231F20" font-family="'Calibri-Bold'" font-size="14.5974">69</text>
			</g>
		</g>
	</g>
	<g>
		<g>
			<rect x="794.062" y="462.792" fill="#7DD9EF" width="50.19" height="50.18"/>
			<text transform="matrix(1.0003 0 0 1 805.1113 498.2617)" fill="#231F20" font-family="'Calibri-Bold'" font-size="26.5879">Yb</text>
			<text transform="matrix(1.0003 0 0 1 805.7861 508.7656)" fill="#231F20" font-family="'Calibri-Bold'" font-size="6.3864">Ytter­bium</text>
		</g>
		<g>
			<g>
				<text transform="matrix(1.0003 0 0 1 811.7559 474.7041)" fill="#231F20" font-family="'Calibri-Bold'" font-size="14.5974">70</text>
			</g>
		</g>
	</g>
	<g>
		<g>
			<rect x="846.077" y="462.792" fill="#7DD9EF" width="50.191" height="50.18"/>
			<text transform="matrix(1.0003 0 0 1 858.4131 498.2617)" fill="#231F20" font-family="'Calibri-Bold'" font-size="26.5879">Lu</text>
			<text transform="matrix(1.0003 0 0 1 859.1504 508.7656)" fill="#231F20" font-family="'Calibri-Bold'" font-size="6.3864">Lute­tium</text>
		</g>
		<g>
			<g>
				<text transform="matrix(1.0003 0 0 1 863.7734 474.7041)" fill="#231F20" font-family="'Calibri-Bold'" font-size="14.5974">71</text>
			</g>
		</g>
	</g>
</g>
<g>
	<g>
		<rect x="169.864" y="337.461" fill="#DADFA1" width="50.19" height="50.178"/>
		<text transform="matrix(1.0003 0 0 1 182.3633 371.9092)" fill="#231F20" font-family="'Calibri-Bold'" font-size="26.5879">Hf</text>
		<text transform="matrix(1.0003 0 0 1 183.4863 382.4111)" fill="#231F20" font-family="'Calibri-Bold'" font-size="6.3864">Haf­nium</text>
	</g>
	<g>
		<g>
			<text transform="matrix(1.0003 0 0 1 187.5605 349.3721)" fill="#231F20" font-family="'Calibri-Bold'" font-size="14.5974">72</text>
		</g>
	</g>
</g>
<g>
	<g>
		<rect x="221.881" y="337.461" fill="#DADFA1" width="50.19" height="50.178"/>
		<text transform="matrix(1.0003 0 0 1 233.8262 371.9092)" fill="#231F20" font-family="'Calibri-Bold'" font-size="26.5879">Ta</text>
		<text transform="matrix(1.0003 0 0 1 234.2617 382.4111)" fill="#231F20" font-family="'Calibri-Bold'" font-size="6.3864">Tanta­lum</text>
	</g>
	<g>
		<g>
			<text transform="matrix(1.0003 0 0 1 239.5762 349.3721)" fill="#231F20" font-family="'Calibri-Bold'" font-size="14.5974">73</text>
		</g>
	</g>
</g>
<g>
	<g>
		<rect x="273.897" y="337.461" fill="#DADFA1" width="50.19" height="50.178"/>
		<text transform="matrix(1.0003 0 0 1 286.9404 371.9092)" fill="#231F20" font-family="'Calibri-Bold'" font-size="26.5879">W</text>
		<text transform="matrix(1.0003 0 0 1 286.7051 382.4111)" fill="#231F20" font-family="'Calibri-Bold'" font-size="6.3864">Tung­sten</text>
	</g>
	<g>
		<g>
			<text transform="matrix(1.0003 0 0 1 291.5928 349.3721)" fill="#231F20" font-family="'Calibri-Bold'" font-size="14.5974">74</text>
		</g>
	</g>
</g>
<g>
	<g>
		<rect x="325.913" y="337.461" fill="#DADFA1" width="50.194" height="50.178"/>
		<text transform="matrix(1.0003 0 0 1 336.8281 371.9092)" fill="#231F20" font-family="'Calibri-Bold'" font-size="26.5879">Re</text>
		<text transform="matrix(1.0003 0 0 1 339.0186 382.4111)" fill="#231F20" font-family="'Calibri-Bold'" font-size="6.3864">Rhe­nium</text>
	</g>
	<g>
		<g>
			<text transform="matrix(1.0003 0 0 1 343.6084 349.3721)" fill="#231F20" font-family="'Calibri-Bold'" font-size="14.5974">75</text>
		</g>
	</g>
</g>
<g>
	<g>
		<rect x="377.93" y="337.461" fill="#DADFA1" width="50.191" height="50.178"/>
		<text transform="matrix(1.0003 0 0 1 388.7266 371.9092)" fill="#231F20" font-family="'Calibri-Bold'" font-size="26.5879">Os</text>
		<text transform="matrix(1.0003 0 0 1 391.8359 382.4111)" fill="#231F20" font-family="'Calibri-Bold'" font-size="6.3864">Os­mium</text>
	</g>
	<g>
		<g>
			<text transform="matrix(1.0003 0 0 1 395.626 349.3721)" fill="#231F20" font-family="'Calibri-Bold'" font-size="14.5974">76</text>
		</g>
	</g>
</g>
<g>
	<g>
		<rect x="429.946" y="337.461" fill="#DADFA1" width="50.191" height="50.178"/>
		<text transform="matrix(1.0003 0 0 1 446.7676 371.9092)" fill="#231F20" font-family="'Calibri-Bold'" font-size="26.5879">Ir</text>
		<text transform="matrix(1.0003 0 0 1 445.3994 382.4111)" fill="#231F20" font-family="'Calibri-Bold'" font-size="6.3864">Iridium</text>
	</g>
	<g>
		<g>
			<text transform="matrix(1.0003 0 0 1 447.6406 349.3721)" fill="#231F20" font-family="'Calibri-Bold'" font-size="14.5974">77</text>
		</g>
	</g>
</g>
<g>
	<g>
		<rect x="481.963" y="337.461" fill="#DADFA1" width="50.189" height="50.178"/>
		<text transform="matrix(1.0003 0 0 1 495.3701 371.9092)" fill="#231F20" font-family="'Calibri-Bold'" font-size="26.5879">Pt</text>
		<text transform="matrix(1.0003 0 0 1 495.041 382.4111)" fill="#231F20" font-family="'Calibri-Bold'" font-size="6.3864">Plat­inum</text>
	</g>
	<g>
		<g>
			<text transform="matrix(1.0003 0 0 1 499.6572 349.3721)" fill="#231F20" font-family="'Calibri-Bold'" font-size="14.5974">78</text>
		</g>
	</g>
</g>
<g>
	<g>
		<rect x="533.979" y="337.461" fill="#DADFA1" width="50.193" height="50.178"/>
		<text transform="matrix(1.0003 0 0 1 543.8789 371.9092)" fill="#231F20" font-family="'Calibri-Bold'" font-size="26.5879">Au</text>
		<text transform="matrix(1.0003 0 0 1 552.7637 382.4111)" fill="#231F20" font-family="'Calibri-Bold'" font-size="6.3864">Gold</text>
	</g>
	<g>
		<g>
			<text transform="matrix(1.0003 0 0 1 551.6738 349.3721)" fill="#231F20" font-family="'Calibri-Bold'" font-size="14.5974">79</text>
		</g>
	</g>
</g>
<g>
	<g>
		<rect x="585.995" y="337.461" fill="#DADFA1" width="50.191" height="50.178"/>
		<text transform="matrix(1.0003 0 0 1 596.3945 371.9092)" fill="#231F20" font-family="'Calibri-Bold'" font-size="26.5879">Hg</text>
		<text transform="matrix(1.0003 0 0 1 599.7979 382.4111)" fill="#231F20" font-family="'Calibri-Bold'" font-size="6.3864">Mer­cury</text>
	</g>
	<g>
		<g>
			<text transform="matrix(1.0003 0 0 1 603.6904 349.3721)" fill="#231F20" font-family="'Calibri-Bold'" font-size="14.5974">80</text>
		</g>
	</g>
</g>
<g>
	<g>
		<rect x="638.01" y="337.461" fill="#DADFA1" width="50.192" height="50.178"/>
		<text transform="matrix(1.0003 0 0 1 653.2559 372.9316)" fill="#231F20" font-family="'Calibri-Bold'" font-size="26.5879">Tl</text>
		<text transform="matrix(1.0003 0 0 1 651.5088 383.4336)" fill="#231F20" font-family="'Calibri-Bold'" font-size="6.3864">Thallium</text>
	</g>
	<g>
		<g>
			<text transform="matrix(1.0003 0 0 1 655.707 349.3721)" fill="#231F20" font-family="'Calibri-Bold'" font-size="14.5974">81</text>
		</g>
	</g>
</g>
<g>
	<g>
		<rect x="690.029" y="337.461" fill="#DADFA1" width="50.189" height="50.178"/>
		<text transform="matrix(1.0003 0 0 1 700.9092 372.9316)" fill="#231F20" font-family="'Calibri-Bold'" font-size="26.5879">Pb</text>
		<text transform="matrix(1.0003 0 0 1 708.8145 383.4336)" fill="#231F20" font-family="'Calibri-Bold'" font-size="6.3864">Lead</text>
	</g>
	<g>
		<g>
			<text transform="matrix(1.0003 0 0 1 707.7246 349.3721)" fill="#231F20" font-family="'Calibri-Bold'" font-size="14.5974">82</text>
		</g>
	</g>
</g>
<g>
	<g>
		<rect x="742.044" y="337.461" fill="#DADFA1" width="50.194" height="50.178"/>
		<text transform="matrix(1.0003 0 0 1 756.418 372.9316)" fill="#231F20" font-family="'Calibri-Bold'" font-size="26.5879">Bi</text>
		<text transform="matrix(1.0003 0 0 1 756.0967 383.4336)" fill="#231F20" font-family="'Calibri-Bold'" font-size="6.3864">Bis­muth</text>
	</g>
	<g>
		<g>
			<text transform="matrix(1.0003 0 0 1 759.7402 349.3721)" fill="#231F20" font-family="'Calibri-Bold'" font-size="14.5974">83</text>
		</g>
	</g>
</g>
<g>
	<g>
		<rect x="794.062" y="337.461" fill="#DADFA1" width="50.19" height="50.178"/>
		<text transform="matrix(1.0003 0 0 1 804.9287 372.9316)" fill="#231F20" font-family="'Calibri-Bold'" font-size="26.5879">Po</text>
		<text transform="matrix(1.0003 0 0 1 806.3672 383.4336)" fill="#231F20" font-family="'Calibri-Bold'" font-size="6.3864">Polo­nium</text>
	</g>
	<g>
		<g>
			<text transform="matrix(1.0003 0 0 1 811.7559 349.3721)" fill="#231F20" font-family="'Calibri-Bold'" font-size="14.5974">84</text>
		</g>
	</g>
</g>
<g>
	<g>
		<rect x="846.077" y="337.461" fill="#DADFA1" width="50.191" height="50.178"/>
		<text transform="matrix(1.0003 0 0 1 858.5039 371.9092)" fill="#231F20" font-family="'Calibri-Bold'" font-size="26.5879">At</text>
		<text transform="matrix(1.0003 0 0 1 860.0273 382.4111)" fill="#231F20" font-family="'Calibri-Bold'" font-size="6.3864">Asta­tine</text>
	</g>
	<g>
		<g>
			<text transform="matrix(1.0003 0 0 1 863.7734 349.3721)" fill="#231F20" font-family="'Calibri-Bold'" font-size="14.5974">85</text>
		</g>
	</g>
</g>
<g>
	<g>
		<rect x="898.096" y="337.461" fill="#DADFA1" width="50.188" height="50.178"/>
		<text transform="matrix(1.0003 0 0 1 908.5654 371.9092)" fill="#231F20" font-family="'Calibri-Bold'" font-size="26.5879">Rn</text>
		<text transform="matrix(1.0003 0 0 1 914.6084 382.4111)" fill="#231F20" font-family="'Calibri-Bold'" font-size="6.3864">Radon</text>
	</g>
	<g>
		<g>
			<text transform="matrix(1.0003 0 0 1 915.7891 349.3721)" fill="#231F20" font-family="'Calibri-Bold'" font-size="14.5974">86</text>
		</g>
	</g>
</g>
<g>
	<g>
		<g>
			<rect x="13.815" y="129.447" fill="#DADFA1" width="50.191" height="50.179"/>
			<text transform="matrix(1.0003 0 0 1 30.0195 163.8955)" fill="#231F20" font-family="'Calibri-Bold'" font-size="26.5879">Li</text>
			<g>
				<g>
					<text transform="matrix(1.0003 0 0 1 35.21 141.3574)" fill="#231F20" font-family="'Calibri-Bold'" font-size="14.5974">3</text>
				</g>
			</g>
		</g>
		<text transform="matrix(1.0003 0 0 1 28.7969 174.3965)" fill="#231F20" font-family="'Calibri-Bold'" font-size="6.3864">Lith­ium</text>
	</g>
	<g>
		<rect x="13.815" y="181.449" fill="#DADFA1" width="50.191" height="50.182"/>
		<text transform="matrix(1.0003 0 0 1 23.5859 215.8984)" fill="#231F20" font-family="'Calibri-Bold'" font-size="26.5879">Na</text>
		<text transform="matrix(1.0003 0 0 1 28.8125 226.4004)" fill="#231F20" font-family="'Calibri-Bold'" font-size="6.3864">So­dium</text>
		<g>
			<g>
				<text transform="matrix(1.0003 0 0 1 31.5088 193.3604)" fill="#231F20" font-family="'Calibri-Bold'" font-size="14.5974">11</text>
			</g>
		</g>
	</g>
	<g>
		<rect x="13.815" y="233.454" fill="#DADFA1" width="50.191" height="50.181"/>
		<text transform="matrix(1.0003 0 0 1 31.6367 267.9014)" fill="#231F20" font-family="'Calibri-Bold'" font-size="26.5879">K</text>
		<text transform="matrix(1.0003 0 0 1 25.1045 278.4043)" fill="#231F20" font-family="'Calibri-Bold'" font-size="6.3864">Potas­sium</text>
		<g>
			<g>
				<text transform="matrix(1.0003 0 0 1 31.5088 245.3643)" fill="#231F20" font-family="'Calibri-Bold'" font-size="14.5974">19</text>
			</g>
		</g>
	</g>
	<g>
		<rect x="13.815" y="285.457" fill="#DADFA1" width="50.191" height="50.179"/>
		<text transform="matrix(1.0003 0 0 1 24.2871 319.9043)" fill="#231F20" font-family="'Calibri-Bold'" font-size="26.5879">Rb</text>
		<text transform="matrix(1.0003 0 0 1 26.0273 330.4082)" fill="#231F20" font-family="'Calibri-Bold'" font-size="6.3864">Rubid­ium</text>
		<g>
			<g>
				<text transform="matrix(1.0003 0 0 1 31.5088 297.3691)" fill="#231F20" font-family="'Calibri-Bold'" font-size="14.5974">37</text>
			</g>
		</g>
	</g>
	<g>
		<rect x="13.815" y="337.461" fill="#DADFA1" width="50.191" height="50.178"/>
		<text transform="matrix(1.0003 0 0 1 26.5654 371.9092)" fill="#231F20" font-family="'Calibri-Bold'" font-size="26.5879">Cs</text>
		<text transform="matrix(1.0003 0 0 1 27.6035 382.4111)" fill="#231F20" font-family="'Calibri-Bold'" font-size="6.3864">Cae­sium</text>
		<g>
			<g>
				<text transform="matrix(1.0003 0 0 1 31.5088 349.3721)" fill="#231F20" font-family="'Calibri-Bold'" font-size="14.5974">55</text>
			</g>
		</g>
	</g>
	<g>
		<rect x="13.815" y="389.465" fill="#DADFA1" width="50.191" height="50.179"/>
		<text transform="matrix(1.0003 0 0 1 28.0781 423.9121)" fill="#231F20" font-family="'Calibri-Bold'" font-size="26.5879">Fr</text>
		<text transform="matrix(1.0003 0 0 1 26.5244 434.4141)" fill="#231F20" font-family="'Calibri-Bold'" font-size="6.3864">Fran­cium</text>
		<g>
			<g>
				<text transform="matrix(1.0003 0 0 1 31.5088 401.373)" fill="#231F20" font-family="'Calibri-Bold'" font-size="14.5974">87</text>
			</g>
		</g>
	</g>
</g>
<g>
	<rect x="65.831" y="389.465" fill="#DADFA1" width="50.191" height="50.179"/>
	<text transform="matrix(1.0003 0 0 1 76.875 423.9121)" fill="#231F20" font-family="'Calibri-Bold'" font-size="26.5879">Ra</text>
	<text transform="matrix(1.0003 0 0 1 80.6807 434.4141)" fill="#231F20" font-family="'Calibri-Bold'" font-size="6.3864">Ra­dium</text>
	<g>
		<g>
			<text transform="matrix(1.0003 0 0 1 83.5273 401.373)" fill="#231F20" font-family="'Calibri-Bold'" font-size="14.5974">88</text>
		</g>
	</g>
</g>
<g>
	<g>
		<rect x="117.848" y="389.465" fill="#DADFA1" width="50.192" height="50.179"/>
		<text transform="matrix(1.0003 0 0 1 122.6025 406.0762)" fill="#231F20" font-family="'Calibri-Bold'" font-size="14.3165">89-103</text>
	</g>
	<text transform="matrix(1.0003 0 0 1 127.541 421.0244)" fill="#231F20" font-family="'Calibri-Bold'" font-size="10.9481">Ac-Lr</text>
	<text transform="matrix(1.0003 0 0 1 123.8057 431.708)" fill="#231F20" font-family="'Calibri-Bold'" font-size="8.9028">Actinide</text>
</g>
<g>
	<g>
		<rect x="117.848" y="514.796" fill="#DADFA1" width="50.192" height="50.178"/>
		<text transform="matrix(1.0003 0 0 1 129.3193 550.2676)" fill="#231F20" font-family="'Calibri-Bold'" font-size="26.5879">Ac</text>
		<text transform="matrix(1.0003 0 0 1 130.9307 560.7686)" fill="#231F20" font-family="'Calibri-Bold'" font-size="6.3864">Actin­ium</text>
	</g>
	<g>
		<g>
			<text transform="matrix(1.0003 0 0 1 135.5439 526.7061)" fill="#231F20" font-family="'Calibri-Bold'" font-size="14.5974">89</text>
		</g>
	</g>
</g>
<g>
	<g>
		<rect x="169.864" y="514.796" fill="#DADFA1" width="50.19" height="50.178"/>
		<text transform="matrix(1.0003 0 0 1 181.2393 550.2676)" fill="#231F20" font-family="'Calibri-Bold'" font-size="26.5879">Th</text>
		<text transform="matrix(1.0003 0 0 1 183.6553 560.7686)" fill="#231F20" font-family="'Calibri-Bold'" font-size="6.3864">Thor­ium</text>
	</g>
	<g>
		<g>
			<text transform="matrix(1.0003 0 0 1 187.5605 526.7061)" fill="#231F20" font-family="'Calibri-Bold'" font-size="14.5974">90</text>
		</g>
	</g>
</g>
<g>
	<g>
		<rect x="221.881" y="514.796" fill="#DADFA1" width="50.19" height="50.178"/>
		<text transform="matrix(1.0003 0 0 1 233.332 550.2676)" fill="#231F20" font-family="'Calibri-Bold'" font-size="26.5879">Pa</text>
		<text transform="matrix(1.0003 0 0 1 229.6611 560.7686)" fill="#231F20" font-family="'Calibri-Bold'" font-size="6.3864">Protac­tinium</text>
	</g>
	<g>
		<g>
			<text transform="matrix(1.0003 0 0 1 239.5762 526.7061)" fill="#231F20" font-family="'Calibri-Bold'" font-size="14.5974">91</text>
		</g>
	</g>
</g>
<g>
	<g>
		<rect x="273.897" y="514.796" fill="#DADFA1" width="50.19" height="50.178"/>
		<text transform="matrix(1.0003 0 0 1 290.3096 550.2676)" fill="#231F20" font-family="'Calibri-Bold'" font-size="26.5879">U</text>
		<text transform="matrix(1.0003 0 0 1 287.3232 560.7686)" fill="#231F20" font-family="'Calibri-Bold'" font-size="6.3864">Ura­nium</text>
	</g>
	<g>
		<g>
			<text transform="matrix(1.0003 0 0 1 291.5928 526.7061)" fill="#231F20" font-family="'Calibri-Bold'" font-size="14.5974">92</text>
		</g>
	</g>
</g>
<g>
	<g>
		<rect x="325.913" y="514.796" fill="#DADFA1" width="50.194" height="50.178"/>
		<text transform="matrix(1.0003 0 0 1 335.1133 550.2676)" fill="#231F20" font-family="'Calibri-Bold'" font-size="26.5879">Np</text>
		<text transform="matrix(1.0003 0 0 1 335.8906 560.7686)" fill="#231F20" font-family="'Calibri-Bold'" font-size="6.3864">Neptu­nium</text>
	</g>
	<g>
		<g>
			<text transform="matrix(1.0003 0 0 1 343.6084 526.7061)" fill="#231F20" font-family="'Calibri-Bold'" font-size="14.5974">93</text>
		</g>
	</g>
</g>
<g>
	<g>
		<rect x="377.93" y="514.796" fill="#DADFA1" width="50.191" height="50.178"/>
		<text transform="matrix(1.0003 0 0 1 388.8105 550.2676)" fill="#231F20" font-family="'Calibri-Bold'" font-size="26.5879">Pu</text>
		<text transform="matrix(1.0003 0 0 1 389.1309 560.7686)" fill="#231F20" font-family="'Calibri-Bold'" font-size="6.3864">Pluto­nium</text>
	</g>
	<g>
		<g>
			<text transform="matrix(1.0003 0 0 1 395.626 526.7061)" fill="#231F20" font-family="'Calibri-Bold'" font-size="14.5974">94</text>
		</g>
	</g>
</g>
<g>
	<g>
		<rect x="429.946" y="514.796" fill="#DADFA1" width="50.191" height="50.178"/>
		<text transform="matrix(1.0003 0 0 1 436.1641 550.2676)" fill="#231F20" font-family="'Calibri-Bold'" font-size="26.5879">Am</text>
		<text transform="matrix(1.0003 0 0 1 440.4854 560.7686)" fill="#231F20" font-family="'Calibri-Bold'" font-size="6.3864">Ameri­cium</text>
	</g>
	<g>
		<g>
			<text transform="matrix(1.0003 0 0 1 447.6416 526.7061)" fill="#231F20" font-family="'Calibri-Bold'" font-size="14.5974">95</text>
		</g>
	</g>
</g>
<g>
	<g>
		<rect x="481.963" y="514.796" fill="#DADFA1" width="50.189" height="50.178"/>
		<text transform="matrix(1.0003 0 0 1 489.2021 550.2676)" fill="#231F20" font-family="'Calibri-Bold'" font-size="26.5879">Cm</text>
		<text transform="matrix(1.0003 0 0 1 497.3604 560.7686)" fill="#231F20" font-family="'Calibri-Bold'" font-size="6.3864">Curium</text>
	</g>
	<g>
		<g>
			<text transform="matrix(1.0003 0 0 1 499.6572 526.7061)" fill="#231F20" font-family="'Calibri-Bold'" font-size="14.5974">96</text>
		</g>
	</g>
</g>
<g>
	<g>
		<rect x="533.979" y="514.796" fill="#DADFA1" width="50.193" height="50.178"/>
		<text transform="matrix(1.0003 0 0 1 545.2363 550.2676)" fill="#231F20" font-family="'Calibri-Bold'" font-size="26.5879">Bk</text>
		<text transform="matrix(1.0003 0 0 1 545.458 560.7686)" fill="#231F20" font-family="'Calibri-Bold'" font-size="6.3864">Berkel­ium</text>
	</g>
	<g>
		<g>
			<text transform="matrix(1.0003 0 0 1 551.6748 526.7061)" fill="#231F20" font-family="'Calibri-Bold'" font-size="14.5974">97</text>
		</g>
	</g>
</g>
<g>
	<g>
		<rect x="585.995" y="514.796" fill="#DADFA1" width="50.191" height="50.178"/>
		<text transform="matrix(1.0003 0 0 1 599.8447 550.2676)" fill="#231F20" font-family="'Calibri-Bold'" font-size="26.5879">Cf</text>
		<text transform="matrix(1.0003 0 0 1 595.5205 560.7686)" fill="#231F20" font-family="'Calibri-Bold'" font-size="6.3864">Califor­nium</text>
	</g>
	<g>
		<g>
			<text transform="matrix(1.0003 0 0 1 603.6895 526.7061)" fill="#231F20" font-family="'Calibri-Bold'" font-size="14.5974">98</text>
		</g>
	</g>
</g>
<g>
	<g>
		<rect x="690.029" y="514.796" fill="#DADFA1" width="50.189" height="50.178"/>
		<text transform="matrix(1.0003 0 0 1 698.2021 550.2676)" fill="#231F20" font-family="'Calibri-Bold'" font-size="26.5879">Fm</text>
		<text transform="matrix(1.0003 0 0 1 703.1602 560.7686)" fill="#231F20" font-family="'Calibri-Bold'" font-size="6.3864">Fer­mium</text>
	</g>
	<g>
		<g>
			<text transform="matrix(1.0003 0 0 1 704.0225 526.7061)" fill="#231F20" font-family="'Calibri-Bold'" font-size="14.5974">100</text>
		</g>
	</g>
</g>
<g>
	<g>
		<rect x="638.01" y="514.796" fill="#DADFA1" width="50.192" height="50.178"/>
		<text transform="matrix(1.0003 0 0 1 651.3154 550.2676)" fill="#231F20" font-family="'Calibri-Bold'" font-size="26.5879">Es</text>
		<text transform="matrix(1.0003 0 0 1 647.4063 560.7686)" fill="#231F20" font-family="'Calibri-Bold'" font-size="6.3864">Einstei­nium</text>
	</g>
	<g>
		<g>
			<text transform="matrix(1.0003 0 0 1 655.707 526.7061)" fill="#231F20" font-family="'Calibri-Bold'" font-size="14.5974">99</text>
		</g>
	</g>
</g>
<g>
	<g>
		<rect x="742.044" y="514.796" fill="#DADFA1" width="50.194" height="50.178"/>
		<text transform="matrix(1.0003 0 0 1 748.3799 550.2676)" fill="#231F20" font-family="'Calibri-Bold'" font-size="26.5879">Md</text>
		<text transform="matrix(1.0003 0 0 1 748.6436 560.7686)" fill="#231F20" font-family="'Calibri-Bold'" font-size="6.3864">Mende­levium</text>
	</g>
	<g>
		<g>
			<text transform="matrix(1.0003 0 0 1 756.0391 526.7061)" fill="#231F20" font-family="'Calibri-Bold'" font-size="14.5974">101</text>
		</g>
	</g>
</g>
<g>
	<g>
		<rect x="794.062" y="514.796" fill="#DADFA1" width="50.19" height="50.178"/>
		<text transform="matrix(1.0003 0 0 1 803.2471 550.2676)" fill="#231F20" font-family="'Calibri-Bold'" font-size="26.5879">No</text>
		<text transform="matrix(1.0003 0 0 1 806.0713 560.7686)" fill="#231F20" font-family="'Calibri-Bold'" font-size="6.3864">Nobel­ium</text>
	</g>
	<g>
		<g>
			<text transform="matrix(1.0003 0 0 1 808.0566 526.7061)" fill="#231F20" font-family="'Calibri-Bold'" font-size="14.5974">102</text>
		</g>
	</g>
</g>
<g>
	<g>
		<rect x="846.077" y="514.796" fill="#DADFA1" width="50.191" height="50.178"/>
		<text transform="matrix(1.0003 0 0 1 860.8223 550.2676)" fill="#231F20" font-family="'Calibri-Bold'" font-size="26.5879">Lr</text>
		<text transform="matrix(1.0003 0 0 1 854.915 560.7686)" fill="#231F20" font-family="'Calibri-Bold'" font-size="6.3864">Lawren­cium</text>
	</g>
	<g>
		<g>
			<text transform="matrix(1.0003 0 0 1 860.0723 526.7061)" fill="#231F20" font-family="'Calibri-Bold'" font-size="14.5974">103</text>
		</g>
	</g>
</g>
<g>
	<g>
		<rect x="169.864" y="389.465" fill="#DADFA1" width="50.19" height="50.179"/>
		<text transform="matrix(1.0003 0 0 1 183.2646 423.9121)" fill="#231F20" font-family="'Calibri-Bold'" font-size="26.5879">Rf</text>
		<text transform="matrix(1.0003 0 0 1 175.1494 434.4141)" fill="#231F20" font-family="'Calibri-Bold'" font-size="6.3864">Ruther­fordium</text>
	</g>
	<g>
		<g>
			<text transform="matrix(1.0003 0 0 1 183.8594 401.373)" fill="#231F20" font-family="'Calibri-Bold'" font-size="14.5974">104</text>
		</g>
	</g>
</g>
<g>
	<g>
		<rect x="221.881" y="389.465" fill="#DADFA1" width="50.19" height="50.179"/>
		<text transform="matrix(1.0003 0 0 1 231.4561 423.9121)" fill="#231F20" font-family="'Calibri-Bold'" font-size="26.5879">Db</text>
		<text transform="matrix(1.0003 0 0 1 234.6641 434.4141)" fill="#231F20" font-family="'Calibri-Bold'" font-size="6.3864">Dub­nium</text>
	</g>
	<g>
		<g>
			<text transform="matrix(1.0003 0 0 1 235.876 401.373)" fill="#231F20" font-family="'Calibri-Bold'" font-size="14.5974">105</text>
		</g>
	</g>
</g>
<g>
	<g>
		<rect x="273.897" y="389.465" fill="#DADFA1" width="50.19" height="50.179"/>
		<text transform="matrix(1.0003 0 0 1 286.3994 423.9121)" fill="#231F20" font-family="'Calibri-Bold'" font-size="26.5879">Sg</text>
		<text transform="matrix(1.0003 0 0 1 283.0605 434.4141)" fill="#231F20" font-family="'Calibri-Bold'" font-size="6.3864">Sea­borgium</text>
	</g>
	<g>
		<g>
			<text transform="matrix(1.0003 0 0 1 287.8926 401.373)" fill="#231F20" font-family="'Calibri-Bold'" font-size="14.5974">106</text>
		</g>
	</g>
</g>
<g>
	<g>
		<rect x="325.913" y="389.465" fill="#DADFA1" width="50.194" height="50.179"/>
		<text transform="matrix(1.0003 0 0 1 336.418 423.9121)" fill="#231F20" font-family="'Calibri-Bold'" font-size="26.5879">Bh</text>
		<text transform="matrix(1.0003 0 0 1 339.4951 434.4141)" fill="#231F20" font-family="'Calibri-Bold'" font-size="6.3864">Bohr­ium</text>
	</g>
	<g>
		<g>
			<text transform="matrix(1.0003 0 0 1 339.9082 401.373)" fill="#231F20" font-family="'Calibri-Bold'" font-size="14.5974">107</text>
		</g>
	</g>
</g>
<g>
	<g>
		<rect x="377.93" y="389.465" fill="#DADFA1" width="50.191" height="50.179"/>
		<text transform="matrix(1.0003 0 0 1 389.3311 423.9121)" fill="#231F20" font-family="'Calibri-Bold'" font-size="26.5879">Hs</text>
		<text transform="matrix(1.0003 0 0 1 391.7285 434.4141)" fill="#231F20" font-family="'Calibri-Bold'" font-size="6.3864">Has­sium</text>
	</g>
	<g>
		<g>
			<text transform="matrix(1.0003 0 0 1 391.9258 401.373)" fill="#231F20" font-family="'Calibri-Bold'" font-size="14.5974">108</text>
		</g>
	</g>
</g>
<g>
	<g>
		<rect x="429.946" y="389.465" fill="#DADFA1" width="50.191" height="50.179"/>
		<text transform="matrix(1.0003 0 0 1 438.8076 423.9121)" fill="#231F20" font-family="'Calibri-Bold'" font-size="26.5879">Mt</text>
		<text transform="matrix(1.0003 0 0 1 439.1348 434.4141)" fill="#231F20" font-family="'Calibri-Bold'" font-size="6.3864">Meit­nerium</text>
	</g>
	<g>
		<g>
			<text transform="matrix(1.0003 0 0 1 443.9404 401.373)" fill="#231F20" font-family="'Calibri-Bold'" font-size="14.5974">109</text>
		</g>
	</g>
</g>
<g>
	<g>
		<rect x="481.963" y="389.465" fill="#DADFA1" width="50.189" height="50.179"/>
		<text transform="matrix(1.0003 0 0 1 493.3691 423.9121)" fill="#231F20" font-family="'Calibri-Bold'" font-size="26.5879">Ds</text>
		<text transform="matrix(1.0003 0 0 1 487.8193 434.4141)" fill="#231F20" font-family="'Calibri-Bold'" font-size="6.3864">Darm­stadtium</text>
	</g>
	<g>
		<g>
			<text transform="matrix(1.0003 0 0 1 495.9561 401.373)" fill="#231F20" font-family="'Calibri-Bold'" font-size="14.5974">110</text>
		</g>
	</g>
</g>
<g>
	<g>
		<rect x="533.979" y="389.465" fill="#DADFA1" width="50.193" height="50.179"/>
		<text transform="matrix(1.0003 0 0 1 545.2822 423.9121)" fill="#231F20" font-family="'Calibri-Bold'" font-size="26.5879">Rg</text>
		<text transform="matrix(1.0003 0 0 1 541.1357 434.4141)" fill="#231F20" font-family="'Calibri-Bold'" font-size="6.3864">Roent­genium</text>
	</g>
	<g>
		<g>
			<text transform="matrix(1.0003 0 0 1 547.9736 401.373)" fill="#231F20" font-family="'Calibri-Bold'" font-size="14.5974">111</text>
		</g>
	</g>
</g>
<g>
	<g>
		<rect x="585.995" y="389.465" fill="#DADFA1" width="50.191" height="50.179"/>
		<text transform="matrix(1.0003 0 0 1 596.916 423.9121)" fill="#231F20" font-family="'Calibri-Bold'" font-size="26.5879">Cn</text>
		<text transform="matrix(1.0003 0 0 1 594.2334 434.4141)" fill="#231F20" font-family="'Calibri-Bold'" font-size="6.3864">Coper­nicium</text>
	</g>
	<g>
		<g>
			<text transform="matrix(1.0003 0 0 1 599.9912 401.373)" fill="#231F20" font-family="'Calibri-Bold'" font-size="14.5974">112</text>
		</g>
	</g>
</g>
<g>
	<g>
		<rect x="638.01" y="389.465" fill="#DADFA1" width="50.192" height="50.179"/>
		<text transform="matrix(1.0003 0 0 1 642.6797 424.9346)" fill="#231F20" font-family="'Calibri-Bold'" font-size="26.5879">Uut</text>
		<text transform="matrix(1.0003 0 0 1 648.4805 435.4365)" fill="#231F20" font-family="'Calibri-Bold'" font-size="6.3864">Unun­trium</text>
	</g>
	<g>
		<g>
			<text transform="matrix(1.0003 0 0 1 652.0068 401.373)" fill="#231F20" font-family="'Calibri-Bold'" font-size="14.5974">113</text>
		</g>
	</g>
</g>
<g>
	<g>
		<rect x="690.029" y="389.465" fill="#DADFA1" width="50.189" height="50.179"/>
		<text transform="matrix(1.0003 0 0 1 705.752 424.9346)" fill="#231F20" font-family="'Calibri-Bold'" font-size="26.5879">Fl</text>
		<text transform="matrix(1.0003 0 0 1 701.7441 435.4365)" fill="#231F20" font-family="'Calibri-Bold'" font-size="6.3864">Flerov­ium</text>
	</g>
	<g>
		<g>
			<text transform="matrix(1.0003 0 0 1 704.0234 401.373)" fill="#231F20" font-family="'Calibri-Bold'" font-size="14.5974">114</text>
		</g>
	</g>
</g>
<g>
	<g>
		<rect x="742.044" y="389.465" fill="#DADFA1" width="50.194" height="50.179"/>
		<text transform="matrix(1.0003 0 0 1 744.1855 424.9346)" fill="#231F20" font-family="'Calibri-Bold'" font-size="26.5879">Uup</text>
		<text transform="matrix(1.0003 0 0 1 748.6348 435.4365)" fill="#231F20" font-family="'Calibri-Bold'" font-size="6.3864">Unun­pentium</text>
	</g>
	<g>
		<g>
			<text transform="matrix(1.0003 0 0 1 756.0391 401.373)" fill="#231F20" font-family="'Calibri-Bold'" font-size="14.5974">115</text>
		</g>
	</g>
</g>
<g>
	<g>
		<rect x="794.062" y="389.465" fill="#DADFA1" width="50.19" height="50.179"/>
		<text transform="matrix(1.0003 0 0 1 807.2402 424.9346)" fill="#231F20" font-family="'Calibri-Bold'" font-size="26.5879">Lv</text>
		<text transform="matrix(1.0003 0 0 1 802.1592 435.4365)" fill="#231F20" font-family="'Calibri-Bold'" font-size="6.3864">Liver­morium</text>
	</g>
	<g>
		<g>
			<text transform="matrix(1.0003 0 0 1 808.0566 401.373)" fill="#231F20" font-family="'Calibri-Bold'" font-size="14.5974">116</text>
		</g>
	</g>
</g>
<g>
	<g>
		<rect x="846.077" y="389.465" fill="#DADFA1" width="50.191" height="50.179"/>
		<text transform="matrix(1.0003 0 0 1 850.0498 423.9121)" fill="#231F20" font-family="'Calibri-Bold'" font-size="26.5879">Uus</text>
		<text transform="matrix(1.0003 0 0 1 853.1074 434.4141)" fill="#231F20" font-family="'Calibri-Bold'" font-size="6.3864">Unun­septium</text>
	</g>
	<g>
		<g>
			<text transform="matrix(1.0003 0 0 1 860.0723 401.373)" fill="#231F20" font-family="'Calibri-Bold'" font-size="14.5974">117</text>
		</g>
	</g>
</g>
<g>
	<g>
		<rect x="898.096" y="389.465" fill="#DADFA1" width="50.188" height="50.179"/>
		<text transform="matrix(1.0003 0 0 1 900.2227 423.9121)" fill="#231F20" font-family="'Calibri-Bold'" font-size="26.5879">Uuo</text>
		<text transform="matrix(1.0003 0 0 1 906.666 434.4141)" fill="#231F20" font-family="'Calibri-Bold'" font-size="6.3864">Unun­octium</text>
	</g>
	<g>
		<g>
			<text transform="matrix(1.0003 0 0 1 912.0889 401.373)" fill="#231F20" font-family="'Calibri-Bold'" font-size="14.5974">118</text>
		</g>
	</g>
</g>
<g>
	<text transform="matrix(1.0003 0 0 1 32.416 74.1299)" fill="#6D6B6B" font-family="'ArialMT'" font-size="14.3165">IA</text>
</g>
<g>
	<text transform="matrix(1.0003 0 0 1 78.502 124.9209)" fill="#6D6B6B" font-family="'ArialMT'" font-size="14.3165">IIA</text>
</g>
<g>
	<text transform="matrix(1.0003 0 0 1 131.4063 228.8857)" fill="#6D6B6B" font-family="'ArialMT'" font-size="14.3165">IIIB</text>
</g>
<g>
	<text transform="matrix(1.0003 0 0 1 184.8203 228.8857)" fill="#6D6B6B" font-family="'ArialMT'" font-size="14.3165">IVB</text>
</g>
<g>
	<text transform="matrix(1.0003 0 0 1 234.5449 228.8857)" fill="#6D6B6B" font-family="'ArialMT'" font-size="14.3165">VB</text>
</g>
<g>
	<text transform="matrix(1.0003 0 0 1 287.5713 228.8857)" fill="#6D6B6B" font-family="'ArialMT'" font-size="14.3165">VIB</text>
</g>
<g>
	<text transform="matrix(1.0003 0 0 1 337.4004 228.8857)" fill="#6D6B6B" font-family="'ArialMT'" font-size="14.3165">VIIB</text>
</g>
<g>
	<text transform="matrix(1.0003 0 0 1 434.1191 213.0352)" fill="#6D6B6B" font-family="'ArialMT'" font-size="14.3165">VIIIB</text>
</g>
<g>
	<text transform="matrix(1.0003 0 0 1 602.2832 228.8857)" fill="#6D6B6B" font-family="'ArialMT'" font-size="14.3165">IIB</text>
</g>
<g>
	<text transform="matrix(1.0003 0 0 1 548.3262 228.8857)" fill="#6D6B6B" font-family="'ArialMT'" font-size="14.3165">IB</text>
</g>
<g>
	<text transform="matrix(1.0003 0 0 1 651.9492 125.6025)" fill="#6D6B6B" font-family="'ArialMT'" font-size="14.3165">IIIA</text>
</g>
<g>
	<text transform="matrix(1.0003 0 0 1 706.3877 125.6025)" fill="#6D6B6B" font-family="'ArialMT'" font-size="14.3165">IVA</text>
</g>
<g>
	<text transform="matrix(1.0003 0 0 1 758.1553 125.6025)" fill="#6D6B6B" font-family="'ArialMT'" font-size="14.3165">VA</text>
</g>
<g>
	<text transform="matrix(1.0003 0 0 1 805.6045 125.6025)" fill="#6D6B6B" font-family="'ArialMT'" font-size="14.3165">VIA</text>
</g>
<g>
	<text transform="matrix(1.0003 0 0 1 852.7129 125.6025)" fill="#6D6B6B" font-family="'ArialMT'" font-size="14.3165">VIIA</text>
</g>
<g>
	<text transform="matrix(1.0003 0 0 1 913.4609 73.791)" fill="#6D6B6B" font-family="'ArialMT'" font-size="14.3165">VIIIA</text>
</g>
<polyline fill="none" stroke="#6D6B6B" stroke-width="1.0227" stroke-miterlimit="10" points="397.232,233.017 397.232,219.967 
	509.614,219.967 509.614,233.555 "/>
</svg>
