selector,english_word,engmeaning,nepali_word,nepmeaning,image
चुलबुले,,,चुलबुले,चकचके,
घमन्डी,,,घमन्डी,"घमण्ड गर्ने, अभिमानी",
छिर्केमिर्के,,,छिर्केमिर्के,"विभिन्न रङका धर्साधर्सी वा थोप्लाथोप्ली परेको, टाटेपाटे",
मिलनसार,,,मिलनसार,सबैसँग मिल्ने स्वभावको,
मस्तसँग,,,मस्त,कुनै कुराको आनन्द लिइरहेको,
सुताहा,,,सुताहा,धेरै सुत्ने,
छटपटी,,,छटपटी,"दु;ख, पीर आदि सहन गाह्रो भएको अवस्था",
निराश,,,निराश,"आश मरेको, ",
वास्ता,,,वास्ता,"कुनै कुरा, विचार, व्यक्ति आदिलाई ध्यान दिने काम;",
होच्याउने,,,होच्याउनु,"निन्दा गर्नु,",
लम्क्यो,,,लम्कनु,लामो फड्का हालेर छिटो हिँड्नु,
निन्याउरो,,,निन्याउरो,मलिनो अनुहार लगाउनु,
सास्ती,,,सास्ती,"दु;ख, कष्ट र पीडाको स्थिति",
बाठो,,,बाठो,सजिलैसँग सिक्न र कुरा बुझ्न सक्ने,
ढाडमा,,,ढाड,शिरदेखि कम्मरसम्मको हाड,
