selector,english_word,engmeaning,nepali_word,nepmeaning,image
flows,flow,,बग्‍नु,,
components ,component,,भाग,,
source,source,,स्रोत,,
opposite,opposite,,फरक-फरक, उल्‍टो,
joined,join,,जोड्नु,,
control,control,,नियन्त्रण,,
glows,glow,,बल्‍नु,चम्‍किनु,
