selector,english_word,engmeaning,nepali_word,nepmeaning,image
washing ,wash,,धुनु,,
soap,soap,,साबुन,,
Germs,Germ,,किटाणु,रोग लगाउने किरा,
eating ,eat,,खानु,,
cooking,cook,,पकाउनु,,
blowing ,blow,,,नाक सफा गर्नु,
parents,parent,,अभिभावक,बुबा/आमा,
way,way,,तरिका,,
wet,wet,,भिजाउनु,,
rub,rub,,घोट्नु,,
palms,palm,,हत्केला,,
grip,grip,,समात्‍नु,,
rotating,rotate,,घुमाउरो,,
fingertips,fingertip,,औँलाको टुप्पो,,
wrist,wrist,,नाडि,,
rinse,rinse,,पखाल्नु,,
