selector,english_word,engmeaning,nepali_word,nepmeaning,image
explore,explore,,,खोज गराैँ,
generating,generate,,उत्पादन गर्नु,,
vehicles,vehicle,,गाडी,,
inhibits,inhibit,,रोक्नु,"छेक्नु, जोगाउनु",
mosses,moss,,ढुसी,,
grains,grain,,अनाज,अन्‍न,
storage,store,,भण्डारण गर्नु,बटुलेर राख्‍ने ठाउँ,
purify,pure,,शुद्ध,,
evaporation,evaporation,,वाष्पीकरण,बाफ बन्‍ने प्रक्रिया,
parasites,parasite,,परजीवि,,
viruses,virus,,,एक प्रकारको सुक्ष्म परजीवि,
elevation,elevate,,उचाइ,,
essential,essential,,आवश्‍यक,,
water cycle,water cycle,,जलचक्र,,
melt,melt,,पगाल्नु,,
mould,mould,,,चाहिएको जस्तो आकार बनाउनु,
generate,generate,,उत्पादन गर्नु,,
geothermal,geothermal,,,जमिनभित्रको ताप,
cow dung,cow dung,,गोबर,,
biofuel,biofuel,,जैविक उर्जा,जैविक इन्धन,
organic,organic,,जैविक,,
biomass,biomass,,"ढोड, छ्वाली, दाउरा आदि",इन्धनको रूपमा प्रयोग गर्न मिल्ने (बिरुवाको) भाग,
compost,compost,,कम्पोष्ट,,
manure,manure,,मल,,
decompose,decompose,,,"सड्नु, गल्नु",
starch,starch,,,बिरुवाले बनाउने खाना,
cellulose,cellulose,,,कोषभित्ताले बनेको अघुलनशील वस्तु,
fossil,fossil,,,लाखौँ वर्ष अगाडिदेखि चट्टानमा थिच्चिएर रहेको जनावर वा बिरुवाको भाग अथवा छाप,
buried,bury,,,गाडिएको,
beneath,beneath,,मुनि,,
LPG,LPG,,,भान्सामा प्रयोग गरिने ग्यास,
traps,trap,,छेक्नु,थुनेर राख्नु,
transparent,transparent,,पारदर्शी,वारपार देखिने,
photocells,photocell,,,सौर्य शक्ति निकाल्न प्रयोग गरिने सेल,
concentrating,concentrate,,,एकैतिर एकाग्र हुनु,
charged,charge,,,चार्ज गर्नु,
shower,shower,,,नुहाउनु,
primary,primary,,मुख्य,,
vessels,vessel,,भाँडो,,
dip,dip,,डुबाउनु,,
