selector,english_word,engmeaning,nepali_word,nepmeaning,image
निर्देशन,instruction,,निर्देशन,"आज्ञा दिनु, ",
काँध,shoulder,,काँध,"गर्धन, कुम",
मदत,help,,मदत,"सहयोग, सहायता",
सङ्‌केत,signal,,सङ्‌केत,,
गलबन्दी,"scarf, muffler",,गलबन्दी,गलामा बेरिने कपडा,
आज्ञाकारी ,obedient,,आज्ञाकारी ,पालना गर्ने,
