<?xml version="1.0" encoding="utf-8"?>
<!-- Generator: Adobe Illustrator 15.0.0, SVG Export Plug-In . SVG Version: 6.00 Build 0)  -->
<!DOCTYPE svg PUBLIC "-//W3C//DTD SVG 1.1//EN" "http://www.w3.org/Graphics/SVG/1.1/DTD/svg11.dtd">
<svg version="1.1" id="Layer_1" xmlns="http://www.w3.org/2000/svg" xmlns:xlink="http://www.w3.org/1999/xlink" x="0px" y="0px"
	 width="740.18px" height="520.18px" viewBox="0 0 740.18 520.18" enable-background="new 0 0 740.18 520.18" xml:space="preserve">

	 <!-- top lever -->
	<g>
		<rect x="18.304" y="11.95" fill="#0095DA" width="700" height="8.967">
			<animateTransform id="topleveranim" attributeName="transform"
                          attributeType="XML"
                          type="rotate"
                          from="0 60 70"
                          to="2 60 70"
                          dur="2s"
                          repeatCount="indefinite"/>
		</rect>
		<path fill="#FAA61A" d="M47.532,67.964c0,0,16.683-46.432,18.776-46.432c2.094,0,18.777,46.432,18.777,46.432H47.532z"/>
		<animateTransform id="leverbottomtranslate" attributeType="XML" attributeName="transform" type="translate" from="0 0" to="0 190" begin="topleveranim.begin+1s" dur="1s"  fill="freeze"/>

	</g>

	<!-- bottom lever -->
	<g>
		<rect x="18.304" y="455.19" fill="#0095DA" width="700" height="8.967">
			<animateTransform id="bottomleveranim" attributeName="transform"
                          attributeType="XML"
                          type="rotate"
                          from="0 60 70"
                          to="-2 20 70"
                          dur="2s"
                          repeatCount="indefinite"/>
		</rect>
		<path fill="#FAA61A" d="M47.532,509.425c0,0,16.683-46.432,18.776-46.432c2.094,0,18.777,46.432,18.777,46.432H47.532z"/>
		<animateTransform id="leverbottomtranslate" attributeType="XML" attributeName="transform" type="translate" from="0 0" to="0 -190" begin="bottomleveranim.begin+1s" dur="1s" fill="freeze"/>
	</g>

<!-- lower part of the nutcracker -->
<g opacity="0">
	<path fill="#CAD4E5" stroke="#1D1D1B" stroke-width="0.8167" stroke-linejoin="round" stroke-miterlimit="10" d="M636.721,312.996
		c-11.706,0-132.029,4.629-137.201,4.629c-5.173,0-98.002,1.361-98.002,1.361s-49.818,1.088-111.341,1.36
		c-61.522,0.271-154.08-11.706-185.113-17.423c-23.97-4.416-56.705-10.778-70.367-13.447c5.278,3.154,12.402,6.14,22.046,8.411
		c0,0,30.83,9.527,57.78,13.611c26.951,4.083,99.227,10.82,119.439,11.638c20.213,0.816,84.322,0.204,101.473,1.021
		c17.15,0.816,55.942-0.816,72.479-0.408c16.538,0.408,61.863-1.43,80.852-0.204c18.988,1.225,81.668-2.45,95.143-2.042
		c13.476,0.408,82.076-5.309,88.609-6.125c6.534-0.816,38.793-8.167,41.855-8.983c0.349-0.093,0.664-0.201,0.957-0.317l-9.191-0.159
		C706.139,305.918,648.426,312.996,636.721,312.996z"/>
	<path fill="#CAD4E5" stroke="#1D1D1B" stroke-width="0.8167" stroke-linejoin="round" stroke-miterlimit="10" d="M314.584,286.923
		c16.244,6.247,121.205,14.161,123.08,14.161c1.874,0,103.086,2.082,128.077,2.916c24.991,0.833,130.993-7.289,138.282-8.955
		c4.697-1.074,10.861-4.137,15.155-6.68c-0.128-1.479-0.409-2.439-0.927-2.388c-2.041,0.204-32.259,3.471-59.209,5.513
		c-26.95,2.041-115.561,5.921-155.781,4.083c-40.221-1.837-83.914-1.225-123.318-4.491c-39.405-3.268-54.105-2.858-59.005-6.942
		c-4.9-4.083-21.438-22.05-23.684-21.846c-0.331,0.03-0.924,0.061-1.687,0.089C296.736,267.338,301.215,281.781,314.584,286.923z"/>
	<path fill="#CAD4E5" stroke="#1D1D1B" stroke-width="0.8167" stroke-linejoin="round" stroke-miterlimit="10" d="M307.194,282.545
		c-7.735-6.494-10.707-16.264-11.625-20.162c-4.411,0.171-14.647,0.319-14.647,0.319s-14.7,10.208-20.417,13.067
		c-5.717,2.857-8.167,5.512-8.167,5.512l-0.001,0.001c2.556,0.961,7.291,1.998,16.017,2.31
		C283.248,284.124,295.124,284.797,307.194,282.545z"/>
	<path fill="#A7B2C9" stroke="#1D1D1B" stroke-width="0.8167" stroke-linejoin="round" stroke-miterlimit="10" d="M719.179,288.365
		c-4.294,2.543-10.458,5.605-15.155,6.68c-7.289,1.666-113.291,9.788-138.282,8.955c-24.991-0.834-126.203-2.916-128.077-2.916
		c-1.875,0-106.836-7.914-123.08-14.161c-2.851-1.097-5.293-2.618-7.39-4.378c-12.07,2.252-23.946,1.579-38.841,1.047
		c-8.726-0.312-13.461-1.349-16.017-2.31l-2.993,1.226l-1.361-0.273c0,0-1.769,2.723-4.083,1.77c0,0-0.544,1.226-3.811,0.817
		c0,0-1.225,2.041-5.036,0.681c0,0-4.22,3.402-7.623,1.77c0,0-3.947,2.859-8.983,0.545c0,0-4.22,2.585-8.167,0.271
		c0,0-3.947,2.178-6.669-0.408c0,0-4.627,1.634-7.758-1.497c0,0-4.219,2.723-7.895-0.817c0,0-4.355,1.634-7.35-1.633
		c0,0-4.492,0.682-7.759-2.313c0,0-3.811,0.952-6.397-2.314c0,0-6.534,0-7.486-3.267c0,0-3.403,0.816-6.534-3.131
		c0,0-2.177,3.812-6.669,1.226l-1.905-0.137c0,0-1.497,3.131-4.355,3.131c0,0-3.13,3.538-6.942,2.586c0,0-4.083,4.355-6.942,2.45
		c0,0-7.895,3.812-9.937,0c0,0-4.491,2.451-8.438-2.314c0,0-6.125,1.634-7.759-2.449c0,0-5.581,0.815-6.806-3.131
		c0,0-5.716-0.817-5.853-4.355c0,0-2.62,0.543-4.254-2.314c0,0-2.552-4.084-3.471-6.33l-10.515,0.511l-1.25,0.133
		c0,0-2.107,11.286-7.525,15.651c0,0-7.675,7.148-17.155,6.063c0,0-11.963,0.163-17.986-11.781l-1.321-2.342
		c0,0-4.58,0.818-4.036,1.635c0.396,0.594,1.371,10.164,15.385,18.539c13.662,2.669,46.396,9.031,70.367,13.447
		c31.034,5.717,123.591,17.694,185.113,17.423c61.523-0.272,111.341-1.36,111.341-1.36s92.829-1.361,98.002-1.361
		c5.172,0,125.495-4.629,137.201-4.629c11.705,0,69.418-7.078,69.418-7.078l9.191,0.159c2.279-0.911,2.945-2.477,3.127-3.562
		C718.609,301.601,719.557,292.723,719.179,288.365z"/>
</g>

<!-- upper part of the nutcracker -->
<g opacity="0">
	<path fill="#A7B2C9" stroke="#1D1D1B" stroke-width="0.8167" stroke-linejoin="round" stroke-miterlimit="10" d="M315.426,241.877
		c10.821-6.941,24.909-7.35,38.384-8.575s84.73-7.146,109.026-6.941c24.297,0.204,120.869-2.858,146.186-1.226
		c25.316,1.634,109.639,5.513,109.639,5.513c0.056-0.027,0.104-0.075,0.149-0.137l-0.208-0.647
		c-13.536-7.497-61.018-9.996-88.508-10.621c-27.49-0.624-123.912,0-146.82,0s-118.915,6.872-143.489,9.58
		c-24.574,2.707-31.655,7.913-35.612,11.662c-3.315,3.141-6.336,15.046-7.229,18.826c1.081,0.047,1.92,0.089,2.354,0.125
		C301.747,259.64,304.605,248.818,315.426,241.877z"/>
	<path fill="#CAD4E5" stroke="#1D1D1B" stroke-width="0.8167" stroke-linejoin="round" stroke-miterlimit="10" d="M272.519,241.109
		c-9.398,0-15.978,1.114-20.083,2.161c1.716,0.891,6.365,3.241,11.54,5.344c6.533,2.654,17.559,10.209,17.559,10.209
		s10.374,0.276,15.409,0.487c0.854-3.613,3.651-14.642,6.792-18.354C297.127,240.203,286.526,241.109,272.519,241.109z"/>
	<g>
		<path fill="#A7B2C9" stroke="#1D1D1B" stroke-width="0.8167" stroke-linejoin="round" stroke-miterlimit="10" d="M691.023,212.515
			c-10.758-0.717-15.062-1.166-26.806-2.421c-11.744-1.254-32.365-1.972-47.695-2.689c-15.331-0.718-64.997-2.062-77.101-2.241
			s-73.784-0.985-84.633-0.808c-10.848,0.18-54.688,0.18-79.342-0.896c-24.654-1.075-61.413-2.42-86.874-1.703
			s-51.729,3.049-69.57,4.841c-17.841,1.793-52.268,3.407-57.378,4.035s-30.392,3.944-46.888,5.38
			c-16.496,1.435-39.178,7.173-57.646,10.4s-26.896,10.758-31.289,14.971c-2.683,2.574-4.492,6.211-5.498,8.658
			c0.001,0.133,0.004,0.252,0.009,0.338c0.103,1.947,1.176,8.581,1.176,8.581c0,13.604,10.238,24.636,22.867,24.636
			c12.629,0,22.867-11.031,22.867-24.636l10.929-5.564c0.822-1.467,0.913-1.378,0.913-1.378c0.137-3.947,4.9-3.267,4.9-3.267
			c0.408-2.723,4.083-2.858,4.083-2.858c0.681-1.906,5.308-2.723,5.308-2.723c0.681-1.904,6.669-2.857,6.669-2.857
			c0.817-2.723,8.167-1.634,8.167-1.634c1.769-2.723,9.12-0.681,9.12-0.681c2.178-2.313,6.669,1.634,6.669,1.634
			c2.723-1.497,6.397,1.77,6.397,1.77c4.492-0.544,7.35,2.042,7.35,2.042c3.131-0.136,5.989,3.947,7.35,3.947
			s6.942-1.906,6.942-1.906c0.681-2.858,8.303-3.402,8.303-3.402c0.681-2.313,6.806-2.314,6.806-2.314
			c0.953-2.45,8.303-3.267,8.303-3.267c0-2.45,7.078-0.952,7.078-0.952c0.136-3.402,7.895-1.361,7.895-1.361
			c1.089-3.539,7.486-0.137,7.486-0.137c1.769-4.765,8.031-0.681,8.031-0.681c1.906-4.628,7.622,0.409,7.622,0.409
			c2.722-4.492,8.371,0.543,8.371,0.543c2.654-3.063,7.35,0.408,7.35,0.408c5.921-2.041,7.759,2.45,7.759,2.45
			c4.696-3.267,7.146,2.042,7.146,2.042c6.533-1.838,7.554,3.675,7.554,3.675s0.259,0.14,0.71,0.373
			c4.105-1.047,10.686-2.161,20.083-2.161c14.007,0,24.608-0.906,31.215-0.152c0.146-0.171,0.292-0.334,0.438-0.473
			c3.957-3.749,11.038-8.955,35.612-11.662c24.574-2.708,120.581-9.58,143.489-9.58s119.33-0.624,146.82,0
			c27.49,0.625,74.972,3.124,88.508,10.621l0.208,0.647c1.294-1.763-1.374-17.014-1.374-17.014
			c-0.038-0.056-0.102-0.113-0.182-0.172c-1.467,0.367-3.824,0.714-7.403,0.714C703.037,214.039,701.781,213.231,691.023,212.515z"
			/>
		<path fill="#CAD4E5" stroke="#1D1D1B" stroke-width="0.8167" stroke-linejoin="round" stroke-miterlimit="10" d="M491.216,198.389
			c-16.538-1.021-105.76,0-140.061-0.204c-34.3-0.204-90.447,0.612-118.418,0.612s-78.789,5.26-78.789,5.26
			c-31.565,0.922-86.801,14.758-110.167,22.443c-22.331,7.346-23.506,20.674-23.477,23.541c1.005-2.447,2.814-6.084,5.498-8.658
			c4.393-4.213,12.821-11.743,31.289-14.971s41.15-8.966,57.646-10.4c16.497-1.436,41.778-4.752,46.888-5.38
			s39.537-2.242,57.378-4.035c17.841-1.792,44.109-4.124,69.57-4.841s62.219,0.628,86.874,1.703
			c24.654,1.076,68.494,1.076,79.342,0.896c10.849-0.178,72.529,0.628,84.633,0.808s61.77,1.523,77.101,2.241
			c15.33,0.718,35.951,1.436,47.695,2.689c11.744,1.255,16.048,1.704,26.806,2.421s12.014,1.524,18.827,1.524
			c3.579,0,5.937-0.347,7.403-0.714c-4.58-3.386-76.336-11.688-97.207-12.69C598.813,199.613,507.754,199.41,491.216,198.389z"/>
	</g>
</g>

<!-- fulcrum of the nutcracker -->
<g opacity="0">
	<circle fill="#CAD4E5" stroke="#1D1D1B" stroke-width="1.6334" stroke-linejoin="round" stroke-miterlimit="10" cx="43.676" cy="260.763" r="11.025"/>

	<line fill="#CAD4E5" stroke="#1D1D1B" stroke-width="1.6334" stroke-linejoin="round" stroke-miterlimit="10" x1="43.676" y1="249.737" x2="43.676" y2="271.686"/>
</g>
</svg>
