<?xml version="1.0" encoding="utf-8"?>
<!-- Generator: Adobe Illustrator 15.0.0, SVG Export Plug-In . SVG Version: 6.00 Build 0)  -->
<!DOCTYPE svg PUBLIC "-//W3C//DTD SVG 1.1//EN" "http://www.w3.org/Graphics/SVG/1.1/DTD/svg11.dtd">
<svg version="1.1" id="Layer_1" xmlns="http://www.w3.org/2000/svg" xmlns:xlink="http://www.w3.org/1999/xlink" x="0px" y="0px"
	 width="558.764px" height="553.744px" viewBox="0 0 558.764 553.744" enable-background="new 0 0 558.764 553.744"
	 xml:space="preserve">
<g class="check" id="incorrect_8_">
	<g>
		<g>
			
				<rect x="26.88" y="21.544" fill="#E1F4AB" stroke="#58600C" stroke-width="0.35" stroke-miterlimit="10" width="25.445" height="25.449"/>
			
				<rect x="52.325" y="21.544" fill="#E1F4AB" stroke="#58600C" stroke-width="0.35" stroke-miterlimit="10" width="25.451" height="25.449"/>
			
				<rect x="77.776" y="21.544" fill="#E1F4AB" stroke="#58600C" stroke-width="0.35" stroke-miterlimit="10" width="25.451" height="25.449"/>
			
				<rect x="103.227" y="21.544" fill="#E1F4AB" stroke="#58600C" stroke-width="0.35" stroke-miterlimit="10" width="25.449" height="25.449"/>
			
				<rect x="128.677" y="21.544" fill="#E1F4AB" stroke="#58600C" stroke-width="0.35" stroke-miterlimit="10" width="25.449" height="25.449"/>
			
				<rect x="154.126" y="21.544" fill="#E1F4AB" stroke="#58600C" stroke-width="0.35" stroke-miterlimit="10" width="25.451" height="25.449"/>
			
				<rect x="179.577" y="21.544" fill="#E1F4AB" stroke="#58600C" stroke-width="0.35" stroke-miterlimit="10" width="25.451" height="25.449"/>
			
				<rect x="205.028" y="21.544" fill="#E1F4AB" stroke="#58600C" stroke-width="0.35" stroke-miterlimit="10" width="25.447" height="25.449"/>
			
				<rect x="230.475" y="21.544" fill="#E1F4AB" stroke="#58600C" stroke-width="0.35" stroke-miterlimit="10" width="25.453" height="25.449"/>
			
				<rect x="255.928" y="21.544" fill="#E1F4AB" stroke="#58600C" stroke-width="0.35" stroke-miterlimit="10" width="25.445" height="25.449"/>
			
				<rect x="281.376" y="21.544" fill="#E1F4AB" stroke="#58600C" stroke-width="0.35" stroke-miterlimit="10" width="25.451" height="25.449"/>
			
				<rect x="306.827" y="21.544" fill="#E1F4AB" stroke="#58600C" stroke-width="0.35" stroke-miterlimit="10" width="25.449" height="25.449"/>
			
				<rect x="332.276" y="21.544" fill="#E1F4AB" stroke="#58600C" stroke-width="0.35" stroke-miterlimit="10" width="25.453" height="25.449"/>
			
				<rect x="357.729" y="21.544" fill="#E1F4AB" stroke="#58600C" stroke-width="0.35" stroke-miterlimit="10" width="25.445" height="25.449"/>
			
				<rect x="383.175" y="21.544" fill="#E1F4AB" stroke="#58600C" stroke-width="0.35" stroke-miterlimit="10" width="25.449" height="25.449"/>
			
				<rect x="26.88" y="46.993" fill="#E1F4AB" stroke="#58600C" stroke-width="0.35" stroke-miterlimit="10" width="25.445" height="25.45"/>
			
				<rect x="52.325" y="46.993" fill="#E1F4AB" stroke="#58600C" stroke-width="0.35" stroke-miterlimit="10" width="25.451" height="25.45"/>
			
				<rect x="77.776" y="46.993" fill="#E1F4AB" stroke="#58600C" stroke-width="0.35" stroke-miterlimit="10" width="25.451" height="25.45"/>
			
				<rect x="103.227" y="46.993" fill="#E1F4AB" stroke="#58600C" stroke-width="0.35" stroke-miterlimit="10" width="25.449" height="25.45"/>
			
				<rect x="128.677" y="46.993" fill="#E1F4AB" stroke="#58600C" stroke-width="0.35" stroke-miterlimit="10" width="25.449" height="25.45"/>
			
				<rect x="154.126" y="46.993" fill="#E1F4AB" stroke="#58600C" stroke-width="0.35" stroke-miterlimit="10" width="25.451" height="25.45"/>
			
				<rect x="179.577" y="46.993" fill="#E1F4AB" stroke="#58600C" stroke-width="0.35" stroke-miterlimit="10" width="25.451" height="25.45"/>
			
				<rect x="205.028" y="46.993" fill="#E1F4AB" stroke="#58600C" stroke-width="0.35" stroke-miterlimit="10" width="25.447" height="25.45"/>
			
				<rect x="230.475" y="46.993" fill="#E1F4AB" stroke="#58600C" stroke-width="0.35" stroke-miterlimit="10" width="25.453" height="25.45"/>
			
				<rect x="255.928" y="46.993" fill="#E1F4AB" stroke="#58600C" stroke-width="0.35" stroke-miterlimit="10" width="25.445" height="25.45"/>
			
				<rect x="281.376" y="46.993" fill="#E1F4AB" stroke="#58600C" stroke-width="0.35" stroke-miterlimit="10" width="25.451" height="25.45"/>
			
				<rect x="306.827" y="46.993" fill="#E1F4AB" stroke="#58600C" stroke-width="0.35" stroke-miterlimit="10" width="25.449" height="25.45"/>
			
				<rect x="332.276" y="46.993" fill="#E1F4AB" stroke="#58600C" stroke-width="0.35" stroke-miterlimit="10" width="25.453" height="25.45"/>
			
				<rect x="357.729" y="46.993" fill="#E1F4AB" stroke="#58600C" stroke-width="0.35" stroke-miterlimit="10" width="25.445" height="25.45"/>
			
				<rect x="383.175" y="46.993" fill="#E1F4AB" stroke="#58600C" stroke-width="0.35" stroke-miterlimit="10" width="25.449" height="25.45"/>
			
				<rect x="26.88" y="72.444" fill="#E1F4AB" stroke="#58600C" stroke-width="0.35" stroke-miterlimit="10" width="25.445" height="25.446"/>
			
				<rect x="52.325" y="72.444" fill="#E1F4AB" stroke="#58600C" stroke-width="0.35" stroke-miterlimit="10" width="25.451" height="25.446"/>
			
				<rect x="77.776" y="72.444" fill="#E1F4AB" stroke="#58600C" stroke-width="0.35" stroke-miterlimit="10" width="25.451" height="25.446"/>
			
				<rect x="103.227" y="72.444" fill="#E1F4AB" stroke="#58600C" stroke-width="0.35" stroke-miterlimit="10" width="25.449" height="25.446"/>
			
				<rect x="128.677" y="72.444" fill="#E1F4AB" stroke="#58600C" stroke-width="0.35" stroke-miterlimit="10" width="25.449" height="25.446"/>
			
				<rect x="154.126" y="72.444" fill="#E1F4AB" stroke="#58600C" stroke-width="0.35" stroke-miterlimit="10" width="25.451" height="25.446"/>
			
				<rect x="179.577" y="72.444" fill="#E1F4AB" stroke="#58600C" stroke-width="0.35" stroke-miterlimit="10" width="25.451" height="25.446"/>
			
				<rect x="205.028" y="72.444" fill="#E1F4AB" stroke="#58600C" stroke-width="0.35" stroke-miterlimit="10" width="25.447" height="25.446"/>
			
				<rect x="230.475" y="72.444" fill="#E1F4AB" stroke="#58600C" stroke-width="0.35" stroke-miterlimit="10" width="25.453" height="25.446"/>
			
				<rect x="255.928" y="72.444" fill="#E1F4AB" stroke="#58600C" stroke-width="0.35" stroke-miterlimit="10" width="25.445" height="25.446"/>
			
				<rect x="281.376" y="72.444" fill="#E1F4AB" stroke="#58600C" stroke-width="0.35" stroke-miterlimit="10" width="25.451" height="25.446"/>
			
				<rect x="306.827" y="72.444" fill="#E1F4AB" stroke="#58600C" stroke-width="0.35" stroke-miterlimit="10" width="25.449" height="25.446"/>
			
				<rect x="332.276" y="72.444" fill="#E1F4AB" stroke="#58600C" stroke-width="0.35" stroke-miterlimit="10" width="25.453" height="25.446"/>
			
				<rect x="357.729" y="72.444" fill="#E1F4AB" stroke="#58600C" stroke-width="0.35" stroke-miterlimit="10" width="25.445" height="25.446"/>
			
				<rect x="383.175" y="72.444" fill="#E1F4AB" stroke="#58600C" stroke-width="0.35" stroke-miterlimit="10" width="25.449" height="25.446"/>
			
				<rect x="26.88" y="97.891" fill="#E1F4AB" stroke="#58600C" stroke-width="0.35" stroke-miterlimit="10" width="25.445" height="25.45"/>
			
				<rect x="52.325" y="97.891" fill="#E1F4AB" stroke="#58600C" stroke-width="0.35" stroke-miterlimit="10" width="25.451" height="25.45"/>
			
				<rect x="77.776" y="97.891" fill="#E1F4AB" stroke="#58600C" stroke-width="0.35" stroke-miterlimit="10" width="25.451" height="25.45"/>
			
				<rect x="103.227" y="97.891" fill="#E1F4AB" stroke="#58600C" stroke-width="0.35" stroke-miterlimit="10" width="25.449" height="25.45"/>
			
				<rect x="128.677" y="97.891" fill="#E1F4AB" stroke="#58600C" stroke-width="0.35" stroke-miterlimit="10" width="25.449" height="25.45"/>
			
				<rect x="154.126" y="97.891" fill="#E1F4AB" stroke="#58600C" stroke-width="0.35" stroke-miterlimit="10" width="25.451" height="25.45"/>
			
				<rect x="179.577" y="97.891" fill="#E1F4AB" stroke="#58600C" stroke-width="0.35" stroke-miterlimit="10" width="25.451" height="25.45"/>
			
				<rect x="205.028" y="97.891" fill="#E1F4AB" stroke="#58600C" stroke-width="0.35" stroke-miterlimit="10" width="25.447" height="25.45"/>
			
				<rect x="230.475" y="97.891" fill="#E1F4AB" stroke="#58600C" stroke-width="0.35" stroke-miterlimit="10" width="25.453" height="25.45"/>
			
				<rect x="255.928" y="97.891" fill="#E1F4AB" stroke="#58600C" stroke-width="0.35" stroke-miterlimit="10" width="25.445" height="25.45"/>
			
				<rect x="281.376" y="97.891" fill="#E1F4AB" stroke="#58600C" stroke-width="0.35" stroke-miterlimit="10" width="25.451" height="25.45"/>
			
				<rect x="306.827" y="97.891" fill="#E1F4AB" stroke="#58600C" stroke-width="0.35" stroke-miterlimit="10" width="25.449" height="25.45"/>
			
				<rect x="332.276" y="97.891" fill="#E1F4AB" stroke="#58600C" stroke-width="0.35" stroke-miterlimit="10" width="25.453" height="25.45"/>
			
				<rect x="357.729" y="97.891" fill="#E1F4AB" stroke="#58600C" stroke-width="0.35" stroke-miterlimit="10" width="25.445" height="25.45"/>
			
				<rect x="383.175" y="97.891" fill="#E1F4AB" stroke="#58600C" stroke-width="0.35" stroke-miterlimit="10" width="25.449" height="25.45"/>
			
				<rect x="26.88" y="123.341" fill="#E1F4AB" stroke="#58600C" stroke-width="0.35" stroke-miterlimit="10" width="25.445" height="25.448"/>
			
				<rect x="52.325" y="123.341" fill="#E1F4AB" stroke="#58600C" stroke-width="0.35" stroke-miterlimit="10" width="25.451" height="25.448"/>
			
				<rect x="77.776" y="123.341" fill="#E1F4AB" stroke="#58600C" stroke-width="0.35" stroke-miterlimit="10" width="25.451" height="25.448"/>
			
				<rect x="103.227" y="123.341" fill="#E1F4AB" stroke="#58600C" stroke-width="0.35" stroke-miterlimit="10" width="25.449" height="25.448"/>
			
				<rect x="128.677" y="123.341" fill="#E1F4AB" stroke="#58600C" stroke-width="0.35" stroke-miterlimit="10" width="25.449" height="25.448"/>
			
				<rect x="154.126" y="123.341" fill="#E1F4AB" stroke="#58600C" stroke-width="0.35" stroke-miterlimit="10" width="25.451" height="25.448"/>
			
				<rect x="179.577" y="123.341" fill="#E1F4AB" stroke="#58600C" stroke-width="0.35" stroke-miterlimit="10" width="25.451" height="25.448"/>
			
				<rect x="205.028" y="123.341" fill="#E1F4AB" stroke="#58600C" stroke-width="0.35" stroke-miterlimit="10" width="25.447" height="25.448"/>
			
				<rect x="230.475" y="123.341" fill="#E1F4AB" stroke="#58600C" stroke-width="0.35" stroke-miterlimit="10" width="25.453" height="25.448"/>
			
				<rect x="255.928" y="123.341" fill="#E1F4AB" stroke="#58600C" stroke-width="0.35" stroke-miterlimit="10" width="25.445" height="25.448"/>
			
				<rect x="281.376" y="123.341" fill="#E1F4AB" stroke="#58600C" stroke-width="0.35" stroke-miterlimit="10" width="25.451" height="25.448"/>
			
				<rect x="306.827" y="123.341" fill="#E1F4AB" stroke="#58600C" stroke-width="0.35" stroke-miterlimit="10" width="25.449" height="25.448"/>
			
				<rect x="332.276" y="123.341" fill="#E1F4AB" stroke="#58600C" stroke-width="0.35" stroke-miterlimit="10" width="25.453" height="25.448"/>
			
				<rect x="357.729" y="123.341" fill="#E1F4AB" stroke="#58600C" stroke-width="0.35" stroke-miterlimit="10" width="25.445" height="25.448"/>
			
				<rect x="383.175" y="123.341" fill="#E1F4AB" stroke="#58600C" stroke-width="0.35" stroke-miterlimit="10" width="25.449" height="25.448"/>
			<g>
				
					<rect x="26.88" y="148.79" fill="#E1F4AB" stroke="#58600C" stroke-width="0.35" stroke-miterlimit="10" width="25.445" height="25.448"/>
			</g>
			<g>
				
					<rect x="52.325" y="148.79" fill="#E1F4AB" stroke="#58600C" stroke-width="0.35" stroke-miterlimit="10" width="25.451" height="25.448"/>
				
					<rect x="77.776" y="148.79" fill="#E1F4AB" stroke="#58600C" stroke-width="0.35" stroke-miterlimit="10" width="25.451" height="25.448"/>
			</g>
			<g>
				
					<rect x="103.227" y="148.79" fill="#E1F4AB" stroke="#58600C" stroke-width="0.35" stroke-miterlimit="10" width="25.449" height="25.448"/>
				
					<rect x="128.677" y="148.79" fill="#E1F4AB" stroke="#58600C" stroke-width="0.35" stroke-miterlimit="10" width="25.449" height="25.448"/>
			</g>
			<g>
				
					<rect x="154.126" y="148.79" fill="#E1F4AB" stroke="#58600C" stroke-width="0.35" stroke-miterlimit="10" width="25.451" height="25.448"/>
				
					<rect x="179.577" y="148.79" fill="#E1F4AB" stroke="#58600C" stroke-width="0.35" stroke-miterlimit="10" width="25.451" height="25.448"/>
			</g>
			<g>
				
					<rect x="205.028" y="148.79" fill="#E1F4AB" stroke="#58600C" stroke-width="0.35" stroke-miterlimit="10" width="25.447" height="25.448"/>
				
					<rect x="230.475" y="148.79" fill="#E1F4AB" stroke="#58600C" stroke-width="0.35" stroke-miterlimit="10" width="25.453" height="25.448"/>
			</g>
			<g>
				
					<rect x="255.928" y="148.79" fill="#E1F4AB" stroke="#58600C" stroke-width="0.35" stroke-miterlimit="10" width="25.445" height="25.448"/>
				
					<rect x="281.376" y="148.79" fill="#E1F4AB" stroke="#58600C" stroke-width="0.35" stroke-miterlimit="10" width="25.451" height="25.448"/>
			</g>
			<g>
				
					<rect x="306.827" y="148.79" fill="#E1F4AB" stroke="#58600C" stroke-width="0.35" stroke-miterlimit="10" width="25.449" height="25.448"/>
				
					<rect x="332.276" y="148.79" fill="#E1F4AB" stroke="#58600C" stroke-width="0.35" stroke-miterlimit="10" width="25.453" height="25.448"/>
			</g>
			<g>
				
					<rect x="357.729" y="148.79" fill="#E1F4AB" stroke="#58600C" stroke-width="0.35" stroke-miterlimit="10" width="25.445" height="25.448"/>
				
					<rect x="383.175" y="148.79" fill="#E1F4AB" stroke="#58600C" stroke-width="0.35" stroke-miterlimit="10" width="25.449" height="25.448"/>
			</g>
			<g>
				
					<rect x="26.88" y="174.239" fill="#E1F4AB" stroke="#58600C" stroke-width="0.35" stroke-miterlimit="10" width="25.445" height="25.451"/>
			</g>
			<g>
				
					<rect x="52.325" y="174.239" fill="#E1F4AB" stroke="#58600C" stroke-width="0.35" stroke-miterlimit="10" width="25.451" height="25.451"/>
				
					<rect x="77.776" y="174.239" fill="#E1F4AB" stroke="#58600C" stroke-width="0.35" stroke-miterlimit="10" width="25.451" height="25.451"/>
			</g>
			<g>
				
					<rect x="103.227" y="174.239" fill="#E1F4AB" stroke="#58600C" stroke-width="0.35" stroke-miterlimit="10" width="25.449" height="25.451"/>
				
					<rect x="128.677" y="174.239" fill="#E1F4AB" stroke="#58600C" stroke-width="0.35" stroke-miterlimit="10" width="25.449" height="25.451"/>
			</g>
			<g>
				
					<rect x="154.126" y="174.239" fill="#E1F4AB" stroke="#58600C" stroke-width="0.35" stroke-miterlimit="10" width="25.451" height="25.451"/>
				
					<rect x="179.577" y="174.239" fill="#E1F4AB" stroke="#58600C" stroke-width="0.35" stroke-miterlimit="10" width="25.451" height="25.451"/>
			</g>
			<g>
				
					<rect x="205.028" y="174.239" fill="#E1F4AB" stroke="#58600C" stroke-width="0.35" stroke-miterlimit="10" width="25.447" height="25.451"/>
				
					<rect x="230.475" y="174.239" fill="#E1F4AB" stroke="#58600C" stroke-width="0.35" stroke-miterlimit="10" width="25.453" height="25.451"/>
			</g>
			<g>
				
					<rect x="255.928" y="174.239" fill="#E1F4AB" stroke="#58600C" stroke-width="0.35" stroke-miterlimit="10" width="25.445" height="25.451"/>
				
					<rect x="281.376" y="174.239" fill="#E1F4AB" stroke="#58600C" stroke-width="0.35" stroke-miterlimit="10" width="25.451" height="25.451"/>
			</g>
			<g>
				
					<rect x="306.827" y="174.239" fill="#E1F4AB" stroke="#58600C" stroke-width="0.35" stroke-miterlimit="10" width="25.449" height="25.451"/>
				
					<rect x="332.276" y="174.239" fill="#E1F4AB" stroke="#58600C" stroke-width="0.35" stroke-miterlimit="10" width="25.453" height="25.451"/>
			</g>
			<g>
				
					<rect x="357.729" y="174.239" fill="#E1F4AB" stroke="#58600C" stroke-width="0.35" stroke-miterlimit="10" width="25.445" height="25.451"/>
				
					<rect x="383.175" y="174.239" fill="#E1F4AB" stroke="#58600C" stroke-width="0.35" stroke-miterlimit="10" width="25.449" height="25.451"/>
			</g>
			<g>
				
					<rect x="26.88" y="199.688" fill="#E1F4AB" stroke="#58600C" stroke-width="0.35" stroke-miterlimit="10" width="25.445" height="25.448"/>
			</g>
			<g>
				
					<rect x="52.325" y="199.688" fill="#E1F4AB" stroke="#58600C" stroke-width="0.35" stroke-miterlimit="10" width="25.451" height="25.448"/>
				
					<rect x="77.776" y="199.688" fill="#E1F4AB" stroke="#58600C" stroke-width="0.35" stroke-miterlimit="10" width="25.451" height="25.448"/>
			</g>
			<g>
				
					<rect x="103.227" y="199.688" fill="#E1F4AB" stroke="#58600C" stroke-width="0.35" stroke-miterlimit="10" width="25.449" height="25.448"/>
				
					<rect x="128.677" y="199.688" fill="#E1F4AB" stroke="#58600C" stroke-width="0.35" stroke-miterlimit="10" width="25.449" height="25.448"/>
			</g>
			<g>
				
					<rect x="154.126" y="199.688" fill="#E1F4AB" stroke="#58600C" stroke-width="0.35" stroke-miterlimit="10" width="25.451" height="25.448"/>
				
					<rect x="179.577" y="199.688" fill="#E1F4AB" stroke="#58600C" stroke-width="0.35" stroke-miterlimit="10" width="25.451" height="25.448"/>
			</g>
			<g>
				
					<rect x="205.028" y="199.688" fill="#E1F4AB" stroke="#58600C" stroke-width="0.35" stroke-miterlimit="10" width="25.447" height="25.448"/>
				
					<rect x="230.475" y="199.688" fill="#E1F4AB" stroke="#58600C" stroke-width="0.35" stroke-miterlimit="10" width="25.453" height="25.448"/>
			</g>
			<g>
				
					<rect x="255.928" y="199.688" fill="#E1F4AB" stroke="#58600C" stroke-width="0.35" stroke-miterlimit="10" width="25.445" height="25.448"/>
				
					<rect x="281.376" y="199.688" fill="#E1F4AB" stroke="#58600C" stroke-width="0.35" stroke-miterlimit="10" width="25.451" height="25.448"/>
			</g>
			<g>
				
					<rect x="306.827" y="199.688" fill="#E1F4AB" stroke="#58600C" stroke-width="0.35" stroke-miterlimit="10" width="25.449" height="25.448"/>
				
					<rect x="332.276" y="199.688" fill="#E1F4AB" stroke="#58600C" stroke-width="0.35" stroke-miterlimit="10" width="25.453" height="25.448"/>
			</g>
			<g>
				
					<rect x="357.729" y="199.688" fill="#E1F4AB" stroke="#58600C" stroke-width="0.35" stroke-miterlimit="10" width="25.445" height="25.448"/>
				
					<rect x="383.175" y="199.688" fill="#E1F4AB" stroke="#58600C" stroke-width="0.35" stroke-miterlimit="10" width="25.449" height="25.448"/>
			</g>
			<g>
				
					<rect x="26.88" y="225.137" fill="#E1F4AB" stroke="#58600C" stroke-width="0.35" stroke-miterlimit="10" width="25.445" height="25.449"/>
			</g>
			<g>
				
					<rect x="52.325" y="225.137" fill="#E1F4AB" stroke="#58600C" stroke-width="0.35" stroke-miterlimit="10" width="25.451" height="25.449"/>
				
					<rect x="77.776" y="225.137" fill="#E1F4AB" stroke="#58600C" stroke-width="0.35" stroke-miterlimit="10" width="25.451" height="25.449"/>
			</g>
			<g>
				
					<rect x="103.227" y="225.137" fill="#E1F4AB" stroke="#58600C" stroke-width="0.35" stroke-miterlimit="10" width="25.449" height="25.449"/>
				
					<rect x="128.677" y="225.137" fill="#E1F4AB" stroke="#58600C" stroke-width="0.35" stroke-miterlimit="10" width="25.449" height="25.449"/>
			</g>
			<g>
				
					<rect x="154.126" y="225.137" fill="#E1F4AB" stroke="#58600C" stroke-width="0.35" stroke-miterlimit="10" width="25.451" height="25.449"/>
				
					<rect x="179.577" y="225.137" fill="#E1F4AB" stroke="#58600C" stroke-width="0.35" stroke-miterlimit="10" width="25.451" height="25.449"/>
			</g>
			<g>
				
					<rect x="205.028" y="225.137" fill="#E1F4AB" stroke="#58600C" stroke-width="0.35" stroke-miterlimit="10" width="25.447" height="25.449"/>
				
					<rect x="230.475" y="225.137" fill="#E1F4AB" stroke="#58600C" stroke-width="0.35" stroke-miterlimit="10" width="25.453" height="25.449"/>
			</g>
			<g>
				
					<rect x="255.928" y="225.137" fill="#E1F4AB" stroke="#58600C" stroke-width="0.35" stroke-miterlimit="10" width="25.445" height="25.449"/>
				
					<rect x="281.376" y="225.137" fill="#E1F4AB" stroke="#58600C" stroke-width="0.35" stroke-miterlimit="10" width="25.451" height="25.449"/>
			</g>
			<g>
				
					<rect x="306.827" y="225.137" fill="#E1F4AB" stroke="#58600C" stroke-width="0.35" stroke-miterlimit="10" width="25.449" height="25.449"/>
				
					<rect x="332.276" y="225.137" fill="#E1F4AB" stroke="#58600C" stroke-width="0.35" stroke-miterlimit="10" width="25.453" height="25.449"/>
			</g>
			<g>
				
					<rect x="357.729" y="225.137" fill="#E1F4AB" stroke="#58600C" stroke-width="0.35" stroke-miterlimit="10" width="25.445" height="25.449"/>
				
					<rect x="383.175" y="225.137" fill="#E1F4AB" stroke="#58600C" stroke-width="0.35" stroke-miterlimit="10" width="25.449" height="25.449"/>
			</g>
			<g>
				
					<rect x="26.88" y="250.586" fill="#E1F4AB" stroke="#58600C" stroke-width="0.35" stroke-miterlimit="10" width="25.445" height="25.449"/>
			</g>
			<g>
				
					<rect x="52.325" y="250.586" fill="#E1F4AB" stroke="#58600C" stroke-width="0.35" stroke-miterlimit="10" width="25.451" height="25.449"/>
				
					<rect x="77.776" y="250.586" fill="#E1F4AB" stroke="#58600C" stroke-width="0.35" stroke-miterlimit="10" width="25.451" height="25.449"/>
			</g>
			<g>
				
					<rect x="103.227" y="250.586" fill="#E1F4AB" stroke="#58600C" stroke-width="0.35" stroke-miterlimit="10" width="25.449" height="25.449"/>
				
					<rect x="128.677" y="250.586" fill="#E1F4AB" stroke="#58600C" stroke-width="0.35" stroke-miterlimit="10" width="25.449" height="25.449"/>
			</g>
			<g>
				
					<rect x="154.126" y="250.586" fill="#E1F4AB" stroke="#58600C" stroke-width="0.35" stroke-miterlimit="10" width="25.451" height="25.449"/>
				
					<rect x="179.577" y="250.586" fill="#E1F4AB" stroke="#58600C" stroke-width="0.35" stroke-miterlimit="10" width="25.451" height="25.449"/>
			</g>
			<g>
				
					<rect x="205.028" y="250.586" fill="#E1F4AB" stroke="#58600C" stroke-width="0.35" stroke-miterlimit="10" width="25.447" height="25.449"/>
				
					<rect x="230.475" y="250.586" fill="#E1F4AB" stroke="#58600C" stroke-width="0.35" stroke-miterlimit="10" width="25.453" height="25.449"/>
			</g>
			<g>
				
					<rect x="255.928" y="250.586" fill="#E1F4AB" stroke="#58600C" stroke-width="0.35" stroke-miterlimit="10" width="25.445" height="25.449"/>
				
					<rect x="281.376" y="250.586" fill="#E1F4AB" stroke="#58600C" stroke-width="0.35" stroke-miterlimit="10" width="25.451" height="25.449"/>
			</g>
			<g>
				
					<rect x="306.827" y="250.586" fill="#E1F4AB" stroke="#58600C" stroke-width="0.35" stroke-miterlimit="10" width="25.449" height="25.449"/>
				
					<rect x="332.276" y="250.586" fill="#E1F4AB" stroke="#58600C" stroke-width="0.35" stroke-miterlimit="10" width="25.453" height="25.449"/>
			</g>
			<g>
				
					<rect x="357.729" y="250.586" fill="#E1F4AB" stroke="#58600C" stroke-width="0.35" stroke-miterlimit="10" width="25.445" height="25.449"/>
				
					<rect x="383.175" y="250.586" fill="#E1F4AB" stroke="#58600C" stroke-width="0.35" stroke-miterlimit="10" width="25.449" height="25.449"/>
			</g>
			<g>
				
					<rect x="26.88" y="276.035" fill="#E1F4AB" stroke="#58600C" stroke-width="0.35" stroke-miterlimit="10" width="25.445" height="25.448"/>
			</g>
			<g>
				
					<rect x="52.325" y="276.035" fill="#E1F4AB" stroke="#58600C" stroke-width="0.35" stroke-miterlimit="10" width="25.451" height="25.448"/>
				
					<rect x="77.776" y="276.035" fill="#E1F4AB" stroke="#58600C" stroke-width="0.35" stroke-miterlimit="10" width="25.451" height="25.448"/>
			</g>
			<g>
				
					<rect x="103.227" y="276.035" fill="#E1F4AB" stroke="#58600C" stroke-width="0.35" stroke-miterlimit="10" width="25.449" height="25.448"/>
				
					<rect x="128.677" y="276.035" fill="#E1F4AB" stroke="#58600C" stroke-width="0.35" stroke-miterlimit="10" width="25.449" height="25.448"/>
			</g>
			<g>
				
					<rect x="154.126" y="276.035" fill="#E1F4AB" stroke="#58600C" stroke-width="0.35" stroke-miterlimit="10" width="25.451" height="25.448"/>
				
					<rect x="179.577" y="276.035" fill="#E1F4AB" stroke="#58600C" stroke-width="0.35" stroke-miterlimit="10" width="25.451" height="25.448"/>
			</g>
			<g>
				
					<rect x="205.028" y="276.035" fill="#E1F4AB" stroke="#58600C" stroke-width="0.35" stroke-miterlimit="10" width="25.447" height="25.448"/>
				
					<rect x="230.475" y="276.035" fill="#E1F4AB" stroke="#58600C" stroke-width="0.35" stroke-miterlimit="10" width="25.453" height="25.448"/>
			</g>
			<g>
				
					<rect x="255.928" y="276.035" fill="#E1F4AB" stroke="#58600C" stroke-width="0.35" stroke-miterlimit="10" width="25.445" height="25.448"/>
				
					<rect x="281.376" y="276.035" fill="#E1F4AB" stroke="#58600C" stroke-width="0.35" stroke-miterlimit="10" width="25.451" height="25.448"/>
			</g>
			<g>
				
					<rect x="306.827" y="276.035" fill="#E1F4AB" stroke="#58600C" stroke-width="0.35" stroke-miterlimit="10" width="25.449" height="25.448"/>
				
					<rect x="332.276" y="276.035" fill="#E1F4AB" stroke="#58600C" stroke-width="0.35" stroke-miterlimit="10" width="25.453" height="25.448"/>
			</g>
			<g>
				
					<rect x="357.729" y="276.035" fill="#E1F4AB" stroke="#58600C" stroke-width="0.35" stroke-miterlimit="10" width="25.445" height="25.448"/>
				
					<rect x="383.175" y="276.035" fill="#E1F4AB" stroke="#58600C" stroke-width="0.35" stroke-miterlimit="10" width="25.449" height="25.448"/>
			</g>
			<g>
				
					<rect x="26.88" y="301.485" fill="#E1F4AB" stroke="#58600C" stroke-width="0.35" stroke-miterlimit="10" width="25.445" height="25.448"/>
			</g>
			<g>
				
					<rect x="52.325" y="301.485" fill="#E1F4AB" stroke="#58600C" stroke-width="0.35" stroke-miterlimit="10" width="25.451" height="25.448"/>
				
					<rect x="77.776" y="301.485" fill="#E1F4AB" stroke="#58600C" stroke-width="0.35" stroke-miterlimit="10" width="25.451" height="25.448"/>
			</g>
			<g>
				
					<rect x="103.227" y="301.485" fill="#E1F4AB" stroke="#58600C" stroke-width="0.35" stroke-miterlimit="10" width="25.449" height="25.448"/>
				
					<rect x="128.677" y="301.485" fill="#E1F4AB" stroke="#58600C" stroke-width="0.35" stroke-miterlimit="10" width="25.449" height="25.448"/>
			</g>
			<g>
				
					<rect x="154.126" y="301.485" fill="#E1F4AB" stroke="#58600C" stroke-width="0.35" stroke-miterlimit="10" width="25.451" height="25.448"/>
				
					<rect x="179.577" y="301.485" fill="#E1F4AB" stroke="#58600C" stroke-width="0.35" stroke-miterlimit="10" width="25.451" height="25.448"/>
			</g>
			<g>
				
					<rect x="205.028" y="301.485" fill="#E1F4AB" stroke="#58600C" stroke-width="0.35" stroke-miterlimit="10" width="25.447" height="25.448"/>
				
					<rect x="230.475" y="301.485" fill="#E1F4AB" stroke="#58600C" stroke-width="0.35" stroke-miterlimit="10" width="25.453" height="25.448"/>
			</g>
			<g>
				
					<rect x="255.928" y="301.485" fill="#E1F4AB" stroke="#58600C" stroke-width="0.35" stroke-miterlimit="10" width="25.445" height="25.448"/>
				
					<rect x="281.376" y="301.485" fill="#E1F4AB" stroke="#58600C" stroke-width="0.35" stroke-miterlimit="10" width="25.451" height="25.448"/>
			</g>
			<g>
				
					<rect x="306.827" y="301.485" fill="#E1F4AB" stroke="#58600C" stroke-width="0.35" stroke-miterlimit="10" width="25.449" height="25.448"/>
				
					<rect x="332.276" y="301.485" fill="#E1F4AB" stroke="#58600C" stroke-width="0.35" stroke-miterlimit="10" width="25.453" height="25.448"/>
			</g>
			<g>
				
					<rect x="357.729" y="301.485" fill="#E1F4AB" stroke="#58600C" stroke-width="0.35" stroke-miterlimit="10" width="25.445" height="25.448"/>
				
					<rect x="383.175" y="301.485" fill="#E1F4AB" stroke="#58600C" stroke-width="0.35" stroke-miterlimit="10" width="25.449" height="25.448"/>
			</g>
			<g>
				
					<rect x="26.88" y="326.934" fill="#E1F4AB" stroke="#58600C" stroke-width="0.35" stroke-miterlimit="10" width="25.445" height="25.449"/>
			</g>
			<g>
				
					<rect x="52.325" y="326.934" fill="#E1F4AB" stroke="#58600C" stroke-width="0.35" stroke-miterlimit="10" width="25.451" height="25.449"/>
				
					<rect x="77.776" y="326.934" fill="#E1F4AB" stroke="#58600C" stroke-width="0.35" stroke-miterlimit="10" width="25.451" height="25.449"/>
			</g>
			<g>
				
					<rect x="103.227" y="326.934" fill="#E1F4AB" stroke="#58600C" stroke-width="0.35" stroke-miterlimit="10" width="25.449" height="25.449"/>
				
					<rect x="128.677" y="326.934" fill="#E1F4AB" stroke="#58600C" stroke-width="0.35" stroke-miterlimit="10" width="25.449" height="25.449"/>
			</g>
			<g>
				
					<rect x="154.126" y="326.934" fill="#E1F4AB" stroke="#58600C" stroke-width="0.35" stroke-miterlimit="10" width="25.451" height="25.449"/>
				
					<rect x="179.577" y="326.934" fill="#E1F4AB" stroke="#58600C" stroke-width="0.35" stroke-miterlimit="10" width="25.451" height="25.449"/>
			</g>
			<g>
				
					<rect x="205.028" y="326.934" fill="#E1F4AB" stroke="#58600C" stroke-width="0.35" stroke-miterlimit="10" width="25.447" height="25.449"/>
				
					<rect x="230.475" y="326.934" fill="#E1F4AB" stroke="#58600C" stroke-width="0.35" stroke-miterlimit="10" width="25.453" height="25.449"/>
			</g>
			<g>
				
					<rect x="255.928" y="326.934" fill="#E1F4AB" stroke="#58600C" stroke-width="0.35" stroke-miterlimit="10" width="25.445" height="25.449"/>
				
					<rect x="281.376" y="326.934" fill="#E1F4AB" stroke="#58600C" stroke-width="0.35" stroke-miterlimit="10" width="25.451" height="25.449"/>
			</g>
			<g>
				
					<rect x="306.827" y="326.934" fill="#E1F4AB" stroke="#58600C" stroke-width="0.35" stroke-miterlimit="10" width="25.449" height="25.449"/>
				
					<rect x="332.276" y="326.934" fill="#E1F4AB" stroke="#58600C" stroke-width="0.35" stroke-miterlimit="10" width="25.453" height="25.449"/>
			</g>
			<g>
				
					<rect x="357.729" y="326.934" fill="#E1F4AB" stroke="#58600C" stroke-width="0.35" stroke-miterlimit="10" width="25.445" height="25.449"/>
				
					<rect x="383.175" y="326.934" fill="#E1F4AB" stroke="#58600C" stroke-width="0.35" stroke-miterlimit="10" width="25.449" height="25.449"/>
			</g>
			<g>
				
					<rect x="26.88" y="352.383" fill="#E1F4AB" stroke="#58600C" stroke-width="0.35" stroke-miterlimit="10" width="25.445" height="25.447"/>
			</g>
			<g>
				
					<rect x="52.325" y="352.383" fill="#E1F4AB" stroke="#58600C" stroke-width="0.35" stroke-miterlimit="10" width="25.451" height="25.447"/>
				
					<rect x="77.776" y="352.383" fill="#E1F4AB" stroke="#58600C" stroke-width="0.35" stroke-miterlimit="10" width="25.451" height="25.447"/>
			</g>
			<g>
				
					<rect x="103.227" y="352.383" fill="#E1F4AB" stroke="#58600C" stroke-width="0.35" stroke-miterlimit="10" width="25.449" height="25.447"/>
				
					<rect x="128.677" y="352.383" fill="#E1F4AB" stroke="#58600C" stroke-width="0.35" stroke-miterlimit="10" width="25.449" height="25.447"/>
			</g>
			<g>
				
					<rect x="154.126" y="352.383" fill="#E1F4AB" stroke="#58600C" stroke-width="0.35" stroke-miterlimit="10" width="25.451" height="25.447"/>
				
					<rect x="179.577" y="352.383" fill="#E1F4AB" stroke="#58600C" stroke-width="0.35" stroke-miterlimit="10" width="25.451" height="25.447"/>
			</g>
			<g>
				
					<rect x="205.028" y="352.383" fill="#E1F4AB" stroke="#58600C" stroke-width="0.35" stroke-miterlimit="10" width="25.447" height="25.447"/>
				
					<rect x="230.475" y="352.383" fill="#E1F4AB" stroke="#58600C" stroke-width="0.35" stroke-miterlimit="10" width="25.453" height="25.447"/>
			</g>
			<g>
				
					<rect x="255.928" y="352.383" fill="#E1F4AB" stroke="#58600C" stroke-width="0.35" stroke-miterlimit="10" width="25.445" height="25.447"/>
				
					<rect x="281.376" y="352.383" fill="#E1F4AB" stroke="#58600C" stroke-width="0.35" stroke-miterlimit="10" width="25.451" height="25.447"/>
			</g>
			<g>
				
					<rect x="306.827" y="352.383" fill="#E1F4AB" stroke="#58600C" stroke-width="0.35" stroke-miterlimit="10" width="25.449" height="25.447"/>
				
					<rect x="332.276" y="352.383" fill="#E1F4AB" stroke="#58600C" stroke-width="0.35" stroke-miterlimit="10" width="25.453" height="25.447"/>
			</g>
			<g>
				
					<rect x="357.729" y="352.383" fill="#E1F4AB" stroke="#58600C" stroke-width="0.35" stroke-miterlimit="10" width="25.445" height="25.447"/>
				
					<rect x="383.175" y="352.383" fill="#E1F4AB" stroke="#58600C" stroke-width="0.35" stroke-miterlimit="10" width="25.449" height="25.447"/>
			</g>
			<g>
				
					<rect x="26.88" y="377.831" fill="#E1F4AB" stroke="#58600C" stroke-width="0.35" stroke-miterlimit="10" width="25.445" height="25.449"/>
			</g>
			<g>
				
					<rect x="52.325" y="377.831" fill="#E1F4AB" stroke="#58600C" stroke-width="0.35" stroke-miterlimit="10" width="25.451" height="25.449"/>
				
					<rect x="77.776" y="377.831" fill="#E1F4AB" stroke="#58600C" stroke-width="0.35" stroke-miterlimit="10" width="25.451" height="25.449"/>
			</g>
			<g>
				
					<rect x="103.227" y="377.831" fill="#E1F4AB" stroke="#58600C" stroke-width="0.35" stroke-miterlimit="10" width="25.449" height="25.449"/>
				
					<rect x="128.677" y="377.831" fill="#E1F4AB" stroke="#58600C" stroke-width="0.35" stroke-miterlimit="10" width="25.449" height="25.449"/>
			</g>
			<g>
				
					<rect x="154.126" y="377.831" fill="#E1F4AB" stroke="#58600C" stroke-width="0.35" stroke-miterlimit="10" width="25.451" height="25.449"/>
				
					<rect x="179.577" y="377.831" fill="#E1F4AB" stroke="#58600C" stroke-width="0.35" stroke-miterlimit="10" width="25.451" height="25.449"/>
			</g>
			<g>
				
					<rect x="205.028" y="377.831" fill="#E1F4AB" stroke="#58600C" stroke-width="0.35" stroke-miterlimit="10" width="25.447" height="25.449"/>
				
					<rect x="230.475" y="377.831" fill="#E1F4AB" stroke="#58600C" stroke-width="0.35" stroke-miterlimit="10" width="25.453" height="25.449"/>
			</g>
			<g>
				
					<rect x="255.928" y="377.831" fill="#E1F4AB" stroke="#58600C" stroke-width="0.35" stroke-miterlimit="10" width="25.445" height="25.449"/>
				
					<rect x="281.376" y="377.831" fill="#E1F4AB" stroke="#58600C" stroke-width="0.35" stroke-miterlimit="10" width="25.451" height="25.449"/>
			</g>
			<g>
				
					<rect x="306.827" y="377.831" fill="#E1F4AB" stroke="#58600C" stroke-width="0.35" stroke-miterlimit="10" width="25.449" height="25.449"/>
				
					<rect x="332.276" y="377.831" fill="#E1F4AB" stroke="#58600C" stroke-width="0.35" stroke-miterlimit="10" width="25.453" height="25.449"/>
			</g>
			<g>
				
					<rect x="357.729" y="377.831" fill="#E1F4AB" stroke="#58600C" stroke-width="0.35" stroke-miterlimit="10" width="25.445" height="25.449"/>
				
					<rect x="383.175" y="377.831" fill="#E1F4AB" stroke="#58600C" stroke-width="0.35" stroke-miterlimit="10" width="25.449" height="25.449"/>
			</g>
			<g>
				
					<rect x="26.88" y="403.281" fill="#E1F4AB" stroke="#58600C" stroke-width="0.35" stroke-miterlimit="10" width="25.445" height="25.45"/>
			</g>
			<g>
				
					<rect x="52.325" y="403.281" fill="#E1F4AB" stroke="#58600C" stroke-width="0.35" stroke-miterlimit="10" width="25.451" height="25.45"/>
				
					<rect x="77.776" y="403.281" fill="#E1F4AB" stroke="#58600C" stroke-width="0.35" stroke-miterlimit="10" width="25.451" height="25.45"/>
			</g>
			<g>
				
					<rect x="103.227" y="403.281" fill="#E1F4AB" stroke="#58600C" stroke-width="0.35" stroke-miterlimit="10" width="25.449" height="25.45"/>
				
					<rect x="128.677" y="403.281" fill="#E1F4AB" stroke="#58600C" stroke-width="0.35" stroke-miterlimit="10" width="25.449" height="25.45"/>
			</g>
			<g>
				
					<rect x="154.126" y="403.281" fill="#E1F4AB" stroke="#58600C" stroke-width="0.35" stroke-miterlimit="10" width="25.451" height="25.45"/>
				
					<rect x="179.577" y="403.281" fill="#E1F4AB" stroke="#58600C" stroke-width="0.35" stroke-miterlimit="10" width="25.451" height="25.45"/>
			</g>
			<g>
				
					<rect x="205.028" y="403.281" fill="#E1F4AB" stroke="#58600C" stroke-width="0.35" stroke-miterlimit="10" width="25.447" height="25.45"/>
				
					<rect x="230.475" y="403.281" fill="#E1F4AB" stroke="#58600C" stroke-width="0.35" stroke-miterlimit="10" width="25.453" height="25.45"/>
			</g>
			<g>
				
					<rect x="255.928" y="403.281" fill="#E1F4AB" stroke="#58600C" stroke-width="0.35" stroke-miterlimit="10" width="25.445" height="25.45"/>
				
					<rect x="281.376" y="403.281" fill="#E1F4AB" stroke="#58600C" stroke-width="0.35" stroke-miterlimit="10" width="25.451" height="25.45"/>
			</g>
			<g>
				
					<rect x="306.827" y="403.281" fill="#E1F4AB" stroke="#58600C" stroke-width="0.35" stroke-miterlimit="10" width="25.449" height="25.45"/>
				
					<rect x="332.276" y="403.281" fill="#E1F4AB" stroke="#58600C" stroke-width="0.35" stroke-miterlimit="10" width="25.453" height="25.45"/>
			</g>
			<g>
				
					<rect x="357.729" y="403.281" fill="#E1F4AB" stroke="#58600C" stroke-width="0.35" stroke-miterlimit="10" width="25.445" height="25.45"/>
				
					<rect x="383.175" y="403.281" fill="#E1F4AB" stroke="#58600C" stroke-width="0.35" stroke-miterlimit="10" width="25.449" height="25.45"/>
			</g>
			<g>
				
					<rect x="26.88" y="428.733" fill="#E1F4AB" stroke="#58600C" stroke-width="0.35" stroke-miterlimit="10" width="25.445" height="25.445"/>
			</g>
			<g>
				
					<rect x="52.325" y="428.733" fill="#E1F4AB" stroke="#58600C" stroke-width="0.35" stroke-miterlimit="10" width="25.451" height="25.445"/>
				
					<rect x="77.776" y="428.733" fill="#E1F4AB" stroke="#58600C" stroke-width="0.35" stroke-miterlimit="10" width="25.451" height="25.445"/>
			</g>
			<g>
				
					<rect x="103.227" y="428.733" fill="#E1F4AB" stroke="#58600C" stroke-width="0.35" stroke-miterlimit="10" width="25.449" height="25.445"/>
				
					<rect x="128.677" y="428.733" fill="#E1F4AB" stroke="#58600C" stroke-width="0.35" stroke-miterlimit="10" width="25.449" height="25.445"/>
			</g>
			<g>
				
					<rect x="154.126" y="428.733" fill="#E1F4AB" stroke="#58600C" stroke-width="0.35" stroke-miterlimit="10" width="25.451" height="25.445"/>
				
					<rect x="179.577" y="428.733" fill="#E1F4AB" stroke="#58600C" stroke-width="0.35" stroke-miterlimit="10" width="25.451" height="25.445"/>
			</g>
			<g>
				
					<rect x="205.028" y="428.733" fill="#E1F4AB" stroke="#58600C" stroke-width="0.35" stroke-miterlimit="10" width="25.447" height="25.445"/>
				
					<rect x="230.475" y="428.733" fill="#E1F4AB" stroke="#58600C" stroke-width="0.35" stroke-miterlimit="10" width="25.453" height="25.445"/>
			</g>
			<g>
				
					<rect x="255.928" y="428.733" fill="#E1F4AB" stroke="#58600C" stroke-width="0.35" stroke-miterlimit="10" width="25.445" height="25.445"/>
				
					<rect x="281.376" y="428.733" fill="#E1F4AB" stroke="#58600C" stroke-width="0.35" stroke-miterlimit="10" width="25.451" height="25.445"/>
			</g>
			<g>
				
					<rect x="306.827" y="428.733" fill="#E1F4AB" stroke="#58600C" stroke-width="0.35" stroke-miterlimit="10" width="25.449" height="25.445"/>
				
					<rect x="332.276" y="428.733" fill="#E1F4AB" stroke="#58600C" stroke-width="0.35" stroke-miterlimit="10" width="25.453" height="25.445"/>
			</g>
			<g>
				
					<rect x="357.729" y="428.733" fill="#E1F4AB" stroke="#58600C" stroke-width="0.35" stroke-miterlimit="10" width="25.445" height="25.445"/>
				
					<rect x="383.175" y="428.733" fill="#E1F4AB" stroke="#58600C" stroke-width="0.35" stroke-miterlimit="10" width="25.449" height="25.445"/>
			</g>
			<g>
				
					<rect x="26.88" y="454.178" fill="#E1F4AB" stroke="#58600C" stroke-width="0.35" stroke-miterlimit="10" width="25.445" height="25.448"/>
			</g>
			<g>
				
					<rect x="52.325" y="454.178" fill="#E1F4AB" stroke="#58600C" stroke-width="0.35" stroke-miterlimit="10" width="25.451" height="25.448"/>
				
					<rect x="77.776" y="454.178" fill="#E1F4AB" stroke="#58600C" stroke-width="0.35" stroke-miterlimit="10" width="25.451" height="25.448"/>
			</g>
			<g>
				
					<rect x="103.227" y="454.178" fill="#E1F4AB" stroke="#58600C" stroke-width="0.35" stroke-miterlimit="10" width="25.449" height="25.448"/>
				
					<rect x="128.677" y="454.178" fill="#E1F4AB" stroke="#58600C" stroke-width="0.35" stroke-miterlimit="10" width="25.449" height="25.448"/>
			</g>
			<g>
				
					<rect x="154.126" y="454.178" fill="#E1F4AB" stroke="#58600C" stroke-width="0.35" stroke-miterlimit="10" width="25.451" height="25.448"/>
				
					<rect x="179.577" y="454.178" fill="#E1F4AB" stroke="#58600C" stroke-width="0.35" stroke-miterlimit="10" width="25.451" height="25.448"/>
			</g>
			<g>
				
					<rect x="205.028" y="454.178" fill="#E1F4AB" stroke="#58600C" stroke-width="0.35" stroke-miterlimit="10" width="25.447" height="25.448"/>
				
					<rect x="230.475" y="454.178" fill="#E1F4AB" stroke="#58600C" stroke-width="0.35" stroke-miterlimit="10" width="25.453" height="25.448"/>
			</g>
			<g>
				
					<rect x="255.928" y="454.178" fill="#E1F4AB" stroke="#58600C" stroke-width="0.35" stroke-miterlimit="10" width="25.445" height="25.448"/>
				
					<rect x="281.376" y="454.178" fill="#E1F4AB" stroke="#58600C" stroke-width="0.35" stroke-miterlimit="10" width="25.451" height="25.448"/>
			</g>
			<g>
				
					<rect x="306.827" y="454.178" fill="#E1F4AB" stroke="#58600C" stroke-width="0.35" stroke-miterlimit="10" width="25.449" height="25.448"/>
				
					<rect x="332.276" y="454.178" fill="#E1F4AB" stroke="#58600C" stroke-width="0.35" stroke-miterlimit="10" width="25.453" height="25.448"/>
			</g>
			<g>
				
					<rect x="357.729" y="454.178" fill="#E1F4AB" stroke="#58600C" stroke-width="0.35" stroke-miterlimit="10" width="25.445" height="25.448"/>
				
					<rect x="383.175" y="454.178" fill="#E1F4AB" stroke="#58600C" stroke-width="0.35" stroke-miterlimit="10" width="25.449" height="25.448"/>
			</g>
			<g>
				
					<rect x="26.88" y="479.627" fill="#E1F4AB" stroke="#58600C" stroke-width="0.35" stroke-miterlimit="10" width="25.445" height="25.449"/>
			</g>
			<g>
				
					<rect x="52.325" y="479.627" fill="#E1F4AB" stroke="#58600C" stroke-width="0.35" stroke-miterlimit="10" width="25.451" height="25.449"/>
				
					<rect x="77.776" y="479.627" fill="#E1F4AB" stroke="#58600C" stroke-width="0.35" stroke-miterlimit="10" width="25.451" height="25.449"/>
			</g>
			<g>
				
					<rect x="103.227" y="479.627" fill="#E1F4AB" stroke="#58600C" stroke-width="0.35" stroke-miterlimit="10" width="25.449" height="25.449"/>
				
					<rect x="128.677" y="479.627" fill="#E1F4AB" stroke="#58600C" stroke-width="0.35" stroke-miterlimit="10" width="25.449" height="25.449"/>
			</g>
			<g>
				
					<rect x="154.126" y="479.627" fill="#E1F4AB" stroke="#58600C" stroke-width="0.35" stroke-miterlimit="10" width="25.451" height="25.449"/>
				
					<rect x="179.577" y="479.627" fill="#E1F4AB" stroke="#58600C" stroke-width="0.35" stroke-miterlimit="10" width="25.451" height="25.449"/>
			</g>
			<g>
				
					<rect x="205.028" y="479.627" fill="#E1F4AB" stroke="#58600C" stroke-width="0.35" stroke-miterlimit="10" width="25.447" height="25.449"/>
				
					<rect x="230.475" y="479.627" fill="#E1F4AB" stroke="#58600C" stroke-width="0.35" stroke-miterlimit="10" width="25.453" height="25.449"/>
			</g>
			<g>
				
					<rect x="255.928" y="479.627" fill="#E1F4AB" stroke="#58600C" stroke-width="0.35" stroke-miterlimit="10" width="25.445" height="25.449"/>
				
					<rect x="281.376" y="479.627" fill="#E1F4AB" stroke="#58600C" stroke-width="0.35" stroke-miterlimit="10" width="25.451" height="25.449"/>
			</g>
			<g>
				
					<rect x="306.827" y="479.627" fill="#E1F4AB" stroke="#58600C" stroke-width="0.35" stroke-miterlimit="10" width="25.449" height="25.449"/>
				
					<rect x="332.276" y="479.627" fill="#E1F4AB" stroke="#58600C" stroke-width="0.35" stroke-miterlimit="10" width="25.453" height="25.449"/>
			</g>
			<g>
				
					<rect x="357.729" y="479.627" fill="#E1F4AB" stroke="#58600C" stroke-width="0.35" stroke-miterlimit="10" width="25.445" height="25.449"/>
				
					<rect x="383.175" y="479.627" fill="#E1F4AB" stroke="#58600C" stroke-width="0.35" stroke-miterlimit="10" width="25.449" height="25.449"/>
			</g>
			<g>
				
					<rect x="26.88" y="505.077" fill="#E1F4AB" stroke="#58600C" stroke-width="0.35" stroke-miterlimit="10" width="25.445" height="25.449"/>
			</g>
			<g>
				
					<rect x="52.325" y="505.077" fill="#E1F4AB" stroke="#58600C" stroke-width="0.35" stroke-miterlimit="10" width="25.451" height="25.449"/>
				
					<rect x="77.776" y="505.077" fill="#E1F4AB" stroke="#58600C" stroke-width="0.35" stroke-miterlimit="10" width="25.451" height="25.449"/>
			</g>
			<g>
				
					<rect x="103.227" y="505.077" fill="#E1F4AB" stroke="#58600C" stroke-width="0.35" stroke-miterlimit="10" width="25.449" height="25.449"/>
				
					<rect x="128.677" y="505.077" fill="#E1F4AB" stroke="#58600C" stroke-width="0.35" stroke-miterlimit="10" width="25.449" height="25.449"/>
			</g>
			<g>
				
					<rect x="154.126" y="505.077" fill="#E1F4AB" stroke="#58600C" stroke-width="0.35" stroke-miterlimit="10" width="25.451" height="25.449"/>
				
					<rect x="179.577" y="505.077" fill="#E1F4AB" stroke="#58600C" stroke-width="0.35" stroke-miterlimit="10" width="25.451" height="25.449"/>
			</g>
			<g>
				
					<rect x="205.028" y="505.077" fill="#E1F4AB" stroke="#58600C" stroke-width="0.35" stroke-miterlimit="10" width="25.447" height="25.449"/>
				
					<rect x="230.475" y="505.077" fill="#E1F4AB" stroke="#58600C" stroke-width="0.35" stroke-miterlimit="10" width="25.453" height="25.449"/>
			</g>
			<g>
				
					<rect x="255.928" y="505.077" fill="#E1F4AB" stroke="#58600C" stroke-width="0.35" stroke-miterlimit="10" width="25.445" height="25.449"/>
				
					<rect x="281.376" y="505.077" fill="#E1F4AB" stroke="#58600C" stroke-width="0.35" stroke-miterlimit="10" width="25.451" height="25.449"/>
			</g>
			<g>
				
					<rect x="306.827" y="505.077" fill="#E1F4AB" stroke="#58600C" stroke-width="0.35" stroke-miterlimit="10" width="25.449" height="25.449"/>
				
					<rect x="332.276" y="505.077" fill="#E1F4AB" stroke="#58600C" stroke-width="0.35" stroke-miterlimit="10" width="25.453" height="25.449"/>
			</g>
			<g>
				
					<rect x="357.729" y="505.077" fill="#E1F4AB" stroke="#58600C" stroke-width="0.35" stroke-miterlimit="10" width="25.445" height="25.449"/>
				
					<rect x="383.175" y="505.077" fill="#E1F4AB" stroke="#58600C" stroke-width="0.35" stroke-miterlimit="10" width="25.449" height="25.449"/>
			</g>
			
				<rect x="408.6" y="21.544" fill="#E1F4AB" stroke="#58600C" stroke-width="0.35" stroke-miterlimit="10" width="25.447" height="25.449"/>
			
				<rect x="434.048" y="21.544" fill="#E1F4AB" stroke="#58600C" stroke-width="0.35" stroke-miterlimit="10" width="25.449" height="25.449"/>
			
				<rect x="459.499" y="21.544" fill="#E1F4AB" stroke="#58600C" stroke-width="0.35" stroke-miterlimit="10" width="25.451" height="25.449"/>
			
				<rect x="484.95" y="21.544" fill="#E1F4AB" stroke="#58600C" stroke-width="0.35" stroke-miterlimit="10" width="25.449" height="25.449"/>
			
				<rect x="510.399" y="21.544" fill="#E1F4AB" stroke="#58600C" stroke-width="0.35" stroke-miterlimit="10" width="25.449" height="25.449"/>
			
				<rect x="408.6" y="46.993" fill="#E1F4AB" stroke="#58600C" stroke-width="0.35" stroke-miterlimit="10" width="25.447" height="25.45"/>
			
				<rect x="434.048" y="46.993" fill="#E1F4AB" stroke="#58600C" stroke-width="0.35" stroke-miterlimit="10" width="25.449" height="25.45"/>
			
				<rect x="459.499" y="46.993" fill="#E1F4AB" stroke="#58600C" stroke-width="0.35" stroke-miterlimit="10" width="25.451" height="25.45"/>
			
				<rect x="484.95" y="46.993" fill="#E1F4AB" stroke="#58600C" stroke-width="0.35" stroke-miterlimit="10" width="25.449" height="25.45"/>
			
				<rect x="510.399" y="46.993" fill="#E1F4AB" stroke="#58600C" stroke-width="0.35" stroke-miterlimit="10" width="25.449" height="25.45"/>
			
				<rect x="408.6" y="72.444" fill="#E1F4AB" stroke="#58600C" stroke-width="0.35" stroke-miterlimit="10" width="25.447" height="25.446"/>
			
				<rect x="434.048" y="72.444" fill="#E1F4AB" stroke="#58600C" stroke-width="0.35" stroke-miterlimit="10" width="25.449" height="25.446"/>
			
				<rect x="459.499" y="72.444" fill="#E1F4AB" stroke="#58600C" stroke-width="0.35" stroke-miterlimit="10" width="25.451" height="25.446"/>
			
				<rect x="484.95" y="72.444" fill="#E1F4AB" stroke="#58600C" stroke-width="0.35" stroke-miterlimit="10" width="25.449" height="25.446"/>
			
				<rect x="510.399" y="72.444" fill="#E1F4AB" stroke="#58600C" stroke-width="0.35" stroke-miterlimit="10" width="25.449" height="25.446"/>
			
				<rect x="408.6" y="97.891" fill="#E1F4AB" stroke="#58600C" stroke-width="0.35" stroke-miterlimit="10" width="25.447" height="25.45"/>
			
				<rect x="434.048" y="97.891" fill="#E1F4AB" stroke="#58600C" stroke-width="0.35" stroke-miterlimit="10" width="25.449" height="25.45"/>
			
				<rect x="459.499" y="97.891" fill="#E1F4AB" stroke="#58600C" stroke-width="0.35" stroke-miterlimit="10" width="25.451" height="25.45"/>
			
				<rect x="484.95" y="97.891" fill="#E1F4AB" stroke="#58600C" stroke-width="0.35" stroke-miterlimit="10" width="25.449" height="25.45"/>
			
				<rect x="510.399" y="97.891" fill="#E1F4AB" stroke="#58600C" stroke-width="0.35" stroke-miterlimit="10" width="25.449" height="25.45"/>
			
				<rect x="408.6" y="123.341" fill="#E1F4AB" stroke="#58600C" stroke-width="0.35" stroke-miterlimit="10" width="25.447" height="25.448"/>
			
				<rect x="434.048" y="123.341" fill="#E1F4AB" stroke="#58600C" stroke-width="0.35" stroke-miterlimit="10" width="25.449" height="25.448"/>
			
				<rect x="459.499" y="123.341" fill="#E1F4AB" stroke="#58600C" stroke-width="0.35" stroke-miterlimit="10" width="25.451" height="25.448"/>
			
				<rect x="484.95" y="123.341" fill="#E1F4AB" stroke="#58600C" stroke-width="0.35" stroke-miterlimit="10" width="25.449" height="25.448"/>
			
				<rect x="510.399" y="123.341" fill="#E1F4AB" stroke="#58600C" stroke-width="0.35" stroke-miterlimit="10" width="25.449" height="25.448"/>
			<g>
				
					<rect x="408.6" y="148.79" fill="#E1F4AB" stroke="#58600C" stroke-width="0.35" stroke-miterlimit="10" width="25.447" height="25.448"/>
				
					<rect x="434.048" y="148.79" fill="#E1F4AB" stroke="#58600C" stroke-width="0.35" stroke-miterlimit="10" width="25.449" height="25.448"/>
			</g>
			<g>
				
					<rect x="459.499" y="148.79" fill="#E1F4AB" stroke="#58600C" stroke-width="0.35" stroke-miterlimit="10" width="25.451" height="25.448"/>
				
					<rect x="484.95" y="148.79" fill="#E1F4AB" stroke="#58600C" stroke-width="0.35" stroke-miterlimit="10" width="25.449" height="25.448"/>
			</g>
			<g>
				
					<rect x="510.399" y="148.79" fill="#E1F4AB" stroke="#58600C" stroke-width="0.35" stroke-miterlimit="10" width="25.449" height="25.448"/>
			</g>
			<g>
				
					<rect x="408.6" y="174.239" fill="#E1F4AB" stroke="#58600C" stroke-width="0.35" stroke-miterlimit="10" width="25.447" height="25.451"/>
				
					<rect x="434.048" y="174.239" fill="#E1F4AB" stroke="#58600C" stroke-width="0.35" stroke-miterlimit="10" width="25.449" height="25.451"/>
			</g>
			<g>
				
					<rect x="459.499" y="174.239" fill="#E1F4AB" stroke="#58600C" stroke-width="0.35" stroke-miterlimit="10" width="25.451" height="25.451"/>
				
					<rect x="484.95" y="174.239" fill="#E1F4AB" stroke="#58600C" stroke-width="0.35" stroke-miterlimit="10" width="25.449" height="25.451"/>
			</g>
			<g>
				
					<rect x="510.399" y="174.239" fill="#E1F4AB" stroke="#58600C" stroke-width="0.35" stroke-miterlimit="10" width="25.449" height="25.451"/>
			</g>
			<g>
				
					<rect x="408.6" y="199.688" fill="#E1F4AB" stroke="#58600C" stroke-width="0.35" stroke-miterlimit="10" width="25.447" height="25.448"/>
				
					<rect x="434.048" y="199.688" fill="#E1F4AB" stroke="#58600C" stroke-width="0.35" stroke-miterlimit="10" width="25.449" height="25.448"/>
			</g>
			<g>
				
					<rect x="459.499" y="199.688" fill="#E1F4AB" stroke="#58600C" stroke-width="0.35" stroke-miterlimit="10" width="25.451" height="25.448"/>
				
					<rect x="484.95" y="199.688" fill="#E1F4AB" stroke="#58600C" stroke-width="0.35" stroke-miterlimit="10" width="25.449" height="25.448"/>
			</g>
			<g>
				
					<rect x="510.399" y="199.688" fill="#E1F4AB" stroke="#58600C" stroke-width="0.35" stroke-miterlimit="10" width="25.449" height="25.448"/>
			</g>
			<g>
				
					<rect x="408.6" y="225.137" fill="#E1F4AB" stroke="#58600C" stroke-width="0.35" stroke-miterlimit="10" width="25.447" height="25.449"/>
				
					<rect x="434.048" y="225.137" fill="#E1F4AB" stroke="#58600C" stroke-width="0.35" stroke-miterlimit="10" width="25.449" height="25.449"/>
			</g>
			<g>
				
					<rect x="459.499" y="225.137" fill="#E1F4AB" stroke="#58600C" stroke-width="0.35" stroke-miterlimit="10" width="25.451" height="25.449"/>
				
					<rect x="484.95" y="225.137" fill="#E1F4AB" stroke="#58600C" stroke-width="0.35" stroke-miterlimit="10" width="25.449" height="25.449"/>
			</g>
			<g>
				
					<rect x="510.399" y="225.137" fill="#E1F4AB" stroke="#58600C" stroke-width="0.35" stroke-miterlimit="10" width="25.449" height="25.449"/>
			</g>
			<g>
				
					<rect x="408.6" y="250.586" fill="#E1F4AB" stroke="#58600C" stroke-width="0.35" stroke-miterlimit="10" width="25.447" height="25.449"/>
				
					<rect x="434.048" y="250.586" fill="#E1F4AB" stroke="#58600C" stroke-width="0.35" stroke-miterlimit="10" width="25.449" height="25.449"/>
			</g>
			<g>
				
					<rect x="459.499" y="250.586" fill="#E1F4AB" stroke="#58600C" stroke-width="0.35" stroke-miterlimit="10" width="25.451" height="25.449"/>
				
					<rect x="484.95" y="250.586" fill="#E1F4AB" stroke="#58600C" stroke-width="0.35" stroke-miterlimit="10" width="25.449" height="25.449"/>
			</g>
			<g>
				
					<rect x="510.399" y="250.586" fill="#E1F4AB" stroke="#58600C" stroke-width="0.35" stroke-miterlimit="10" width="25.449" height="25.449"/>
			</g>
			<g>
				
					<rect x="408.6" y="276.035" fill="#E1F4AB" stroke="#58600C" stroke-width="0.35" stroke-miterlimit="10" width="25.447" height="25.448"/>
				
					<rect x="434.048" y="276.035" fill="#E1F4AB" stroke="#58600C" stroke-width="0.35" stroke-miterlimit="10" width="25.449" height="25.448"/>
			</g>
			<g>
				
					<rect x="459.499" y="276.035" fill="#E1F4AB" stroke="#58600C" stroke-width="0.35" stroke-miterlimit="10" width="25.451" height="25.448"/>
				
					<rect x="484.95" y="276.035" fill="#E1F4AB" stroke="#58600C" stroke-width="0.35" stroke-miterlimit="10" width="25.449" height="25.448"/>
			</g>
			<g>
				
					<rect x="510.399" y="276.035" fill="#E1F4AB" stroke="#58600C" stroke-width="0.35" stroke-miterlimit="10" width="25.449" height="25.448"/>
			</g>
			<g>
				
					<rect x="408.6" y="301.485" fill="#E1F4AB" stroke="#58600C" stroke-width="0.35" stroke-miterlimit="10" width="25.447" height="25.448"/>
				
					<rect x="434.048" y="301.485" fill="#E1F4AB" stroke="#58600C" stroke-width="0.35" stroke-miterlimit="10" width="25.449" height="25.448"/>
			</g>
			<g>
				
					<rect x="459.499" y="301.485" fill="#E1F4AB" stroke="#58600C" stroke-width="0.35" stroke-miterlimit="10" width="25.451" height="25.448"/>
				
					<rect x="484.95" y="301.485" fill="#E1F4AB" stroke="#58600C" stroke-width="0.35" stroke-miterlimit="10" width="25.449" height="25.448"/>
			</g>
			<g>
				
					<rect x="510.399" y="301.485" fill="#E1F4AB" stroke="#58600C" stroke-width="0.35" stroke-miterlimit="10" width="25.449" height="25.448"/>
			</g>
			<g>
				
					<rect x="408.6" y="326.934" fill="#E1F4AB" stroke="#58600C" stroke-width="0.35" stroke-miterlimit="10" width="25.447" height="25.449"/>
				
					<rect x="434.048" y="326.934" fill="#E1F4AB" stroke="#58600C" stroke-width="0.35" stroke-miterlimit="10" width="25.449" height="25.449"/>
			</g>
			<g>
				
					<rect x="459.499" y="326.934" fill="#E1F4AB" stroke="#58600C" stroke-width="0.35" stroke-miterlimit="10" width="25.451" height="25.449"/>
				
					<rect x="484.95" y="326.934" fill="#E1F4AB" stroke="#58600C" stroke-width="0.35" stroke-miterlimit="10" width="25.449" height="25.449"/>
			</g>
			<g>
				
					<rect x="510.399" y="326.934" fill="#E1F4AB" stroke="#58600C" stroke-width="0.35" stroke-miterlimit="10" width="25.449" height="25.449"/>
			</g>
			<g>
				
					<rect x="408.6" y="352.383" fill="#E1F4AB" stroke="#58600C" stroke-width="0.35" stroke-miterlimit="10" width="25.447" height="25.447"/>
				
					<rect x="434.048" y="352.383" fill="#E1F4AB" stroke="#58600C" stroke-width="0.35" stroke-miterlimit="10" width="25.449" height="25.447"/>
			</g>
			<g>
				
					<rect x="459.499" y="352.383" fill="#E1F4AB" stroke="#58600C" stroke-width="0.35" stroke-miterlimit="10" width="25.451" height="25.447"/>
				
					<rect x="484.95" y="352.383" fill="#E1F4AB" stroke="#58600C" stroke-width="0.35" stroke-miterlimit="10" width="25.449" height="25.447"/>
			</g>
			<g>
				
					<rect x="510.399" y="352.383" fill="#E1F4AB" stroke="#58600C" stroke-width="0.35" stroke-miterlimit="10" width="25.449" height="25.447"/>
			</g>
			<g>
				
					<rect x="408.6" y="377.831" fill="#E1F4AB" stroke="#58600C" stroke-width="0.35" stroke-miterlimit="10" width="25.447" height="25.449"/>
				
					<rect x="434.048" y="377.831" fill="#E1F4AB" stroke="#58600C" stroke-width="0.35" stroke-miterlimit="10" width="25.449" height="25.449"/>
			</g>
			<g>
				
					<rect x="459.499" y="377.831" fill="#E1F4AB" stroke="#58600C" stroke-width="0.35" stroke-miterlimit="10" width="25.451" height="25.449"/>
				
					<rect x="484.95" y="377.831" fill="#E1F4AB" stroke="#58600C" stroke-width="0.35" stroke-miterlimit="10" width="25.449" height="25.449"/>
			</g>
			<g>
				
					<rect x="510.399" y="377.831" fill="#E1F4AB" stroke="#58600C" stroke-width="0.35" stroke-miterlimit="10" width="25.449" height="25.449"/>
			</g>
			<g>
				
					<rect x="408.6" y="403.281" fill="#E1F4AB" stroke="#58600C" stroke-width="0.35" stroke-miterlimit="10" width="25.447" height="25.45"/>
				
					<rect x="434.048" y="403.281" fill="#E1F4AB" stroke="#58600C" stroke-width="0.35" stroke-miterlimit="10" width="25.449" height="25.45"/>
			</g>
			<g>
				
					<rect x="459.499" y="403.281" fill="#E1F4AB" stroke="#58600C" stroke-width="0.35" stroke-miterlimit="10" width="25.451" height="25.45"/>
				
					<rect x="484.95" y="403.281" fill="#E1F4AB" stroke="#58600C" stroke-width="0.35" stroke-miterlimit="10" width="25.449" height="25.45"/>
			</g>
			<g>
				
					<rect x="510.399" y="403.281" fill="#E1F4AB" stroke="#58600C" stroke-width="0.35" stroke-miterlimit="10" width="25.449" height="25.45"/>
			</g>
			<g>
				
					<rect x="408.6" y="428.733" fill="#E1F4AB" stroke="#58600C" stroke-width="0.35" stroke-miterlimit="10" width="25.447" height="25.445"/>
				
					<rect x="434.048" y="428.733" fill="#E1F4AB" stroke="#58600C" stroke-width="0.35" stroke-miterlimit="10" width="25.449" height="25.445"/>
			</g>
			<g>
				
					<rect x="459.499" y="428.733" fill="#E1F4AB" stroke="#58600C" stroke-width="0.35" stroke-miterlimit="10" width="25.451" height="25.445"/>
				
					<rect x="484.95" y="428.733" fill="#E1F4AB" stroke="#58600C" stroke-width="0.35" stroke-miterlimit="10" width="25.449" height="25.445"/>
			</g>
			<g>
				
					<rect x="510.399" y="428.733" fill="#E1F4AB" stroke="#58600C" stroke-width="0.35" stroke-miterlimit="10" width="25.449" height="25.445"/>
			</g>
			<g>
				
					<rect x="408.6" y="454.178" fill="#E1F4AB" stroke="#58600C" stroke-width="0.35" stroke-miterlimit="10" width="25.447" height="25.448"/>
				
					<rect x="434.048" y="454.178" fill="#E1F4AB" stroke="#58600C" stroke-width="0.35" stroke-miterlimit="10" width="25.449" height="25.448"/>
			</g>
			<g>
				
					<rect x="459.499" y="454.178" fill="#E1F4AB" stroke="#58600C" stroke-width="0.35" stroke-miterlimit="10" width="25.451" height="25.448"/>
				
					<rect x="484.95" y="454.178" fill="#E1F4AB" stroke="#58600C" stroke-width="0.35" stroke-miterlimit="10" width="25.449" height="25.448"/>
			</g>
			<g>
				
					<rect x="510.399" y="454.178" fill="#E1F4AB" stroke="#58600C" stroke-width="0.35" stroke-miterlimit="10" width="25.449" height="25.448"/>
			</g>
			<g>
				
					<rect x="408.6" y="479.627" fill="#E1F4AB" stroke="#58600C" stroke-width="0.35" stroke-miterlimit="10" width="25.447" height="25.449"/>
				
					<rect x="434.048" y="479.627" fill="#E1F4AB" stroke="#58600C" stroke-width="0.35" stroke-miterlimit="10" width="25.449" height="25.449"/>
			</g>
			<g>
				
					<rect x="459.499" y="479.627" fill="#E1F4AB" stroke="#58600C" stroke-width="0.35" stroke-miterlimit="10" width="25.451" height="25.449"/>
				
					<rect x="484.95" y="479.627" fill="#E1F4AB" stroke="#58600C" stroke-width="0.35" stroke-miterlimit="10" width="25.449" height="25.449"/>
			</g>
			<g>
				
					<rect x="510.399" y="479.627" fill="#E1F4AB" stroke="#58600C" stroke-width="0.35" stroke-miterlimit="10" width="25.449" height="25.449"/>
			</g>
			<g>
				
					<rect x="408.6" y="505.077" fill="#E1F4AB" stroke="#58600C" stroke-width="0.35" stroke-miterlimit="10" width="25.447" height="25.449"/>
				
					<rect x="434.048" y="505.077" fill="#E1F4AB" stroke="#58600C" stroke-width="0.35" stroke-miterlimit="10" width="25.449" height="25.449"/>
			</g>
			<g>
				
					<rect x="459.499" y="505.077" fill="#E1F4AB" stroke="#58600C" stroke-width="0.35" stroke-miterlimit="10" width="25.451" height="25.449"/>
				
					<rect x="484.95" y="505.077" fill="#E1F4AB" stroke="#58600C" stroke-width="0.35" stroke-miterlimit="10" width="25.449" height="25.449"/>
			</g>
			<g>
				
					<rect x="510.399" y="505.077" fill="#E1F4AB" stroke="#58600C" stroke-width="0.35" stroke-miterlimit="10" width="25.449" height="25.449"/>
			</g>
		</g>
		<text transform="matrix(1 0 0 1 266.2239 290.8137)" font-family="'MyriadPro-Regular'" font-size="15">O</text>
	</g>
	<g>
		
			<line fill="none" stroke="#6F7F0F" stroke-width="1.5" stroke-miterlimit="10" x1="27.784" y1="148.836" x2="534.944" y2="148.836"/>
		
			<line fill="none" stroke="#6F7F0F" stroke-width="1.5" stroke-miterlimit="10" x1="27.784" y1="403.235" x2="534.944" y2="403.235"/>
		
			<line fill="none" stroke="#6F7F0F" stroke-width="1.5" stroke-miterlimit="10" x1="408.563" y1="22.453" x2="408.563" y2="529.616"/>
		
			<line fill="none" stroke="#6F7F0F" stroke-width="1.5" stroke-miterlimit="10" x1="154.163" y1="22.453" x2="154.163" y2="529.616"/>
	</g>
	<g>
		<g>
			<g>
				
					<line fill="none" stroke="#231F20" stroke-width="2" stroke-miterlimit="10" x1="39.079" y1="276.081" x2="523.647" y2="276.081"/>
				<g>
					<polygon fill="#231F20" points="27.784,276.081 43.702,282.586 39.925,276.081 43.702,269.578 					"/>
				</g>
				<g>
					<polygon fill="#231F20" points="534.944,276.081 519.026,282.586 522.803,276.081 519.026,269.578 					"/>
				</g>
			</g>
		</g>
		<g>
			<text transform="matrix(0.9 0 0 1 303.7371 290.5442)" font-family="'MyriadPro-Regular'" font-size="15">1</text>
			<text transform="matrix(0.9 0 0 1 328.739 290.5442)" font-family="'MyriadPro-Regular'" font-size="15">2</text>
			<text transform="matrix(0.9 0 0 1 354.405 290.5442)" font-family="'MyriadPro-Regular'" font-size="15">3</text>
			<text transform="matrix(0.9 0 0 1 379.405 290.5442)" font-family="'MyriadPro-Regular'" font-size="15">4</text>
			<text transform="matrix(0.9 0 0 1 406.071 290.5442)" font-family="'MyriadPro-Regular'" font-size="15">5</text>
			<text transform="matrix(0.9 0 0 1 431.071 290.5442)" font-family="'MyriadPro-Regular'" font-size="15">6</text>
			<text transform="matrix(0.9 0 0 1 455.739 290.5442)" font-family="'MyriadPro-Regular'" font-size="15">7</text>
			<text transform="matrix(0.9 0 0 1 481.739 290.5442)" font-family="'MyriadPro-Regular'" font-size="15">8</text>
			<text transform="matrix(0.9 0 0 1 507.405 290.5442)" font-family="'MyriadPro-Regular'" font-size="15">9</text>
			<text transform="matrix(0.9 0 0 1 528.9421 290.5442)" font-family="'MyriadPro-Regular'" font-size="15">10</text>
		</g>
		<g>
			<text transform="matrix(0.9 0 0 1 17.7034 290.5442)" font-family="'MyriadPro-Regular'" font-size="15">-10</text>
			<text transform="matrix(0.9 0 0 1 46.1663 290.5442)" font-family="'MyriadPro-Regular'" font-size="15">-9</text>
			<text transform="matrix(0.9 0 0 1 72.8328 290.5442)" font-family="'MyriadPro-Regular'" font-size="15">-8</text>
			<text transform="matrix(0.9 0 0 1 96.8328 290.5442)" font-family="'MyriadPro-Regular'" font-size="15">-7</text>
			<text transform="matrix(0.9 0 0 1 123.4993 290.5442)" font-family="'MyriadPro-Regular'" font-size="15">-6</text>
			<text transform="matrix(0.9 0 0 1 148.4993 290.5442)" font-family="'MyriadPro-Regular'" font-size="15">-5</text>
			<text transform="matrix(0.9 0 0 1 174.1663 290.5442)" font-family="'MyriadPro-Regular'" font-size="15">-4</text>
			<text transform="matrix(0.9 0 0 1 199.1663 290.5442)" font-family="'MyriadPro-Regular'" font-size="15">-3</text>
			<text transform="matrix(0.9 0 0 1 224.8328 290.5442)" font-family="'MyriadPro-Regular'" font-size="15">-2</text>
			<text transform="matrix(0.9 0 0 1 250.8328 290.5442)" font-family="'MyriadPro-Regular'" font-size="15">-1</text>
		</g>
		<text transform="matrix(1 0 0 1 7.5569 281.4817)" font-family="'MyriadPro-Semibold'" font-size="15">X’</text>
		<text transform="matrix(1 0 0 1 541.5574 281.4817)" font-family="'MyriadPro-Semibold'" font-size="15">X</text>
	</g>
	<g>
		<g>
			<g>
				
					<line fill="none" stroke="#231F20" stroke-width="2" stroke-miterlimit="10" x1="281.317" y1="33.75" x2="281.317" y2="518.32"/>
				<g>
					<polygon fill="#231F20" points="281.317,22.453 274.811,38.372 281.317,34.595 287.819,38.372 					"/>
				</g>
				<g>
					<polygon fill="#231F20" points="281.317,529.616 274.811,513.698 281.317,517.477 287.819,513.698 					"/>
				</g>
			</g>
		</g>
		<g>
			<text transform="matrix(0.9 0 0 1 258.4255 26.366)" font-family="'MyriadPro-Regular'" font-size="15">10</text>
			<text transform="matrix(0.9 0 0 1 265.3508 50.4207)" font-family="'MyriadPro-Regular'" font-size="15">9</text>
			<text transform="matrix(0.9 0 0 1 265.3508 76.8894)" font-family="'MyriadPro-Regular'" font-size="15">8</text>
			<text transform="matrix(0.9 0 0 1 265.3508 101.9421)" font-family="'MyriadPro-Regular'" font-size="15">7</text>
			<text transform="matrix(0.9 0 0 1 265.3508 126.1189)" font-family="'MyriadPro-Regular'" font-size="15">6</text>
			<text transform="matrix(0.9 0 0 1 265.3508 153.1726)" font-family="'MyriadPro-Regular'" font-size="15">5</text>
			<text transform="matrix(0.9 0 0 1 265.3508 179.6414)" font-family="'MyriadPro-Regular'" font-size="15">4</text>
			<text transform="matrix(0.9 0 0 1 265.3508 204.6951)" font-family="'MyriadPro-Regular'" font-size="15">3</text>
			<text transform="matrix(0.9 0 0 1 265.3508 230.5789)" font-family="'MyriadPro-Regular'" font-size="15">2</text>
			<text transform="matrix(0.9 0 0 1 265.3508 255.6326)" font-family="'MyriadPro-Regular'" font-size="15">1</text>
		</g>
		<g>
			<text transform="matrix(0.9 0 0 1 263.2063 305.5227)" font-family="'MyriadPro-Regular'" font-size="15">-1</text>
			<text transform="matrix(0.9 0 0 1 263.2063 329.5754)" font-family="'MyriadPro-Regular'" font-size="15">-2</text>
			<text transform="matrix(0.9 0 0 1 263.2063 356.0442)" font-family="'MyriadPro-Regular'" font-size="15">-3</text>
			<text transform="matrix(0.9 0 0 1 263.2063 381.0989)" font-family="'MyriadPro-Regular'" font-size="15">-4</text>
			<text transform="matrix(0.9 0 0 1 263.2063 405.2747)" font-family="'MyriadPro-Regular'" font-size="15">-5</text>
			<text transform="matrix(0.9 0 0 1 263.2063 432.3293)" font-family="'MyriadPro-Regular'" font-size="15">-6</text>
			<text transform="matrix(0.9 0 0 1 263.2063 458.7981)" font-family="'MyriadPro-Regular'" font-size="15">-7</text>
			<text transform="matrix(0.9 0 0 1 263.2063 483.8508)" font-family="'MyriadPro-Regular'" font-size="15">-8</text>
			<text transform="matrix(0.9 0 0 1 263.2063 509.7356)" font-family="'MyriadPro-Regular'" font-size="15">-9</text>
			<text transform="matrix(0.9 0 0 1 256.281 534.7864)" font-family="'MyriadPro-Regular'" font-size="15">-10</text>
		</g>
		<text transform="matrix(1 0 0 1 276.8899 544.1477)" font-family="'MyriadPro-Semibold'" font-size="15">Y’</text>
		<text transform="matrix(1 0 0 1 276.8899 17.4802)" font-family="'MyriadPro-Semibold'" font-size="15">Y</text>
	</g>
</g>
<!-- dotted lines -->
<g class="dottedlinex">
<polyline fill="none" stroke="#000000" stroke-width="1.5" stroke-miterlimit="10" stroke-dasharray="1.9926,1.9926" points="
	255.385,148.466 280.882,276.122 204.3,225.066 "/>
<polyline fill="none" stroke="#000000" stroke-width="1.5" stroke-miterlimit="10" stroke-dasharray="1.9926,1.9926" points="
	77.2,225.066 281.132,275.372 127.895,148.466 "/>
<polyline fill="none" stroke="#000000" stroke-width="1.5" stroke-miterlimit="10" stroke-dasharray="1.9926,1.9926" points="
	231.052,351.327 280.626,274.375 153.962,300.987 "/>
<polyline fill="none" stroke="#000000" stroke-width="1.5" stroke-miterlimit="10" stroke-dasharray="1.9926,1.9926" points="
	232.247,476.829 280.626,274.375 155.618,425.924 "/>
</g>
<!-- dotted lines ends -->
<g>
	<text transform="matrix(1 0 0 1 36.3137 227.5623)" font-family="'MyriadPro-Regular'" font-size="12">B (-8, 2)</text>
	<text transform="matrix(1 0 0 1 208.3264 239.2019)" font-family="'MyriadPro-Regular'" font-size="12">C (-3, 2)</text>
	<text transform="matrix(1 0 0 1 85.2405 145.9231)" font-family="'MyriadPro-Regular'" font-size="12">A (-6, 5)</text>
	<text transform="matrix(1 0 0 1 224.4924 138.9695)" font-family="'MyriadPro-Regular'" font-size="12">D (-1, 5)</text>
</g>
<g>
	<polygon fill="none" stroke="#005CA9" stroke-width="2" stroke-miterlimit="10" points="128.395,148.377 77.7,224.977 
		204.8,224.977 255.885,148.377 	"/>
	<g>
		<circle class="que1" fill="#FF0000" cx="128.786" cy="147.377" r="4.527"/>
		<circle class="que2" fill="#FF0000" cx="255.885" cy="148.377" r="4.527"/>
		<circle class="que3" fill="#FF0000" cx="77.7" cy="224.977" r="4.527"/>
		<circle class="que4" fill="#FF0000" cx="204.8" cy="224.977" r="4.527"/>
	</g>
</g>
<!-- correct point labels -->
<g>
	<text class="corrtxt-x1" transform="matrix(1 0 0 1 106.9802 427.5618)" font-family="'MyriadPro-Regular'" font-size="12">A’ (-5, -6)</text>
	<text class="corrtxt-x3" transform="matrix(1 0 0 1 212.9934 494.5344)" font-family="'MyriadPro-Regular'" font-size="12">B’ (-2, -8)</text>
	<text class="corrtxt-x2" transform="matrix(1 0 0 1 106.907 312.5891)" font-family="'MyriadPro-Regular'" font-size="12">D’ (-5, -1)</text>
	<text class="corrtxt-x4" transform="matrix(1 0 0 1 223.1594 341.97)" font-family="'MyriadPro-Regular'" font-size="12">C’ (-2, -3)</text>
</g>
<!-- correct point labels end -->
<!-- correct parr -->
<g>
	<polygon class="correctpara" fill="none" stroke="#005CA9" stroke-width="2" stroke-miterlimit="10" points="153.952,428.546 230.552,479.241 
		230.552,352.142 153.952,301.055 	"/>
	<g>
		<circle class="check" id="correct10" fill="#FF0000" cx="152.952" cy="428.156" r="4.527"/>
		<circle class="check" id="correct20" fill="#FF0000" cx="153.952" cy="301.055" r="4.527"/>
		<circle class="check" id="correct30" fill="#FF0000" cx="230.553" cy="479.241" r="4.527"/>
		<circle class="check" id="correct40" fill="#FF0000" cx="230.553" cy="352.142" r="4.527"/>

		<circle class="check" id="correct1" fill="#FF0000" cx="152.952" cy="428.156" r="10"/>
		<circle class="check" id="correct2" fill="#FF0000" cx="153.952" cy="301.055" r="10"/>
		<circle class="check" id="correct3" fill="#FF0000" cx="230.553" cy="479.241" r="10"/>
		<circle class="check" id="correct4" fill="#FF0000" cx="230.553" cy="352.142" r="10"/>
	</g>
</g>
<!-- correct parr end -->
</svg>
