selector,english_word,engmeaning,nepali_word,nepmeaning,image
regularly,regularly,,नियमित,,
bite,bite,,टोक्नु,,
garbage,garbage,,फोहर,,
accordingly,accordingly,,अनुसार,,
hidden,hide,,"लुक्नु, लुकेको",,
infected,infect,,सङ्क्रमण गर्नु,,
worms,worm,,"किरा, किटाणु",,
lice,lice,,जुम्रा,,
wounds,wound,,घाउ,,
bacteria,bacteria,,ब्याक्टेरिया,आँखाले देख्‍न नसकिने किटाणु,
diarrhoea,diarrhoea,,झाडापखाला,,
dysentery,dysentery,,हैजा,,
aspects,aspect,,पक्ष,,
