<?xml version="1.0" encoding="utf-8"?>
<!-- Generator: Adobe Illustrator 15.0.0, SVG Export Plug-In . SVG Version: 6.00 Build 0)  -->
<!DOCTYPE svg PUBLIC "-//W3C//DTD SVG 1.1//EN" "http://www.w3.org/Graphics/SVG/1.1/DTD/svg11.dtd">
<svg version="1.1" id="Layer_1" xmlns="http://www.w3.org/2000/svg" xmlns:xlink="http://www.w3.org/1999/xlink" x="0px" y="0px"
	 width="100%"  viewBox="0 0 913.269 615.717" enable-background="new 0 0 913.269 615.717"
	 xml:space="preserve">

	 <style type="text/css">
	 	.class1{
	 		cursor:pointer;
	 	}

	 	.class1:hover path{
	 		fill:#81017e;
	 	}
	 	.class1:hover text{
	 		fill:#fff;
	 	}


	 	.class2:hover path{
	 		fill:#ee6123;
	 	}
	 	.class2:hover text{
	 		fill:#fff;
	 	}

	 	.clicked path
	 	{
	 		fill:#ffcc33;
	 	}

	 	.clicked text
	 	{
	 		fill:#000;
	 	}
	 		 	
	 </style>

<path fill="#FFFFFF" stroke="#0372F7" stroke-width="2.6163" stroke-miterlimit="10" d="M910.996,9.242
	c0-3.956-2.066-7.159-4.614-7.159H7.036c-2.549,0-4.615,3.203-4.615,7.159V605.65c0,3.953,2.066,7.159,4.615,7.159h899.346
	c2.548,0,4.614-3.206,4.614-7.159V9.242z"/>

<g id="cls_1" class="class1">
	
	<path fill="#0099FF" stroke="#4E4E63" stroke-width="2.6521" stroke-miterlimit="10" d="M585.625,73.69
	c-15.213-8.744-32.851-13.745-51.657-13.745c-57.207,0-103.602,46.275-103.801,103.436h103.676L585.625,73.69z"/> 
	<text transform="matrix(1 0 0 1 486.5601 142.8589)" fill="#231F20" font-family="'ArialMT'" font-size="52">1</text>
</g>


<g id="cls_2" class="class1">
	<path fill="#0099FF" stroke="#4E4E63" stroke-width="2.6521" stroke-miterlimit="10" d="M637.769,163.38
	c-0.134-38.369-21.081-71.835-52.145-89.69l-51.782,89.69H637.769z"/>
	<text transform="matrix(1 0 0 1 578.6206 142.8589)" fill="#231F20" font-family="'ArialMT'" font-size="52">2</text>
</g>

<g id="cls_3" class="class1">
	<path fill="#0099FF" stroke="#4E4E63" stroke-width="2.6521" stroke-miterlimit="10" d="M430.166,163.38
	c0,0.123-0.005,0.246-0.005,0.37c0,38.313,20.761,71.775,51.643,89.761l52.038-90.131H430.166z" />
	<text transform="matrix(1 0 0 1 460.106 222.5259)" fill="#231F20" font-family="'ArialMT'" font-size="52">3</text>
</g>


<g id="cls_4" class="class1">
	<path fill="#0099FF" stroke="#4E4E63" stroke-width="2.6521" stroke-miterlimit="10" d="M637.774,163.75
	c0-0.124-0.004-0.247-0.005-0.37H533.842l-52.038,90.131c15.328,8.928,33.147,14.045,52.163,14.045
	C591.297,267.556,637.774,221.081,637.774,163.75z"/>
	<text transform="matrix(1 0 0 1 539.7739 229.6069)" fill="#231F20" font-family="'ArialMT'" font-size="52">4</text>
</g>

<g id="cls_5" class="class1">
	<path fill="#0099FF" stroke="#4E4E63" stroke-width="2.6521" stroke-miterlimit="10" d="M418.63,362.933
	c-15.321-8.915-33.128-14.025-52.131-14.025c-57.287,0-103.733,46.403-103.805,103.674h104.178L418.63,362.933z"/>
	<text transform="matrix(1 0 0 1 321.9136 434.9741)" fill="#231F20" font-family="'ArialMT'" font-size="52">5</text>
</g>
<g  id="cls_6" class="class1">
	<path fill="#0099FF" stroke="#4E4E63" stroke-width="2.6521" stroke-miterlimit="10" d="M418.63,362.933l-51.759,89.648h103.432
	C470.255,414.309,449.495,380.894,418.63,362.933z"/>
	<text transform="matrix(1 0 0 1 413.9746 434.9741)" fill="#231F20" font-family="'ArialMT'" font-size="52">6</text>
</g>

<g id="cls_7" class="class1">

	<path fill="#0099FF" stroke="#4E4E63" stroke-width="2.6521" stroke-miterlimit="10" d="M262.693,452.582
	c0,0.044-0.001,0.088-0.001,0.132c0,38.511,20.972,72.124,52.117,90.042l52.062-90.174H262.693z"/> 
	<text transform="matrix(1 0 0 1 295.4595 514.6411)" fill="#231F20" font-family="'ArialMT'" font-size="52">7</text>
</g>

<g  id="cls_8" class="class1">
	<path fill="#0099FF" stroke="#4E4E63" stroke-width="2.6521" stroke-miterlimit="10" d="M314.809,542.755
	c15.22,8.756,32.87,13.765,51.689,13.765c57.33,0,103.807-46.477,103.807-103.807c0-0.044-0.002-0.088-0.002-0.132H366.871
	L314.809,542.755z"/>
	<text transform="matrix(1 0 0 1 375.1274 521.7222)" fill="#231F20" font-family="'ArialMT'" font-size="52">8</text>
</g>











<line fill="none" stroke="#4E4E63" stroke-width="2.6521" stroke-miterlimit="10" x1="113.81" y1="163.38" x2="786.904" y2="163.38"/>
<line fill="none" stroke="#4E4E63" stroke-width="2.6521" stroke-miterlimit="10" x1="113.81" y1="452.582" x2="786.904" y2="452.582"/>
<line fill="none" stroke="#4E4E63" stroke-width="2.6521" stroke-miterlimit="10" x1="282.083" y1="599.439" x2="618.629" y2="16.523"/>






<circle fill="#4E4E63" cx="787.585" cy="163.346" r="6.398"/>
<circle fill="#4E4E63" cx="112.204" cy="163.346" r="6.398"/>
<circle fill="#4E4E63" cx="787.585" cy="451.458" r="6.398"/>
<circle fill="#4E4E63" cx="280.583" cy="600.853" r="6.398"/>
<circle fill="#4E4E63" cx="619.213" cy="14.515" r="6.398"/>
<circle fill="#4E4E63" cx="112.204" cy="451.458" r="6.398"/>






</svg>
