<?xml version="1.0" encoding="utf-8"?>
<!-- Generator: Adobe Illustrator 15.0.0, SVG Export Plug-In . SVG Version: 6.00 Build 0)  -->
<!DOCTYPE svg PUBLIC "-//W3C//DTD SVG 1.1//EN" "http://www.w3.org/Graphics/SVG/1.1/DTD/svg11.dtd">
<svg version="1.1" id="Layer_1" xmlns="http://www.w3.org/2000/svg" xmlns:xlink="http://www.w3.org/1999/xlink" x="0px" y="0px"
	 width="100%"  viewBox="0 0 913.27 615.717" enable-background="new 0 0 913.27 615.717"
	 xml:space="preserve">

 <style type="text/css">
	 	.class1{
	 		cursor:pointer;
	 	}

	 	.class1:hover path{
	 		fill:#81017e;
	 	}
	 	.class1:hover text{
	 		fill:#fff;
	 	}


	 	.class2:hover path{
	 		fill:#ee6123;
	 	}
	 	.class2:hover text{
	 		fill:#fff;
	 	}

	 	.clicked path
	 	{
	 		fill:#ffcc33;
	 	}

	 	.clicked text
	 	{
	 		fill:#000;
	 	}
	 		 	
	 </style>

<path fill="none" stroke="#0372F7" stroke-width="2.6163" stroke-miterlimit="10" d="M910.015,10.708
	c0-3.956-2.066-7.159-4.614-7.159H6.055c-2.549,0-4.615,3.203-4.615,7.159v596.409c0,3.953,2.066,7.159,4.615,7.159h899.346
	c2.548,0,4.614-3.206,4.614-7.159V10.708z"/>
<line fill="none" stroke="#4E4E63" stroke-width="2.745" stroke-miterlimit="10" x1="766.433" y1="269.003" x2="448.338" y2="588.847"/>
<line fill="none" stroke="#4E4E63" stroke-width="2.745" stroke-miterlimit="10" x1="14.89" y1="588.847" x2="896.565" y2="588.847"/>


<g  id="cls_1" class="class1">
	<path fill="#0099FF" stroke="#4E4E63" stroke-width="2.745" stroke-linejoin="bevel" stroke-miterlimit="10" d="M364.588,588.847
	h83.75l66.527-67.043C467.162,516.352,393.995,514.057,364.588,588.847z"/>
	<text transform="matrix(1 0 0 1 400.2302 579.7903)" fill="#231F20" font-family="'ArialMT'" font-size="45.7479">1</text>
</g>
<g  id="cls_2" class="class1">

<path fill="#80D151" stroke="#4E4E63" stroke-width="2.745" stroke-linejoin="bevel" stroke-miterlimit="10" d="M507.247,529.615
	l-58.909,59.232h83.908C532.246,565.66,522.673,544.698,507.247,529.615z"/>
	<text transform="matrix(1 0 0 1 492.4583 582.8176)" fill="#231F20" font-family="'ArialMT'" font-size="45.7479">2</text>
</g>
</svg>
