<?xml version="1.0" encoding="utf-8"?>
<!-- Generator: Adobe Illustrator 15.0.0, SVG Export Plug-In . SVG Version: 6.00 Build 0)  -->
<!DOCTYPE svg PUBLIC "-//W3C//DTD SVG 1.1//EN" "http://www.w3.org/Graphics/SVG/1.1/DTD/svg11.dtd">
<svg version="1.1" id="Layer_1" xmlns="http://www.w3.org/2000/svg" xmlns:xlink="http://www.w3.org/1999/xlink" x="0px" y="0px"
	 width="838.529px" height="524.879px" viewBox="0 0 838.529 524.879" enable-background="new 0 0 838.529 524.879"
	 xml:space="preserve">
<g>
	<rect x="14.816" y="0.534" fill-rule="evenodd" clip-rule="evenodd" fill="#40150D" width="808.896" height="516.741"/>
	
		<rect x="14.816" y="0.534" fill="none" stroke="#5A5A5A" stroke-width="1.0683" stroke-linejoin="round" stroke-miterlimit="14.3356" width="808.896" height="516.741"/>
	<rect x="25.399" y="11.318" fill-rule="evenodd" clip-rule="evenodd" fill="#5C7943" width="787.73" height="495.173"/>
	
		<rect x="25.399" y="11.318" fill="none" stroke="#5A5A5A" stroke-width="1.0683" stroke-linejoin="round" stroke-miterlimit="14.3356" width="787.73" height="495.173"/>
	<rect x="0.534" y="499.85" fill-rule="evenodd" clip-rule="evenodd" fill="#40150D" width="837.461" height="24.495"/>
	
		<rect x="0.534" y="499.85" fill="none" stroke="#5A5A5A" stroke-width="1.0683" stroke-linejoin="round" stroke-miterlimit="14.3356" width="837.461" height="24.495"/>
	<g>
		<path fill-rule="evenodd" clip-rule="evenodd" fill="#EFEEEE" d="M125.695,504.807L125.695,504.807
			c0-2.768,2.243-5.013,5.013-5.013h33.41c1.329,0,2.604,0.528,3.546,1.468c0.939,0.94,1.469,2.216,1.469,3.545
			c0,2.77-2.246,5.014-5.015,5.014h-33.41C127.938,509.82,125.695,507.576,125.695,504.807z"/>
		<path fill="none" stroke="#5A5A5A" stroke-width="1.0683" stroke-linejoin="round" stroke-miterlimit="14.3356" d="
			M125.695,504.807L125.695,504.807c0-2.768,2.243-5.013,5.013-5.013h33.41c1.329,0,2.604,0.528,3.546,1.468
			c0.939,0.94,1.469,2.216,1.469,3.545c0,2.77-2.246,5.014-5.015,5.014h-33.41C127.938,509.82,125.695,507.576,125.695,504.807z"/>
	</g>
	<g>
		<path fill-rule="evenodd" clip-rule="evenodd" fill="#EFEEEE" d="M197.517,501.633L197.517,501.633
			c0-1.016,0.823-1.839,1.839-1.839h25.998c0.488,0,0.955,0.193,1.301,0.538c0.344,0.346,0.537,0.813,0.537,1.301v6.349
			c0,1.016-0.822,1.839-1.838,1.839h-25.998c-1.016,0-1.839-0.823-1.839-1.839V501.633z"/>
		<path fill="none" stroke="#5A5A5A" stroke-width="1.0683" stroke-linejoin="round" stroke-miterlimit="14.3356" d="
			M197.517,501.633L197.517,501.633c0-1.016,0.823-1.839,1.839-1.839h25.998c0.488,0,0.955,0.193,1.301,0.538
			c0.344,0.346,0.537,0.813,0.537,1.301v6.349c0,1.016-0.822,1.839-1.838,1.839h-25.998c-1.016,0-1.839-0.823-1.839-1.839V501.633z"
			/>
	</g>
	<g>
		<rect x="53.873" y="499.794" fill-rule="evenodd" clip-rule="evenodd" fill="#010101" width="43.438" height="10.026"/>
		
			<rect x="53.873" y="499.794" fill="none" stroke="#5A5A5A" stroke-width="1.0683" stroke-linejoin="round" stroke-miterlimit="14.3356" width="43.438" height="10.026"/>
	</g>
	<g>
		<rect x="48.506" y="489.47" fill-rule="evenodd" clip-rule="evenodd" fill="#5E3727" width="54.171" height="10.026"/>
		
			<rect x="48.506" y="489.47" fill="none" stroke="#5A5A5A" stroke-width="1.0683" stroke-linejoin="round" stroke-miterlimit="14.3356" width="54.171" height="10.026"/>
	</g>
	<g>
		<path fill-rule="evenodd" clip-rule="evenodd" fill="#B5A8D2" d="M399.222,504.807L399.222,504.807
			c0-2.768,2.243-5.013,5.013-5.013h33.412c1.328,0,2.604,0.528,3.544,1.468c0.94,0.94,1.47,2.216,1.47,3.545
			c0,2.77-2.246,5.014-5.014,5.014h-33.412C401.465,509.82,399.222,507.576,399.222,504.807z"/>
		<path fill="none" stroke="#5A5A5A" stroke-width="1.0683" stroke-linejoin="round" stroke-miterlimit="14.3356" d="
			M399.222,504.807L399.222,504.807c0-2.768,2.243-5.013,5.013-5.013h33.412c1.328,0,2.604,0.528,3.544,1.468
			c0.94,0.94,1.47,2.216,1.47,3.545c0,2.77-2.246,5.014-5.014,5.014h-33.412C401.465,509.82,399.222,507.576,399.222,504.807z"/>
	</g>
	<g>
		<path fill-rule="evenodd" clip-rule="evenodd" fill="#A3DBDF" d="M327.398,504.807L327.398,504.807
			c0-2.768,2.245-5.013,5.014-5.013h33.41c1.33,0,2.605,0.528,3.545,1.468c0.94,0.94,1.469,2.216,1.469,3.545
			c0,2.77-2.245,5.014-5.014,5.014h-33.41C329.644,509.82,327.398,507.576,327.398,504.807z"/>
		<path fill="none" stroke="#5A5A5A" stroke-width="1.0683" stroke-linejoin="round" stroke-miterlimit="14.3356" d="
			M327.398,504.807L327.398,504.807c0-2.768,2.245-5.013,5.014-5.013h33.41c1.33,0,2.605,0.528,3.545,1.468
			c0.94,0.94,1.469,2.216,1.469,3.545c0,2.77-2.245,5.014-5.014,5.014h-33.41C329.644,509.82,327.398,507.576,327.398,504.807z"/>
	</g>
	<g>
		<path fill-rule="evenodd" clip-rule="evenodd" fill="#F5B26C" d="M255.576,504.807L255.576,504.807
			c0-2.768,2.245-5.013,5.014-5.013h33.411c1.329,0,2.605,0.528,3.546,1.468c0.938,0.94,1.467,2.216,1.467,3.545
			c0,2.77-2.243,5.014-5.013,5.014H260.59C257.821,509.82,255.576,507.576,255.576,504.807z"/>
		<path fill="none" stroke="#5A5A5A" stroke-width="1.0683" stroke-linejoin="round" stroke-miterlimit="14.3356" d="
			M255.576,504.807L255.576,504.807c0-2.768,2.245-5.013,5.014-5.013h33.411c1.329,0,2.605,0.528,3.546,1.468
			c0.938,0.94,1.467,2.216,1.467,3.545c0,2.77-2.243,5.014-5.013,5.014H260.59C257.821,509.82,255.576,507.576,255.576,504.807z"/>
	</g>
	<g>
		<path fill-rule="evenodd" clip-rule="evenodd" fill="#94C47D" d="M471.044,504.807L471.044,504.807
			c0-2.768,2.243-5.013,5.013-5.013h33.412c1.328,0,2.604,0.528,3.544,1.468c0.94,0.94,1.469,2.216,1.469,3.545
			c0,2.77-2.245,5.014-5.013,5.014h-33.412C473.287,509.82,471.044,507.576,471.044,504.807z"/>
		<path fill="none" stroke="#5A5A5A" stroke-width="1.0683" stroke-linejoin="round" stroke-miterlimit="14.3356" d="
			M471.044,504.807L471.044,504.807c0-2.768,2.243-5.013,5.013-5.013h33.412c1.328,0,2.604,0.528,3.544,1.468
			c0.94,0.94,1.469,2.216,1.469,3.545c0,2.77-2.245,5.014-5.013,5.014h-33.412C473.287,509.82,471.044,507.576,471.044,504.807z"/>
	</g>
</g>
</svg>
