selector,english_word,engmeaning,nepali_word,nepmeaning,image
living things,living things,,सजीव,जीवित वस्तुहरू,
bushes,bush,,झाडी,,
cactuses,cacti,,सिउँडी ,,
ferns,fern,,उनिउँ,,
mosses,moss,,ढुसी,,
considered,consider,,मानौँ,,
carry out,carry out,,गर्नु ,,
certain,certain,,केही,,
activities,activity,,गतिविधि,,
life processes,life processes,,जीवन प्रक्रिया,,
nutrition,nutrition,,पोषण,,
respiration,respiration,,श्‍वासप्रश्‍वास,,
internal transport,internal transport,,परिवहन ,,
excretion,excretion,,निष्‍काशन क्रिया,"विकार वस्तु बाहिर निकाल्नु/फाल्नु",
reproduction,reproduction,,प्रजनन,,
survive,survive,,बाँच्‍नु,,
instead,instead,,सट‍्‍टा,,
prepare,prepare,,तयार गर्नु,,
minerals,minerals,,खनिज पदार्थ,,
chlorophyll,chlorophyll,,हरितकण,बिरुवाको पातमा हुने हरियो तत्व,
root,root,,जरा,,
release,release,,छोड्नु,,
photosynthesis,photosynthesis,,प्रकाश संश्‍लेषण,प्रकाशबाट खाना बनाउने तरिका,
trap,trap,,छेकेर राख्‍नु,,
absorb,absorb,,सोस्नु,,
break down,break down,,टुक्र्याउनु,,
movement,move,,चल्नु,,
get rid of,get rid of,,,छुट्कारा पाउनु ,
unnecessary,unnecessary,,अनावश्यक,,
pores,pore,,छिद्र वा मसिनो प्वाल,,
latex,latex,,,बोट वा रुखको दुधिलो रस वा पदार्थ,
gums,gum,,गूद,,
resins,resin,,"चोप, गूद",,
produce,produce,,"उत्पादन गर्नु, बनाउनु",,
offsprings,offspring,,सन्तान,,
explore,explore,,"खोज्नु, छानबिन गर्नु",,
pollens,pollen,,पराग,,
ovules,ovule,,गर्भाशय,,
fertilize,fertilize,,विकसित हुनु,,
insects,insect,,किरा फट्‍याङ्रग्रा,,
travel,travel,to move from one place to the other,यात्रा गर्नु,,
germinate,germinate,,"टुसाउनु, उम्रनु",,
spores,spore,,जीवाणु,,
sown,sow,,"रोप्नु, छर्नु",-,
suitable,suitable,,"उपयुक्त, सुहाउँदो",,
conditions,condition,,"अवस्था, हालत",,
