<?xml version="1.0" encoding="utf-8"?>
<!-- Generator: Adobe Illustrator 15.0.0, SVG Export Plug-In . SVG Version: 6.00 Build 0)  -->
<!DOCTYPE svg PUBLIC "-//W3C//DTD SVG 1.1//EN" "http://www.w3.org/Graphics/SVG/1.1/DTD/svg11.dtd">
<svg version="1.1" id="Layer_1" xmlns="http://www.w3.org/2000/svg" xmlns:xlink="http://www.w3.org/1999/xlink" x="0px" y="0px"
	 width="487.863px" height="450.621px" viewBox="0 0 487.863 450.621" enable-background="new 0 0 487.863 450.621"
	 xml:space="preserve">
<g>
	<g>
		<path fill="#548135" d="M403.775,86.836h-74.52v309.185l-39.652-37.622V86.836h-84.09v173.649v18.458
			c0,6.389-0.865,11.174-2.574,14.357c-0.855,2.287-3.643,4.103-8.364,5.469c-5.021,0-10.938-3.685-17.775-11.066l-54.009-72.638
			l-8.888-13.15c-1.827-3.226-2.286-7.83-1.368-13.833c2.275-2.756,4.327-4.604,6.153-5.533h7.521h43.754V86.836H83.139V54.021
			h320.637V86.836z"/>
	</g>
</g>
</svg>
