<?xml version="1.0" encoding="utf-8"?>
<!-- Generator: Adobe Illustrator 15.0.0, SVG Export Plug-In . SVG Version: 6.00 Build 0)  -->
<!DOCTYPE svg PUBLIC "-//W3C//DTD SVG 1.1//EN" "http://www.w3.org/Graphics/SVG/1.1/DTD/svg11.dtd">
<svg version="1.1" id="Layer_1" xmlns="http://www.w3.org/2000/svg" xmlns:xlink="http://www.w3.org/1999/xlink" x="0px" y="0px"
	 width="487.863px" height="450.621px" viewBox="0 0 487.863 450.621" enable-background="new 0 0 487.863 450.621"
	 xml:space="preserve">
 	<path id="path0" fill="#ED7D31" d="M422.628,87.306h-69.05V396.49l-39.652-45.922v-69.787l-21.107,17.092l-22.475,13.673l-26.568,13.673
 		c-8.182,4.103-17.711,6.153-28.606,6.153c-12.711,0-24.066-2.841-34.055-8.546c-9.987-5.693-19.527-14.464-28.606-26.32
 		c-12.264-16.408-18.384-33.948-18.384-52.642v-8.204l1.367-8.204c2.734-21.877,12.754-39.877,30.081-54.009
 		c-15.501-2.714-28.489-9.945-38.969-21.695l-10.938-13.556l-6.153-12.21l-1.367-16.269c0-5.598,1.367-13.075,4.103-22.412H64.391
 		V54.49h358.237V87.306z M168.99,96.407c-6.837,3.739-10.938,8.183-12.306,13.311l-2.051,9.667l2.051,11.43
 		c1.367,4.486,3.643,8.524,6.836,12.113c4.103,6.73,10.704,11.655,19.826,14.795h31.448h20.511l28.713,36.918H251.03h-15.042
 		c-5.469,0-13.673,2.051-24.611,6.153l-21.877,8.203c-8.204,4.103-14.475,9.006-18.801,14.699
 		c-4.337,5.704-7.862,12.198-10.597,19.484l-2.051,8.204l-1.367,10.254c0,5.929,2.051,11.965,6.152,18.117
 		c4.102,6.153,9.796,10.832,17.092,14.016l24.612,2.734h10.254c8.204,0,16.632-2.959,25.295-8.888l25.296-18.459l24.612-17.092
 		l23.928-19.825V87.306H186.081L168.99,96.407z"/>
 	<g id="gr" display="none">
		<line id="path1" fill="none" stroke="#231F20" stroke-width="25" stroke-miterlimit="10" x1="333.404" y1="77.69" x2="333.404" y2="358.652"/>
		<path id="path2" fill="none" stroke="#231F20" stroke-width="25" stroke-linejoin="bevel" stroke-miterlimit="10" d="
			M154.811,70.536c0,0-89.835,83.682,82.22,106.448"/>
		<path id="path3" fill="none" stroke="#231F20" stroke-width="25" stroke-linejoin="bevel" stroke-miterlimit="10" d="
			M237.03,176.984c0,0-130.829,29.535-76.066,107.064c54.763,77.528,169.21-33.227,169.21-33.227"/>
		<line id="path4" fill="none" stroke="#231F20" stroke-width="25" stroke-linejoin="bevel" stroke-miterlimit="10" x1="64.976" y1="70.305" x2="423.086" y2="70.305"/>
	</g>
</svg>
