<?xml version="1.0" encoding="utf-8"?>
<!-- Generator: Adobe Illustrator 15.0.0, SVG Export Plug-In . SVG Version: 6.00 Build 0)  -->
<!DOCTYPE svg PUBLIC "-//W3C//DTD SVG 1.1//EN" "http://www.w3.org/Graphics/SVG/1.1/DTD/svg11.dtd">
<svg version="1.1" id="Layer_1" xmlns="http://www.w3.org/2000/svg" xmlns:xlink="http://www.w3.org/1999/xlink" x="0px" y="0px"
	 width="487.863px" height="450.621px" viewBox="0 0 487.863 450.621" enable-background="new 0 0 487.863 450.621"
	 xml:space="preserve">

 	<g id="path0">
 		<path fill="#AF4425" d="M284.513,87.043h-48.461v133.775v12.285v8.191v5.461v4.777c0,2.73-2.303,7.283-6.889,13.65
 			c-10.121,14.109-22.533,21.158-37.23,21.158l-14.482-2.047l-17.232-8.873c-10.58-5.908-18.846-12.51-24.816-19.795
 			c-12.414-12.285-21.607-23.994-27.578-35.15c-5.973-11.143-8.959-20.816-8.959-29.006V87.043H64.738V54.281h219.775V87.043z
 			 M200.562,179.867V87.043h-65.523v114.664c0,14.109,0.684,23.441,2.047,27.984c1.365,4.555,4.096,8.873,8.191,12.969l11.604,6.143
 			l12.285,2.047c6.367,0,11.709-2.154,16.039-6.484c4.318-4.318,7.615-9.213,9.896-14.674c1.813-8.639,3.178-16.828,4.096-24.57
 			C200.103,197.388,200.562,188.974,200.562,179.867z"/>
 		<path fill="#AF4425" d="M423.748,87.043h-66.889v308.674l-39.586-37.561V87.043h-32.762V54.281h139.236V87.043z"/>
 	</g>
	<g id="gr" display="none">
		<path id="path1" fill="none" stroke="#231F20" stroke-width="25" stroke-miterlimit="10" d="M114.244,74.782c0,0-15,94.5,12.5,146
			s40.844,47.04,69.133,48.016c59.463,2.051,24.867-191.016,24.867-191.016"/>
		<line id="path2" fill="none" stroke="#231F20" stroke-width="25" stroke-miterlimit="10" x1="335.244" y1="78.782" x2="335.244" y2="372.282"/>
		<line id="path3" fill="none" stroke="#231F20" stroke-width="25" stroke-miterlimit="10" x1="66.244" y1="68.782" x2="423.244" y2="68.782"/>
	</g>
</svg>
