<?xml version="1.0" encoding="utf-8"?>
<!-- Generator: Adobe Illustrator 15.0.0, SVG Export Plug-In . SVG Version: 6.00 Build 0)  -->
<!DOCTYPE svg PUBLIC "-//W3C//DTD SVG 1.1//EN" "http://www.w3.org/Graphics/SVG/1.1/DTD/svg11.dtd">
<svg version="1.1" id="Layer_1" xmlns="http://www.w3.org/2000/svg" xmlns:xlink="http://www.w3.org/1999/xlink" x="0px" y="0px"
	 width="487.863px" height="450.621px" viewBox="0 0 487.863 450.621" enable-background="new 0 0 487.863 450.621"
	 xml:space="preserve">
	<path id="path0" fill="#D4A847" d="M299.277,260.004h-78.49c0,10.014-2.465,20.935-7.381,32.762l-2.207,8.189
		c-1.482,4.096-2.709,6.826-3.689,8.191c-1.482,4.553-4.928,7.742-10.334,9.555l-12.5-2.047c-4.137-1.365-7.572-4.096-10.301-8.191
		l-43.684-56.649l-7.508-11.603c-1.363-3.637-1.6-7.956-0.682-12.969c0.447-1.813,2.154-3.52,5.119-5.119
		c2.953-1.588,8.756-2.389,17.404-2.389h36.174v-55.967h-18.428c-5.012,0-12.969-1.473-23.887-4.438
		c-10.922-2.953-19.689-6.932-26.279-11.943c-6.602-5.002-12.402-12.286-17.404-21.842c-2.283-5.001-3.648-8.414-4.096-10.237
		c-1.824-5.908-2.73-12.51-2.73-19.794c0-16.828,6.398-29.572,19.207-38.221l16.467-4.778c8.691,0,17.607,3.188,26.756,9.556
		l26.076,20.476c10.057,8.649,17.607,18.663,22.641,30.031l13.031,38.222l6.176,32.079c1.365,9.107,2.059,21.394,2.059,36.856
		h78.49V260.004z M181.199,146.703l2.73-17.063c0-11.827-4.777-23.654-14.334-35.492c-5.459-6.366-10.92-11.026-16.381-13.991
		c-5.459-2.954-12.061-5.119-19.793-6.484c-3.188,0-7.508,1.365-12.967,4.095c-7.744,5.014-11.604,12.969-11.604,23.889
		c0,8.649,2.271,17.522,6.824,26.619c8.191,16.381,22.289,24.571,42.318,24.571C165.267,152.846,173.01,150.799,181.199,146.703z
		 M276.754,90.053h-37.539l-25.254-32.761h62.793V90.053z M398.244,90.053H337.5v308.675l-38.223-37.646V90.053h-22.523V57.293
		h121.49V90.053z"/>
	<g id="gr" display="none">
		<path id="path1" fill="none" stroke="#231F20" stroke-width="25" stroke-miterlimit="10" d="M193.054,154.32
			c0,0-53.35,14.734-85.865-19.815c-32.518-34.55-1.523-92.471,36.582-68.591s62.494,46.235,55.889,162.077
			c0,0,6.096,91.963-10.67,81.801c-16.768-10.162-57.922-65.543-54.365-77.736s185.449,8.13,185.449,8.13"/>
		<line id="path2" fill="none" stroke="#231F20" stroke-width="25" stroke-miterlimit="10" x1="317.025" y1="80.286" x2="317.025" y2="369.383"/>
		<line id="path3" fill="none" stroke="#231F20" stroke-width="25" stroke-miterlimit="10" x1="225.08" y1="72.519" x2="397.81" y2="72.519"/>
	</g>
</svg>
