<?xml version="1.0" encoding="utf-8"?>
<!-- Generator: Adobe Illustrator 15.0.0, SVG Export Plug-In . SVG Version: 6.00 Build 0)  -->
<!DOCTYPE svg PUBLIC "-//W3C//DTD SVG 1.1//EN" "http://www.w3.org/Graphics/SVG/1.1/DTD/svg11.dtd">
<svg version="1.1" id="Layer_1" xmlns="http://www.w3.org/2000/svg" xmlns:xlink="http://www.w3.org/1999/xlink" x="0px" y="0px"
	 width="487.863px" height="450.621px" viewBox="0 0 487.863 450.621" enable-background="new 0 0 487.863 450.621"
	 xml:space="preserve">
<g>
	<path fill="#ED7D31" d="M309.646,203.682c-20.027,12.744-39.139,19.11-57.332,19.11c-18.203,0-33.338-2.154-45.389-6.483
		c-12.061-4.319-23.781-12.851-35.15-25.595c-19.11,0-37.314,6.793-54.602,20.358c-15.475,14.034-23.207,30.319-23.207,48.854
		c0,7.699,1.248,14.941,3.754,21.723c2.496,6.783,7.615,13.012,15.357,18.664c7.732,5.652,17.063,8.479,27.984,8.479h17.745
		c3.637-0.907,8.639-3.179,15.017-6.826c0-16.381,7.049-27.983,21.158-34.809c5.461-2.73,11.145-4.096,17.063-4.096
		c12.285,0,21.842,4.777,28.666,14.334c2.271,3.188,4.096,9.555,5.461,19.11c0,8.649-2.506,17.298-7.508,25.937
		c-6.377,11.838-17.746,19.11-34.127,21.84l16.381,45.73l-14.332,6.143l-22.407-51.873h-21.734c-4.532,0-11.433-1.813-20.71-5.438
		c-9.279-3.627-19.805-10.078-31.578-19.378c-11.773-9.289-21.275-20.284-28.518-32.976c-5.887-13.139-8.83-26.746-8.83-40.802
		v-10.878c0-16.316,4.319-29.914,12.969-40.792c8.639-10.878,21.605-20.86,38.904-29.925L105.57,149.08
		c-13.203-10.462-21.158-20.018-23.889-28.666l-4.777-25.937c0-13.65,6.143-24.571,18.428-32.761
		c1.813-1.365,5.908-3.179,12.286-5.461c6.366-2.271,12.509-3.412,18.429-3.412c9.555,0,17.969,1.141,25.253,3.412
		c21.841,5.461,39.128,19.346,51.872,41.635l7.508,19.793l2.73,20.477c0,9.555-2.164,17.639-6.484,24.229
		c-4.33,6.601-11.496,13.31-21.5,20.135c17.289,10.921,35.033,16.38,53.238,16.38c27.301,0,50.955-9.779,70.982-29.348V203.682z
		 M182.013,131.334c2.271-5.46,3.861-12.051,4.777-19.793c0-6.825-1.482-13.31-4.436-19.452
		c-2.965-6.143-7.625-11.145-13.992-15.016c-6.377-3.86-13.203-5.802-20.477-5.802c-10.014,0-18.428,2.506-25.253,7.508
		c-2.729,1.824-6.602,6.143-11.603,12.969c-2.73,5.46-4.096,11.603-4.096,18.428c0,8.19,2.047,16.381,6.143,24.571
		c4.096,6.378,8.639,10.921,13.65,13.65l19.111,4.095C161.302,152.492,173.365,145.443,182.013,131.334z M309.646,87.652h-58.697
		l-21.84-32.762h80.537V87.652z"/>
	<path fill="#ED7D31" d="M413.381,87.652h-66.887v308.674l-39.588-37.56V87.652h-32.762V54.89h139.236V87.652z"/>
</g>
</svg>
