<?xml version="1.0" encoding="utf-8"?>
<!-- Generator: Adobe Illustrator 15.0.0, SVG Export Plug-In . SVG Version: 6.00 Build 0)  -->
<!DOCTYPE svg PUBLIC "-//W3C//DTD SVG 1.1//EN" "http://www.w3.org/Graphics/SVG/1.1/DTD/svg11.dtd">
<svg version="1.1" id="Layer_1" xmlns="http://www.w3.org/2000/svg" xmlns:xlink="http://www.w3.org/1999/xlink" x="0px" y="0px"
	 width="487.863px" height="450.621px" viewBox="0 0 487.863 450.621" enable-background="new 0 0 487.863 450.621"
	 xml:space="preserve">
 	<g id="path0">
 		<path fill="#548135" d="M327.068,87.045h-71.666v308.674l-36.174-37.582V256.312l-13.65,5.779l-10.922,4.34l-28.666,2.166
 			c-13.65-1.365-25.371-4.906-35.15-10.623c-9.789-5.705-19.686-14.951-29.689-27.748c-16.381-20.541-24.57-42.008-24.57-64.393
 			V87.045H40.404V54.283h286.664V87.045z M219.228,197.412V87.045H112.754v99.404c0,9.598,0.682,17.031,2.047,22.277
 			c1.365,5.258,5.002,11.08,10.92,17.479l14.334,12.34c4.096,2.752,9.32,4.117,15.697,4.117c6.367,0,11.604-0.908,15.699-2.742
 			l19.793-11.656C202.164,221.865,211.486,211.584,219.228,197.412z"/>
 		<path fill="#548135" d="M446.508,87.045H248.574V54.283h197.934V87.045z M403.508,239.719l2.73,13.617l0.684,12.938l-2.049,18.375
 			c0,4.99-0.457,8.168-1.365,9.533l-4.094,12.926c-1.365,7.721-2.283,12.029-2.73,12.936c-0.918,3.178-2.506,6.592-4.777,10.217
 			l-12.969,22.459l-41.635-29.252c15.922-12.244,26.844-29.018,32.762-50.338l5.461-19.057l1.365-14.963
 			c0-8.158-2.049-15.303-6.143-21.424c-4.096-6.123-10.355-11.113-18.77-14.975c-8.426-3.85-17.406-5.779-26.961-5.779
 			c-7.273,0-13.416,0.918-18.428,2.73l-21.158,8.189l-19.795,10.238l-17.063,13.65v-49.824l11.604-8.189l12.967-7.508
 			c7.744-4.096,16.381-6.145,25.938-6.145c22.758,0,44.023,6.697,63.816,20.082C382.691,193.551,396.224,213.398,403.508,239.719z"
 			/>
 	</g>
	<g id="gr" display="none">
		<path id="path1" fill="none" stroke="#231F20" stroke-width="25" stroke-miterlimit="10" d="M90.082,70.8v109.79
			c0,0,38.617,109.789,109.791,64.359l39.373-35.587"/>
		<line id="path2" fill="none" stroke="#231F20" stroke-width="25" stroke-miterlimit="10" x1="236.431" y1="72.313" x2="236.431" y2="373.669"/>
		<path id="path3" fill="none" stroke="#231F20" stroke-width="25" stroke-miterlimit="10" d="M240.76,201.033
			c0,0,68.145-46.188,124.176-9.086s-3.027,146.135-3.027,146.135"/>
		<line id="path4" fill="none" stroke="#231F20" stroke-width="25" stroke-miterlimit="10" x1="40.865" y1="69.77" x2="446.711" y2="69.77"/>
	</g>
</svg>
