<?xml version="1.0" encoding="utf-8"?>
<!-- Generator: Adobe Illustrator 15.0.0, SVG Export Plug-In . SVG Version: 6.00 Build 0)  -->
<!DOCTYPE svg PUBLIC "-//W3C//DTD SVG 1.1//EN" "http://www.w3.org/Graphics/SVG/1.1/DTD/svg11.dtd">
<svg version="1.1" id="Layer_1" xmlns="http://www.w3.org/2000/svg" xmlns:xlink="http://www.w3.org/1999/xlink" x="0px" y="0px"
	 width="487.863px" height="450.621px" viewBox="0 0 487.863 450.621" enable-background="new 0 0 487.863 450.621"
	 xml:space="preserve">
<g>
	<path fill="#D4A847" d="M275.165,245.434c-13.65,15.166-30.489,22.748-50.507,22.748c-7.743,0-14.451-0.799-20.135-2.398
		c-5.695-1.6-11.038-3.99-16.04-7.189l-14.333-8.914c-12.286-8.213-21.841-16.436-28.667-24.656
		c-8.649-11.412-12.968-23.293-12.968-35.631V86.63H103.85V53.868h171.315V86.63h-91.182l91.182,127.783V245.434z M262.88,218.358
		L168.008,86.63v120.295c0,11.529,4.543,21.213,13.651,29.041c10.003,7.379,20.924,11.059,32.761,11.059
		c5.002,0,9.438-0.811,13.31-2.441c3.86-1.633,9.896-5.482,18.087-11.539L262.88,218.358z"/>
	<path fill="#D4A847" d="M382.996,86.63h-66.888v308.674l-39.587-37.561V86.63H243.76V53.868h139.236V86.63z"/>
</g>
</svg>
