<?xml version="1.0" encoding="utf-8"?>
<!-- Generator: Adobe Illustrator 15.0.0, SVG Export Plug-In . SVG Version: 6.00 Build 0)  -->
<!DOCTYPE svg PUBLIC "-//W3C//DTD SVG 1.1//EN" "http://www.w3.org/Graphics/SVG/1.1/DTD/svg11.dtd">
<svg version="1.1" id="Layer_1" xmlns="http://www.w3.org/2000/svg" xmlns:xlink="http://www.w3.org/1999/xlink" x="0px" y="0px"
	 width="487.863px" height="450.621px" viewBox="0 0 487.863 450.621" enable-background="new 0 0 487.863 450.621"
	 xml:space="preserve">
	 <path id="path0" fill="#AF4425" d="M386.861,87.044h-71.666v308.674l-36.174-37.582V256.311l-13.65,5.779l-10.922,4.341l-28.666,2.165
		 c-13.65-1.365-25.371-4.906-35.15-10.622c-9.789-5.706-19.686-14.952-29.689-27.749c-16.381-20.54-24.57-42.008-24.57-64.393
		 V87.044h-36.176V54.282h286.664V87.044z M279.021,197.411V87.044H172.547v99.404c0,9.598,0.682,17.031,2.047,22.277
		 c1.365,5.258,5.002,11.08,10.92,17.479l14.334,12.339c4.096,2.752,9.32,4.117,15.697,4.117c6.367,0,11.604-0.907,15.699-2.741
		 l19.793-11.657C261.957,221.864,271.279,211.584,279.021,197.411z"/>
  <g id="gr" display="none">
		<path id="path1" fill="none" stroke="#231F20" stroke-width="25" stroke-miterlimit="10" d="M152.773,76.1v97.676
			c0,0,31.801,103.732,99.189,74.96l50.73-40.888"/>
		<line id="path2" fill="none" stroke="#231F20" stroke-width="25" stroke-miterlimit="10" x1="296.636" y1="82.158" x2="296.636" y2="377.456"/>
		<line id="path3" fill="none" stroke="#231F20" stroke-width="25" stroke-miterlimit="10" x1="101.285" y1="70.014" x2="385.984" y2="70.014"/>
	</g>
</svg>
