<?xml version="1.0" encoding="utf-8"?>
<!-- Generator: Adobe Illustrator 15.0.0, SVG Export Plug-In . SVG Version: 6.00 Build 0)  -->
<!DOCTYPE svg PUBLIC "-//W3C//DTD SVG 1.1//EN" "http://www.w3.org/Graphics/SVG/1.1/DTD/svg11.dtd">
<svg version="1.1" id="Layer_1" xmlns="http://www.w3.org/2000/svg" xmlns:xlink="http://www.w3.org/1999/xlink" x="0px" y="0px"
	 width="487.863px" height="450.621px" viewBox="0 0 487.863 450.621" enable-background="new 0 0 487.863 450.621"
	 xml:space="preserve">
 	<path id="path0" fill="#548135" d="M390.635,86.94h-66.889v308.674l-39.586-37.592v-88.164c-19.943,21.842-44.417,32.762-73.425,32.762H195.09
 		l-15.635-4.096c-18.129-4.096-33.998-14.332-47.596-30.713c-16.316-19.111-24.475-42.541-24.475-70.301
 		c15.463,0,28.324-3.414,38.563-10.238c10.238-6.826,17.629-17.746,22.182-32.762l1.365-16.381c0-11.369-2.281-21.158-6.824-29.35
 		c-4.555-8.189-11.156-15.463-19.794-21.84H95.781V54.178h294.853V86.94z M284.16,176.352V86.94h-97.602
 		c4.927,6.824,9.608,15.934,14.046,27.301l3.7,15.016v15.016v8.191v9.555c-2.794,14.568-10.569,28.783-23.323,42.658
 		c-12.755,13.885-28.422,22.865-46.978,26.961c6.825,23.205,22.747,38.455,47.777,45.729l17.063,2.73
 		c15.016,0,28.89-5.002,41.634-15.016c12.733-10.004,23.206-22.973,31.397-38.904C280.064,210.255,284.16,193.649,284.16,176.352z"
 		/>
	<g id="gr" display="none">
		<path id="path1" fill="none" stroke="#231F20" stroke-width="25" stroke-miterlimit="10" d="M145.979,68.11
			c0,0,58.539,41.885,38.353,91.34s-71.155,49.455-71.155,49.455s11.607,80.238,95.882,80.743s95.378-87.304,95.378-87.304"/>
		<line id="path2" fill="none" stroke="#231F20" stroke-width="25" stroke-miterlimit="10" x1="303.931" y1="81.735" x2="303.931" y2="364.932"/>
		<line id="path3" fill="none" stroke="#231F20" stroke-width="25" stroke-miterlimit="10" x1="97.533" y1="69.624" x2="391.74" y2="69.624"/>
	</g>
</svg>
