<?xml version="1.0" encoding="utf-8"?>
<!-- Generator: Adobe Illustrator 15.0.0, SVG Export Plug-In . SVG Version: 6.00 Build 0)  -->
<!DOCTYPE svg PUBLIC "-//W3C//DTD SVG 1.1//EN" "http://www.w3.org/Graphics/SVG/1.1/DTD/svg11.dtd">
<svg version="1.1" id="Layer_1" xmlns="http://www.w3.org/2000/svg" xmlns:xlink="http://www.w3.org/1999/xlink" x="0px" y="0px"
	 width="1440px" height="688.893px" viewBox="0 115.101 1440 688.893" enable-background="new 0 115.101 1440 688.893"
	 xml:space="preserve">
<g id="narmada">
	<rect x="0" y="115.101" fill="#FAEA95" width="1440" height="688.892"/>
	<path fill="#3BB7F4" d="M161.415,803.992c2.354-4.396,4.584-8.903,6.723-13.502c5.298-11.392,10.634-23.651,16.574-34.717
		c8.586-15.994,17.229-45.44,8.707-63.695c-4.617-9.891-14.648-8.254-22.171-15.649c-8.52-8.376-3.965-19.91-9.78-29.621
		c-4.868-8.129-14.381-12.463-17.909-21.158c-4.142-10.207,3.031-21.686-2.703-30.75c-6.748-10.663-23-9.613-24.663-23.377
		c-1.195-9.896,5.811-22.258,6.151-33.214c0.368-11.811-1.291-21.52-11.111-29.583c-7.616-6.256-27.391-5.078-32.031-13.445
		c-15.948-28.75,48.961-23.752,49.377-40.658c0.284-11.555-25.736-8.593-28.191-17.19c-2.849-9.976,20.444-12.129,23.183-20.908
		c5.699-18.27-27.417-27.129-39.385-30.816c-9.867-3.038-20.864-2.327-30.826-4.922c-7.039-1.832-12.557-4.639-19.522-6.088
		c-12.314-2.561-13.579-5.498-24.691-12.354c-2.802-1.729-5.917-3.097-9.145-4.354v446.004L161.415,803.992L161.415,803.992z"/>
	<text transform="matrix(0.9953 0 0 1 424.7083 175.5286)" font-family="'TimesNewRomanPS-ItalicMT'" font-size="37.859">MADHYA PRADESH</text>
	<text transform="matrix(0.9953 0 0 1 779.8625 764.0764)" font-family="'TimesNewRomanPS-ItalicMT'" font-size="37.859">MAHARASHTRA</text>
	<g>
		<text transform="matrix(0.9953 0 0 1 135.2341 438.718)" font-family="'TimesNewRomanPSMT'" font-size="31.859">Chandol</text>
	</g>
	<g>
		<text transform="matrix(0.9953 0 0 1 127.5232 571.26)" font-family="'TimesNewRomanPSMT'" font-size="31.859">Bharuch</text>
	</g>
	<g>
		<text transform="matrix(0.9953 0 0 1 215.4182 526.5422)" font-family="'TimesNewRomanPSMT'" font-size="31.859">Dahej</text>
	</g>
	<text transform="matrix(0.9953 0 0 1 26.7332 693.1282)" font-family="'TimesNewRomanPSMT'" font-size="37.859">Arabian </text>
	<text transform="matrix(0.9953 0 0 1 60.2097 738.5598)" font-family="'TimesNewRomanPSMT'" font-size="37.859">Sea</text>
	<text transform="matrix(0.9953 0 0 1 56.2244 270.6057)" font-family="'TimesNewRomanPS-ItalicMT'" font-size="37.859">GUJARAT</text>
	<g>
		<g>
			<path fill="none" stroke="#414042" stroke-width="3" stroke-miterlimit="10" stroke-dasharray="2.0081,2.0081" d="
				M88.695,120.427c3.805,15.07,6.805,30.07,19.805,40.07c18,12,37,1,56-1c18-1,36,3,53,10c10,5,17,12,25,19c1,1,3,1,4,2
				c9,8,16,17,21,29c3,9,16,9,24,13c5,3,11,4,15.36,8.917"/>
			<path fill="none" stroke="#414042" stroke-width="3" stroke-miterlimit="10" d="M307.659,242.026
				c0.263,0.208,0.52,0.418,0.77,0.63"/>
		</g>
	</g>
	<g>
		<g>
			<path fill="none" stroke="#414042" stroke-width="3" stroke-miterlimit="10" stroke-dasharray="1.9994,1.9994" d="
				M376.826,120.509c-6.326,6.988-10.326,14.988-15.326,21.988c-4,26,5,56,29,71c3,2,3,5,2,8c-2,5-6,10-11,10c-18-1-36,0-54,3
				c-9,2-22,6-20,17c1,10,3,20,4,31c1,4,4,8,9,7c8-2,16-5,24-5c3,0,6,3,5,7c-1,2-2,4-4,6c-7,7-15,14-19,23c-3,10-4,21-10,30
				c-5,6-13,6-19,10c-4,3-9,7-6,12c2,6,9,9,15,12c8,4,22-1,26,8c-2,10-4,20-11,28c-8,8-20,11-32,8c-2,0-3,2-2,3c6,8,15,12,21,21
				c1,1,0,3,0,5c-5,15-13,29-13,44c-1,6,4,12,4,18c0,1,0,2-1,3c-8,9-15,18-21,28c-5,9-8,20-9,30c0,12,9,22,14,33c1,2,0,5,0,8
				c-3,15-9,28-13,42c-1,2-2,4-4,6c-5,4-13,4-17,9c-3,4,1,8,3,12c9,14,16,28,26,42c9,13,20,24,33,35c10,10,18,23,27.518,33.435"/>
			<path fill="none" stroke="#414042" stroke-width="3" stroke-miterlimit="10" d="M338.642,801.719
				c0.403,0.51,0.616,0.782,0.616,0.782"/>
		</g>
	</g>
	<g>
		<g>
			<path fill="none" stroke="#414042" stroke-width="3" stroke-miterlimit="10" d="M308.666,453.112c0,0,0.35,0.023,0.993,0.072"/>
			<path fill="none" stroke="#414042" stroke-width="3" stroke-miterlimit="10" stroke-dasharray="1.9994,1.9994" d="
				M311.649,453.349c10.035,0.871,42.293,4.328,48.608,13.169c7.5,10.499,11.999,28.499,23.999,52.497
				c12,23.999,65.244,29.264,74.744,43.764s17.5,28.5,27,42s29,34.5,35,47s8.5,24,27.5,25s38,2.5,58.5,0.5s62.5-6.5,65.5,5.5
				s-6,30.5-6,37s-1,9.5,3,11.5s9,6,9,15.5s-4.5,14,2.5,14.5s13,1.5,30.5-1.5s36-6.5,38-16.5s6-21,3.5-32s8.5-12,16.5-19
				s18.5-34,24-48s16.5-29.5,30.5-29.5s40,14,44.5,26.5s-7,52,19.5,56.5s50-5.5,76.5-5.5s80,6.5,93,5s26.5-8,60.5-8s53.5-5.5,74-1
				s52,16.5,69,23s26.5,9.5,51,10.5s57,1.5,63,17s-3.5,25,6,42.5c6.046,11.137,9.257,16.199,10.791,18.408"/>
			<path fill="none" stroke="#414042" stroke-width="3" stroke-miterlimit="10" d="M1392.377,800.502
				c0.442,0.598,0.623,0.775,0.623,0.775"/>
		</g>
	</g>
	<g>
		<path fill="#3BB7F4" d="M98.058,505.089c0,0,18.762-0.809,24.305,1.845c6.621,3.169,13.288-3.675,21.487-7.634
			s17.529-5.938,22.618-13.006c5.089-7.066,6.785-12.439,13.854-15.832c7.069-3.394,12.44-9.048,19.227-10.179
			s9.329-7.635,24.597-0.849c15.269,6.786,29.121,12.439,37.037,12.157c7.916-0.283,21.771-3.677,30.817-6.785
			c9.046-3.109,33.361-7.635,40.712-9.33c7.35-1.696,22.618-12.438,32.795-14.983c10.178-2.545,13.288-2.826,26.011-2.826
			s24.031-2.546,33.644-2.828c9.613-0.282,18.377,1.131,27.143,1.131c8.765,0,22.053-6.219,29.121-8.198
			c7.067-1.979,14.136-2.263,22.899-4.808c8.766-2.543,36.472-11.025,40.147-11.592c3.676-0.565,12.439,0.566,20.072-3.958
			c7.634-4.522,14.702-7.916,26.012-11.024c11.309-3.11,15.267-4.808,28.555-8.482s26.294-5.653,35.058-7.633
			c8.765-1.979,22.618-8.481,23.749-9.33c1.132-0.849,19.791-8.199,29.121-13.006s27.426-12.439,36.473-17.529
			c9.047-5.088,21.77-12.438,31.1-15.832c9.33-3.393,32.797-4.522,37.037-5.371s5.371-7.352,12.438-7.635
			c7.068-0.281,28.272,0.85,30.817,0.85s9.896-2.544,13.854-5.372c3.958-2.827,11.593-9.33,15.55-10.461
			c3.959-1.131,15.549-4.521,36.471-9.896c20.922-5.371,30.535-8.198,43.258-6.784c12.724,1.413,29.687,5.938,46.367,5.938
			c16.68,0,35.906-2.545,43.257-2.828c7.352-0.282,42.408-6.502,60.503-4.806c18.096,1.696,27.424,0.282,35.906,12.723
			c8.482,12.441,6.785,14.983,14.419,22.618c7.634,7.633,13.854,9.895,19.226,13.005c5.372,3.11,12.439,7.634,17.529,18.378
			c5.089,10.743,21.486,31.383,26.293,24.597c4.808-6.786,5.09-18.941,5.654-26.857c0.566-7.916,0-17.813,5.654-24.032
			s16.397-11.874,22.9-12.439c6.504-0.564,20.64-5.089,33.361-2.826c12.722,2.262,33.361,9.327,46.933,17.811
			c13.57,8.482,19.226,11.309,27.142,16.115c7.917,4.807,5.654,5.653,16.115,10.461c10.461,4.807,20.355,11.309,24.881,14.983
			l-1.697,1.414c0,0-2.543,0.565-4.807,0c-2.263-0.564-18.095-10.461-29.97-14.983c-11.874-4.523-30.815-17.813-36.188-20.074
			s-35.059-14.701-46.649-14.984c-11.592-0.281-31.1,0.283-39.864,8.199c-8.764,7.916-9.329,13.57-8.765,21.771
			c0.564,8.199-2.262,28.838-4.523,31.1c-2.262,2.264-5.089,5.373-13.287,3.959c-8.199-1.414-6.786-5.938-23.185-18.377
			c-16.396-12.44-15.833-19.227-20.639-23.184c-4.806-3.958-15.267-6.222-19.226-10.744c-3.959-4.523-13.288-25.162-17.813-28.271
			c-4.523-3.109-7.067-10.461-21.487-8.481c-14.418,1.979-60.503,5.372-72.942,9.047c-12.439,3.676-7.067,4.242-30.251,5.373
			c-23.185,1.131-22.618-7.633-48.63,0c-26.011,7.633-44.388,11.875-47.496,14.137c-3.111,2.262-11.311,5.938-22.054,9.047
			c-10.744,3.109-16.397,6.785-27.143,7.633c-10.743,0.85-32.514-1.979-37.037-2.262c-4.523-0.282-12.722,3.958-17.528,5.372
			c-4.806,1.414-21.204,11.591-30.251,17.528c-9.047,5.937-30.534,18.377-36.472,21.485c-5.938,3.11-10.179,3.394-28.556,8.482
			c-18.376,5.089-22.053,8.198-42.408,14.136c-20.356,5.938-22.618,5.089-35.906,8.481c-13.288,3.392-16.397,7.067-44.67,16.114
			c-28.272,9.048-37.602,16.115-54.849,17.529c-17.247,1.413-24.033,3.109-45.236,6.785c-21.204,3.676-56.828,3.393-83.404,6.22
			c-26.575,2.827-16.681-2.545-30.816,0.85c-14.136,3.392-20.073,1.978-30.534,7.35s-27.424,12.158-36.754,15.834
			c-9.33,3.674-12.23,5.998-21.807,9.219c-9.577,3.222-13.534,4.916-28.802,5.482c-15.267,0.563-43.257-9.896-50.607-11.311
			c-7.352-1.414-17.53-4.24-30.252,3.108c-12.724,7.352-13.289,12.723-27.425,18.377c-14.137,5.655-5.654,4.807-16.115,7.635
			c-10.461,2.826-13.854-0.282-16.398,5.654s-2.544,10.742-5.089,14.701s-4.412,6.887-4.412,6.887"/>
		<path fill="#2CC3FF" d="M119.918,540.057l-3.373-2.15c0,0,1.869-2.931,4.417-6.894c1.228-1.91,1.811-4.167,2.484-6.78
			c0.583-2.26,1.245-4.821,2.447-7.628c2.077-4.844,5.149-5.09,9.038-5.399c2.217-0.177,4.977-0.396,8.677-1.396
			c4.689-1.267,5.142-1.669,5.825-2.277c1.08-0.961,2.561-2.276,10.07-5.282c7.79-3.115,11.229-6.086,15.21-9.524
			c2.98-2.575,6.361-5.493,11.957-8.728c6.841-3.951,12.986-5.115,18.362-5.115c4.401,0,8.286,0.778,11.619,1.448
			c0.564,0.113,1.114,0.224,1.648,0.326c2.176,0.418,5.9,1.539,10.615,2.959c11.104,3.345,27.681,8.336,38.375,8.336
			c0.396,0,0.785-0.006,1.165-0.021c13.887-0.516,18.022-1.917,26.264-4.712l1.974-0.668c5.376-1.808,8.659-3.353,12.135-4.987
			c2.719-1.28,5.53-2.603,9.576-4.196c6.268-2.469,25.337-9.979,36.574-15.752c6.875-3.53,11.855-4.253,18.159-5.166
			c3.593-0.521,7.665-1.111,12.822-2.35c3.761-0.903,5.951-1.223,7.625-1.223c1.305,0,2.295,0.192,3.474,0.458
			c1.39,0.312,3.191,0.715,7.146,0.715c2.896,0,6.942-0.217,12.828-0.844c11.55-1.229,24.879-1.876,37.77-2.503
			c17.273-0.84,33.591-1.634,45.504-3.697c4.675-0.812,8.647-1.523,12.187-2.16c12.697-2.281,19.691-3.539,33.229-4.648
			c10.307-0.844,17.544-3.703,28.5-8.029c6.66-2.631,14.947-5.904,25.903-9.409c14.887-4.765,22.618-7.974,28.831-10.55
			c5.551-2.303,9.562-3.967,15.954-5.6c5.25-1.34,8.875-2.041,12.38-2.719c5.481-1.06,11.149-2.154,23.461-5.745
			c9.948-2.902,15.841-5.105,21.537-7.239c5.904-2.21,11.481-4.297,20.897-6.903c6.156-1.705,10.678-2.858,14.311-3.785
			c7.146-1.823,10.104-2.578,13.851-4.541c5.781-3.027,27.383-15.533,36.303-21.387c8.329-5.468,25.48-16.216,30.784-17.775
			c1.48-0.437,3.37-1.182,5.37-1.972c4.352-1.721,8.846-3.495,12.275-3.495c0.194,0,0.385,0.006,0.571,0.018
			c1.097,0.068,3.134,0.277,5.713,0.543c6.713,0.688,18.258,1.872,26.571,1.872c1.636,0,3.146-0.046,4.472-0.149
			c6.803-0.537,11.521-2.268,16.983-4.271c2.962-1.086,6.024-2.209,9.759-3.29c10.738-3.108,18.638-6.712,21.433-8.744
			c2.171-1.578,8.603-3.39,22.94-7.337c6.963-1.916,15.629-4.301,25.17-7.101c8.271-2.428,13.979-3.237,18.592-3.237
			c4.303,0,7.648,0.705,11.231,1.459c4.035,0.853,8.529,1.799,15.341,1.799c1.231,0,2.537-0.03,3.931-0.1
			c16.94-0.826,18.307-1.325,22.829-2.979c1.65-0.604,3.705-1.355,6.953-2.314c8.611-2.543,32.494-4.904,51.684-6.802
			c9.093-0.899,16.943-1.675,21.556-2.309c1.74-0.238,3.329-0.348,4.781-0.348c8.67,0,12.526,3.855,15.457,6.783
			c0.913,0.914,1.778,1.776,2.653,2.379c2.807,1.93,6.32,8.078,11.363,17.237c2.607,4.734,5.303,9.632,6.82,11.365
			c1.883,2.152,5.862,3.884,9.713,5.56c3.394,1.475,6.9,3.001,9.277,4.959c1.913,1.573,3.063,3.481,4.392,5.691
			c2.412,4.008,5.715,9.497,16.186,17.44c7.551,5.729,11.339,9.752,14.104,12.688c3.186,3.384,4.378,4.65,8.21,5.312
			c1.309,0.226,2.454,0.326,3.464,0.326c4.354,0,6.208-1.859,7.88-3.537l0.189-0.191c1.675-2.178,4.502-21.43,3.942-29.547
			c-0.564-8.205-0.222-14.684,9.419-23.393c6.447-5.824,18.854-8.769,36.906-8.769c1.415,0,2.863,0.019,4.348,0.054
			c10.939,0.268,36.776,10.678,47.377,15.141c2.178,0.918,6.123,3.336,11.119,6.396c7.937,4.861,17.812,10.912,25.006,13.652
			c7.644,2.91,16.946,8.037,23.104,11.43c2.933,1.617,5.966,3.287,6.649,3.486c0.57,0.143,1.182,0.19,1.744,0.19
			c0.178,0,0.351-0.005,0.515-0.014c-4.814-3.502-13.074-8.736-21.968-12.821c-6.462-2.969-8.301-4.523-10.43-6.323
			c-1.381-1.167-2.809-2.374-5.889-4.245c-2.992-1.816-5.704-3.373-8.574-5.023c-4.759-2.731-10.152-5.831-18.59-11.104
			c-13.537-8.46-33.918-15.351-46.224-17.537c-2.384-0.424-4.834-0.598-7.278-0.598c-6.622,0-13.213,1.271-18.404,2.271
			c-2.818,0.544-5.254,1.013-7.154,1.179c-6.18,0.537-16.473,6.158-21.594,11.791c-4.262,4.688-4.598,11.881-4.921,18.836
			c-0.063,1.367-0.126,2.706-0.218,3.994c-0.06,0.805-0.113,1.654-0.171,2.539c-0.509,7.926-1.206,18.779-5.849,25.333
			c-1.006,1.421-2.48,2.185-4.196,2.185c-0.17,0-0.344-0.008-0.52-0.022c-7.895-0.688-20.685-17.91-25.019-27.06
			c-4.709-9.94-11.102-14.247-16.723-17.502c-1.141-0.659-2.326-1.284-3.582-1.944c-4.629-2.438-9.877-5.199-16.056-11.377
			c-4.537-4.537-6.018-7.511-7.891-11.271c-1.401-2.817-3.146-6.323-6.768-11.635c-6.66-9.768-13.812-10.291-26.791-11.24
			c-2.41-0.178-4.903-0.358-7.649-0.616c-2.118-0.198-4.475-0.286-6.997-0.286c-12.522,0-29.129,2.163-40.777,3.681
			c-5.725,0.744-10.243,1.334-12.464,1.419c-2.418,0.093-6.295,0.45-10.784,0.862c-9.024,0.83-21.386,1.967-32.55,1.967
			c-11.086,0-22.289-1.966-32.176-3.7c-5.181-0.909-10.074-1.768-14.413-2.249c-2.106-0.233-4.131-0.348-6.141-0.348
			c-8.94,0-17.614,2.238-32.231,6.009l-4.166,1.073c-19.035,4.888-30.349,8.137-35.181,9.524l-1.239,0.355
			c-2.601,0.742-7.646,4.619-11.33,7.449c-1.33,1.021-2.587,1.987-3.605,2.715c-4.256,3.041-11.942,5.745-15.017,5.745
			c-0.807,0-3.205-0.102-6.526-0.238c-6.116-0.255-15.716-0.655-21.479-0.655c-1.055,0-1.979,0.015-2.731,0.044
			c-3.297,0.132-4.958,1.938-6.717,3.85c-1.479,1.604-3.008,3.268-5.41,3.748c-1.363,0.271-4.236,0.541-8.211,0.913
			c-8.851,0.828-22.221,2.08-28.535,4.375c-8.387,3.052-19.501,9.321-28.432,14.36l-2.371,1.337
			c-5.256,2.955-13.393,6.699-21.26,10.318c-5.828,2.681-11.334,5.213-15.276,7.244c-5.693,2.934-14.717,6.76-21.305,9.553
			c-3.462,1.467-7.044,2.985-7.606,3.326c-1.428,1.076-15.495,7.61-24.435,9.631c-2.959,0.668-6.439,1.344-10.124,2.061
			c-7.533,1.464-16.071,3.123-24.843,5.55c-6.809,1.883-11.133,3.237-15.315,4.547c-3.971,1.243-7.721,2.418-13.242,3.936
			c-11.29,3.105-18.135,6.441-25.521,10.818c-6.202,3.677-13,3.883-17.497,4.018c-1.348,0.041-2.511,0.076-3.291,0.196
			c-2.535,0.39-18.661,5.21-29.331,8.399c-4.353,1.301-8.165,2.439-10.563,3.137c-4.825,1.399-9.061,2.117-13.158,2.81
			c-3.392,0.573-6.596,1.116-9.761,2.003c-2.058,0.576-4.775,1.565-7.651,2.613c-6.921,2.521-15.534,5.658-22.009,5.658
			c-3.979,0-7.846-0.277-11.939-0.572c-4.083-0.293-8.283-0.596-12.61-0.596c-0.839,0-1.684,0.012-2.533,0.037
			c-4.049,0.118-8.476,0.655-13.162,1.227c-6.177,0.75-13.178,1.602-20.54,1.602c-12.835,0-15.698,0.312-25.525,2.769
			c-5.179,1.295-12.078,4.994-18.164,8.257c-5.642,3.024-10.97,5.882-14.667,6.735c-2.062,0.475-5.458,1.174-9.39,1.981
			c-10.426,2.146-24.706,5.084-31.122,7.29c-9.083,3.122-23.173,6.6-31.396,6.893c-0.218,0.008-0.439,0.012-0.665,0.012
			c-7.881,0.001-20.151-4.738-37.256-12.34c-4.794-2.131-8.164-2.876-10.799-2.876c-2.979,0-5.02,0.952-7.124,1.933
			c-1.665,0.777-3.387,1.58-5.533,1.938c-3.766,0.627-7.231,2.927-10.901,5.36c-2.437,1.617-4.956,3.288-7.787,4.646
			c-4.724,2.268-6.772,5.494-9.609,9.959c-1.001,1.576-2.136,3.363-3.487,5.239c-4.084,5.673-10.583,8.302-16.867,10.843
			c-2.164,0.875-4.4,1.78-6.503,2.797c-2.182,1.051-4.283,2.338-6.315,3.582c-4.237,2.592-8.301,5.078-12.464,5.078
			c-1.464,0-2.939-0.308-4.44-1.025c-2.98-1.426-11.011-1.769-17.213-1.769c-2.491,0-4.687,0.056-6.143,0.118l-0.171-3.996
			c0.686-0.03,3.244-0.129,6.532-0.129c6.173,0,14.922,0.35,18.722,2.168c0.894,0.428,1.793,0.624,2.728,0.624
			c2.853,0,6.027-1.829,10.363-4.481c2.116-1.295,4.304-2.635,6.664-3.773c2.221-1.071,4.52-2.002,6.743-2.899
			c6.022-2.438,11.712-4.737,15.122-9.473c1.282-1.783,2.337-3.441,3.355-5.048c2.951-4.646,5.5-8.657,11.255-11.42
			c2.581-1.238,4.983-2.833,7.307-4.374c4.034-2.677,7.847-5.206,12.456-5.974c1.606-0.269,3.012-0.924,4.5-1.617
			c2.395-1.116,4.964-2.313,8.733-2.313c3.138,0,7.109,0.83,12.504,3.229c13.091,5.818,27.668,11.994,35.639,11.994
			c0.175,0,0.347-0.002,0.515-0.008c7.553-0.271,21.306-3.607,30.238-6.68c6.66-2.288,21.084-5.257,31.618-7.425
			c3.905-0.803,7.279-1.498,9.295-1.963c3.176-0.731,8.276-3.467,13.676-6.362c6.6-3.537,13.424-7.195,19.084-8.611
			c10.145-2.536,13.364-2.887,26.496-2.887c7.12,0,13.697-0.801,20.058-1.572c4.78-0.582,9.294-1.131,13.527-1.254
			c0.894-0.027,1.779-0.039,2.657-0.039c4.459,0,8.733,0.308,12.89,0.605c4.021,0.29,7.817,0.563,11.652,0.563
			c5.77,0,14.016-3.004,20.641-5.417c2.95-1.075,5.736-2.09,7.94-2.707c3.368-0.943,6.674-1.503,10.172-2.095
			c3.985-0.675,8.106-1.371,12.711-2.707c2.391-0.693,6.192-1.83,10.531-3.127c14.806-4.427,27.271-8.121,29.868-8.521
			c1.023-0.157,2.3-0.196,3.778-0.241c4.332-0.131,10.264-0.31,15.58-3.461c7.458-4.42,14.817-8.021,26.5-11.232
			c5.453-1.499,9.171-2.664,13.107-3.896c4.214-1.319,8.571-2.685,15.444-4.585c8.92-2.467,17.54-4.143,25.145-5.621
			c3.654-0.709,7.105-1.381,10.007-2.035c8.357-1.888,21.658-8.08,23.013-8.996c0.561-0.422,2.084-1.087,8.347-3.741
			c6.53-2.769,15.475-6.56,21.034-9.425c4.021-2.071,9.567-4.623,15.437-7.323c7.797-3.586,15.857-7.293,20.972-10.171l2.366-1.334
			c9.06-5.11,20.333-11.473,29.029-14.635c6.797-2.473,20.478-3.753,29.529-4.601c3.563-0.333,6.641-0.622,7.799-0.854
			c1.127-0.226,2.064-1.244,3.252-2.534c1.918-2.084,4.545-4.938,9.5-5.137c0.814-0.032,1.807-0.047,2.928-0.047
			c5.802,0,15.101,0.387,21.609,0.658c3.15,0.132,5.639,0.234,6.36,0.234c1.924,0,8.86-2.263,12.689-4.998
			c0.964-0.688,2.193-1.633,3.496-2.633c4.375-3.361,9.334-7.173,12.668-8.123l1.234-0.354c4.847-1.392,16.197-4.653,35.288-9.554
			l4.162-1.073c14.921-3.849,23.81-6.143,33.16-6.143c2.166,0,4.355,0.124,6.652,0.378c4.464,0.496,9.418,1.364,14.663,2.286
			c9.726,1.706,20.747,3.64,31.483,3.64c10.98,0,23.235-1.127,32.184-1.949c4.733-0.436,8.473-0.779,10.996-0.877
			c2.039-0.078,6.479-0.656,12.102-1.389c11.755-1.531,28.494-3.711,41.322-3.711c2.642,0,5.111,0.092,7.344,0.301
			c2.705,0.254,5.178,0.435,7.566,0.609c13.282,0.973,22.057,1.614,29.805,12.978c3.775,5.536,5.589,9.179,7.045,12.104
			c1.844,3.702,3.062,6.149,7.137,10.227c5.75,5.749,10.712,8.36,15.091,10.665c1.293,0.681,2.514,1.322,3.723,2.021
			c4.438,2.57,12.697,7.354,18.334,19.252c4.672,9.863,16.709,24.349,21.75,24.787c0.067,0.006,0.131,0.008,0.191,0.008
			c0.41,0,0.662-0.143,0.913-0.497c3.986-5.628,4.643-15.829,5.121-23.276c0.058-0.895,0.111-1.753,0.171-2.567
			c0.09-1.256,0.149-2.563,0.213-3.896c0.34-7.307,0.726-15.585,5.956-21.339c5.876-6.466,16.962-12.457,24.208-13.088
			c1.692-0.146,4.033-0.599,6.744-1.12c5.364-1.034,12.168-2.346,19.145-2.346c2.664,0,5.353,0.191,7.996,0.661
			c12.674,2.253,33.678,9.356,47.642,18.085c8.375,5.234,13.733,8.313,18.463,11.028c2.893,1.661,5.624,3.23,8.657,5.073
			c3.349,2.031,4.968,3.399,6.396,4.608c1.984,1.678,3.551,3.002,9.518,5.744c10.337,4.748,20.363,11.233,25.307,15.248l1.886,1.533
			l-1.866,1.556l-1.696,1.414l-0.373,0.313l-0.474,0.104c-0.198,0.044-1.421,0.302-2.974,0.302c-0.855,0-1.813-0.078-2.752-0.313
			c-1.039-0.261-3.08-1.372-7.6-3.86c-6.06-3.339-15.216-8.385-22.597-11.195c-7.543-2.872-17.595-9.031-25.672-13.979
			c-4.659-2.854-8.684-5.32-10.582-6.119c-8.107-3.414-35.378-14.571-45.922-14.828c-1.429-0.035-2.824-0.053-4.187-0.053
			c-16.854,0-28.663,2.654-34.289,7.736c-8.341,7.532-8.628,12.637-8.109,20.147c0.502,7.279-1.972,29.517-5.104,32.65l-0.186,0.187
			c-1.937,1.942-4.693,4.71-10.715,4.71c-1.236,0-2.609-0.115-4.143-0.381c-5.148-0.887-7.142-3.004-10.441-6.51
			c-2.671-2.836-6.326-6.719-13.61-12.245c-11.083-8.408-14.616-14.278-17.194-18.564c-1.232-2.05-2.125-3.529-3.507-4.668
			c-1.944-1.601-5.189-3.013-8.33-4.378c-4.255-1.852-8.652-3.765-11.128-6.593c-1.804-2.061-4.357-6.698-7.313-12.069
			c-3.33-6.05-7.892-14.334-10.127-15.872c-1.177-0.81-2.166-1.797-3.216-2.845c-2.772-2.772-5.627-5.624-12.524-5.624
			c-1.295,0-2.733,0.102-4.341,0.321c-4.688,0.644-12.573,1.422-21.705,2.325c-19.022,1.881-42.696,4.222-50.944,6.657
			c-3.126,0.924-5.114,1.652-6.713,2.234c-4.963,1.813-6.46,2.36-24.008,3.218c-1.479,0.071-2.865,0.104-4.17,0.104
			c-7.178,0-11.888-0.992-16.121-1.885c-3.432-0.723-6.521-1.373-10.449-1.373c-4.289,0-9.582,0.774-17.422,3.074
			c-9.574,2.811-18.258,5.2-25.233,7.12c-11.162,3.072-19.979,5.498-21.65,6.716c-3.17,2.306-11.411,6.091-22.673,9.351
			c-3.601,1.042-6.598,2.142-9.493,3.204c-5.74,2.104-10.697,3.922-18.047,4.502c-1.452,0.115-3.09,0.166-4.851,0.166
			c-8.436,0-19.688-1.154-26.916-1.896c-2.534-0.261-4.536-0.466-5.554-0.529c-0.105-0.006-0.218-0.01-0.331-0.01
			c-2.66,0-7.156,1.776-10.799,3.216c-2.086,0.823-4.057,1.603-5.71,2.089c-3.985,1.172-18.286,9.778-29.718,17.281
			c-9.337,6.127-30.843,18.549-36.643,21.586c-4.161,2.181-7.47,3.023-14.718,4.873c-3.615,0.923-8.114,2.069-14.231,3.766
			c-9.245,2.56-14.742,4.617-20.562,6.795c-5.766,2.158-11.729,4.39-21.82,7.333c-12.49,3.645-18.25,4.757-23.82,5.833
			c-3.607,0.697-7.016,1.355-12.15,2.667c-6.115,1.563-10.014,3.179-15.41,5.417c-6.281,2.605-14.099,5.85-29.146,10.664
			c-10.829,3.466-18.704,6.576-25.652,9.32c-10.882,4.299-18.745,7.403-29.642,8.297c-13.346,1.094-20.272,2.34-32.848,4.6
			c-3.546,0.638-7.526,1.353-12.211,2.164c-12.156,2.107-28.592,2.906-45.994,3.752c-12.834,0.625-26.104,1.271-37.541,2.486
			c-6.06,0.645-10.27,0.871-13.322,0.871c-4.293,0-6.3-0.449-7.949-0.818c-0.888-0.199-1.603-0.358-2.621-0.358
			c-1.339,0-3.202,0.276-6.669,1.108c-5.335,1.281-9.504,1.885-13.181,2.418c-6.168,0.896-10.624,1.541-16.906,4.769
			c-11.414,5.86-30.623,13.428-36.935,15.914c-3.927,1.547-6.679,2.842-9.341,4.095c-3.583,1.687-6.967,3.278-12.562,5.161
			l-1.964,0.664c-8.337,2.825-12.931,4.385-27.401,4.92c-0.418,0.016-0.847,0.022-1.282,0.022c-11.315,0-28.227-5.092-39.56-8.506
			c-4.422-1.331-8.242-2.48-10.217-2.86c-0.545-0.104-1.105-0.218-1.681-0.332c-3.235-0.65-6.832-1.372-10.827-1.372
			c-4.84,0-10.269,1.058-16.366,4.581c-5.269,3.043-8.356,5.711-11.343,8.29c-4.077,3.521-7.929,6.847-16.341,10.212
			c-6.858,2.743-8.085,3.834-8.896,4.557c-1.243,1.105-2.079,1.702-7.44,3.15c-4.059,1.098-7.146,1.344-9.402,1.522
			c-3.681,0.293-4.555,0.363-5.68,2.988c-1.083,2.525-1.677,4.826-2.251,7.052c-0.729,2.825-1.418,5.493-2.994,7.944
			C121.785,537.13,119.92,540.056,119.918,540.057z"/>
		<g>
			<path fill="#3BB7F4" d="M433.937,434.72l0.189-0.294c0.021-0.038,0.043-0.061,0.078-0.132c0.072-0.121,0.123-0.245,0.179-0.369
				c0.095-0.25,0.167-0.506,0.196-0.787c0.068-0.559-0.011-1.227-0.243-1.946c-0.468-1.45-1.493-3.006-2.729-4.396
				c-1.239-1.399-2.708-2.697-4.252-3.761c-0.388-0.264-0.769-0.507-1.162-0.726c-0.494-0.276-0.828-0.456-1.289-0.685
				c-0.873-0.435-1.783-0.831-2.724-1.207c-3.736-1.517-8.021-2.688-11.901-5.187c-0.961-0.623-1.883-1.323-2.738-2.098
				c-0.426-0.385-0.849-0.802-1.223-1.202c-0.408-0.437-0.771-0.86-1.133-1.32c-1.433-1.813-2.532-3.991-3.001-6.309
				c-0.48-2.317-0.33-4.687,0.187-6.868c0.519-2.193,1.368-4.233,2.353-6.163c0.494-0.966,1.022-1.904,1.579-2.822l1.603-2.701
				c1.055-1.811,2.08-3.644,3.101-5.482l3.069-5.523l1.567-2.749c0.52-0.902,1.066-1.849,1.711-2.704
				c1.27-1.724,2.723-3.255,4.098-4.841c1.367-1.584,2.706-3.229,3.549-5.169c-0.726,1.987-1.979,3.736-3.259,5.406
				c-1.284,1.673-2.643,3.287-3.771,5.029c-0.573,0.862-1.028,1.771-1.504,2.724l-1.396,2.826l-2.733,5.688
				c-0.911,1.9-1.83,3.801-2.784,5.688l-1.455,2.822c-0.481,0.912-0.932,1.838-1.342,2.772c-1.639,3.707-2.643,7.775-1.649,11.384
				c0.945,3.578,3.829,6.533,7.122,8.407c3.354,1.905,7.356,2.789,11.501,4.163c1.036,0.346,2.082,0.728,3.124,1.17
				c0.497,0.207,1.108,0.491,1.545,0.705c0.544,0.262,1.069,0.554,1.57,0.853c1.999,1.211,3.795,2.615,5.454,4.27
				c1.637,1.664,3.177,3.559,4.191,6.064c0.493,1.248,0.83,2.69,0.767,4.238c-0.028,0.771-0.167,1.555-0.396,2.305
				c-0.121,0.371-0.256,0.74-0.421,1.091c-0.072,0.167-0.181,0.374-0.285,0.566l-0.215,0.385L433.937,434.72z"/>
		</g>
		<g>
			<path fill="#3BB7F4" d="M365.017,441.095c-0.142-1.693-0.065-3.486,0.122-5.113c0.188-1.646,0.479-3.222,0.776-4.746
				c0.599-3.039,1.237-5.928,1.332-8.687c0.107-2.904-0.18-5.814-0.597-8.821c-0.434-2.98-0.87-6.12-1.229-9.124
				c-0.777-6.046-1.716-12.059-3.42-17.875c-0.869-2.903-1.947-5.798-2.725-8.79c-0.775-2.979-1.236-6.116-0.776-9.16
				c-0.208,3.072,0.497,6.085,1.495,8.942c1.001,2.872,2.296,5.635,3.424,8.52c2.226,5.796,3.68,11.841,4.959,17.858
				c0.62,3.042,1.266,5.93,1.964,8.967c0.674,3.015,1.259,6.191,1.404,9.417c0.155,3.38-0.312,6.552-0.644,9.556
				c-0.34,3.017-0.566,5.813-0.12,8.425L365.017,441.095z"/>
		</g>
		<g>
			<path fill="#3BB7F4" d="M390.971,455.196c-1.165,6.38-2.095,12.759-2.506,19.172c-0.397,6.4-0.314,12.853,0.898,19.1
				c1.233,6.242,3.717,12.379,5.306,18.806c1.56,6.406,2.385,12.905,4.831,19.006c-2.907-5.896-4.264-12.435-6.273-18.594
				c-2.021-6.152-4.956-12.021-6.781-18.524c-1.787-6.509-2.382-13.239-2.479-19.902c-0.083-6.671,0.376-13.326,1.063-19.896
				L390.971,455.196z"/>
		</g>
		<g>
			<path fill="#3BB7F4" d="M533.453,443.304c-0.088-0.049,0.034,0.883,0.324,1.733c0.274,0.878,0.649,1.82,1.055,2.761
				c0.817,1.892,1.769,3.791,2.74,5.746l0.737,1.509l0.697,1.538c0.426,0.94,0.885,1.912,1.349,2.86
				c0.933,1.905,1.919,3.791,2.953,5.653c0.517,0.932,1.044,1.857,1.583,2.776c0.531,0.921,1.02,1.689,1.605,2.44
				c1.158,1.5,2.556,2.779,4.167,3.818c3.224,2.098,7.239,3.193,11.403,4.098l6.388,1.355c2.163,0.476,4.351,1.068,6.461,1.742
				c4.237,1.341,8.435,2.994,12.359,5.278c3.909,2.273,7.577,5.229,10.279,9.032c1.352,1.906,2.418,3.974,3.201,6.147
				c0.785,2.146,1.333,4.34,1.753,6.527c0.833,4.383,1.173,8.76,1.564,13.076c0.195,2.162,0.398,4.294,0.688,6.43
				c0.288,2.197,0.455,4.423,0.434,6.659c-0.023,2.235-0.231,4.488-0.759,6.701c-0.263,1.104-0.609,2.198-1.063,3.255
				c-0.223,0.528-0.479,1.052-0.757,1.551c-0.249,0.462-0.568,0.993-0.862,1.453c-2.443,3.798-5.651,6.819-8.402,10.103
				c-1.379,1.639-2.658,3.348-3.671,5.201c-1.021,1.858-1.757,3.853-2.335,5.919c-1.146,4.132-1.641,8.449-2.04,12.764l-0.588,6.493
				c-0.226,2.155-0.476,4.315-0.351,6.462c0.059,1.063,0.279,2.136,0.881,3.01c0.577,0.894,1.41,1.604,2.28,2.238
				c0.875,0.635,1.807,1.198,2.688,1.838c0.877,0.635,1.725,1.362,2.281,2.303c-0.584-0.924-1.444-1.619-2.336-2.227
				c-0.896-0.609-1.84-1.146-2.741-1.762c-0.896-0.614-1.771-1.313-2.406-2.234c-0.669-0.916-0.93-2.045-1.021-3.136
				c-0.189-2.194,0.001-4.381,0.163-6.544l0.401-6.5c0.277-4.338,0.645-8.708,1.699-12.992c0.527-2.13,1.246-4.263,2.263-6.244
				c1.015-1.992,2.303-3.816,3.669-5.538c2.731-3.441,5.808-6.536,7.971-10.142c2.246-3.522,2.86-7.754,2.785-11.962
				c-0.041-2.107-0.259-4.22-0.596-6.319c-0.356-2.16-0.629-4.349-0.886-6.505c-0.517-4.319-0.981-8.61-1.894-12.744
				c-0.918-4.126-2.278-8.096-4.741-11.291c-2.438-3.232-5.754-5.777-9.395-7.757c-3.649-1.986-7.629-3.435-11.702-4.595
				c-4.059-1.212-8.198-1.833-12.559-2.639c-4.31-0.821-8.9-1.842-13.093-4.373c-2.078-1.253-3.982-2.891-5.533-4.787
				c-0.78-0.938-1.485-1.99-2.065-2.935c-0.587-0.938-1.163-1.884-1.727-2.836c-1.131-1.904-2.215-3.838-3.248-5.807
				c-0.52-0.987-1.019-1.967-1.517-2.989l-0.688-1.411l-0.734-1.397c-1.016-1.905-2.071-3.861-3.038-5.933
				c-0.482-1.04-0.951-2.104-1.36-3.288c-0.204-0.595-0.397-1.214-0.547-1.938c-0.071-0.368-0.137-0.752-0.165-1.216l-0.015-0.353
				c-0.003-0.133,0.009-0.35,0.022-0.521c0.042-0.464,0.057-0.444,0.078-0.616L533.453,443.304z"/>
		</g>
		<g>
			<path fill="#3BB7F4" d="M606.102,534.741c11.451,7.686,25.142,11.646,38.831,15.508c6.865,1.94,13.794,3.872,20.605,6.284
				c3.405,1.206,6.78,2.53,10.082,4.035c0.825,0.377,1.647,0.762,2.462,1.162l0.611,0.3l0.636,0.334
				c0.466,0.259,0.871,0.506,1.276,0.779c1.616,1.08,3.024,2.354,4.313,3.714c2.562,2.732,4.647,5.823,6.277,9.146
				c1.609,3.322,2.798,6.91,3.048,10.688c0.117,1.881-0.022,3.813-0.56,5.669c-0.531,1.854-1.501,3.607-2.821,5.021
				c-0.643,0.703-1.426,1.345-2.149,1.858c-0.736,0.537-1.496,1.055-2.261,1.543c-1.537,0.975-3.129,1.855-4.764,2.639
				c-6.555,3.14-13.67,4.753-20.773,5.588c-7.123,0.833-14.282,0.895-21.417,0.771c7.135-0.126,14.282-0.438,21.316-1.514
				c7.017-1.072,13.962-2.921,20.201-6.187c1.558-0.813,3.063-1.718,4.506-2.705c1.417-1.014,2.896-2.026,3.946-3.247
				c1.073-1.237,1.826-2.72,2.225-4.312c0.399-1.592,0.469-3.275,0.306-4.948c-0.337-3.354-1.54-6.642-3.145-9.672
				c-1.617-3.03-3.676-5.849-6.085-8.242c-1.207-1.188-2.507-2.274-3.894-3.13c-1.266-0.802-3.019-1.473-4.604-2.158
				c-3.244-1.344-6.564-2.515-9.927-3.573c-6.729-2.122-13.626-3.789-20.563-5.489c-6.936-1.702-13.93-3.429-20.839-5.716
				c-6.89-2.274-13.755-5.17-20.048-9.071L606.102,534.741z"/>
		</g>
		<g>
			<path fill="#3BB7F4" d="M632.997,411.657l0.009,0.428c0.01,0.038,0.001,0.048,0.009,0.114c0.019,0.151,0.046,0.313,0.09,0.48
				c0.088,0.338,0.233,0.709,0.43,1.092c0.394,0.771,0.993,1.574,1.679,2.351c1.392,1.558,3.141,3.005,4.98,4.351
				c3.709,2.69,7.825,5.027,12.018,7.219c8.425,4.322,17.328,8.313,25.575,13.483c2.063,1.294,4.081,2.66,6.041,4.104
				c0.981,0.728,1.941,1.457,2.896,2.236c0.977,0.809,1.875,1.641,2.745,2.519c3.467,3.508,6.243,7.431,9.522,10.844
				c3.307,3.373,7.043,6.467,10.439,9.876c3.377,3.396,6.703,7.064,8.57,11.523c-2.098-4.35-5.564-7.785-9.085-10.979
				c-3.554-3.214-7.387-6.056-10.98-9.356c-3.55-3.337-6.56-7.137-10.024-10.282c-0.859-0.783-1.767-1.536-2.675-2.213
				c-0.94-0.69-1.929-1.364-2.912-2.015c-1.974-1.303-3.999-2.525-6.064-3.676c-4.133-2.306-8.435-4.318-12.799-6.252
				c-4.361-1.955-8.78-3.748-13.222-5.771c-4.42-2.028-8.806-4.207-13.021-6.938c-2.103-1.382-4.171-2.888-6.091-4.811
				c-0.952-0.974-1.877-2.045-2.66-3.371c-0.39-0.662-0.74-1.391-1.006-2.198c-0.134-0.404-0.241-0.829-0.323-1.27
				c-0.042-0.229-0.075-0.52-0.102-0.778l-0.033-0.472L632.997,411.657z"/>
		</g>
		<g>
			<path fill="#3BB7F4" d="M764.684,371.618l-0.112,0.215c0.009-0.006,0.02-0.045,0.011-0.029c-0.018,0.041-0.036,0.088-0.055,0.146
				c-0.035,0.116-0.063,0.272-0.078,0.461c-0.028,0.376,0.01,0.872,0.108,1.404c0.197,1.072,0.61,2.273,1.105,3.469
				c1.007,2.41,2.339,4.831,3.693,7.321c0.677,1.261,1.376,2.509,2.027,3.985l1.685,3.874c1.133,2.57,2.291,5.122,3.504,7.639
				c1.214,2.515,2.481,4.995,3.839,7.415l1.041,1.821c0.37,0.645,0.717,1.275,1.058,1.907c0.678,1.265,1.324,2.511,1.994,3.707
				c1.333,2.395,2.796,4.598,4.715,6.239c1.998,1.675,4.352,3.01,6.854,4.14c2.5,1.13,5.138,2.068,7.799,3.005
				c2.661,0.935,5.324,1.825,8.013,2.688c5.369,1.722,10.785,3.313,16.231,4.798c2.725,0.742,5.457,1.464,8.193,2.151
				c2.736,0.678,5.504,1.312,8.237,2.082c2.73,0.77,5.444,1.658,8.021,2.868c2.569,1.2,5.02,2.758,6.934,4.852
				c-2.007-2.007-4.494-3.435-7.086-4.509c-2.597-1.083-5.314-1.842-8.056-2.485c-2.744-0.643-5.518-1.149-8.299-1.71
				c-2.777-0.568-5.543-1.17-8.308-1.793c-5.526-1.249-11.034-2.604-16.51-4.097c-2.734-0.745-5.474-1.529-8.188-2.352
				c-2.713-0.82-5.451-1.657-8.159-2.739c-2.697-1.076-5.386-2.424-7.813-4.284c-2.485-1.945-4.289-4.484-5.813-6.948
				c-0.766-1.238-1.477-2.475-2.19-3.672l-1.076-1.758l-1.146-1.813c-1.52-2.448-2.938-4.946-4.297-7.469
				c-1.356-2.521-2.65-5.068-3.912-7.62l-1.869-3.829c-0.537-1.09-1.266-2.288-1.981-3.485c-1.451-2.415-2.978-4.89-4.277-7.646
				c-0.645-1.389-1.248-2.843-1.65-4.538c-0.194-0.849-0.342-1.766-0.326-2.804c0.009-0.518,0.061-1.067,0.187-1.639
				c0.063-0.286,0.146-0.577,0.25-0.868c0.052-0.151,0.137-0.352,0.212-0.521l0.122-0.261L764.684,371.618z"/>
		</g>
		<g>
			<path fill="#3BB7F4" d="M815.99,339.532l0.021,0.381l0.017,0.19c0.021,0.167,0.044,0.335,0.082,0.502
				c0.072,0.336,0.18,0.674,0.322,1.015c0.288,0.682,0.725,1.371,1.272,2.043c1.102,1.35,2.614,2.595,4.257,3.735
				c1.647,1.146,3.438,2.199,5.284,3.261l2.816,1.64c0.947,0.555,1.968,1.248,2.807,1.838c7.232,5.067,13.416,10.979,20.236,15.992
				c6.847,4.996,14.154,9.514,21.25,14.342l2.652,1.832l1.314,0.934c0.438,0.328,0.86,0.576,1.335,1.071
				c0.871,0.885,1.271,2.118,1.342,3.236c0.089,1.132-0.028,2.212-0.108,3.275c-0.084,1.063-0.15,2.118-0.051,3.163
				c0.047,0.527,0.146,1.027,0.282,1.556c0.121,0.531,0.209,1.064,0.262,1.604c0.109,1.078,0.042,2.153,0.074,3.218
				c0.027,1.065,0.207,2.127,0.532,3.147c-0.366-1.006-0.591-2.067-0.661-3.142c-0.076-1.071-0.051-2.146-0.201-3.194
				c-0.07-0.524-0.18-1.045-0.316-1.554c-0.145-0.503-0.317-1.041-0.4-1.578c-0.188-1.078-0.205-2.176-0.204-3.248
				c-0.002-1.071,0.023-2.141-0.136-3.139c-0.15-1.001-0.546-1.892-1.243-2.498c-0.282-0.269-0.797-0.563-1.23-0.851l-1.353-0.855
				l-2.728-1.676c-7.313-4.425-14.824-8.522-22.085-13.245c-7.271-4.731-13.896-10.3-20.986-14.65
				c-0.951-0.583-1.73-1.051-2.662-1.525l-2.827-1.425c-1.927-0.96-3.897-1.959-5.844-3.145c-1.938-1.19-3.882-2.546-5.623-4.411
				c-0.863-0.935-1.673-2.01-2.306-3.264c-0.314-0.627-0.581-1.296-0.782-1.996c-0.104-0.349-0.185-0.706-0.252-1.066
				c-0.035-0.178-0.064-0.404-0.092-0.604l-0.049-0.419L815.99,339.532z"/>
		</g>
		<g>
			<path fill="#3BB7F4" d="M877.229,383.574c12.347,2.59,24.916,4.124,37.529,4.728c3.164,0.149,6.28,0.222,9.485,0.25
				c3.255,0.046,6.497,0.354,9.675,0.723c3.184,0.371,6.323,0.802,9.448,1.114c1.556,0.153,3.137,0.274,4.658,0.351
				c1.531,0.065,3.009,0.008,4.521-0.172c3.012-0.341,6.002-1.2,9.133-1.978c3.127-0.786,6.42-1.385,9.774-1.373
				c1.683,0.02,3.466,0.168,5.221,0.919c0.869,0.373,1.693,0.924,2.373,1.571c0.684,0.646,1.226,1.362,1.699,2.059
				c0.941,1.401,1.697,2.738,2.592,3.966c0.883,1.217,1.867,2.388,2.974,3.355c2.162,1.907,4.996,3.127,7.946,3.742
				c0.734,0.146,1.517,0.302,2.186,0.344c0.714,0.049,1.482,0.029,2.268,0.007c1.571-0.044,3.221-0.154,4.973,0.097
				c0.872,0.132,1.785,0.369,2.65,0.846c0.419,0.225,0.869,0.566,1.174,0.868c0.265,0.235,0.664,0.648,0.925,0.976
				c1.174,1.384,1.86,3.197,1.995,4.972c0.136,1.781-0.176,3.503-0.668,5.105c-0.498,1.606-1.183,3.115-1.947,4.563
				c-3.102,5.767-7.412,10.615-11.432,15.473c-1.94,2.397-3.576,5.084-4.297,8.007c-0.748,2.907-0.32,6.024,1.3,8.562
				c1.589,2.568,4.064,4.517,6.736,6.125c2.68,1.629,5.544,3.03,8.306,4.677c2.746,1.643,5.479,3.541,7.479,6.2
				c0.991,1.321,1.764,2.826,2.217,4.421c0.465,1.594,0.611,3.259,0.539,4.892c-0.063,1.621-0.347,3.266-0.891,4.813
				c-0.531,1.546-1.268,3.006-2.123,4.378c-1.718,2.746-3.891,5.152-6.24,7.328c-4.736,4.319-10.173,7.825-16.004,10.439
				c-1.462,0.642-2.957,1.225-4.488,1.686c-1.542,0.459-3.11,0.778-4.695,0.995c-3.171,0.432-6.37,0.444-9.55,0.388
				c-3.184-0.042-6.356-0.247-9.529,0.027c-1.588,0.083-3.187,0.147-4.772-0.021c-1.563-0.174-3.209-0.584-4.365-1.713
				c1.172,1.112,2.813,1.496,4.373,1.648c1.581,0.147,3.174,0.063,4.758-0.042c3.17-0.317,6.367-0.156,9.541-0.157
				c3.176,0.016,6.358-0.041,9.49-0.512c1.563-0.234,3.114-0.572,4.614-1.041c1.511-0.478,2.976-1.071,4.415-1.729
				c5.737-2.663,11.083-6.218,15.688-10.532c2.282-2.172,4.378-4.561,6.001-7.235c1.629-2.678,2.714-5.635,2.753-8.759
				c0.13-3.087-0.751-6.168-2.651-8.575c-1.875-2.432-4.496-4.223-7.207-5.791c-2.724-1.575-5.602-2.936-8.382-4.572
				c-2.769-1.62-5.495-3.663-7.315-6.517c-0.905-1.416-1.555-3.029-1.822-4.715c-0.276-1.685-0.174-3.413,0.203-5.051
				c0.77-3.29,2.51-6.188,4.517-8.743c4.012-4.973,8.147-9.786,11.016-15.305c1.392-2.722,2.503-5.704,2.263-8.524
				c-0.135-1.394-0.646-2.685-1.547-3.724c-0.245-0.285-0.396-0.45-0.727-0.743c-0.266-0.251-0.461-0.387-0.742-0.539
				c-0.535-0.286-1.185-0.461-1.883-0.557c-1.407-0.188-2.954-0.083-4.553-0.012c-0.805,0.035-1.628,0.069-2.503,0.023
				c-0.92-0.054-1.703-0.207-2.529-0.355c-3.262-0.645-6.504-1.934-9.164-4.215c-1.3-1.115-2.391-2.383-3.394-3.723
				c-0.995-1.335-1.831-2.76-2.684-3.984c-0.854-1.237-1.752-2.146-2.942-2.626c-1.188-0.499-2.646-0.643-4.129-0.631
				c-3.018,0.033-6.027,0.605-9.053,1.411c-3.025,0.79-6.161,1.748-9.477,2.172c-1.642,0.221-3.353,0.309-4.999,0.259
				c-1.654-0.059-3.246-0.162-4.858-0.299c-3.208-0.277-6.377-0.668-9.517-0.991c-3.143-0.322-6.246-0.573-9.354-0.575
				c-3.155,0.011-6.398-0.029-9.59-0.146c-12.803-0.47-25.588-1.885-38.172-4.377L877.229,383.574z"/>
		</g>
		<g>
			<path fill="#3BB7F4" d="M878.76,387.015c0.426,1.532,1.096,3.229,1.707,4.896c0.624,1.682,1.25,3.385,1.823,5.121
				c0.574,1.739,1.105,3.512,1.503,5.368c0.368,1.866,0.719,3.787,0.352,6.054c-0.102,0.566-0.273,1.164-0.568,1.763
				c-0.131,0.282-0.358,0.634-0.514,0.841l-0.396,0.533c-0.515,0.699-1.019,1.406-1.474,2.108c-0.928,1.408-1.586,2.791-2.082,4.405
				c-0.254,0.801-0.479,1.641-0.699,2.493c-0.225,0.857-0.407,1.691-0.686,2.647c-0.527,1.813-1.193,3.534-1.891,5.216
				c-1.396,3.354-2.939,6.556-4.058,9.826c-1.11,3.249-1.779,6.633-1.098,9.803c0.328,1.579,0.989,3.079,1.904,4.445
				c0.903,1.346,2.145,2.645,3.336,3.926c2.43,2.549,5.024,4.97,7.758,7.191c2.742,2.216,5.602,4.247,8.822,5.485
				c3.217,1.286,6.686,1.932,10.194,2.216c3.518,0.287,7.082,0.242,10.662,0.229c1.79-0.008,3.586-0.008,5.386,0.045
				c1.807,0.052,3.587,0.169,5.374,0.256c14.295,0.765,28.568,1.716,42.882,1.894c-14.313,0.179-28.628-0.417-42.925-0.824
				c-1.787-0.044-3.579-0.114-5.351-0.122c-1.777-0.007-3.56,0.037-5.345,0.09c-3.571,0.102-7.169,0.238-10.795,0.034
				c-3.617-0.202-7.281-0.779-10.755-2.067c-3.515-1.256-6.615-3.356-9.479-5.557c-2.875-2.223-5.584-4.625-8.156-7.189
				c-1.269-1.307-2.559-2.565-3.701-4.162c-1.114-1.574-1.975-3.384-2.423-5.301c-0.927-3.874-0.186-7.805,0.91-11.302
				c1.113-3.534,2.608-6.828,3.876-10.111c0.633-1.64,1.215-3.275,1.646-4.912c0.205-0.766,0.389-1.685,0.594-2.562
				c0.205-0.886,0.42-1.779,0.684-2.691c0.5-1.823,1.347-3.725,2.356-5.324c0.498-0.811,1.015-1.574,1.541-2.329l0.39-0.555
				c0.107-0.155,0.121-0.181,0.182-0.305c0.098-0.206,0.182-0.475,0.231-0.788c0.209-1.284-0.026-2.975-0.393-4.589
				c-0.372-1.639-0.889-3.292-1.456-4.942c-0.57-1.651-1.199-3.3-1.844-4.964c-0.637-1.681-1.32-3.305-1.884-5.212L878.76,387.015z"
				/>
		</g>
		<g>
			<path fill="#3BB7F4" d="M893.523,294.149l-0.031-0.331c-0.007,0.002,0.011,0.031,0.006,0.005
				c-0.012-0.063-0.02-0.125-0.043-0.188c-0.042-0.126-0.11-0.277-0.258-0.463c-0.285-0.373-0.842-0.836-1.535-1.308
				c-0.695-0.479-1.521-0.975-2.407-1.599c-0.443-0.313-0.905-0.662-1.371-1.08c-0.533-0.49-0.75-0.747-1.195-1.241
				c-1.483-1.707-2.559-3.68-3.27-5.702c-0.354-1.007-0.632-2.046-0.824-3.038c-0.209-1.045-0.338-2.092-0.411-3.101
				c-0.285-4.077,0.22-7.895,0.388-11.562c0.187-3.666,0.038-7.212-1.287-10.444c-1.27-3.242-3.584-6.051-6.52-8.121
				c-2.933-2.085-6.394-3.488-9.979-4.386c-3.595-0.896-7.331-1.313-11.074-1.354c-3.746-0.036-7.515,0.29-11.212,1.039
				c3.642-0.992,7.402-1.573,11.193-1.789c3.791-0.21,7.625-0.044,11.408,0.637c3.772,0.687,7.526,1.901,10.901,3.976
				c3.371,2.049,6.289,5.095,8.025,8.791c0.215,0.443,0.432,0.959,0.611,1.415c0.167,0.419,0.354,0.958,0.5,1.427
				c0.303,0.977,0.527,1.97,0.697,2.961c0.336,1.986,0.444,3.968,0.481,5.901c0.066,3.864-0.147,7.601,0.338,11.043
				c0.122,0.866,0.283,1.688,0.495,2.479c0.225,0.844,0.491,1.615,0.813,2.369c0.642,1.493,1.513,2.825,2.583,3.899
				c0.592,0.597,1.008,0.928,1.713,1.35c0.684,0.418,1.506,0.845,2.403,1.372c0.895,0.536,1.898,1.167,2.876,2.201
				c0.483,0.517,0.945,1.157,1.295,1.888c0.176,0.363,0.315,0.753,0.428,1.144c0.059,0.201,0.109,0.465,0.153,0.696l0.06,0.369
				L893.523,294.149z"/>
		</g>
		<g>
			<path fill="#3BB7F4" d="M931.485,282.056l0.136-0.116c0.021-0.019-0.03,0.029-0.039,0.044c-0.021,0.027-0.012,0.023-0.021,0.045
				c-0.013,0.03-0.028,0.08-0.025,0.099c0.004,0.046,0.063-0.092,0.074-0.408c0.04-0.634-0.083-1.786,0.063-3.101
				c0.292-2.342,1.082-4.396,1.878-6.204l1.139-2.575l1.048-2.612c0.74-1.824,1.521-3.597,2.362-5.358
				c1.677-3.521,3.579-6.932,5.694-10.194c0.521-0.806,1.078-1.643,1.637-2.427c0.588-0.825,1.182-1.598,1.805-2.363
				c1.24-1.525,2.557-2.973,3.941-4.354c2.781-2.737,5.789-5.295,9.35-7.155c3.624-1.82,7.477-2.518,11.221-3.201
				c1.879-0.334,3.751-0.642,5.599-1.024c1.84-0.383,3.671-0.893,5.504-1.392c3.664-1.002,7.358-2.069,11.151-2.478
				c-3.756,0.656-7.335,1.952-10.93,3.193c-1.803,0.619-3.603,1.252-5.461,1.768c-1.85,0.514-3.711,0.945-5.553,1.399
				c-3.666,0.912-7.355,1.874-10.447,3.705c-3.086,1.876-5.799,4.482-8.25,7.241c-1.222,1.391-2.376,2.842-3.441,4.343
				c-0.528,0.746-1.046,1.521-1.514,2.277c-0.492,0.801-0.938,1.581-1.4,2.403c-1.814,3.249-3.409,6.614-4.783,10.064
				c-0.688,1.721-1.326,3.479-1.904,5.224l-0.899,2.751l-0.991,2.718c-0.631,1.708-1.07,3.302-1.149,4.759
				c-0.034,0.585,0.095,1.334,0.146,2.601c0.012,0.632-0.012,1.457-0.329,2.401c-0.158,0.466-0.396,0.939-0.687,1.357
				c-0.147,0.214-0.29,0.395-0.473,0.597l-0.291,0.297l-0.128,0.124L931.485,282.056z"/>
		</g>
		<g>
			<path fill="#3BB7F4" d="M1092.938,280.726c-0.046-0.004-0.808-0.188-1.105-0.332c-0.388-0.16-0.742-0.356-1.066-0.574
				c-0.646-0.438-1.141-0.947-1.535-1.451c-0.783-1.018-1.219-2.018-1.555-2.979c-0.646-1.925-0.874-3.754-0.945-5.583
				c-0.049-1.832,0.055-3.631,0.527-5.556c0.229-0.957,0.655-2.058,1.298-2.977c0.583-0.856,1.211-1.545,1.834-2.182
				c1.247-1.258,2.515-2.313,3.634-3.365c0.279-0.263,0.547-0.522,0.797-0.781c0.253-0.26,0.455-0.492,0.736-0.825
				c0.488-0.579,0.978-1.196,1.469-1.831c0.979-1.267,1.961-2.597,3.047-3.896c0.543-0.649,1.111-1.293,1.72-1.914
				c0.307-0.309,0.63-0.622,0.919-0.889l0.951-0.856c5.114-4.48,11.178-7.352,17.119-9.96c5.952-2.614,11.952-5.134,17.219-8.996
				c-4.951,4.259-10.846,7.291-16.562,10.346c-5.719,3.045-11.342,6.304-15.724,10.798c-1.101,1.106-2.084,2.267-2.974,3.538
				c-0.905,1.271-1.756,2.628-2.664,4.008c-0.453,0.688-0.921,1.387-1.43,2.091c-0.219,0.307-0.52,0.714-0.81,1.061
				c-0.288,0.351-0.579,0.68-0.869,0.997c-1.157,1.267-2.311,2.391-3.268,3.523c-0.474,0.563-0.895,1.125-1.184,1.641
				c-0.254,0.444-0.399,0.895-0.503,1.526c-0.209,1.257-0.204,2.741-0.048,4.148c0.157,1.408,0.478,2.819,0.968,3.945
				c0.24,0.556,0.538,1.03,0.784,1.276c0.121,0.123,0.22,0.182,0.258,0.187c0.02,0.001,0.021-0.006,0.016-0.017
				c0.08,0.001-0.287-0.078,0.067-0.016L1092.938,280.726z"/>
		</g>
		<g>
			<path fill="#3BB7F4" d="M1266.064,309.245l-0.177-0.028c0.061,0.014,0.142,0.021,0.212,0.019l-0.042-0.002l-0.153,0.002
				l-0.261,0.003l-0.363-0.01c-0.284-0.017-0.607-0.063-0.951-0.15l-1.735-0.44l-0.401-1.725c-0.275-1.184-0.258-2.449,0.002-3.556
				c0.254-1.112,0.697-2.079,1.198-2.921c1.017-1.682,2.246-2.938,3.497-4.063c2.523-2.22,5.221-3.887,7.955-5.41
				c2.753-1.51,5.514-2.827,8.406-4.031c3.02-1.23,6.127-1.997,9.208-2.506c6.163-1.02,12.171-1.139,17.837-2.379
				c1.416-0.307,2.807-0.678,4.163-1.135c0.671-0.229,1.351-0.48,2.064-0.755l2.087-0.809c2.774-1.091,5.499-2.254,8.1-3.612
				c5.202-2.688,9.889-6.329,12.911-11.345c1.629-2.608,3.736-5.159,6.478-6.825c1.351-0.843,2.772-1.487,4.227-2.039
				c1.4-0.528,2.863-1.037,4.303-1.496c11.603-3.713,23.639-5.023,35.373-7.754c-11.614,3.206-23.639,5.034-34.893,9.159
				c-1.411,0.518-2.775,1.052-4.172,1.646c-1.34,0.571-2.648,1.233-3.823,2.039c-2.377,1.588-4.131,3.883-5.584,6.422
				c-1.503,2.708-3.515,5.226-5.816,7.34c-2.305,2.133-4.893,3.91-7.568,5.456c-2.682,1.544-5.459,2.864-8.244,4.094l-2.094,0.91
				c-0.681,0.294-1.401,0.596-2.146,0.886c-1.477,0.566-2.983,1.035-4.499,1.429c-6.076,1.578-12.193,1.947-17.879,3.146
				c-2.841,0.589-5.588,1.403-8.107,2.555c-2.623,1.221-5.256,2.61-7.728,4.104c-2.467,1.503-4.852,3.149-6.78,5.004
				c-0.951,0.919-1.787,1.907-2.283,2.839c-0.517,0.957-0.584,1.666-0.422,2.186l-2.138-2.163c-0.11-0.034-0.199-0.045-0.244-0.049
				c-0.01-0.003-0.003-0.005-0.006-0.004l0.099-0.007l0.202-0.012l0.315-0.007c0.188,0.004,0.391,0.017,0.57,0.037l0.177,0.021
				L1266.064,309.245z"/>
		</g>
		<g>
			<path fill="#3BB7F4" d="M1240.296,338.515c0.339,0.565,1.487,1.256,2.775,1.757c1.297,0.512,2.747,0.901,4.226,1.196
				c2.951,0.572,6.11,0.846,9.007,0.609c0.71-0.063,1.413-0.171,1.96-0.326c0.199-0.053,0.66-0.226,1.013-0.351l1.131-0.416
				c1.524-0.553,3.025-1.187,4.844-1.666c0.908-0.229,1.95-0.4,3.053-0.314c1.102,0.079,2.157,0.439,3.026,0.896
				c1.742,0.937,3.005,2.108,4.238,3.262c2.355,2.302,4.699,4.563,6.952,7.003c2.238,2.433,4.364,5.036,6.026,7.952
				c1.666,2.901,2.793,6.163,3.012,9.489c0.24,3.329-0.414,6.627-1.56,9.671c0.896-3.129,1.261-6.42,0.769-9.584
				c-0.474-3.166-1.781-6.127-3.574-8.733c-3.615-5.237-8.77-9.251-13.73-13.406c-1.216-0.979-2.484-1.917-3.678-2.418
				c-1.203-0.5-2.09-0.443-3.426,0.009c-1.307,0.456-2.773,1.192-4.258,1.881l-1.125,0.521c-0.404,0.178-0.69,0.333-1.262,0.542
				c-1,0.357-1.909,0.537-2.813,0.684c-3.581,0.52-6.992,0.422-10.469-0.008c-1.734-0.232-3.476-0.566-5.254-1.133
				c-0.891-0.289-1.791-0.635-2.718-1.121c-0.463-0.245-0.932-0.528-1.405-0.88c-0.236-0.179-0.475-0.366-0.712-0.588
				c-0.105-0.096-0.258-0.248-0.396-0.396l-0.245-0.271L1240.296,338.515z"/>
		</g>
		<g>
			<path fill="#3BB7F4" d="M1220.6,378.316c-3.678,2.164-7.41,2.846-10.318,4.124c-2.967,1.234-4.854,3.007-5.678,6.056
				c-0.369,1.316-0.477,2.964-0.379,4.6c0.094,1.66,0.354,3.393,0.604,5.186c0.248,1.793,0.495,3.658,0.494,5.604
				c0.018,1.936-0.307,3.993-0.979,5.812c-1.322,3.664-3.473,6.604-4.896,9.735c-0.722,1.56-1.265,3.168-1.463,4.829
				c-0.203,1.637-0.063,3.384,0.301,5.069c0.728,3.405,2.203,6.688,3.788,9.882c1.594,3.201,3.389,6.322,4.926,9.566
				c-1.76-3.128-3.76-6.104-5.584-9.209c-1.814-3.103-3.556-6.311-4.586-9.878c-0.513-1.786-0.813-3.648-0.714-5.591
				c0.095-1.92,0.593-3.792,1.255-5.534c1.326-3.49,3.235-6.587,4.115-9.782c0.949-3.135,0.397-6.37-0.351-9.857
				c-0.697-3.466-1.733-7.216-0.892-11.549c0.39-1.957,1.289-4.109,2.73-5.813c1.433-1.73,3.28-2.958,5.048-3.863
				c3.565-1.795,6.972-2.727,9.376-4.46L1220.6,378.316z"/>
		</g>
		<g>
			<path fill="#3BB7F4" d="M1030.988,303.047l-0.057,0.501l-0.025,0.32c-0.012,0.255-0.018,0.509-0.01,0.764
				c0.014,0.51,0.072,1.021,0.172,1.534c0.201,1.025,0.574,2.06,1.091,3.076c1.034,2.041,2.606,3.991,4.372,5.833
				c1.773,1.85,3.75,3.603,5.777,5.376c2.013,1.769,4.157,3.595,6.095,5.645c3.616,3.813,7.677,7.008,12.295,9.494
				c2.286,1.249,4.848,2.369,7.253,4.046c1.199,0.835,2.338,1.813,3.326,2.932c1.017,1.144,1.836,2.467,2.41,3.855
				c1.162,2.796,1.41,5.725,1.414,8.503c-0.006,2.793-0.276,5.508-0.451,8.182c-0.088,1.337-0.154,2.664-0.146,3.979
				c0.02,1.308,0.072,2.684,0.132,4.016c0.124,2.684,0.32,5.359,0.676,8.011c0.689,5.301,2.11,10.518,4.504,15.33
				c1.2,2.404,2.517,4.758,4.287,6.786c1.738,2.055,3.71,3.934,5.396,6.051c-1.782-2.038-3.827-3.81-5.678-5.802
				c-1.89-1.975-3.351-4.319-4.672-6.688c-2.656-4.77-4.366-10.062-5.32-15.442c-0.487-2.691-0.813-5.404-1.063-8.114
				c-0.123-1.367-0.238-2.689-0.324-4.085c-0.071-1.391-0.064-2.769-0.039-4.133c0.055-2.729,0.192-5.414,0.074-8.031
				c-0.117-2.605-0.498-5.17-1.533-7.345c-0.512-1.088-1.186-2.063-2.006-2.905c-0.848-0.871-1.808-1.625-2.859-2.288
				c-2.103-1.334-4.567-2.297-7.09-3.516c-2.517-1.229-4.953-2.634-7.266-4.266c-2.311-1.622-4.469-3.455-6.484-5.367
				c-3.717-3.549-8.285-6.563-12.405-10.494c-2.059-1.967-4.063-4.157-5.619-6.878c-0.771-1.358-1.415-2.858-1.813-4.473
				c-0.199-0.805-0.336-1.636-0.399-2.477c-0.032-0.42-0.046-0.842-0.046-1.264l0.023-0.691l0.033-0.51L1030.988,303.047z"/>
		</g>
		<g>
			<path fill="#3BB7F4" d="M1073.923,346.857c2.049,2.787,4.417,5.245,7.23,7.065c1.401,0.908,2.904,1.646,4.492,2.197
				c1.592,0.563,3.246,0.909,5.031,1.243c1.81,0.278,3.866,0.998,5.521,1.995c1.703,1.003,3.195,2.328,4.416,3.829
				c2.451,3.021,3.844,6.62,4.7,10.214c0.694,3.499,1.98,6.748,3.862,9.751c1.866,2.993,4.256,5.671,6.931,8.031
				c5.376,4.727,11.784,8.229,18.392,11.094c-6.731-2.563-13.321-5.764-19.031-10.332c-2.842-2.284-5.438-4.929-7.537-7.973
				c-2.104-3.018-3.671-6.523-4.542-10.071c-0.961-3.361-2.429-6.598-4.667-9.102c-1.116-1.246-2.417-2.291-3.862-3.057
				c-1.492-0.774-2.909-1.229-4.68-1.437c-1.773-0.245-3.682-0.546-5.523-1.104c-1.85-0.547-3.649-1.324-5.324-2.303
				c-3.358-1.95-6.196-4.664-8.555-7.575L1073.923,346.857z"/>
		</g>
		<g>
			<path fill="#3BB7F4" d="M924.525,318.158c1.662,2.688,2.65,5.396,3.824,7.658c1.174,2.3,2.459,4.064,4.292,5.028
				c1.833,1.023,4.313,1.313,7.062,1.498c1.376,0.101,2.832,0.189,4.353,0.425c1.49,0.218,3.193,0.658,4.683,1.45
				c1.509,0.777,2.765,1.848,3.811,2.82c1.056,0.982,1.978,1.875,2.971,2.622c0.481,0.37,1.025,0.731,1.508,1.016
				c0.642,0.364,1.139,0.636,1.729,0.918c1.174,0.566,2.415,1.073,3.695,1.565c2.553,0.985,5.292,1.943,7.871,3.335
				c2.451,1.301,4.896,2.566,7.381,3.725c2.485,1.158,5.008,2.202,7.592,3.066c2.463,0.874,5.117,1.106,7.863,1.188
				c2.74,0.085,5.572,0.013,8.438,0.4c1.418,0.182,2.896,0.567,4.2,0.997c1.34,0.421,2.669,0.869,3.986,1.347
				c5.267,1.914,10.407,4.226,15.154,7.213c2.363,1.501,4.629,3.176,6.643,5.124c2.009,1.94,3.775,4.177,4.92,6.722
				c-1.258-2.49-3.105-4.619-5.174-6.446c-2.073-1.833-4.381-3.383-6.774-4.757c-4.81-2.731-9.979-4.783-15.246-6.434
				c-1.317-0.411-2.646-0.793-3.979-1.146c-1.357-0.378-2.595-0.638-3.946-0.755c-2.672-0.244-5.422-0.058-8.239-0.015
				c-2.801,0.044-5.777-0.068-8.624-0.933c-2.733-0.779-5.406-1.75-8.019-2.825c-2.611-1.076-5.165-2.26-7.688-3.454
				c-2.38-1.152-4.95-1.929-7.63-2.824c-1.336-0.446-2.699-0.928-4.06-1.512c-0.68-0.285-1.42-0.648-2.001-0.947
				c-0.736-0.388-1.369-0.776-2.014-1.22c-1.273-0.873-2.398-1.876-3.419-2.741c-1.027-0.874-1.962-1.567-2.956-2.022
				c-1.916-0.925-4.476-0.955-7.271-1.033c-1.401-0.04-2.882-0.088-4.437-0.304c-1.547-0.212-3.19-0.623-4.756-1.381
				c-0.396-0.189-0.754-0.384-1.182-0.648c-0.232-0.142-0.341-0.22-0.492-0.318l-0.109-0.072l-0.182-0.132l-0.266-0.197
				c-0.699-0.531-1.327-1.131-1.892-1.754c-1.127-1.251-1.992-2.595-2.738-3.897c-1.488-2.621-2.553-5.126-3.936-7.11
				L924.525,318.158z"/>
		</g>
	</g>
	<circle fill="#FF0606" cx="189.496" cy="453.574" r="7.982"/>
	<circle fill="#FF0606" cx="197.283" cy="520.739" r="7.982"/>
	<circle fill="#FF0606" cx="143.312" cy="531.533" r="7.982"/>
	<circle fill="#FF0606" cx="430.569" cy="472.732" r="7.982"/>
	<circle fill="#FF0606" cx="558.822" cy="456.766" r="7.982"/>
	<circle fill="#FF0606" cx="613.104" cy="372.152" r="7.982"/>
	<circle fill="#FF0606" cx="867.48" cy="221.017" r="7.982"/>
	<circle fill="#FF0606" cx="1143.145" cy="269.976" r="7.982"/>
	<circle fill="#FF0606" cx="1403.375" cy="375.878" r="7.982"/>
	<text transform="matrix(0.9953 0 0 1 408.0374 515.1731)" font-family="'TimesNewRomanPSMT'" font-size="31.859">Badwani</text>
	<g>
		<text transform="matrix(0.9953 0 0 1 544.8323 492.302)" font-family="'TimesNewRomanPSMT'" font-size="31.859">Maheshwar</text>
	</g>
	<g>
		<text transform="matrix(0.9953 0 0 1 553.7971 354.5891)" font-family="'TimesNewRomanPSMT'" font-size="31.859">Pathrad</text>
	</g>
	<g>
		<text transform="matrix(0.9953 0 0 1 826.9778 202.7346)" font-family="'TimesNewRomanPSMT'" font-size="31.859">Bhopal</text>
	</g>
	<g>
		<text transform="matrix(0.9953 0 0 1 1156.6692 269.842)" font-family="'TimesNewRomanPSMT'" font-size="31.859">Jabalpur</text>
	</g>
	<g>
		<text transform="matrix(0.9953 0 0 1 1260.2883 410.9436)" font-family="'TimesNewRomanPSMT'" font-size="31.859">Amarkantak</text>
	</g>
</g>
<path id="path1" fill="none" stroke="#231F20" stroke-width="3" stroke-miterlimit="10" d="M197.479,453.573
	c0,0,311.896-41.251,467.878-97.449c155.981-56.199,161.715-123.867,213.327-142.219c51.611-18.351,270.674,59.641,337.195,76.845
	c66.521,17.203,25.231-18.353,154.834,21.79c0,0,59.641,25.231,45.877,53.905c0,0-2.295,9.175-33.262,12.616
	s-449.593-37.849-783.347,64.228c0,0-92.9,18.352-188.095,38.995c-95.195,20.645-183.507,30.969-219.063,41.29
	c-35.555,10.322-81.431,18.351-83.725,2.293c-2.294-16.057-19.254-26.288,72.5-69.871"/>
</svg>
