selector,english_word,engmeaning,nepali_word,nepmeaning,image
सत्कार,सत्कार,hospitable,,सम्मान वा आदर,
टुप्‍लुक्‍क,,,टुप्‍लुक्‍क,अचानक आइपुग्‍नु,
शिष्टाचार,शिष्टाचार,courtesy,,राम्रो व्यवहार,
धारोमा,,,धारो,पानीको धारा,
मिलनसार,मिलनसार,friendly,,मिल्ने खालको,
सम्बोधन,,,सम्बोधन,व्यक्ति अनुसारको मान,
