<?xml version="1.0" encoding="utf-8"?>
<!DOCTYPE svg PUBLIC "-//W3C//DTD SVG 1.1//EN" "http://www.w3.org/Graphics/SVG/1.1/DTD/svg11.dtd">
<svg version="1.1" id="Layer_1" xmlns="http://www.w3.org/2000/svg" xmlns:xlink="http://www.w3.org/1999/xlink" x="0px" y="0px"
	 width="100%" height="100%" viewBox="-488 -163.5 1440 780" enable-background="new -488 -163.5 1440 780" xml:space="preserve" preserveAspectRatio="none">
<g>
	<g>
		<rect x="-482.18" y="-134.252" fill="#CECAC8" width="76.724" height="76.703"/>
		<text transform="matrix(1.0003 0 0 1 -456.6431 -80.8745)" fill="#231F20" font-family="'Calibri-Bold'" font-size="32.0001">H</text>
		<g>
			<g>
				<text transform="matrix(1.0003 0 0 1 -449.4761 -116.0444)" fill="#231F20" font-family="'Calibri-Bold'" font-size="20">1</text>
			</g>
		</g>
	</g>
	<text transform="matrix(1.0003 0 0 1 -463.5864 -67.6108)" fill="#231F20" font-family="'Calibri-Bold'" font-size="9">Hydro­gen</text>
</g>
<g>
	<g>
		<rect x="869.706" y="-134.252" fill="#CECAC8" width="76.719" height="76.703"/>
		<text transform="matrix(1.0003 0 0 1 885.0068 -81.5942)" fill="#231F20" font-family="'Calibri-Bold'" font-size="32.0001">He</text>
		<text transform="matrix(1.0003 0 0 1 893.4443 -65.5405)" fill="#231F20" font-family="'Calibri-Bold'" font-size="9">Helium</text>
	</g>
	<g>
		<g>
			<text transform="matrix(1.0003 0 0 1 902.4072 -116.0444)" fill="#231F20" font-family="'Calibri-Bold'" font-size="20">2</text>
		</g>
	</g>
</g>
<g>
	<g>
		<rect x="-481.966" y="-54.761" fill="#CECAC8" width="76.719" height="76.701">
		
			<animate  fill="remove" from="#CECAC8" to="#FFDD00" begin="0s;anim002.end" dur="0.3s" restart="always" id="anim001" calcMode="linear" attributeName="fill" accumulate="none" additive="replace">
			</animate>
		
			<animate  fill="remove" from="#FFDD00" to="#CECAC8" begin="anim001.end" dur="0.3s" restart="always" id="anim002" calcMode="linear" attributeName="fill" accumulate="none" additive="replace">
			</animate>
		</rect>
		<text transform="matrix(1.0003 0 0 1 -457.1958 -2.104)" fill="#231F20" font-family="'Calibri-Bold'" font-size="32.0001">Li</text>
		<g>
			<g>
				<text transform="matrix(1.0003 0 0 1 -449.2642 -36.5542)" fill="#231F20" font-family="'Calibri-Bold'" font-size="20">3</text>
			</g>
		</g>
	</g>
	<text transform="matrix(1.0003 0 0 1 -459.0649 13.9487)" fill="#231F20" font-family="'Calibri-Bold'" font-size="9">Lith­ium</text>
</g>
<g>
	<rect x="-402.457" y="-54.761" fill="#CECAC8" width="76.721" height="76.701"/>
	<text transform="matrix(1.0003 0 0 1 -385.7251 -2.104)" fill="#231F20" font-family="'Calibri-Bold'" font-size="32.0001">Be</text>
	<text transform="matrix(1.0003 0 0 1 -383.6216 13.9487)" fill="#231F20" font-family="'Calibri-Bold'" font-size="9">Beryl­lium</text>
	<g>
		<g>
			<text transform="matrix(1.0003 0 0 1 -369.7524 -36.5542)" fill="#231F20" font-family="'Calibri-Bold'" font-size="20">4</text>
		</g>
	</g>
</g>
<g>
	<g>
		<rect x="472.149" y="-54.761" fill="#CECAC8" width="76.726" height="76.701"/>
		<text transform="matrix(1.0003 0 0 1 499.1201 -0.5415)" fill="#231F20" font-family="'Calibri-Bold'" font-size="32.0001">B</text>
		<text transform="matrix(1.0003 0 0 1 498.0791 15.5132)" fill="#231F20" font-family="'Calibri-Bold'" font-size="9">Boron</text>
	</g>
	<g>
		<g>
			<text transform="matrix(1.0003 0 0 1 504.8564 -36.5542)" fill="#231F20" font-family="'Calibri-Bold'" font-size="20">5</text>
		</g>
	</g>
</g>
<g>
	<g>
		<rect x="551.663" y="-54.761" fill="#CECAC8" width="76.72" height="76.701"/>
		<text transform="matrix(1.0003 0 0 1 579.2627 -2.104)" fill="#231F20" font-family="'Calibri-Bold'" font-size="32.0001">C</text>
		<text transform="matrix(1.0003 0 0 1 575.3389 13.9487)" fill="#231F20" font-family="'Calibri-Bold'" font-size="9">Carbon</text>
	</g>
	<g>
		<g>
			<text transform="matrix(1.0003 0 0 1 584.3662 -36.5542)" fill="#231F20" font-family="'Calibri-Bold'" font-size="20">6</text>
		</g>
	</g>
</g>
<g>
	<g>
		<rect x="631.174" y="-54.761" fill="#CECAC8" width="76.723" height="76.701"/>
		<text transform="matrix(1.0003 0 0 1 656.1436 -2.104)" fill="#231F20" font-family="'Calibri-Bold'" font-size="32.0001">N</text>
		<text transform="matrix(1.0003 0 0 1 651.5791 13.9487)" fill="#231F20" font-family="'Calibri-Bold'" font-size="9">Nitro­gen</text>
	</g>
	<g>
		<g>
			<text transform="matrix(1.0003 0 0 1 663.8779 -36.5542)" fill="#231F20" font-family="'Calibri-Bold'" font-size="20">7</text>
		</g>
	</g>
</g>
<g>
	<g>
		<rect x="710.685" y="-54.761" fill="#CECAC8" width="76.72" height="76.701"/>
		<text transform="matrix(1.0003 0 0 1 735.2959 -2.104)" fill="#231F20" font-family="'Calibri-Bold'" font-size="32.0001">O</text>
		<text transform="matrix(1.0003 0 0 1 733.6982 13.9487)" fill="#231F20" font-family="'Calibri-Bold'" font-size="9">Oxy­gen</text>
	</g>
	<g>
		<g>
			<text transform="matrix(1.0003 0 0 1 743.3877 -36.5542)" fill="#231F20" font-family="'Calibri-Bold'" font-size="20">8</text>
		</g>
	</g>
</g>
<g>
	<g>
		<rect x="790.192" y="-54.761" fill="#CECAC8" width="76.722" height="76.701"/>
		<text transform="matrix(1.0003 0 0 1 819.2217 -2.104)" fill="#231F20" font-family="'Calibri-Bold'" font-size="32.0001">F</text>
		<text transform="matrix(1.0003 0 0 1 811.7646 13.9487)" fill="#231F20" font-family="'Calibri-Bold'" font-size="9">Fluor­ine</text>
	</g>
	<g>
		<g>
			<text transform="matrix(1.0003 0 0 1 822.8955 -36.5542)" fill="#231F20" font-family="'Calibri-Bold'" font-size="20">9</text>
		</g>
	</g>
</g>
<g>
	<g>
		<rect x="869.706" y="-54.761" fill="#CECAC8" width="76.719" height="76.701"/>
		<text transform="matrix(1.0003 0 0 1 884.4404 -2.104)" fill="#231F20" font-family="'Calibri-Bold'" font-size="32.0001">Ne</text>
		<text transform="matrix(1.0003 0 0 1 897.0518 13.9487)" fill="#231F20" font-family="'Calibri-Bold'" font-size="9">Neon</text>
	</g>
	<g>
		<g>
			<text transform="matrix(1.0003 0 0 1 896.751 -36.5542)" fill="#231F20" font-family="'Calibri-Bold'" font-size="20">10</text>
		</g>
	</g>
</g>
<g>
	<rect x="-481.966" y="24.729" fill="#CECAC8" width="76.719" height="76.702"/>
	<text transform="matrix(1.0003 0 0 1 -467.0337 77.3862)" fill="#231F20" font-family="'Calibri-Bold'" font-size="32.0001">Na</text>
	<text transform="matrix(1.0003 0 0 1 -459.0435 93.438)" fill="#231F20" font-family="'Calibri-Bold'" font-size="9">So­dium</text>
	<g>
		<g>
			<text transform="matrix(1.0003 0 0 1 -454.9185 42.9351)" fill="#231F20" font-family="'Calibri-Bold'" font-size="20">11</text>
		</g>
	</g>
</g>
<g>
	<rect x="-402.457" y="24.729" fill="#CECAC8" width="76.721" height="76.702"/>
	<text transform="matrix(1.0003 0 0 1 -391.5034 77.3862)" fill="#231F20" font-family="'Calibri-Bold'" font-size="32.0001">Mg</text>
	<text transform="matrix(1.0003 0 0 1 -387.9985 93.438)" fill="#231F20" font-family="'Calibri-Bold'" font-size="9">Magne­sium</text>
	<g>
		<g>
			<text transform="matrix(1.0003 0 0 1 -375.4087 42.9351)" fill="#231F20" font-family="'Calibri-Bold'" font-size="20">12</text>
		</g>
	</g>
</g>
<g>
	<g>
		<rect x="472.149" y="24.729" fill="#CECAC8" width="76.726" height="76.702"/>
		<text transform="matrix(1.0003 0 0 1 493.2041 78.9487)" fill="#231F20" font-family="'Calibri-Bold'" font-size="32.0001">Al</text>
		<text transform="matrix(1.0003 0 0 1 488.0635 95.0034)" fill="#231F20" font-family="'Calibri-Bold'" font-size="9">Alumin­ium</text>
	</g>
	<g>
		<g>
			<text transform="matrix(1.0003 0 0 1 499.2021 42.9351)" fill="#231F20" font-family="'Calibri-Bold'" font-size="20">13</text>
		</g>
	</g>
</g>
<g>
	<g>
		<rect x="551.663" y="24.729" fill="#CECAC8" width="76.72" height="76.702"/>
		<text transform="matrix(1.0003 0 0 1 575.4209 78.9487)" fill="#231F20" font-family="'Calibri-Bold'" font-size="32.0001">Si</text>
		<text transform="matrix(1.0003 0 0 1 576.7393 95.0034)" fill="#231F20" font-family="'Calibri-Bold'" font-size="9">Sili­con</text>
	</g>
	<g>
		<g>
			<text transform="matrix(1.0003 0 0 1 578.7119 42.9351)" fill="#231F20" font-family="'Calibri-Bold'" font-size="20">14</text>
		</g>
	</g>
</g>
<g>
	<g>
		<rect x="631.174" y="24.729" fill="#CECAC8" width="76.723" height="76.702"/>
		<text transform="matrix(1.0003 0 0 1 658.7139 77.3862)" fill="#231F20" font-family="'Calibri-Bold'" font-size="32.0001">P</text>
		<text transform="matrix(1.0003 0 0 1 645.4814 93.438)" fill="#231F20" font-family="'Calibri-Bold'" font-size="9">Phos­phorus</text>
	</g>
	<g>
		<g>
			<text transform="matrix(1.0003 0 0 1 658.2197 42.9351)" fill="#231F20" font-family="'Calibri-Bold'" font-size="20">15</text>
		</g>
	</g>
</g>
<g>
	<g>
		<rect x="710.685" y="24.729" fill="#CECAC8" width="76.72" height="76.702"/>
		<text transform="matrix(1.0003 0 0 1 739.4326 77.3862)" fill="#231F20" font-family="'Calibri-Bold'" font-size="32.0001">S</text>
		<text transform="matrix(1.0003 0 0 1 736.9229 93.438)" fill="#231F20" font-family="'Calibri-Bold'" font-size="9">Sulfur</text>
	</g>
	<g>
		<g>
			<text transform="matrix(1.0003 0 0 1 737.7295 42.9351)" fill="#231F20" font-family="'Calibri-Bold'" font-size="20">16</text>
		</g>
	</g>
</g>
<g>
	<g>
		<rect x="790.192" y="24.729" fill="#CECAC8" width="76.722" height="76.702"/>
		<text transform="matrix(1.0003 0 0 1 812.7998 77.3862)" fill="#231F20" font-family="'Calibri-Bold'" font-size="32.0001">Cl</text>
		<text transform="matrix(1.0003 0 0 1 811.4209 93.438)" fill="#231F20" font-family="'Calibri-Bold'" font-size="9">Chlor­ine</text>
	</g>
	<g>
		<g>
			<text transform="matrix(1.0003 0 0 1 817.2432 42.9351)" fill="#231F20" font-family="'Calibri-Bold'" font-size="20">17</text>
		</g>
	</g>
</g>
<g>
	<g>
		<rect x="869.706" y="24.729" fill="#CECAC8" width="76.719" height="76.702"/>
		<text transform="matrix(1.0003 0 0 1 888.5205 77.3862)" fill="#231F20" font-family="'Calibri-Bold'" font-size="32.0001">Ar</text>
		<text transform="matrix(1.0003 0 0 1 895.7178 93.438)" fill="#231F20" font-family="'Calibri-Bold'" font-size="9">Argon</text>
	</g>
	<g>
		<g>
			<text transform="matrix(1.0003 0 0 1 896.751 42.9351)" fill="#231F20" font-family="'Calibri-Bold'" font-size="20">18</text>
		</g>
	</g>
</g>
<g>
	<rect x="-481.966" y="104.219" fill="#CECAC8" width="76.719" height="76.705"/>
	<text transform="matrix(1.0003 0 0 1 -454.7251 156.8765)" fill="#231F20" font-family="'Calibri-Bold'" font-size="32.0001">K</text>
	<text transform="matrix(1.0003 0 0 1 -464.7114 172.9302)" fill="#231F20" font-family="'Calibri-Bold'" font-size="9">Potas­sium</text>
	<g>
		<g>
			<text transform="matrix(1.0003 0 0 1 -454.9185 122.4253)" fill="#231F20" font-family="'Calibri-Bold'" font-size="20">19</text>
		</g>
	</g>
</g>
<g>
	<rect x="-402.457" y="104.219" fill="#CECAC8" width="76.721" height="76.705"/>
	<text transform="matrix(1.0003 0 0 1 -384.8911 156.8765)" fill="#231F20" font-family="'Calibri-Bold'" font-size="32.0001">Ca</text>
	<text transform="matrix(1.0003 0 0 1 -380.2153 172.9302)" fill="#231F20" font-family="'Calibri-Bold'" font-size="9">Cal­cium</text>
	<g>
		<g>
			<text transform="matrix(1.0003 0 0 1 -375.4087 122.4253)" fill="#231F20" font-family="'Calibri-Bold'" font-size="20">20</text>
		</g>
	</g>
</g>
<g>
	<g>
		<rect x="-322.948" y="104.219" fill="#CECAC8" width="76.722" height="76.705"/>
		<text transform="matrix(1.0003 0 0 1 -302.7017 156.8765)" fill="#231F20" font-family="'Calibri-Bold'" font-size="32.0001">Sc</text>
		<text transform="matrix(1.0003 0 0 1 -304.4712 172.9302)" fill="#231F20" font-family="'Calibri-Bold'" font-size="9">Scan­dium</text>
	</g>
	<g>
		<g>
			<text transform="matrix(1.0003 0 0 1 -295.8979 122.4253)" fill="#231F20" font-family="'Calibri-Bold'" font-size="20">21</text>
		</g>
	</g>
</g>
<g>
	<g>
		<rect x="-243.438" y="104.219" fill="#CECAC8" width="76.721" height="76.705"/>
		<text transform="matrix(1.0003 0 0 1 -220.1343 156.8765)" fill="#231F20" font-family="'Calibri-Bold'" font-size="32.0001">Ti</text>
		<text transform="matrix(1.0003 0 0 1 -223.2974 172.9302)" fill="#231F20" font-family="'Calibri-Bold'" font-size="9">Tita­nium</text>
	</g>
	<g>
		<g>
			<text transform="matrix(1.0003 0 0 1 -216.3872 122.4253)" fill="#231F20" font-family="'Calibri-Bold'" font-size="20">22</text>
		</g>
	</g>
</g>
<g>
	<g>
		<rect x="-163.926" y="104.219" fill="#CECAC8" width="76.72" height="76.705"/>
		<text transform="matrix(1.0003 0 0 1 -137.5894 156.8765)" fill="#231F20" font-family="'Calibri-Bold'" font-size="32.0001">V</text>
		<text transform="matrix(1.0003 0 0 1 -146.3979 172.9302)" fill="#231F20" font-family="'Calibri-Bold'" font-size="9">Vana­dium</text>
	</g>
	<g>
		<g>
			<text transform="matrix(1.0003 0 0 1 -136.8774 122.4253)" fill="#231F20" font-family="'Calibri-Bold'" font-size="20">23</text>
		</g>
	</g>
</g>
<g>
	<g>
		<rect x="-84.417" y="104.219" fill="#CECAC8" width="76.721" height="76.705"/>
		<text transform="matrix(1.0003 0 0 1 -64.0435 156.8765)" fill="#231F20" font-family="'Calibri-Bold'" font-size="32.0001">Cr</text>
		<text transform="matrix(1.0003 0 0 1 -67.4771 172.9302)" fill="#231F20" font-family="'Calibri-Bold'" font-size="9">Chrom­ium</text>
	</g>
	<g>
		<g>
			<text transform="matrix(1.0003 0 0 1 -57.3667 122.4253)" fill="#231F20" font-family="'Calibri-Bold'" font-size="20">24</text>
		</g>
	</g>
</g>
<g>
	<g>
		<rect x="-4.906" y="104.219" fill="#CECAC8" width="76.724" height="76.705"/>
		<text transform="matrix(1.0003 0 0 1 4.7788 156.8765)" fill="#231F20" font-family="'Calibri-Bold'" font-size="32.0001">Mn</text>
		<text transform="matrix(1.0003 0 0 1 9.855 172.9302)" fill="#231F20" font-family="'Calibri-Bold'" font-size="9">Manga­nese</text>
	</g>
	<g>
		<g>
			<text transform="matrix(1.0003 0 0 1 22.1421 122.4253)" fill="#231F20" font-family="'Calibri-Bold'" font-size="20">25</text>
		</g>
	</g>
</g>
<g>
	<g>
		<rect x="74.603" y="104.219" fill="#CECAC8" width="76.721" height="76.705"/>
		<text transform="matrix(1.0003 0 0 1 93.3999 156.8765)" fill="#231F20" font-family="'Calibri-Bold'" font-size="32.0001">Fe</text>
		<text transform="matrix(1.0003 0 0 1 104.5884 172.9302)" fill="#231F20" font-family="'Calibri-Bold'" font-size="9">Iron</text>
	</g>
	<g>
		<g>
			<text transform="matrix(1.0003 0 0 1 101.6519 122.4253)" fill="#231F20" font-family="'Calibri-Bold'" font-size="20">26</text>
		</g>
	</g>
</g>
<g>
	<g>
		<rect x="154.114" y="104.219" fill="#CECAC8" width="76.719" height="76.705"/>
		<text transform="matrix(1.0003 0 0 1 170.7837 156.8765)" fill="#231F20" font-family="'Calibri-Bold'" font-size="32.0001">Co</text>
		<text transform="matrix(1.0003 0 0 1 179.2495 172.9302)" fill="#231F20" font-family="'Calibri-Bold'" font-size="9">Cobalt</text>
	</g>
	<g>
		<g>
			<text transform="matrix(1.0003 0 0 1 181.1616 122.4253)" fill="#231F20" font-family="'Calibri-Bold'" font-size="20">27</text>
		</g>
	</g>
</g>
<g>
	<g>
		<rect x="233.624" y="104.219" fill="#CECAC8" width="76.72" height="76.705"/>
		<text transform="matrix(1.0003 0 0 1 253.5986 156.8765)" fill="#231F20" font-family="'Calibri-Bold'" font-size="32.0001">Ni</text>
		<text transform="matrix(1.0003 0 0 1 259.4326 172.9302)" fill="#231F20" font-family="'Calibri-Bold'" font-size="9">Nickel</text>
	</g>
	<g>
		<g>
			<text transform="matrix(1.0003 0 0 1 260.6689 122.4253)" fill="#231F20" font-family="'Calibri-Bold'" font-size="20">28</text>
		</g>
	</g>
</g>
<g>
	<g>
		<rect x="313.135" y="104.219" fill="#CECAC8" width="76.726" height="76.705"/>
		<text transform="matrix(1.0003 0 0 1 329.8232 156.8765)" fill="#231F20" font-family="'Calibri-Bold'" font-size="32.0001">Cu</text>
		<text transform="matrix(1.0003 0 0 1 336.7588 172.9302)" fill="#231F20" font-family="'Calibri-Bold'" font-size="9">Copper</text>
	</g>
	<g>
		<g>
			<text transform="matrix(1.0003 0 0 1 340.1807 122.4253)" fill="#231F20" font-family="'Calibri-Bold'" font-size="20">29</text>
		</g>
	</g>
</g>
<g>
	<g>
		<rect x="392.643" y="104.219" fill="#CECAC8" width="76.719" height="76.705"/>
		<text transform="matrix(1.0003 0 0 1 410.3779 156.8765)" fill="#231F20" font-family="'Calibri-Bold'" font-size="32.0001">Zn</text>
		<text transform="matrix(1.0003 0 0 1 422.7158 172.9302)" fill="#231F20" font-family="'Calibri-Bold'" font-size="9">Zinc</text>
	</g>
	<g>
		<g>
			<text transform="matrix(1.0003 0 0 1 419.6904 122.4253)" fill="#231F20" font-family="'Calibri-Bold'" font-size="20">30</text>
		</g>
	</g>
</g>
<g>
	<g>
		<rect x="472.149" y="104.219" fill="#CECAC8" width="76.726" height="76.705"/>
		<text transform="matrix(1.0003 0 0 1 487.5244 158.438)" fill="#231F20" font-family="'Calibri-Bold'" font-size="32.0001">Ga</text>
		<text transform="matrix(1.0003 0 0 1 494.71 174.4917)" fill="#231F20" font-family="'Calibri-Bold'" font-size="9">Gallium</text>
	</g>
	<g>
		<g>
			<text transform="matrix(1.0003 0 0 1 499.2021 122.4253)" fill="#231F20" font-family="'Calibri-Bold'" font-size="20">31</text>
		</g>
	</g>
</g>
<g>
	<g>
		<rect x="551.663" y="104.219" fill="#CECAC8" width="76.72" height="76.705"/>
		<text transform="matrix(1.0003 0 0 1 566.8369 158.438)" fill="#231F20" font-family="'Calibri-Bold'" font-size="32.0001">Ge</text>
		<text transform="matrix(1.0003 0 0 1 565.835 174.4917)" fill="#231F20" font-family="'Calibri-Bold'" font-size="9">Germa­nium</text>
	</g>
	<g>
		<g>
			<text transform="matrix(1.0003 0 0 1 578.7119 122.4253)" fill="#231F20" font-family="'Calibri-Bold'" font-size="20">32</text>
		</g>
	</g>
</g>
<g>
	<g>
		<rect x="631.174" y="104.219" fill="#CECAC8" width="76.723" height="76.705"/>
		<text transform="matrix(1.0003 0 0 1 649.1064 158.438)" fill="#231F20" font-family="'Calibri-Bold'" font-size="32.0001">As</text>
		<text transform="matrix(1.0003 0 0 1 654.4795 174.4917)" fill="#231F20" font-family="'Calibri-Bold'" font-size="9">Arsenic</text>
	</g>
	<g>
		<g>
			<text transform="matrix(1.0003 0 0 1 658.2197 122.4253)" fill="#231F20" font-family="'Calibri-Bold'" font-size="20">33</text>
		</g>
	</g>
</g>
<g>
	<g>
		<rect x="710.685" y="104.219" fill="#CECAC8" width="76.72" height="76.705"/>
		<text transform="matrix(1.0003 0 0 1 729.2021 156.8765)" fill="#231F20" font-family="'Calibri-Bold'" font-size="32.0001">Se</text>
		<text transform="matrix(1.0003 0 0 1 730.1162 172.9302)" fill="#231F20" font-family="'Calibri-Bold'" font-size="9">Sele­nium</text>
	</g>
	<g>
		<g>
			<text transform="matrix(1.0003 0 0 1 737.7295 122.4253)" fill="#231F20" font-family="'Calibri-Bold'" font-size="20">34</text>
		</g>
	</g>
</g>
<g>
	<g>
		<rect x="790.192" y="104.219" fill="#CECAC8" width="76.722" height="76.705"/>
		<text transform="matrix(1.0003 0 0 1 809.9326 156.8765)" fill="#231F20" font-family="'Calibri-Bold'" font-size="32.0001">Br</text>
		<text transform="matrix(1.0003 0 0 1 811.1162 172.9302)" fill="#231F20" font-family="'Calibri-Bold'" font-size="9">Bromine</text>
	</g>
	<g>
		<g>
			<text transform="matrix(1.0003 0 0 1 817.2432 122.4253)" fill="#231F20" font-family="'Calibri-Bold'" font-size="20">35</text>
		</g>
	</g>
</g>
<g>
	<g>
		<rect x="869.706" y="104.219" fill="#CECAC8" width="76.719" height="76.705"/>
		<text transform="matrix(1.0003 0 0 1 889.7197 156.8765)" fill="#231F20" font-family="'Calibri-Bold'" font-size="32.0001">Kr</text>
		<text transform="matrix(1.0003 0 0 1 891.6963 172.9302)" fill="#231F20" font-family="'Calibri-Bold'" font-size="9">Kryp­ton</text>
	</g>
	<g>
		<g>
			<text transform="matrix(1.0003 0 0 1 896.751 122.4253)" fill="#231F20" font-family="'Calibri-Bold'" font-size="20">36</text>
		</g>
	</g>
</g>
<g>
	<rect x="-481.966" y="183.71" fill="#CECAC8" width="76.719" height="76.7"/>
	<text transform="matrix(1.0003 0 0 1 -465.9595 236.3672)" fill="#231F20" font-family="'Calibri-Bold'" font-size="32.0001">Rb</text>
	<text transform="matrix(1.0003 0 0 1 -463.2993 252.4199)" fill="#231F20" font-family="'Calibri-Bold'" font-size="9">Rubid­ium</text>
	<g>
		<g>
			<text transform="matrix(1.0003 0 0 1 -454.9185 201.9165)" fill="#231F20" font-family="'Calibri-Bold'" font-size="20">37</text>
		</g>
	</g>
</g>
<g>
	<rect x="-402.457" y="183.71" fill="#CECAC8" width="76.721" height="76.7"/>
	<text transform="matrix(1.0003 0 0 1 -380.9302 236.3672)" fill="#231F20" font-family="'Calibri-Bold'" font-size="32.0001">Sr</text>
	<text transform="matrix(1.0003 0 0 1 -384.6196 252.4199)" fill="#231F20" font-family="'Calibri-Bold'" font-size="9">Stront­ium</text>
	<g>
		<g>
			<text transform="matrix(1.0003 0 0 1 -375.4087 201.9165)" fill="#231F20" font-family="'Calibri-Bold'" font-size="20">38</text>
		</g>
	</g>
</g>
<g>
	<g>
		<rect x="-322.948" y="183.71" fill="#CECAC8" width="76.722" height="76.7"/>
		<text transform="matrix(1.0003 0 0 1 -295.1489 236.3672)" fill="#231F20" font-family="'Calibri-Bold'" font-size="32.0001">Y</text>
		<text transform="matrix(1.0003 0 0 1 -299.9478 252.4199)" fill="#231F20" font-family="'Calibri-Bold'" font-size="9">Yttrium</text>
	</g>
	<g>
		<g>
			<text transform="matrix(1.0003 0 0 1 -295.8979 201.9165)" fill="#231F20" font-family="'Calibri-Bold'" font-size="20">39</text>
		</g>
	</g>
</g>
<g>
	<g>
		<rect x="-243.438" y="183.71" fill="#CECAC8" width="76.721" height="76.7"/>
		<text transform="matrix(1.0003 0 0 1 -222.0181 236.3672)" fill="#231F20" font-family="'Calibri-Bold'" font-size="32.0001">Zr</text>
		<text transform="matrix(1.0003 0 0 1 -225.5171 252.4199)" fill="#231F20" font-family="'Calibri-Bold'" font-size="9">Zirco­nium</text>
	</g>
	<g>
		<g>
			<text transform="matrix(1.0003 0 0 1 -216.3872 201.9165)" fill="#231F20" font-family="'Calibri-Bold'" font-size="20">40</text>
		</g>
	</g>
</g>
<g>
	<g>
		<rect x="-163.926" y="183.71" fill="#CECAC8" width="76.72" height="76.7"/>
		<text transform="matrix(1.0003 0 0 1 -149.8667 236.3672)" fill="#231F20" font-family="'Calibri-Bold'" font-size="32.0001">Nb</text>
		<text transform="matrix(1.0003 0 0 1 -143.1118 252.4199)" fill="#231F20" font-family="'Calibri-Bold'" font-size="9">Nio­bium</text>
	</g>
	<g>
		<g>
			<text transform="matrix(1.0003 0 0 1 -136.8774 201.9165)" fill="#231F20" font-family="'Calibri-Bold'" font-size="20">41</text>
		</g>
	</g>
</g>
<g>
	<g>
		<rect x="-84.417" y="183.71" fill="#CECAC8" width="76.721" height="76.7"/>
		<text transform="matrix(1.0003 0 0 1 -74.7515 236.3672)" fill="#231F20" font-family="'Calibri-Bold'" font-size="32.0001">Mo</text>
		<text transform="matrix(1.0003 0 0 1 -73.4614 252.4199)" fill="#231F20" font-family="'Calibri-Bold'" font-size="9">Molyb­denum</text>
	</g>
	<g>
		<g>
			<text transform="matrix(1.0003 0 0 1 -57.3667 201.9165)" fill="#231F20" font-family="'Calibri-Bold'" font-size="20">42</text>
		</g>
	</g>
</g>
<g>
	<g>
		<rect x="-4.906" y="183.71" fill="#CECAC8" width="76.724" height="76.7"/>
		<text transform="matrix(1.0003 0 0 1 14.8823 236.3672)" fill="#231F20" font-family="'Calibri-Bold'" font-size="32.0001">Tc</text>
		<text transform="matrix(1.0003 0 0 1 9.2944 252.4199)" fill="#231F20" font-family="'Calibri-Bold'" font-size="9">Tech­netium</text>
	</g>
	<g>
		<g>
			<text transform="matrix(1.0003 0 0 1 22.1421 201.9165)" fill="#231F20" font-family="'Calibri-Bold'" font-size="20">43</text>
		</g>
	</g>
</g>
<g>
	<g>
		<rect x="74.603" y="183.71" fill="#CECAC8" width="76.721" height="76.7"/>
		<text transform="matrix(1.0003 0 0 1 90.6108 236.3672)" fill="#231F20" font-family="'Calibri-Bold'" font-size="32.0001">Ru</text>
		<text transform="matrix(1.0003 0 0 1 90.3237 252.4199)" fill="#231F20" font-family="'Calibri-Bold'" font-size="9">Ruthe­nium</text>
	</g>
	<g>
		<g>
			<text transform="matrix(1.0003 0 0 1 101.6519 201.9165)" fill="#231F20" font-family="'Calibri-Bold'" font-size="20">44</text>
		</g>
	</g>
</g>
<g>
	<g>
		<rect x="154.114" y="183.71" fill="#CECAC8" width="76.719" height="76.7"/>
		<text transform="matrix(1.0003 0 0 1 170.1226 236.3672)" fill="#231F20" font-family="'Calibri-Bold'" font-size="32.0001">Rh</text>
		<text transform="matrix(1.0003 0 0 1 173.9751 252.4199)" fill="#231F20" font-family="'Calibri-Bold'" font-size="9">Rho­dium</text>
	</g>
	<g>
		<g>
			<text transform="matrix(1.0003 0 0 1 181.1616 201.9165)" fill="#231F20" font-family="'Calibri-Bold'" font-size="20">45</text>
		</g>
	</g>
</g>
<g>
	<g>
		<rect x="233.624" y="183.71" fill="#CECAC8" width="76.72" height="76.7"/>
		<text transform="matrix(1.0003 0 0 1 250.2529 236.3672)" fill="#231F20" font-family="'Calibri-Bold'" font-size="32.0001">Pd</text>
		<text transform="matrix(1.0003 0 0 1 251.6631 252.4199)" fill="#231F20" font-family="'Calibri-Bold'" font-size="9">Pallad­ium</text>
	</g>
	<g>
		<g>
			<text transform="matrix(1.0003 0 0 1 260.6689 201.9165)" fill="#231F20" font-family="'Calibri-Bold'" font-size="20">46</text>
		</g>
	</g>
</g>
<g>
	<g>
		<rect x="313.135" y="183.71" fill="#CECAC8" width="76.726" height="76.7"/>
		<text transform="matrix(1.0003 0 0 1 329.5361 236.3672)" fill="#231F20" font-family="'Calibri-Bold'" font-size="32.0001">Ag</text>
		<text transform="matrix(1.0003 0 0 1 340.1924 252.4199)" fill="#231F20" font-family="'Calibri-Bold'" font-size="9">Silver</text>
	</g>
	<g>
		<g>
			<text transform="matrix(1.0003 0 0 1 340.1807 201.9165)" fill="#231F20" font-family="'Calibri-Bold'" font-size="20">47</text>
		</g>
	</g>
</g>
<g>
	<g>
		<rect x="392.643" y="183.71" fill="#CECAC8" width="76.719" height="76.7"/>
		<text transform="matrix(1.0003 0 0 1 409.335 236.3672)" fill="#231F20" font-family="'Calibri-Bold'" font-size="32.0001">Cd</text>
		<text transform="matrix(1.0003 0 0 1 411.5342 252.4199)" fill="#231F20" font-family="'Calibri-Bold'" font-size="9">Cad­mium</text>
	</g>
	<g>
		<g>
			<text transform="matrix(1.0003 0 0 1 419.6904 201.9165)" fill="#231F20" font-family="'Calibri-Bold'" font-size="20">48</text>
		</g>
	</g>
</g>
<g>
	<g>
		<rect x="472.149" y="183.71" fill="#CECAC8" width="76.726" height="76.7"/>
		<text transform="matrix(1.0003 0 0 1 494.1846 237.9297)" fill="#231F20" font-family="'Calibri-Bold'" font-size="32.0001">In</text>
		<text transform="matrix(1.0003 0 0 1 496.0889 253.9844)" fill="#231F20" font-family="'Calibri-Bold'" font-size="9">Indium</text>
	</g>
	<g>
		<g>
			<text transform="matrix(1.0003 0 0 1 499.2021 201.9165)" fill="#231F20" font-family="'Calibri-Bold'" font-size="20">49</text>
		</g>
	</g>
</g>
<g>
	<g>
		<rect x="551.663" y="183.71" fill="#CECAC8" width="76.72" height="76.7"/>
		<text transform="matrix(1.0003 0 0 1 569.5068 237.9297)" fill="#231F20" font-family="'Calibri-Bold'" font-size="32.0001">Sn</text>
		<text transform="matrix(1.0003 0 0 1 583.6943 253.9844)" fill="#231F20" font-family="'Calibri-Bold'" font-size="9">Tin</text>
	</g>
	<g>
		<g>
			<text transform="matrix(1.0003 0 0 1 578.7119 201.9165)" fill="#231F20" font-family="'Calibri-Bold'" font-size="20">50</text>
		</g>
	</g>
</g>
<g>
	<g>
		<rect x="631.174" y="183.71" fill="#CECAC8" width="76.723" height="76.7"/>
		<text transform="matrix(1.0003 0 0 1 649.0146 237.9297)" fill="#231F20" font-family="'Calibri-Bold'" font-size="32.0001">Sb</text>
		<text transform="matrix(1.0003 0 0 1 649.4756 253.9844)" fill="#231F20" font-family="'Calibri-Bold'" font-size="9">Anti­mony</text>
	</g>
	<g>
		<g>
			<text transform="matrix(1.0003 0 0 1 658.2197 201.9165)" fill="#231F20" font-family="'Calibri-Bold'" font-size="20">51</text>
		</g>
	</g>
</g>
<g>
	<g>
		<rect x="710.685" y="183.71" fill="#CECAC8" width="76.72" height="76.7"/>
		<text transform="matrix(1.0003 0 0 1 728.7471 237.9297)" fill="#231F20" font-family="'Calibri-Bold'" font-size="32.0001">Te</text>
		<text transform="matrix(1.0003 0 0 1 729.5322 253.9844)" fill="#231F20" font-family="'Calibri-Bold'" font-size="9">Tellur­ium</text>
	</g>
	<g>
		<g>
			<text transform="matrix(1.0003 0 0 1 737.7295 201.9165)" fill="#231F20" font-family="'Calibri-Bold'" font-size="20">52</text>
		</g>
	</g>
</g>
<g>
	<g>
		<rect x="790.192" y="183.71" fill="#CECAC8" width="76.722" height="76.7"/>
		<text transform="matrix(1.0003 0 0 1 823.1318 236.3672)" fill="#231F20" font-family="'Calibri-Bold'" font-size="32.0001">I</text>
		<text transform="matrix(1.0003 0 0 1 815.6377 252.4199)" fill="#231F20" font-family="'Calibri-Bold'" font-size="9">Iodine</text>
	</g>
	<g>
		<g>
			<text transform="matrix(1.0003 0 0 1 817.2432 201.9165)" fill="#231F20" font-family="'Calibri-Bold'" font-size="20">53</text>
		</g>
	</g>
</g>
<g>
	<g>
		<rect x="869.706" y="183.71" fill="#CECAC8" width="76.719" height="76.7"/>
		<text transform="matrix(1.0003 0 0 1 886.6318 236.3672)" fill="#231F20" font-family="'Calibri-Bold'" font-size="32.0001">Xe</text>
		<text transform="matrix(1.0003 0 0 1 894.96 252.4199)" fill="#231F20" font-family="'Calibri-Bold'" font-size="9">Xenon</text>
	</g>
	<g>
		<g>
			<text transform="matrix(1.0003 0 0 1 896.751 201.9165)" fill="#231F20" font-family="'Calibri-Bold'" font-size="20">54</text>
		</g>
	</g>
</g>
<g>
	<rect x="-481.966" y="263.201" fill="#CECAC8" width="76.719" height="76.7"/>
	<text transform="matrix(1.0003 0 0 1 -462.4771 315.8574)" fill="#231F20" font-family="'Calibri-Bold'" font-size="32.0001">Cs</text>
	<text transform="matrix(1.0003 0 0 1 -460.8892 331.9102)" fill="#231F20" font-family="'Calibri-Bold'" font-size="9">Cae­sium</text>
	<g>
		<g>
			<text transform="matrix(1.0003 0 0 1 -454.9185 281.4082)" fill="#231F20" font-family="'Calibri-Bold'" font-size="20">55</text>
		</g>
	</g>
</g>
<g>
	<rect x="-402.457" y="263.201" fill="#CECAC8" width="76.721" height="76.7"/>
	<text transform="matrix(1.0003 0 0 1 -385.5259 315.5645)" fill="#231F20" font-family="'Calibri-Bold'" font-size="32.0001">Ba</text>
	<text transform="matrix(1.0003 0 0 1 -378.8638 331.9102)" fill="#231F20" font-family="'Calibri-Bold'" font-size="9">Barium</text>
	<g>
		<g>
			<text transform="matrix(1.0003 0 0 1 -375.4087 281.4082)" fill="#231F20" font-family="'Calibri-Bold'" font-size="20">56</text>
		</g>
	</g>
</g>
<g>
	<g>
		<rect x="-322.948" y="263.201" fill="#CECAC8" width="76.722" height="76.7"/>
		<text transform="matrix(1.0003 0 0 1 -310.1294 288.5938)" fill="#231F20" font-family="'Calibri-Bold'" font-size="21.8837">57-71</text>
	</g>
	<text transform="matrix(1.0003 0 0 1 -307.1821 313.6953)" fill="#231F20" font-family="'Calibri-Bold'" font-size="16.7348">La-Lu</text>
	<text transform="matrix(1.0003 0 0 1 -320.5815 330.0254)" fill="#231F20" font-family="'Calibri-Bold'" font-size="13.6085">Lanthanide</text>
</g>
<g>
	<g>
		<rect x="-322.948" y="454.777" fill="#CECAC8" width="76.722" height="76.701"/>
		<text transform="matrix(1.0003 0 0 1 -303.2183 508.9961)" fill="#231F20" font-family="'Calibri-Bold'" font-size="32.0001">La</text>
		<text transform="matrix(1.0003 0 0 1 -307.7095 525.0508)" fill="#231F20" font-family="'Calibri-Bold'" font-size="9">Lan­thanum</text>
	</g>
	<g>
		<g>
			<text transform="matrix(1.0003 0 0 1 -295.8979 472.9844)" fill="#231F20" font-family="'Calibri-Bold'" font-size="20">57</text>
		</g>
	</g>
</g>
<g>
	<g>
		<rect x="-243.438" y="454.777" fill="#CECAC8" width="76.721" height="76.701"/>
		<text transform="matrix(1.0003 0 0 1 -226.0679 508.9961)" fill="#231F20" font-family="'Calibri-Bold'" font-size="32.0001">Ce</text>
		<text transform="matrix(1.0003 0 0 1 -219.7368 525.0508)" fill="#231F20" font-family="'Calibri-Bold'" font-size="9">Cerium</text>
	</g>
	<g>
		<g>
			<text transform="matrix(1.0003 0 0 1 -216.3872 472.9844)" fill="#231F20" font-family="'Calibri-Bold'" font-size="20">58</text>
		</g>
	</g>
</g>
<g>
	<g>
		<rect x="-163.926" y="454.777" fill="#CECAC8" width="76.72" height="76.701"/>
		<text transform="matrix(1.0003 0 0 1 -143.6138 508.9961)" fill="#231F20" font-family="'Calibri-Bold'" font-size="32.0001">Pr</text>
		<text transform="matrix(1.0003 0 0 1 -156.1284 525.0508)" fill="#231F20" font-family="'Calibri-Bold'" font-size="9">Praseo­dymium</text>
	</g>
	<g>
		<g>
			<text transform="matrix(1.0003 0 0 1 -136.8774 472.9844)" fill="#231F20" font-family="'Calibri-Bold'" font-size="20">59</text>
		</g>
	</g>
</g>
<g>
	<g>
		<rect x="-84.417" y="454.777" fill="#CECAC8" width="76.721" height="76.701"/>
		<text transform="matrix(1.0003 0 0 1 -70.356 508.9961)" fill="#231F20" font-family="'Calibri-Bold'" font-size="32.0001">Nd</text>
		<text transform="matrix(1.0003 0 0 1 -71.1431 525.0508)" fill="#231F20" font-family="'Calibri-Bold'" font-size="9">Neo­dymium</text>
	</g>
	<g>
		<g>
			<text transform="matrix(1.0003 0 0 1 -57.3667 472.9844)" fill="#231F20" font-family="'Calibri-Bold'" font-size="20">60</text>
		</g>
	</g>
</g>
<g>
	<g>
		<rect x="-4.906" y="454.777" fill="#CECAC8" width="76.724" height="76.701"/>
		<text transform="matrix(1.0003 0 0 1 6.0991 508.9961)" fill="#231F20" font-family="'Calibri-Bold'" font-size="32.0001">Pm</text>
		<text transform="matrix(1.0003 0 0 1 7.8706 525.0508)" fill="#231F20" font-family="'Calibri-Bold'" font-size="9">Prome­thium</text>
	</g>
	<g>
		<g>
			<text transform="matrix(1.0003 0 0 1 22.1421 472.9844)" fill="#231F20" font-family="'Calibri-Bold'" font-size="20">61</text>
		</g>
	</g>
</g>
<g>
	<g>
		<rect x="74.603" y="454.777" fill="#CECAC8" width="76.721" height="76.701"/>
		<text transform="matrix(1.0003 0 0 1 86.8188 508.9961)" fill="#231F20" font-family="'Calibri-Bold'" font-size="32.0001">Sm</text>
		<text transform="matrix(1.0003 0 0 1 92.2437 525.0508)" fill="#231F20" font-family="'Calibri-Bold'" font-size="9">Sama­rium</text>
	</g>
	<g>
		<g>
			<text transform="matrix(1.0003 0 0 1 101.6519 472.9844)" fill="#231F20" font-family="'Calibri-Bold'" font-size="20">62</text>
		</g>
	</g>
</g>
<g>
	<g>
		<rect x="154.114" y="454.777" fill="#CECAC8" width="76.719" height="76.701"/>
		<text transform="matrix(1.0003 0 0 1 171.6499 508.9961)" fill="#231F20" font-family="'Calibri-Bold'" font-size="32.0001">Eu</text>
		<text transform="matrix(1.0003 0 0 1 172.6089 525.0508)" fill="#231F20" font-family="'Calibri-Bold'" font-size="9">Europ­ium</text>
	</g>
	<g>
		<g>
			<text transform="matrix(1.0003 0 0 1 181.1616 472.9844)" fill="#231F20" font-family="'Calibri-Bold'" font-size="20">63</text>
		</g>
	</g>
</g>
<g>
	<g>
		<rect x="233.624" y="454.777" fill="#CECAC8" width="76.72" height="76.701"/>
		<text transform="matrix(1.0003 0 0 1 248.1221 508.9961)" fill="#231F20" font-family="'Calibri-Bold'" font-size="32.0001">Gd</text>
		<text transform="matrix(1.0003 0 0 1 248.3154 525.0508)" fill="#231F20" font-family="'Calibri-Bold'" font-size="9">Gadolin­ium</text>
	</g>
	<g>
		<g>
			<text transform="matrix(1.0003 0 0 1 260.6689 472.9844)" fill="#231F20" font-family="'Calibri-Bold'" font-size="20">64</text>
		</g>
	</g>
</g>
<g>
	<g>
		<rect x="313.135" y="454.777" fill="#CECAC8" width="76.726" height="76.701"/>
		<text transform="matrix(1.0003 0 0 1 330.5186 508.9961)" fill="#231F20" font-family="'Calibri-Bold'" font-size="32.0001">Tb</text>
		<text transform="matrix(1.0003 0 0 1 334.3799 525.0508)" fill="#231F20" font-family="'Calibri-Bold'" font-size="9">Ter­bium</text>
	</g>
	<g>
		<g>
			<text transform="matrix(1.0003 0 0 1 340.1826 472.9844)" fill="#231F20" font-family="'Calibri-Bold'" font-size="20">65</text>
		</g>
	</g>
</g>
<g>
	<g>
		<rect x="392.643" y="454.777" fill="#CECAC8" width="76.719" height="76.701"/>
		<text transform="matrix(1.0003 0 0 1 408.5615 508.9961)" fill="#231F20" font-family="'Calibri-Bold'" font-size="32.0001">Dy</text>
		<text transform="matrix(1.0003 0 0 1 406.8564 525.0508)" fill="#231F20" font-family="'Calibri-Bold'" font-size="9">Dyspro­sium</text>
	</g>
	<g>
		<g>
			<text transform="matrix(1.0003 0 0 1 419.6904 472.9844)" fill="#231F20" font-family="'Calibri-Bold'" font-size="20">66</text>
		</g>
	</g>
</g>
<g>
	<g>
		<rect x="472.149" y="454.777" fill="#CECAC8" width="76.726" height="76.701"/>
		<text transform="matrix(1.0003 0 0 1 486.7607 508.9961)" fill="#231F20" font-family="'Calibri-Bold'" font-size="32.0001">Ho</text>
		<text transform="matrix(1.0003 0 0 1 491.7549 525.0508)" fill="#231F20" font-family="'Calibri-Bold'" font-size="9">Hol­mium</text>
	</g>
	<g>
		<g>
			<text transform="matrix(1.0003 0 0 1 499.2021 472.9844)" fill="#231F20" font-family="'Calibri-Bold'" font-size="20">67</text>
		</g>
	</g>
</g>
<g>
	<g>
		<rect x="551.663" y="454.777" fill="#CECAC8" width="76.72" height="76.701"/>
		<text transform="matrix(1.0003 0 0 1 572.8799 508.9961)" fill="#231F20" font-family="'Calibri-Bold'" font-size="32.0001">Er</text>
		<text transform="matrix(1.0003 0 0 1 575.4014 525.0508)" fill="#231F20" font-family="'Calibri-Bold'" font-size="9">Erbium</text>
	</g>
	<g>
		<g>
			<text transform="matrix(1.0003 0 0 1 578.7119 472.9844)" fill="#231F20" font-family="'Calibri-Bold'" font-size="20">68</text>
		</g>
	</g>
</g>
<g>
	<g>
		<rect x="631.174" y="454.777" fill="#CECAC8" width="76.723" height="76.701"/>
		<text transform="matrix(1.0003 0 0 1 642.9326 508.9961)" fill="#231F20" font-family="'Calibri-Bold'" font-size="32.0001">Tm</text>
		<text transform="matrix(1.0003 0 0 1 652.7939 525.0508)" fill="#231F20" font-family="'Calibri-Bold'" font-size="9">Thulium</text>
	</g>
	<g>
		<g>
			<text transform="matrix(1.0003 0 0 1 658.2197 472.9844)" fill="#231F20" font-family="'Calibri-Bold'" font-size="20">69</text>
		</g>
	</g>
</g>
<g>
	<g>
		<rect x="710.685" y="454.777" fill="#CECAC8" width="76.72" height="76.701"/>
		<text transform="matrix(1.0003 0 0 1 727.5732 508.9961)" fill="#231F20" font-family="'Calibri-Bold'" font-size="32.0001">Yb</text>
		<text transform="matrix(1.0003 0 0 1 728.6084 525.0508)" fill="#231F20" font-family="'Calibri-Bold'" font-size="9">Ytter­bium</text>
	</g>
	<g>
		<g>
			<text transform="matrix(1.0003 0 0 1 737.7295 472.9844)" fill="#231F20" font-family="'Calibri-Bold'" font-size="20">70</text>
		</g>
	</g>
</g>
<g>
	<g>
		<rect x="790.192" y="454.777" fill="#CECAC8" width="76.722" height="76.701"/>
		<text transform="matrix(1.0003 0 0 1 809.0479 508.9961)" fill="#231F20" font-family="'Calibri-Bold'" font-size="32.0001">Lu</text>
		<text transform="matrix(1.0003 0 0 1 810.1768 525.0508)" fill="#231F20" font-family="'Calibri-Bold'" font-size="9">Lute­tium</text>
	</g>
	<g>
		<g>
			<text transform="matrix(1.0003 0 0 1 817.2432 472.9844)" fill="#231F20" font-family="'Calibri-Bold'" font-size="20">71</text>
		</g>
	</g>
</g>
<g>
	<g>
		<rect x="-243.438" y="263.201" fill="#CECAC8" width="76.721" height="76.7"/>
		<text transform="matrix(1.0003 0 0 1 -224.3345 315.8574)" fill="#231F20" font-family="'Calibri-Bold'" font-size="32.0001">Hf</text>
		<text transform="matrix(1.0003 0 0 1 -222.6118 331.9102)" fill="#231F20" font-family="'Calibri-Bold'" font-size="9">Haf­nium</text>
	</g>
	<g>
		<g>
			<text transform="matrix(1.0003 0 0 1 -216.3872 281.4082)" fill="#231F20" font-family="'Calibri-Bold'" font-size="20">72</text>
		</g>
	</g>
</g>
<g>
	<g>
		<rect x="-163.926" y="263.201" fill="#CECAC8" width="76.72" height="76.7"/>
		<text transform="matrix(1.0003 0 0 1 -145.6665 315.8574)" fill="#231F20" font-family="'Calibri-Bold'" font-size="32.0001">Ta</text>
		<text transform="matrix(1.0003 0 0 1 -145.0024 331.9102)" fill="#231F20" font-family="'Calibri-Bold'" font-size="9">Tanta­lum</text>
	</g>
	<g>
		<g>
			<text transform="matrix(1.0003 0 0 1 -136.8774 281.4082)" fill="#231F20" font-family="'Calibri-Bold'" font-size="20">73</text>
		</g>
	</g>
</g>
<g>
	<g>
		<rect x="-84.417" y="263.201" fill="#CECAC8" width="76.721" height="76.7"/>
		<text transform="matrix(1.0003 0 0 1 -64.48 315.8574)" fill="#231F20" font-family="'Calibri-Bold'" font-size="32.0001">W</text>
		<text transform="matrix(1.0003 0 0 1 -64.8364 331.9102)" fill="#231F20" font-family="'Calibri-Bold'" font-size="9">Tung­sten</text>
	</g>
	<g>
		<g>
			<text transform="matrix(1.0003 0 0 1 -57.3667 281.4082)" fill="#231F20" font-family="'Calibri-Bold'" font-size="20">74</text>
		</g>
	</g>
</g>
<g>
	<g>
		<rect x="-4.906" y="263.201" fill="#CECAC8" width="76.724" height="76.7"/>
		<text transform="matrix(1.0003 0 0 1 11.7769 315.8574)" fill="#231F20" font-family="'Calibri-Bold'" font-size="32.0001">Re</text>
		<text transform="matrix(1.0003 0 0 1 15.1226 331.9102)" fill="#231F20" font-family="'Calibri-Bold'" font-size="9">Rhe­nium</text>
	</g>
	<g>
		<g>
			<text transform="matrix(1.0003 0 0 1 22.1421 281.4082)" fill="#231F20" font-family="'Calibri-Bold'" font-size="20">75</text>
		</g>
	</g>
</g>
<g>
	<g>
		<rect x="74.603" y="263.201" fill="#CECAC8" width="76.721" height="76.7"/>
		<text transform="matrix(1.0003 0 0 1 91.1089 315.8574)" fill="#231F20" font-family="'Calibri-Bold'" font-size="32.0001">Os</text>
		<text transform="matrix(1.0003 0 0 1 95.8608 331.9102)" fill="#231F20" font-family="'Calibri-Bold'" font-size="9">Os­mium</text>
	</g>
	<g>
		<g>
			<text transform="matrix(1.0003 0 0 1 101.6519 281.4082)" fill="#231F20" font-family="'Calibri-Bold'" font-size="20">76</text>
		</g>
	</g>
</g>
<g>
	<g>
		<rect x="154.114" y="263.201" fill="#CECAC8" width="76.719" height="76.7"/>
		<text transform="matrix(1.0003 0 0 1 179.8247 315.8574)" fill="#231F20" font-family="'Calibri-Bold'" font-size="32.0001">Ir</text>
		<text transform="matrix(1.0003 0 0 1 177.7339 331.9102)" fill="#231F20" font-family="'Calibri-Bold'" font-size="9">Iridium</text>
	</g>
	<g>
		<g>
			<text transform="matrix(1.0003 0 0 1 181.1616 281.4082)" fill="#231F20" font-family="'Calibri-Bold'" font-size="20">77</text>
		</g>
	</g>
</g>
<g>
	<g>
		<rect x="233.624" y="263.201" fill="#CECAC8" width="76.72" height="76.7"/>
		<text transform="matrix(1.0003 0 0 1 254.1162 315.8574)" fill="#231F20" font-family="'Calibri-Bold'" font-size="32.0001">Pt</text>
		<text transform="matrix(1.0003 0 0 1 253.6143 331.9102)" fill="#231F20" font-family="'Calibri-Bold'" font-size="9">Plat­inum</text>
	</g>
	<g>
		<g>
			<text transform="matrix(1.0003 0 0 1 260.6689 281.4082)" fill="#231F20" font-family="'Calibri-Bold'" font-size="20">78</text>
		</g>
	</g>
</g>
<g>
	<g>
		<rect x="313.135" y="263.201" fill="#CECAC8" width="76.726" height="76.7"/>
		<text transform="matrix(1.0003 0 0 1 328.2666 315.8574)" fill="#231F20" font-family="'Calibri-Bold'" font-size="32.0001">Au</text>
		<text transform="matrix(1.0003 0 0 1 341.8447 331.9102)" fill="#231F20" font-family="'Calibri-Bold'" font-size="9">Gold</text>
	</g>
	<g>
		<g>
			<text transform="matrix(1.0003 0 0 1 340.1807 281.4082)" fill="#231F20" font-family="'Calibri-Bold'" font-size="20">79</text>
		</g>
	</g>
</g>
<g>
	<g>
		<rect x="392.643" y="263.201" fill="#CECAC8" width="76.719" height="76.7"/>
		<text transform="matrix(1.0003 0 0 1 408.54 315.8574)" fill="#231F20" font-family="'Calibri-Bold'" font-size="32.0001">Hg</text>
		<text transform="matrix(1.0003 0 0 1 413.7393 331.9102)" fill="#231F20" font-family="'Calibri-Bold'" font-size="9">Mer­cury</text>
	</g>
	<g>
		<g>
			<text transform="matrix(1.0003 0 0 1 419.6904 281.4082)" fill="#231F20" font-family="'Calibri-Bold'" font-size="20">80</text>
		</g>
	</g>
</g>
<g>
	<g>
		<rect x="472.149" y="263.201" fill="#CECAC8" width="76.726" height="76.7"/>
		<text transform="matrix(1.0003 0 0 1 495.4561 317.4199)" fill="#231F20" font-family="'Calibri-Bold'" font-size="32.0001">Tl</text>
		<text transform="matrix(1.0003 0 0 1 492.7861 333.4746)" fill="#231F20" font-family="'Calibri-Bold'" font-size="9">Thallium</text>
	</g>
	<g>
		<g>
			<text transform="matrix(1.0003 0 0 1 499.2021 281.4082)" fill="#231F20" font-family="'Calibri-Bold'" font-size="20">81</text>
		</g>
	</g>
</g>
<g>
	<g>
		<rect x="551.663" y="263.201" fill="#CECAC8" width="76.72" height="76.7"/>
		<text transform="matrix(1.0003 0 0 1 568.2959 317.4199)" fill="#231F20" font-family="'Calibri-Bold'" font-size="32.0001">Pb</text>
		<text transform="matrix(1.0003 0 0 1 580.3779 333.4746)" fill="#231F20" font-family="'Calibri-Bold'" font-size="9">Lead</text>
	</g>
	<g>
		<g>
			<text transform="matrix(1.0003 0 0 1 578.7119 281.4082)" fill="#231F20" font-family="'Calibri-Bold'" font-size="20">82</text>
		</g>
	</g>
</g>
<g>
	<g>
		<rect x="631.174" y="263.201" fill="#CECAC8" width="76.723" height="76.7"/>
		<text transform="matrix(1.0003 0 0 1 653.1455 317.4199)" fill="#231F20" font-family="'Calibri-Bold'" font-size="32.0001">Bi</text>
		<text transform="matrix(1.0003 0 0 1 652.6514 333.4746)" fill="#231F20" font-family="'Calibri-Bold'" font-size="9">Bis­muth</text>
	</g>
	<g>
		<g>
			<text transform="matrix(1.0003 0 0 1 658.2197 281.4082)" fill="#231F20" font-family="'Calibri-Bold'" font-size="20">83</text>
		</g>
	</g>
</g>
<g>
	<g>
		<rect x="710.685" y="263.201" fill="#CECAC8" width="76.72" height="76.7"/>
		<text transform="matrix(1.0003 0 0 1 727.2959 317.4199)" fill="#231F20" font-family="'Calibri-Bold'" font-size="32.0001">Po</text>
		<text transform="matrix(1.0003 0 0 1 729.4932 333.4746)" fill="#231F20" font-family="'Calibri-Bold'" font-size="9">Polo­nium</text>
	</g>
	<g>
		<g>
			<text transform="matrix(1.0003 0 0 1 737.7295 281.4082)" fill="#231F20" font-family="'Calibri-Bold'" font-size="20">84</text>
		</g>
	</g>
</g>
<g>
	<g>
		<rect x="790.192" y="263.201" fill="#CECAC8" width="76.722" height="76.7"/>
		<text transform="matrix(1.0003 0 0 1 809.1885 315.8574)" fill="#231F20" font-family="'Calibri-Bold'" font-size="32.0001">At</text>
		<text transform="matrix(1.0003 0 0 1 811.5146 331.9102)" fill="#231F20" font-family="'Calibri-Bold'" font-size="9">Asta­tine</text>
	</g>
	<g>
		<g>
			<text transform="matrix(1.0003 0 0 1 817.2432 281.4082)" fill="#231F20" font-family="'Calibri-Bold'" font-size="20">85</text>
		</g>
	</g>
</g>
<g>
	<g>
		<rect x="869.706" y="263.201" fill="#CECAC8" width="76.719" height="76.7"/>
		<text transform="matrix(1.0003 0 0 1 885.71 315.8574)" fill="#231F20" font-family="'Calibri-Bold'" font-size="32.0001">Rn</text>
		<text transform="matrix(1.0003 0 0 1 894.9482 331.9102)" fill="#231F20" font-family="'Calibri-Bold'" font-size="9">Radon</text>
	</g>
	<g>
		<g>
			<text transform="matrix(1.0003 0 0 1 896.751 281.4082)" fill="#231F20" font-family="'Calibri-Bold'" font-size="20">86</text>
		</g>
	</g>
</g>
<g>
	<rect x="-481.966" y="342.691" fill="#CECAC8" width="76.719" height="76.701"/>
	<text transform="matrix(1.0003 0 0 1 -460.1646 395.3477)" fill="#231F20" font-family="'Calibri-Bold'" font-size="32.0001">Fr</text>
	<text transform="matrix(1.0003 0 0 1 -462.5376 411.4023)" fill="#231F20" font-family="'Calibri-Bold'" font-size="9">Fran­cium</text>
	<g>
		<g>
			<text transform="matrix(1.0003 0 0 1 -454.9185 360.8984)" fill="#231F20" font-family="'Calibri-Bold'" font-size="20">87</text>
		</g>
	</g>
</g>
<g>
	<rect x="-402.457" y="342.691" fill="#CECAC8" width="76.721" height="76.701"/>
	<text transform="matrix(1.0003 0 0 1 -385.5767 395.3477)" fill="#231F20" font-family="'Calibri-Bold'" font-size="32.0001">Ra</text>
	<text transform="matrix(1.0003 0 0 1 -379.7603 411.4023)" fill="#231F20" font-family="'Calibri-Bold'" font-size="9">Ra­dium</text>
	<g>
		<g>
			<text transform="matrix(1.0003 0 0 1 -375.4087 360.8984)" fill="#231F20" font-family="'Calibri-Bold'" font-size="20">88</text>
		</g>
	</g>
</g>
<g>
	<g>
		<rect x="-322.948" y="342.691" fill="#CECAC8" width="76.722" height="76.701"/>
		<text transform="matrix(1.0003 0 0 1 -315.6763 368.084)" fill="#231F20" font-family="'Calibri-Bold'" font-size="21.8837">89-103</text>
	</g>
	<text transform="matrix(1.0003 0 0 1 -308.1294 390.9336)" fill="#231F20" font-family="'Calibri-Bold'" font-size="16.7348">Ac-Lr</text>
	<text transform="matrix(1.0003 0 0 1 -313.8403 407.2637)" fill="#231F20" font-family="'Calibri-Bold'" font-size="13.6085">Actinide</text>
</g>
<g>
	<g>
		<rect x="-322.948" y="534.269" fill="#CECAC8" width="76.722" height="76.699"/>
		<text transform="matrix(1.0003 0 0 1 -305.4106 588.4883)" fill="#231F20" font-family="'Calibri-Bold'" font-size="32.0001">Ac</text>
		<text transform="matrix(1.0003 0 0 1 -302.9497 604.541)" fill="#231F20" font-family="'Calibri-Bold'" font-size="9">Actin­ium</text>
	</g>
	<g>
		<g>
			<text transform="matrix(1.0003 0 0 1 -295.8979 552.4746)" fill="#231F20" font-family="'Calibri-Bold'" font-size="20">89</text>
		</g>
	</g>
</g>
<g>
	<g>
		<rect x="-243.438" y="534.269" fill="#CECAC8" width="76.721" height="76.699"/>
		<text transform="matrix(1.0003 0 0 1 -226.0503 588.4883)" fill="#231F20" font-family="'Calibri-Bold'" font-size="32.0001">Th</text>
		<text transform="matrix(1.0003 0 0 1 -222.354 604.541)" fill="#231F20" font-family="'Calibri-Bold'" font-size="9">Thor­ium</text>
	</g>
	<g>
		<g>
			<text transform="matrix(1.0003 0 0 1 -216.3872 552.4746)" fill="#231F20" font-family="'Calibri-Bold'" font-size="20">90</text>
		</g>
	</g>
</g>
<g>
	<g>
		<rect x="-163.926" y="534.269" fill="#CECAC8" width="76.72" height="76.699"/>
		<text transform="matrix(1.0003 0 0 1 -146.4204 588.4883)" fill="#231F20" font-family="'Calibri-Bold'" font-size="32.0001">Pa</text>
		<text transform="matrix(1.0003 0 0 1 -152.0337 604.541)" fill="#231F20" font-family="'Calibri-Bold'" font-size="9">Protac­tinium</text>
	</g>
	<g>
		<g>
			<text transform="matrix(1.0003 0 0 1 -136.8774 552.4746)" fill="#231F20" font-family="'Calibri-Bold'" font-size="20">91</text>
		</g>
	</g>
</g>
<g>
	<g>
		<rect x="-84.417" y="534.269" fill="#CECAC8" width="76.721" height="76.699"/>
		<text transform="matrix(1.0003 0 0 1 -59.3306 588.4883)" fill="#231F20" font-family="'Calibri-Bold'" font-size="32.0001">U</text>
		<text transform="matrix(1.0003 0 0 1 -63.8921 604.541)" fill="#231F20" font-family="'Calibri-Bold'" font-size="9">Ura­nium</text>
	</g>
	<g>
		<g>
			<text transform="matrix(1.0003 0 0 1 -57.3667 552.4746)" fill="#231F20" font-family="'Calibri-Bold'" font-size="20">92</text>
		</g>
	</g>
</g>
<g>
	<g>
		<rect x="-4.906" y="534.269" fill="#CECAC8" width="76.724" height="76.699"/>
		<text transform="matrix(1.0003 0 0 1 9.1558 588.4883)" fill="#231F20" font-family="'Calibri-Bold'" font-size="32.0001">Np</text>
		<text transform="matrix(1.0003 0 0 1 10.3433 604.541)" fill="#231F20" font-family="'Calibri-Bold'" font-size="9">Neptu­nium</text>
	</g>
	<g>
		<g>
			<text transform="matrix(1.0003 0 0 1 22.1421 552.4746)" fill="#231F20" font-family="'Calibri-Bold'" font-size="20">93</text>
		</g>
	</g>
</g>
<g>
	<g>
		<rect x="74.603" y="534.269" fill="#CECAC8" width="76.721" height="76.699"/>
		<text transform="matrix(1.0003 0 0 1 91.2358 588.4883)" fill="#231F20" font-family="'Calibri-Bold'" font-size="32.0001">Pu</text>
		<text transform="matrix(1.0003 0 0 1 91.7261 604.541)" fill="#231F20" font-family="'Calibri-Bold'" font-size="9">Pluto­nium</text>
	</g>
	<g>
		<g>
			<text transform="matrix(1.0003 0 0 1 101.6519 552.4746)" fill="#231F20" font-family="'Calibri-Bold'" font-size="20">94</text>
		</g>
	</g>
</g>
<g>
	<g>
		<rect x="154.114" y="534.269" fill="#CECAC8" width="76.719" height="76.699"/>
		<text transform="matrix(1.0003 0 0 1 163.6206 588.4883)" fill="#231F20" font-family="'Calibri-Bold'" font-size="32.0001">Am</text>
		<text transform="matrix(1.0003 0 0 1 170.2241 604.541)" fill="#231F20" font-family="'Calibri-Bold'" font-size="9">Ameri­cium</text>
	</g>
	<g>
		<g>
			<text transform="matrix(1.0003 0 0 1 181.1616 552.4746)" fill="#231F20" font-family="'Calibri-Bold'" font-size="20">95</text>
		</g>
	</g>
</g>
<g>
	<g>
		<rect x="233.624" y="534.269" fill="#CECAC8" width="76.72" height="76.699"/>
		<text transform="matrix(1.0003 0 0 1 244.6885 588.4883)" fill="#231F20" font-family="'Calibri-Bold'" font-size="32.0001">Cm</text>
		<text transform="matrix(1.0003 0 0 1 257.1592 604.541)" fill="#231F20" font-family="'Calibri-Bold'" font-size="9">Curium</text>
	</g>
	<g>
		<g>
			<text transform="matrix(1.0003 0 0 1 260.6689 552.4746)" fill="#231F20" font-family="'Calibri-Bold'" font-size="20">96</text>
		</g>
	</g>
</g>
<g>
	<g>
		<rect x="313.135" y="534.269" fill="#CECAC8" width="76.726" height="76.699"/>
		<text transform="matrix(1.0003 0 0 1 330.3428 588.4883)" fill="#231F20" font-family="'Calibri-Bold'" font-size="32.0001">Bk</text>
		<text transform="matrix(1.0003 0 0 1 330.6787 604.541)" fill="#231F20" font-family="'Calibri-Bold'" font-size="9">Berkel­ium</text>
	</g>
	<g>
		<g>
			<text transform="matrix(1.0003 0 0 1 340.1826 552.4746)" fill="#231F20" font-family="'Calibri-Bold'" font-size="20">97</text>
		</g>
	</g>
</g>
<g>
	<g>
		<rect x="392.643" y="534.269" fill="#CECAC8" width="76.719" height="76.699"/>
		<text transform="matrix(1.0003 0 0 1 413.8115 588.4883)" fill="#231F20" font-family="'Calibri-Bold'" font-size="32.0001">Cf</text>
		<text transform="matrix(1.0003 0 0 1 407.2041 604.541)" fill="#231F20" font-family="'Calibri-Bold'" font-size="9">Califor­nium</text>
	</g>
	<g>
		<g>
			<text transform="matrix(1.0003 0 0 1 419.6904 552.4746)" fill="#231F20" font-family="'Calibri-Bold'" font-size="20">98</text>
		</g>
	</g>
</g>
<g>
	<g>
		<rect x="472.149" y="534.269" fill="#CECAC8" width="76.726" height="76.699"/>
		<text transform="matrix(1.0003 0 0 1 492.4873 588.4883)" fill="#231F20" font-family="'Calibri-Bold'" font-size="32.0001">Es</text>
		<text transform="matrix(1.0003 0 0 1 486.5107 604.541)" fill="#231F20" font-family="'Calibri-Bold'" font-size="9">Einstei­nium</text>
	</g>
	<g>
		<g>
			<text transform="matrix(1.0003 0 0 1 499.2021 552.4746)" fill="#231F20" font-family="'Calibri-Bold'" font-size="20">99</text>
		</g>
	</g>
</g>
<g>
	<g>
		<rect x="551.663" y="534.269" fill="#CECAC8" width="76.72" height="76.699"/>
		<text transform="matrix(1.0003 0 0 1 564.1592 588.4883)" fill="#231F20" font-family="'Calibri-Bold'" font-size="32.0001">Fm</text>
		<text transform="matrix(1.0003 0 0 1 571.7354 604.541)" fill="#231F20" font-family="'Calibri-Bold'" font-size="9">Fer­mium</text>
	</g>
	<g>
		<g>
			<text transform="matrix(1.0003 0 0 1 573.0537 552.4746)" fill="#231F20" font-family="'Calibri-Bold'" font-size="20">100</text>
		</g>
	</g>
</g>
<g>
	<g>
		<rect x="631.174" y="534.269" fill="#CECAC8" width="76.723" height="76.699"/>
		<text transform="matrix(1.0003 0 0 1 640.8604 588.4883)" fill="#231F20" font-family="'Calibri-Bold'" font-size="32.0001">Md</text>
		<text transform="matrix(1.0003 0 0 1 641.2588 604.541)" fill="#231F20" font-family="'Calibri-Bold'" font-size="9">Mende­levium</text>
	</g>
	<g>
		<g>
			<text transform="matrix(1.0003 0 0 1 652.5635 552.4746)" fill="#231F20" font-family="'Calibri-Bold'" font-size="20">101</text>
		</g>
	</g>
</g>
<g>
	<g>
		<rect x="710.685" y="534.269" fill="#CECAC8" width="76.72" height="76.699"/>
		<text transform="matrix(1.0003 0 0 1 724.7256 588.4883)" fill="#231F20" font-family="'Calibri-Bold'" font-size="32.0001">No</text>
		<text transform="matrix(1.0003 0 0 1 729.0439 604.541)" fill="#231F20" font-family="'Calibri-Bold'" font-size="9">Nobel­ium</text>
	</g>
	<g>
		<g>
			<text transform="matrix(1.0003 0 0 1 732.0752 552.4746)" fill="#231F20" font-family="'Calibri-Bold'" font-size="20">102</text>
		</g>
	</g>
</g>
<g>
	<g>
		<rect x="790.192" y="534.269" fill="#CECAC8" width="76.722" height="76.699"/>
		<text transform="matrix(1.0003 0 0 1 812.7314 588.4883)" fill="#231F20" font-family="'Calibri-Bold'" font-size="32.0001">Lr</text>
		<text transform="matrix(1.0003 0 0 1 803.7021 604.541)" fill="#231F20" font-family="'Calibri-Bold'" font-size="9">Lawren­cium</text>
	</g>
	<g>
		<g>
			<text transform="matrix(1.0003 0 0 1 811.585 552.4746)" fill="#231F20" font-family="'Calibri-Bold'" font-size="20">103</text>
		</g>
	</g>
</g>
<g>
	<g>
		<rect x="-243.438" y="342.691" fill="#CECAC8" width="76.721" height="76.701"/>
		<text transform="matrix(1.0003 0 0 1 -222.9517 395.3477)" fill="#231F20" font-family="'Calibri-Bold'" font-size="32.0001">Rf</text>
		<text transform="matrix(1.0003 0 0 1 -235.356 411.4023)" fill="#231F20" font-family="'Calibri-Bold'" font-size="9">Ruther­fordium</text>
	</g>
	<g>
		<g>
			<text transform="matrix(1.0003 0 0 1 -222.0435 360.8984)" fill="#231F20" font-family="'Calibri-Bold'" font-size="20">104</text>
		</g>
	</g>
</g>
<g>
	<g>
		<rect x="-163.926" y="342.691" fill="#CECAC8" width="76.72" height="76.701"/>
		<text transform="matrix(1.0003 0 0 1 -149.2896 395.3477)" fill="#231F20" font-family="'Calibri-Bold'" font-size="32.0001">Db</text>
		<text transform="matrix(1.0003 0 0 1 -144.3872 411.4023)" fill="#231F20" font-family="'Calibri-Bold'" font-size="9">Dub­nium</text>
	</g>
	<g>
		<g>
			<text transform="matrix(1.0003 0 0 1 -142.5317 360.8984)" fill="#231F20" font-family="'Calibri-Bold'" font-size="20">105</text>
		</g>
	</g>
</g>
<g>
	<g>
		<rect x="-84.417" y="342.691" fill="#CECAC8" width="76.721" height="76.701"/>
		<text transform="matrix(1.0003 0 0 1 -65.3032 395.3477)" fill="#231F20" font-family="'Calibri-Bold'" font-size="32.0001">Sg</text>
		<text transform="matrix(1.0003 0 0 1 -70.4106 411.4023)" fill="#231F20" font-family="'Calibri-Bold'" font-size="9">Sea­borgium</text>
	</g>
	<g>
		<g>
			<text transform="matrix(1.0003 0 0 1 -63.0239 360.8984)" fill="#231F20" font-family="'Calibri-Bold'" font-size="20">106</text>
		</g>
	</g>
</g>
<g>
	<g>
		<rect x="-4.906" y="342.691" fill="#CECAC8" width="76.724" height="76.701"/>
		<text transform="matrix(1.0003 0 0 1 11.1509 395.3477)" fill="#231F20" font-family="'Calibri-Bold'" font-size="32.0001">Bh</text>
		<text transform="matrix(1.0003 0 0 1 15.853 411.4023)" fill="#231F20" font-family="'Calibri-Bold'" font-size="9">Bohr­ium</text>
	</g>
	<g>
		<g>
			<text transform="matrix(1.0003 0 0 1 16.4849 360.8984)" fill="#231F20" font-family="'Calibri-Bold'" font-size="20">107</text>
		</g>
	</g>
</g>
<g>
	<g>
		<rect x="74.603" y="342.691" fill="#CECAC8" width="76.721" height="76.701"/>
		<text transform="matrix(1.0003 0 0 1 92.0288 395.3477)" fill="#231F20" font-family="'Calibri-Bold'" font-size="32.0001">Hs</text>
		<text transform="matrix(1.0003 0 0 1 95.6958 411.4023)" fill="#231F20" font-family="'Calibri-Bold'" font-size="9">Has­sium</text>
	</g>
	<g>
		<g>
			<text transform="matrix(1.0003 0 0 1 95.9976 360.8984)" fill="#231F20" font-family="'Calibri-Bold'" font-size="20">108</text>
		</g>
	</g>
</g>
<g>
	<g>
		<rect x="154.114" y="342.691" fill="#CECAC8" width="76.719" height="76.701"/>
		<text transform="matrix(1.0003 0 0 1 167.6577 395.3477)" fill="#231F20" font-family="'Calibri-Bold'" font-size="32.0001">Mt</text>
		<text transform="matrix(1.0003 0 0 1 168.1577 411.4023)" fill="#231F20" font-family="'Calibri-Bold'" font-size="9">Meit­nerium</text>
	</g>
	<g>
		<g>
			<text transform="matrix(1.0003 0 0 1 175.5024 360.8984)" fill="#231F20" font-family="'Calibri-Bold'" font-size="20">109</text>
		</g>
	</g>
</g>
<g>
	<g>
		<rect x="233.624" y="342.691" fill="#CECAC8" width="76.72" height="76.701"/>
		<text transform="matrix(1.0003 0 0 1 251.0596 395.3477)" fill="#231F20" font-family="'Calibri-Bold'" font-size="32.0001">Ds</text>
		<text transform="matrix(1.0003 0 0 1 242.5771 411.4023)" fill="#231F20" font-family="'Calibri-Bold'" font-size="9">Darm­stadtium</text>
	</g>
	<g>
		<g>
			<text transform="matrix(1.0003 0 0 1 255.0146 360.8984)" fill="#231F20" font-family="'Calibri-Bold'" font-size="20">110</text>
		</g>
	</g>
</g>
<g>
	<g>
		<rect x="313.135" y="342.691" fill="#CECAC8" width="76.726" height="76.701"/>
		<text transform="matrix(1.0003 0 0 1 330.4092 395.3477)" fill="#231F20" font-family="'Calibri-Bold'" font-size="32.0001">Rg</text>
		<text transform="matrix(1.0003 0 0 1 324.0752 411.4023)" fill="#231F20" font-family="'Calibri-Bold'" font-size="9">Roent­genium</text>
	</g>
	<g>
		<g>
			<text transform="matrix(1.0003 0 0 1 334.5244 360.8984)" fill="#231F20" font-family="'Calibri-Bold'" font-size="20">111</text>
		</g>
	</g>
</g>
<g>
	<g>
		<rect x="392.643" y="342.691" fill="#CECAC8" width="76.719" height="76.701"/>
		<text transform="matrix(1.0003 0 0 1 409.335 395.3477)" fill="#231F20" font-family="'Calibri-Bold'" font-size="32.0001">Cn</text>
		<text transform="matrix(1.0003 0 0 1 405.2373 411.4023)" fill="#231F20" font-family="'Calibri-Bold'" font-size="9">Coper­nicium</text>
	</g>
	<g>
		<g>
			<text transform="matrix(1.0003 0 0 1 414.0361 360.8984)" fill="#231F20" font-family="'Calibri-Bold'" font-size="20">112</text>
		</g>
	</g>
</g>
<g>
	<g>
		<rect x="472.149" y="342.691" fill="#CECAC8" width="76.726" height="76.701"/>
		<text transform="matrix(1.0003 0 0 1 479.29 396.9102)" fill="#231F20" font-family="'Calibri-Bold'" font-size="32.0001">Uut</text>
		<text transform="matrix(1.0003 0 0 1 488.1553 412.9629)" fill="#231F20" font-family="'Calibri-Bold'" font-size="9">Unun­trium</text>
	</g>
	<g>
		<g>
			<text transform="matrix(1.0003 0 0 1 493.5459 360.8984)" fill="#231F20" font-family="'Calibri-Bold'" font-size="20">113</text>
		</g>
	</g>
</g>
<g>
	<g>
		<rect x="551.663" y="342.691" fill="#CECAC8" width="76.72" height="76.701"/>
		<text transform="matrix(1.0003 0 0 1 575.7002 396.9102)" fill="#231F20" font-family="'Calibri-Bold'" font-size="32.0001">Fl</text>
		<text transform="matrix(1.0003 0 0 1 569.5752 412.9629)" fill="#231F20" font-family="'Calibri-Bold'" font-size="9">Flerov­ium</text>
	</g>
	<g>
		<g>
			<text transform="matrix(1.0003 0 0 1 573.0557 360.8984)" fill="#231F20" font-family="'Calibri-Bold'" font-size="20">114</text>
		</g>
	</g>
</g>
<g>
	<g>
		<rect x="631.174" y="342.691" fill="#CECAC8" width="76.723" height="76.701"/>
		<text transform="matrix(1.0003 0 0 1 634.4463 396.9102)" fill="#231F20" font-family="'Calibri-Bold'" font-size="32.0001">Uup</text>
		<text transform="matrix(1.0003 0 0 1 641.2451 412.9629)" fill="#231F20" font-family="'Calibri-Bold'" font-size="9">Unun­pentium</text>
	</g>
	<g>
		<g>
			<text transform="matrix(1.0003 0 0 1 652.5635 360.8984)" fill="#231F20" font-family="'Calibri-Bold'" font-size="20">115</text>
		</g>
	</g>
</g>
<g>
	<g>
		<rect x="710.685" y="342.691" fill="#CECAC8" width="76.72" height="76.701"/>
		<text transform="matrix(1.0003 0 0 1 730.8291 396.9102)" fill="#231F20" font-family="'Calibri-Bold'" font-size="32.0001">Lv</text>
		<text transform="matrix(1.0003 0 0 1 723.0615 412.9629)" fill="#231F20" font-family="'Calibri-Bold'" font-size="9">Liver­morium</text>
	</g>
	<g>
		<g>
			<text transform="matrix(1.0003 0 0 1 732.0752 360.8984)" fill="#231F20" font-family="'Calibri-Bold'" font-size="20">116</text>
		</g>
	</g>
</g>
<g>
	<g>
		<rect x="790.192" y="342.691" fill="#CECAC8" width="76.722" height="76.701"/>
		<text transform="matrix(1.0003 0 0 1 796.2646 395.3477)" fill="#231F20" font-family="'Calibri-Bold'" font-size="32.0001">Uus</text>
		<text transform="matrix(1.0003 0 0 1 800.9385 411.4023)" fill="#231F20" font-family="'Calibri-Bold'" font-size="9">Unun­septium</text>
	</g>
	<g>
		<g>
			<text transform="matrix(1.0003 0 0 1 811.585 360.8984)" fill="#231F20" font-family="'Calibri-Bold'" font-size="20">117</text>
		</g>
	</g>
</g>
<g>
	<g>
		<rect x="869.706" y="342.691" fill="#CECAC8" width="76.719" height="76.701"/>
		<text transform="matrix(1.0003 0 0 1 872.9561 395.3477)" fill="#231F20" font-family="'Calibri-Bold'" font-size="32.0001">Uuo</text>
		<text transform="matrix(1.0003 0 0 1 882.8076 411.4023)" fill="#231F20" font-family="'Calibri-Bold'" font-size="9">Unun­octium</text>
	</g>
	<g>
		<g>
			<text transform="matrix(1.0003 0 0 1 891.0967 360.8984)" fill="#231F20" font-family="'Calibri-Bold'" font-size="20">118</text>
		</g>
	</g>
</g>
<g>
	<g>
		<text transform="matrix(1.0003 0 0 1 -453.5337 -139.3159)" fill="#6D6B6B" font-family="'ArialMT'" font-size="21.8837">IA</text>
	</g>
	<g>
		<text transform="matrix(1.0003 0 0 1 -383.0884 -61.6782)" fill="#6D6B6B" font-family="'ArialMT'" font-size="21.8837">IIA</text>
	</g>
	<g>
		<text transform="matrix(1.0003 0 0 1 -302.2231 97.2378)" fill="#6D6B6B" font-family="'ArialMT'" font-size="21.8837">IIIB</text>
	</g>
	<g>
		<text transform="matrix(1.0003 0 0 1 -220.5767 97.2378)" fill="#6D6B6B" font-family="'ArialMT'" font-size="21.8837">IVB</text>
	</g>
	<g>
		<text transform="matrix(1.0003 0 0 1 -144.5688 97.2378)" fill="#6D6B6B" font-family="'ArialMT'" font-size="21.8837">VB</text>
	</g>
	<g>
		<text transform="matrix(1.0003 0 0 1 -63.5161 97.2378)" fill="#6D6B6B" font-family="'ArialMT'" font-size="21.8837">VIB</text>
	</g>
	<g>
		<text transform="matrix(1.0003 0 0 1 12.6519 97.2378)" fill="#6D6B6B" font-family="'ArialMT'" font-size="21.8837">VIIB</text>
	</g>
	<g>
		<text transform="matrix(1.0003 0 0 1 161.542 73.0093)" fill="#6D6B6B" font-family="'ArialMT'" font-size="21.8837">VIIIB</text>
	</g>
	<g>
		<text transform="matrix(1.0003 0 0 1 417.5381 97.2378)" fill="#6D6B6B" font-family="'ArialMT'" font-size="21.8837">IIB</text>
	</g>
	<g>
		<text transform="matrix(1.0003 0 0 1 336.1025 97.2378)" fill="#6D6B6B" font-family="'ArialMT'" font-size="21.8837">IB</text>
	</g>
	<g>
		<text transform="matrix(1.0003 0 0 1 493.458 -60.6382)" fill="#6D6B6B" font-family="'ArialMT'" font-size="21.8837">IIIA</text>
	</g>
	<g>
		<text transform="matrix(1.0003 0 0 1 576.6689 -60.6382)" fill="#6D6B6B" font-family="'ArialMT'" font-size="21.8837">IVA</text>
	</g>
	<g>
		<text transform="matrix(1.0003 0 0 1 655.8018 -60.6382)" fill="#6D6B6B" font-family="'ArialMT'" font-size="21.8837">VA</text>
	</g>
	<g>
		<text transform="matrix(1.0003 0 0 1 728.3291 -60.6382)" fill="#6D6B6B" font-family="'ArialMT'" font-size="21.8837">VIA</text>
	</g>
	<g>
		<text transform="matrix(1.0003 0 0 1 800.3389 -60.6382)" fill="#6D6B6B" font-family="'ArialMT'" font-size="21.8837">VIIA</text>
	</g>
	<g>
		<text transform="matrix(1.0003 0 0 1 893.1924 -139.8335)" fill="#6D6B6B" font-family="'ArialMT'" font-size="21.8837">VIIIA</text>
	</g>
	<text transform="matrix(1.0003 0 0 1 -429.1069 471.5918)" fill="#231F20" font-family="'Calibri-Bold'" font-size="16.7348">Lanthanide</text>
	<text transform="matrix(1.0003 0 0 1 -392.7349 491.6738)" fill="#231F20" font-family="'Calibri-Bold'" font-size="16.7348">Series</text>
	<text transform="matrix(1.0003 0 0 1 -408.6802 550.1484)" fill="#231F20" font-family="'Calibri-Bold'" font-size="16.7348">Actinide</text>
	<text transform="matrix(1.0003 0 0 1 -392.7349 570.2305)" fill="#231F20" font-family="'Calibri-Bold'" font-size="16.7348">Series</text>
	<polyline fill="none" stroke="#6D6B6B" stroke-width="3.6138" stroke-miterlimit="10" points="105.16,103.551 105.16,83.603 
		276.939,83.603 276.939,104.374 	"/>
</g>
<g>
	<g>
		<rect x="-26.203" y="35.367" fill="#FFDD00" width="400" height="400"/>
		<text transform="matrix(1 0 0 1 56.7427 313.7266)" fill="#231F20" font-family="'Calibri-Bold'" font-size="211.9448">Li</text>
		<g>
			<g>
				<text transform="matrix(1 0 0 1 141.7446 130.3159)" fill="#231F20" font-family="'Calibri-Bold'" font-size="80.0002">3</text>
			</g>
		</g>
	</g>
	<text transform="matrix(1 0 0 1 66.7407 391.7324)" fill="#231F20" font-family="'Calibri-Bold'" font-size="50.909">Lithium</text>
</g>
</svg>
