<?xml version="1.0" encoding="utf-8"?>
<!DOCTYPE svg PUBLIC "-//W3C//DTD SVG 1.1//EN" "http://www.w3.org/Graphics/SVG/1.1/DTD/svg11.dtd">
<svg version="1.1" id="Layer_1" xmlns="http://www.w3.org/2000/svg" xmlns:xlink="http://www.w3.org/1999/xlink" x="0px" y="0px"
	 width="100%" height="100%" viewBox="-488 -163.5 1440 780" enable-background="new -488 -163.5 1440 780" xml:space="preserve" preserveAspectRatio="none">
<g>
	<g>
		<rect x="-482.18" y="-134.252" fill="#CECAC8" width="76.724" height="76.703"/>
		<text transform="matrix(1.0003 0 0 1 -456.6416 -80.8745)" fill="#231F20" font-family="'Calibri-Bold'" font-size="32.0001">H</text>
		<g>
			<g>
				<text transform="matrix(1.0003 0 0 1 -449.4736 -116.0444)" fill="#231F20" font-family="'Calibri-Bold'" font-size="20">1</text>
			</g>
		</g>
	</g>
	<text transform="matrix(1.0003 0 0 1 -463.584 -67.6108)" fill="#231F20" font-family="'Calibri-Bold'" font-size="9">Hydro­gen</text>
</g>
<g>
	<g>
		<rect x="869.706" y="-134.252" fill="#CECAC8" width="76.72" height="76.703">
		
			<animate  fill="remove" from="#CECAC8" to="#FFDD00" begin="0s;anim002.end" dur="0.3s" restart="always" id="anim001" calcMode="linear" attributeName="fill" accumulate="none" additive="replace">
			</animate>
		
			<animate  fill="remove" from="#FFDD00" to="#CECAC8" begin="anim001.end" dur="0.3s" restart="always" id="anim002" calcMode="linear" attributeName="fill" accumulate="none" additive="replace">
			</animate>
		</rect>
		<text transform="matrix(1.0003 0 0 1 885.0068 -81.5942)" fill="#231F20" font-family="'Calibri-Bold'" font-size="32.0001">He</text>
		<text transform="matrix(1.0003 0 0 1 893.4473 -65.5405)" fill="#231F20" font-family="'Calibri-Bold'" font-size="9">Helium</text>
	</g>
	<g>
		<g>
			<text transform="matrix(1.0003 0 0 1 902.4063 -116.0444)" fill="#231F20" font-family="'Calibri-Bold'" font-size="20">2</text>
		</g>
	</g>
</g>
<g>
	<g>
		<rect x="-481.966" y="-54.761" fill="#CECAC8" width="76.719" height="76.701"/>
		<text transform="matrix(1.0003 0 0 1 -457.1934 -2.104)" fill="#231F20" font-family="'Calibri-Bold'" font-size="32.0001">Li</text>
		<g>
			<g>
				<text transform="matrix(1.0003 0 0 1 -449.2617 -36.5542)" fill="#231F20" font-family="'Calibri-Bold'" font-size="20">3</text>
			</g>
		</g>
	</g>
	<text transform="matrix(1.0003 0 0 1 -459.0635 13.9487)" fill="#231F20" font-family="'Calibri-Bold'" font-size="9">Lith­ium</text>
</g>
<g>
	<rect x="-402.457" y="-54.761" fill="#CECAC8" width="76.72" height="76.701"/>
	<text transform="matrix(1.0003 0 0 1 -385.7236 -2.104)" fill="#231F20" font-family="'Calibri-Bold'" font-size="32.0001">Be</text>
	<text transform="matrix(1.0003 0 0 1 -383.6201 13.9487)" fill="#231F20" font-family="'Calibri-Bold'" font-size="9">Beryl­lium</text>
	<g>
		<g>
			<text transform="matrix(1.0003 0 0 1 -369.75 -36.5542)" fill="#231F20" font-family="'Calibri-Bold'" font-size="20">4</text>
		</g>
	</g>
</g>
<g>
	<g>
		<rect x="472.15" y="-54.761" fill="#CECAC8" width="76.725" height="76.701"/>
		<text transform="matrix(1.0003 0 0 1 499.1221 -0.5415)" fill="#231F20" font-family="'Calibri-Bold'" font-size="32.0001">B</text>
		<text transform="matrix(1.0003 0 0 1 498.0811 15.5132)" fill="#231F20" font-family="'Calibri-Bold'" font-size="9">Boron</text>
	</g>
	<g>
		<g>
			<text transform="matrix(1.0003 0 0 1 504.8574 -36.5542)" fill="#231F20" font-family="'Calibri-Bold'" font-size="20">5</text>
		</g>
	</g>
</g>
<g>
	<g>
		<rect x="551.663" y="-54.761" fill="#CECAC8" width="76.72" height="76.701"/>
		<text transform="matrix(1.0003 0 0 1 579.2637 -2.104)" fill="#231F20" font-family="'Calibri-Bold'" font-size="32.0001">C</text>
		<text transform="matrix(1.0003 0 0 1 575.3408 13.9487)" fill="#231F20" font-family="'Calibri-Bold'" font-size="9">Carbon</text>
	</g>
	<g>
		<g>
			<text transform="matrix(1.0003 0 0 1 584.3691 -36.5542)" fill="#231F20" font-family="'Calibri-Bold'" font-size="20">6</text>
		</g>
	</g>
</g>
<g>
	<g>
		<rect x="631.175" y="-54.761" fill="#CECAC8" width="76.721" height="76.701"/>
		<text transform="matrix(1.0003 0 0 1 656.1426 -2.104)" fill="#231F20" font-family="'Calibri-Bold'" font-size="32.0001">N</text>
		<text transform="matrix(1.0003 0 0 1 651.582 13.9487)" fill="#231F20" font-family="'Calibri-Bold'" font-size="9">Nitro­gen</text>
	</g>
	<g>
		<g>
			<text transform="matrix(1.0003 0 0 1 663.8799 -36.5542)" fill="#231F20" font-family="'Calibri-Bold'" font-size="20">7</text>
		</g>
	</g>
</g>
<g>
	<g>
		<rect x="710.684" y="-54.761" fill="#CECAC8" width="76.72" height="76.701"/>
		<text transform="matrix(1.0003 0 0 1 735.2988 -2.104)" fill="#231F20" font-family="'Calibri-Bold'" font-size="32.0001">O</text>
		<text transform="matrix(1.0003 0 0 1 733.7012 13.9487)" fill="#231F20" font-family="'Calibri-Bold'" font-size="9">Oxy­gen</text>
	</g>
	<g>
		<g>
			<text transform="matrix(1.0003 0 0 1 743.3916 -36.5542)" fill="#231F20" font-family="'Calibri-Bold'" font-size="20">8</text>
		</g>
	</g>
</g>
<g>
	<g>
		<rect x="790.191" y="-54.761" fill="#CECAC8" width="76.723" height="76.701"/>
		<text transform="matrix(1.0003 0 0 1 819.2236 -2.104)" fill="#231F20" font-family="'Calibri-Bold'" font-size="32.0001">F</text>
		<text transform="matrix(1.0003 0 0 1 811.7646 13.9487)" fill="#231F20" font-family="'Calibri-Bold'" font-size="9">Fluor­ine</text>
	</g>
	<g>
		<g>
			<text transform="matrix(1.0003 0 0 1 822.8984 -36.5542)" fill="#231F20" font-family="'Calibri-Bold'" font-size="20">9</text>
		</g>
	</g>
</g>
<g>
	<g>
		<rect x="869.706" y="-54.761" fill="#CECAC8" width="76.72" height="76.701"/>
		<text transform="matrix(1.0003 0 0 1 884.4414 -2.104)" fill="#231F20" font-family="'Calibri-Bold'" font-size="32.0001">Ne</text>
		<text transform="matrix(1.0003 0 0 1 897.0547 13.9487)" fill="#231F20" font-family="'Calibri-Bold'" font-size="9">Neon</text>
	</g>
	<g>
		<g>
			<text transform="matrix(1.0003 0 0 1 896.7539 -36.5542)" fill="#231F20" font-family="'Calibri-Bold'" font-size="20">10</text>
		</g>
	</g>
</g>
<g>
	<rect x="-481.966" y="24.729" fill="#CECAC8" width="76.719" height="76.702"/>
	<text transform="matrix(1.0003 0 0 1 -467.0313 77.3862)" fill="#231F20" font-family="'Calibri-Bold'" font-size="32.0001">Na</text>
	<text transform="matrix(1.0003 0 0 1 -459.041 93.438)" fill="#231F20" font-family="'Calibri-Bold'" font-size="9">So­dium</text>
	<g>
		<g>
			<text transform="matrix(1.0003 0 0 1 -454.918 42.9351)" fill="#231F20" font-family="'Calibri-Bold'" font-size="20">11</text>
		</g>
	</g>
</g>
<g>
	<rect x="-402.457" y="24.729" fill="#CECAC8" width="76.72" height="76.702"/>
	<text transform="matrix(1.0003 0 0 1 -391.499 77.3862)" fill="#231F20" font-family="'Calibri-Bold'" font-size="32.0001">Mg</text>
	<text transform="matrix(1.0003 0 0 1 -387.9961 93.438)" fill="#231F20" font-family="'Calibri-Bold'" font-size="9">Magne­sium</text>
	<g>
		<g>
			<text transform="matrix(1.0003 0 0 1 -375.4072 42.9351)" fill="#231F20" font-family="'Calibri-Bold'" font-size="20">12</text>
		</g>
	</g>
</g>
<g>
	<g>
		<rect x="472.15" y="24.729" fill="#CECAC8" width="76.725" height="76.702"/>
		<text transform="matrix(1.0003 0 0 1 493.2051 78.9487)" fill="#231F20" font-family="'Calibri-Bold'" font-size="32.0001">Al</text>
		<text transform="matrix(1.0003 0 0 1 488.0654 95.0034)" fill="#231F20" font-family="'Calibri-Bold'" font-size="9">Alumin­ium</text>
	</g>
	<g>
		<g>
			<text transform="matrix(1.0003 0 0 1 499.2031 42.9351)" fill="#231F20" font-family="'Calibri-Bold'" font-size="20">13</text>
		</g>
	</g>
</g>
<g>
	<g>
		<rect x="551.663" y="24.729" fill="#CECAC8" width="76.72" height="76.702"/>
		<text transform="matrix(1.0003 0 0 1 575.4209 78.9487)" fill="#231F20" font-family="'Calibri-Bold'" font-size="32.0001">Si</text>
		<text transform="matrix(1.0003 0 0 1 576.7402 95.0034)" fill="#231F20" font-family="'Calibri-Bold'" font-size="9">Sili­con</text>
	</g>
	<g>
		<g>
			<text transform="matrix(1.0003 0 0 1 578.7129 42.9351)" fill="#231F20" font-family="'Calibri-Bold'" font-size="20">14</text>
		</g>
	</g>
</g>
<g>
	<g>
		<rect x="631.175" y="24.729" fill="#CECAC8" width="76.721" height="76.702"/>
		<text transform="matrix(1.0003 0 0 1 658.7148 77.3862)" fill="#231F20" font-family="'Calibri-Bold'" font-size="32.0001">P</text>
		<text transform="matrix(1.0003 0 0 1 645.4834 93.438)" fill="#231F20" font-family="'Calibri-Bold'" font-size="9">Phos­phorus</text>
	</g>
	<g>
		<g>
			<text transform="matrix(1.0003 0 0 1 658.2227 42.9351)" fill="#231F20" font-family="'Calibri-Bold'" font-size="20">15</text>
		</g>
	</g>
</g>
<g>
	<g>
		<rect x="710.684" y="24.729" fill="#CECAC8" width="76.72" height="76.702"/>
		<text transform="matrix(1.0003 0 0 1 739.4355 77.3862)" fill="#231F20" font-family="'Calibri-Bold'" font-size="32.0001">S</text>
		<text transform="matrix(1.0003 0 0 1 736.9268 93.438)" fill="#231F20" font-family="'Calibri-Bold'" font-size="9">Sulfur</text>
	</g>
	<g>
		<g>
			<text transform="matrix(1.0003 0 0 1 737.7314 42.9351)" fill="#231F20" font-family="'Calibri-Bold'" font-size="20">16</text>
		</g>
	</g>
</g>
<g>
	<g>
		<rect x="790.191" y="24.729" fill="#CECAC8" width="76.723" height="76.702"/>
		<text transform="matrix(1.0003 0 0 1 812.8027 77.3862)" fill="#231F20" font-family="'Calibri-Bold'" font-size="32.0001">Cl</text>
		<text transform="matrix(1.0003 0 0 1 811.4238 93.438)" fill="#231F20" font-family="'Calibri-Bold'" font-size="9">Chlor­ine</text>
	</g>
	<g>
		<g>
			<text transform="matrix(1.0003 0 0 1 817.2461 42.9351)" fill="#231F20" font-family="'Calibri-Bold'" font-size="20">17</text>
		</g>
	</g>
</g>
<g>
	<g>
		<rect x="869.706" y="24.729" fill="#CECAC8" width="76.72" height="76.702"/>
		<text transform="matrix(1.0003 0 0 1 888.5195 77.3862)" fill="#231F20" font-family="'Calibri-Bold'" font-size="32.0001">Ar</text>
		<text transform="matrix(1.0003 0 0 1 895.7207 93.438)" fill="#231F20" font-family="'Calibri-Bold'" font-size="9">Argon</text>
	</g>
	<g>
		<g>
			<text transform="matrix(1.0003 0 0 1 896.7539 42.9351)" fill="#231F20" font-family="'Calibri-Bold'" font-size="20">18</text>
		</g>
	</g>
</g>
<g>
	<rect x="-481.966" y="104.219" fill="#CECAC8" width="76.719" height="76.705"/>
	<text transform="matrix(1.0003 0 0 1 -454.7236 156.8765)" fill="#231F20" font-family="'Calibri-Bold'" font-size="32.0001">K</text>
	<text transform="matrix(1.0003 0 0 1 -464.708 172.9302)" fill="#231F20" font-family="'Calibri-Bold'" font-size="9">Potas­sium</text>
	<g>
		<g>
			<text transform="matrix(1.0003 0 0 1 -454.918 122.4253)" fill="#231F20" font-family="'Calibri-Bold'" font-size="20">19</text>
		</g>
	</g>
</g>
<g>
	<rect x="-402.457" y="104.219" fill="#CECAC8" width="76.72" height="76.705"/>
	<text transform="matrix(1.0003 0 0 1 -384.8887 156.8765)" fill="#231F20" font-family="'Calibri-Bold'" font-size="32.0001">Ca</text>
	<text transform="matrix(1.0003 0 0 1 -380.2129 172.9302)" fill="#231F20" font-family="'Calibri-Bold'" font-size="9">Cal­cium</text>
	<g>
		<g>
			<text transform="matrix(1.0003 0 0 1 -375.4072 122.4253)" fill="#231F20" font-family="'Calibri-Bold'" font-size="20">20</text>
		</g>
	</g>
</g>
<g>
	<g>
		<rect x="-322.948" y="104.219" fill="#CECAC8" width="76.723" height="76.705"/>
		<text transform="matrix(1.0003 0 0 1 -302.6982 156.8765)" fill="#231F20" font-family="'Calibri-Bold'" font-size="32.0001">Sc</text>
		<text transform="matrix(1.0003 0 0 1 -304.4697 172.9302)" fill="#231F20" font-family="'Calibri-Bold'" font-size="9">Scan­dium</text>
	</g>
	<g>
		<g>
			<text transform="matrix(1.0003 0 0 1 -295.8955 122.4253)" fill="#231F20" font-family="'Calibri-Bold'" font-size="20">21</text>
		</g>
	</g>
</g>
<g>
	<g>
		<rect x="-243.437" y="104.219" fill="#CECAC8" width="76.72" height="76.705"/>
		<text transform="matrix(1.0003 0 0 1 -220.1318 156.8765)" fill="#231F20" font-family="'Calibri-Bold'" font-size="32.0001">Ti</text>
		<text transform="matrix(1.0003 0 0 1 -223.2939 172.9302)" fill="#231F20" font-family="'Calibri-Bold'" font-size="9">Tita­nium</text>
	</g>
	<g>
		<g>
			<text transform="matrix(1.0003 0 0 1 -216.3867 122.4253)" fill="#231F20" font-family="'Calibri-Bold'" font-size="20">22</text>
		</g>
	</g>
</g>
<g>
	<g>
		<rect x="-163.925" y="104.219" fill="#CECAC8" width="76.718" height="76.705"/>
		<text transform="matrix(1.0003 0 0 1 -137.5879 156.8765)" fill="#231F20" font-family="'Calibri-Bold'" font-size="32.0001">V</text>
		<text transform="matrix(1.0003 0 0 1 -146.3945 172.9302)" fill="#231F20" font-family="'Calibri-Bold'" font-size="9">Vana­dium</text>
	</g>
	<g>
		<g>
			<text transform="matrix(1.0003 0 0 1 -136.874 122.4253)" fill="#231F20" font-family="'Calibri-Bold'" font-size="20">23</text>
		</g>
	</g>
</g>
<g>
	<g>
		<rect x="-84.417" y="104.219" fill="#CECAC8" width="76.721" height="76.705"/>
		<text transform="matrix(1.0003 0 0 1 -64.04 156.8765)" fill="#231F20" font-family="'Calibri-Bold'" font-size="32.0001">Cr</text>
		<text transform="matrix(1.0003 0 0 1 -67.4736 172.9302)" fill="#231F20" font-family="'Calibri-Bold'" font-size="9">Chrom­ium</text>
	</g>
	<g>
		<g>
			<text transform="matrix(1.0003 0 0 1 -57.3652 122.4253)" fill="#231F20" font-family="'Calibri-Bold'" font-size="20">24</text>
		</g>
	</g>
</g>
<g>
	<g>
		<rect x="-4.905" y="104.219" fill="#CECAC8" width="76.723" height="76.705"/>
		<text transform="matrix(1.0003 0 0 1 4.7813 156.8765)" fill="#231F20" font-family="'Calibri-Bold'" font-size="32.0001">Mn</text>
		<text transform="matrix(1.0003 0 0 1 9.8564 172.9302)" fill="#231F20" font-family="'Calibri-Bold'" font-size="9">Manga­nese</text>
	</g>
	<g>
		<g>
			<text transform="matrix(1.0003 0 0 1 22.1445 122.4253)" fill="#231F20" font-family="'Calibri-Bold'" font-size="20">25</text>
		</g>
	</g>
</g>
<g>
	<g>
		<rect x="74.603" y="104.219" fill="#CECAC8" width="76.721" height="76.705"/>
		<text transform="matrix(1.0003 0 0 1 93.4014 156.8765)" fill="#231F20" font-family="'Calibri-Bold'" font-size="32.0001">Fe</text>
		<text transform="matrix(1.0003 0 0 1 104.5898 172.9302)" fill="#231F20" font-family="'Calibri-Bold'" font-size="9">Iron</text>
	</g>
	<g>
		<g>
			<text transform="matrix(1.0003 0 0 1 101.6533 122.4253)" fill="#231F20" font-family="'Calibri-Bold'" font-size="20">26</text>
		</g>
	</g>
</g>
<g>
	<g>
		<rect x="154.113" y="104.219" fill="#CECAC8" width="76.719" height="76.705"/>
		<text transform="matrix(1.0003 0 0 1 170.7861 156.8765)" fill="#231F20" font-family="'Calibri-Bold'" font-size="32.0001">Co</text>
		<text transform="matrix(1.0003 0 0 1 179.251 172.9302)" fill="#231F20" font-family="'Calibri-Bold'" font-size="9">Cobalt</text>
	</g>
	<g>
		<g>
			<text transform="matrix(1.0003 0 0 1 181.165 122.4253)" fill="#231F20" font-family="'Calibri-Bold'" font-size="20">27</text>
		</g>
	</g>
</g>
<g>
	<g>
		<rect x="233.624" y="104.219" fill="#CECAC8" width="76.72" height="76.705"/>
		<text transform="matrix(1.0003 0 0 1 253.6016 156.8765)" fill="#231F20" font-family="'Calibri-Bold'" font-size="32.0001">Ni</text>
		<text transform="matrix(1.0003 0 0 1 259.4355 172.9302)" fill="#231F20" font-family="'Calibri-Bold'" font-size="9">Nickel</text>
	</g>
	<g>
		<g>
			<text transform="matrix(1.0003 0 0 1 260.6699 122.4253)" fill="#231F20" font-family="'Calibri-Bold'" font-size="20">28</text>
		</g>
	</g>
</g>
<g>
	<g>
		<rect x="313.136" y="104.219" fill="#CECAC8" width="76.725" height="76.705"/>
		<text transform="matrix(1.0003 0 0 1 329.8262 156.8765)" fill="#231F20" font-family="'Calibri-Bold'" font-size="32.0001">Cu</text>
		<text transform="matrix(1.0003 0 0 1 336.7607 172.9302)" fill="#231F20" font-family="'Calibri-Bold'" font-size="9">Copper</text>
	</g>
	<g>
		<g>
			<text transform="matrix(1.0003 0 0 1 340.1836 122.4253)" fill="#231F20" font-family="'Calibri-Bold'" font-size="20">29</text>
		</g>
	</g>
</g>
<g>
	<g>
		<rect x="392.643" y="104.219" fill="#CECAC8" width="76.72" height="76.705"/>
		<text transform="matrix(1.0003 0 0 1 410.3799 156.8765)" fill="#231F20" font-family="'Calibri-Bold'" font-size="32.0001">Zn</text>
		<text transform="matrix(1.0003 0 0 1 422.7178 172.9302)" fill="#231F20" font-family="'Calibri-Bold'" font-size="9">Zinc</text>
	</g>
	<g>
		<g>
			<text transform="matrix(1.0003 0 0 1 419.6924 122.4253)" fill="#231F20" font-family="'Calibri-Bold'" font-size="20">30</text>
		</g>
	</g>
</g>
<g>
	<g>
		<rect x="472.15" y="104.219" fill="#CECAC8" width="76.725" height="76.705"/>
		<text transform="matrix(1.0003 0 0 1 487.5273 158.438)" fill="#231F20" font-family="'Calibri-Bold'" font-size="32.0001">Ga</text>
		<text transform="matrix(1.0003 0 0 1 494.7109 174.4917)" fill="#231F20" font-family="'Calibri-Bold'" font-size="9">Gallium</text>
	</g>
	<g>
		<g>
			<text transform="matrix(1.0003 0 0 1 499.2031 122.4253)" fill="#231F20" font-family="'Calibri-Bold'" font-size="20">31</text>
		</g>
	</g>
</g>
<g>
	<g>
		<rect x="551.663" y="104.219" fill="#CECAC8" width="76.72" height="76.705"/>
		<text transform="matrix(1.0003 0 0 1 566.8389 158.438)" fill="#231F20" font-family="'Calibri-Bold'" font-size="32.0001">Ge</text>
		<text transform="matrix(1.0003 0 0 1 565.8359 174.4917)" fill="#231F20" font-family="'Calibri-Bold'" font-size="9">Germa­nium</text>
	</g>
	<g>
		<g>
			<text transform="matrix(1.0003 0 0 1 578.7129 122.4253)" fill="#231F20" font-family="'Calibri-Bold'" font-size="20">32</text>
		</g>
	</g>
</g>
<g>
	<g>
		<rect x="631.175" y="104.219" fill="#CECAC8" width="76.721" height="76.705"/>
		<text transform="matrix(1.0003 0 0 1 649.1094 158.438)" fill="#231F20" font-family="'Calibri-Bold'" font-size="32.0001">As</text>
		<text transform="matrix(1.0003 0 0 1 654.4824 174.4917)" fill="#231F20" font-family="'Calibri-Bold'" font-size="9">Arsenic</text>
	</g>
	<g>
		<g>
			<text transform="matrix(1.0003 0 0 1 658.2227 122.4253)" fill="#231F20" font-family="'Calibri-Bold'" font-size="20">33</text>
		</g>
	</g>
</g>
<g>
	<g>
		<rect x="710.684" y="104.219" fill="#CECAC8" width="76.72" height="76.705"/>
		<text transform="matrix(1.0003 0 0 1 729.2041 156.8765)" fill="#231F20" font-family="'Calibri-Bold'" font-size="32.0001">Se</text>
		<text transform="matrix(1.0003 0 0 1 730.1172 172.9302)" fill="#231F20" font-family="'Calibri-Bold'" font-size="9">Sele­nium</text>
	</g>
	<g>
		<g>
			<text transform="matrix(1.0003 0 0 1 737.7314 122.4253)" fill="#231F20" font-family="'Calibri-Bold'" font-size="20">34</text>
		</g>
	</g>
</g>
<g>
	<g>
		<rect x="790.191" y="104.219" fill="#CECAC8" width="76.723" height="76.705"/>
		<text transform="matrix(1.0003 0 0 1 809.9336 156.8765)" fill="#231F20" font-family="'Calibri-Bold'" font-size="32.0001">Br</text>
		<text transform="matrix(1.0003 0 0 1 811.1152 172.9302)" fill="#231F20" font-family="'Calibri-Bold'" font-size="9">Bromine</text>
	</g>
	<g>
		<g>
			<text transform="matrix(1.0003 0 0 1 817.2461 122.4253)" fill="#231F20" font-family="'Calibri-Bold'" font-size="20">35</text>
		</g>
	</g>
</g>
<g>
	<g>
		<rect x="869.706" y="104.219" fill="#CECAC8" width="76.72" height="76.705"/>
		<text transform="matrix(1.0003 0 0 1 889.7217 156.8765)" fill="#231F20" font-family="'Calibri-Bold'" font-size="32.0001">Kr</text>
		<text transform="matrix(1.0003 0 0 1 891.6963 172.9302)" fill="#231F20" font-family="'Calibri-Bold'" font-size="9">Kryp­ton</text>
	</g>
	<g>
		<g>
			<text transform="matrix(1.0003 0 0 1 896.7539 122.4253)" fill="#231F20" font-family="'Calibri-Bold'" font-size="20">36</text>
		</g>
	</g>
</g>
<g>
	<rect x="-481.966" y="183.71" fill="#CECAC8" width="76.719" height="76.7"/>
	<text transform="matrix(1.0003 0 0 1 -465.958 236.3672)" fill="#231F20" font-family="'Calibri-Bold'" font-size="32.0001">Rb</text>
	<text transform="matrix(1.0003 0 0 1 -463.2969 252.4199)" fill="#231F20" font-family="'Calibri-Bold'" font-size="9">Rubid­ium</text>
	<g>
		<g>
			<text transform="matrix(1.0003 0 0 1 -454.918 201.9165)" fill="#231F20" font-family="'Calibri-Bold'" font-size="20">37</text>
		</g>
	</g>
</g>
<g>
	<rect x="-402.457" y="183.71" fill="#CECAC8" width="76.72" height="76.7"/>
	<text transform="matrix(1.0003 0 0 1 -380.9277 236.3672)" fill="#231F20" font-family="'Calibri-Bold'" font-size="32.0001">Sr</text>
	<text transform="matrix(1.0003 0 0 1 -384.6172 252.4199)" fill="#231F20" font-family="'Calibri-Bold'" font-size="9">Stront­ium</text>
	<g>
		<g>
			<text transform="matrix(1.0003 0 0 1 -375.4072 201.9165)" fill="#231F20" font-family="'Calibri-Bold'" font-size="20">38</text>
		</g>
	</g>
</g>
<g>
	<g>
		<rect x="-322.948" y="183.71" fill="#CECAC8" width="76.723" height="76.7"/>
		<text transform="matrix(1.0003 0 0 1 -295.1475 236.3672)" fill="#231F20" font-family="'Calibri-Bold'" font-size="32.0001">Y</text>
		<text transform="matrix(1.0003 0 0 1 -299.9443 252.4199)" fill="#231F20" font-family="'Calibri-Bold'" font-size="9">Yttrium</text>
	</g>
	<g>
		<g>
			<text transform="matrix(1.0003 0 0 1 -295.8955 201.9165)" fill="#231F20" font-family="'Calibri-Bold'" font-size="20">39</text>
		</g>
	</g>
</g>
<g>
	<g>
		<rect x="-243.437" y="183.71" fill="#CECAC8" width="76.72" height="76.7"/>
		<text transform="matrix(1.0003 0 0 1 -222.0176 236.3672)" fill="#231F20" font-family="'Calibri-Bold'" font-size="32.0001">Zr</text>
		<text transform="matrix(1.0003 0 0 1 -225.5137 252.4199)" fill="#231F20" font-family="'Calibri-Bold'" font-size="9">Zirco­nium</text>
	</g>
	<g>
		<g>
			<text transform="matrix(1.0003 0 0 1 -216.3867 201.9165)" fill="#231F20" font-family="'Calibri-Bold'" font-size="20">40</text>
		</g>
	</g>
</g>
<g>
	<g>
		<rect x="-163.925" y="183.71" fill="#CECAC8" width="76.718" height="76.7"/>
		<text transform="matrix(1.0003 0 0 1 -149.8643 236.3672)" fill="#231F20" font-family="'Calibri-Bold'" font-size="32.0001">Nb</text>
		<text transform="matrix(1.0003 0 0 1 -143.1084 252.4199)" fill="#231F20" font-family="'Calibri-Bold'" font-size="9">Nio­bium</text>
	</g>
	<g>
		<g>
			<text transform="matrix(1.0003 0 0 1 -136.874 201.9165)" fill="#231F20" font-family="'Calibri-Bold'" font-size="20">41</text>
		</g>
	</g>
</g>
<g>
	<g>
		<rect x="-84.417" y="183.71" fill="#CECAC8" width="76.721" height="76.7"/>
		<text transform="matrix(1.0003 0 0 1 -74.749 236.3672)" fill="#231F20" font-family="'Calibri-Bold'" font-size="32.0001">Mo</text>
		<text transform="matrix(1.0003 0 0 1 -73.46 252.4199)" fill="#231F20" font-family="'Calibri-Bold'" font-size="9">Molyb­denum</text>
	</g>
	<g>
		<g>
			<text transform="matrix(1.0003 0 0 1 -57.3652 201.9165)" fill="#231F20" font-family="'Calibri-Bold'" font-size="20">42</text>
		</g>
	</g>
</g>
<g>
	<g>
		<rect x="-4.905" y="183.71" fill="#CECAC8" width="76.723" height="76.7"/>
		<text transform="matrix(1.0003 0 0 1 14.8848 236.3672)" fill="#231F20" font-family="'Calibri-Bold'" font-size="32.0001">Tc</text>
		<text transform="matrix(1.0003 0 0 1 9.2969 252.4199)" fill="#231F20" font-family="'Calibri-Bold'" font-size="9">Tech­netium</text>
	</g>
	<g>
		<g>
			<text transform="matrix(1.0003 0 0 1 22.1445 201.9165)" fill="#231F20" font-family="'Calibri-Bold'" font-size="20">43</text>
		</g>
	</g>
</g>
<g>
	<g>
		<rect x="74.603" y="183.71" fill="#CECAC8" width="76.721" height="76.7"/>
		<text transform="matrix(1.0003 0 0 1 90.6133 236.3672)" fill="#231F20" font-family="'Calibri-Bold'" font-size="32.0001">Ru</text>
		<text transform="matrix(1.0003 0 0 1 90.3242 252.4199)" fill="#231F20" font-family="'Calibri-Bold'" font-size="9">Ruthe­nium</text>
	</g>
	<g>
		<g>
			<text transform="matrix(1.0003 0 0 1 101.6533 201.9165)" fill="#231F20" font-family="'Calibri-Bold'" font-size="20">44</text>
		</g>
	</g>
</g>
<g>
	<g>
		<rect x="154.113" y="183.71" fill="#CECAC8" width="76.719" height="76.7"/>
		<text transform="matrix(1.0003 0 0 1 170.123 236.3672)" fill="#231F20" font-family="'Calibri-Bold'" font-size="32.0001">Rh</text>
		<text transform="matrix(1.0003 0 0 1 173.9775 252.4199)" fill="#231F20" font-family="'Calibri-Bold'" font-size="9">Rho­dium</text>
	</g>
	<g>
		<g>
			<text transform="matrix(1.0003 0 0 1 181.165 201.9165)" fill="#231F20" font-family="'Calibri-Bold'" font-size="20">45</text>
		</g>
	</g>
</g>
<g>
	<g>
		<rect x="233.624" y="183.71" fill="#CECAC8" width="76.72" height="76.7"/>
		<text transform="matrix(1.0003 0 0 1 250.2559 236.3672)" fill="#231F20" font-family="'Calibri-Bold'" font-size="32.0001">Pd</text>
		<text transform="matrix(1.0003 0 0 1 251.6641 252.4199)" fill="#231F20" font-family="'Calibri-Bold'" font-size="9">Pallad­ium</text>
	</g>
	<g>
		<g>
			<text transform="matrix(1.0003 0 0 1 260.6699 201.9165)" fill="#231F20" font-family="'Calibri-Bold'" font-size="20">46</text>
		</g>
	</g>
</g>
<g>
	<g>
		<rect x="313.136" y="183.71" fill="#CECAC8" width="76.725" height="76.7"/>
		<text transform="matrix(1.0003 0 0 1 329.5381 236.3672)" fill="#231F20" font-family="'Calibri-Bold'" font-size="32.0001">Ag</text>
		<text transform="matrix(1.0003 0 0 1 340.1943 252.4199)" fill="#231F20" font-family="'Calibri-Bold'" font-size="9">Silver</text>
	</g>
	<g>
		<g>
			<text transform="matrix(1.0003 0 0 1 340.1836 201.9165)" fill="#231F20" font-family="'Calibri-Bold'" font-size="20">47</text>
		</g>
	</g>
</g>
<g>
	<g>
		<rect x="392.643" y="183.71" fill="#CECAC8" width="76.72" height="76.7"/>
		<text transform="matrix(1.0003 0 0 1 409.3379 236.3672)" fill="#231F20" font-family="'Calibri-Bold'" font-size="32.0001">Cd</text>
		<text transform="matrix(1.0003 0 0 1 411.5361 252.4199)" fill="#231F20" font-family="'Calibri-Bold'" font-size="9">Cad­mium</text>
	</g>
	<g>
		<g>
			<text transform="matrix(1.0003 0 0 1 419.6924 201.9165)" fill="#231F20" font-family="'Calibri-Bold'" font-size="20">48</text>
		</g>
	</g>
</g>
<g>
	<g>
		<rect x="472.15" y="183.71" fill="#CECAC8" width="76.725" height="76.7"/>
		<text transform="matrix(1.0003 0 0 1 494.1875 237.9297)" fill="#231F20" font-family="'Calibri-Bold'" font-size="32.0001">In</text>
		<text transform="matrix(1.0003 0 0 1 496.0908 253.9844)" fill="#231F20" font-family="'Calibri-Bold'" font-size="9">Indium</text>
	</g>
	<g>
		<g>
			<text transform="matrix(1.0003 0 0 1 499.2031 201.9165)" fill="#231F20" font-family="'Calibri-Bold'" font-size="20">49</text>
		</g>
	</g>
</g>
<g>
	<g>
		<rect x="551.663" y="183.71" fill="#CECAC8" width="76.72" height="76.7"/>
		<text transform="matrix(1.0003 0 0 1 569.5088 237.9297)" fill="#231F20" font-family="'Calibri-Bold'" font-size="32.0001">Sn</text>
		<text transform="matrix(1.0003 0 0 1 583.6943 253.9844)" fill="#231F20" font-family="'Calibri-Bold'" font-size="9">Tin</text>
	</g>
	<g>
		<g>
			<text transform="matrix(1.0003 0 0 1 578.7129 201.9165)" fill="#231F20" font-family="'Calibri-Bold'" font-size="20">50</text>
		</g>
	</g>
</g>
<g>
	<g>
		<rect x="631.175" y="183.71" fill="#CECAC8" width="76.721" height="76.7"/>
		<text transform="matrix(1.0003 0 0 1 649.0166 237.9297)" fill="#231F20" font-family="'Calibri-Bold'" font-size="32.0001">Sb</text>
		<text transform="matrix(1.0003 0 0 1 649.4756 253.9844)" fill="#231F20" font-family="'Calibri-Bold'" font-size="9">Anti­mony</text>
	</g>
	<g>
		<g>
			<text transform="matrix(1.0003 0 0 1 658.2227 201.9165)" fill="#231F20" font-family="'Calibri-Bold'" font-size="20">51</text>
		</g>
	</g>
</g>
<g>
	<g>
		<rect x="710.684" y="183.71" fill="#CECAC8" width="76.72" height="76.7"/>
		<text transform="matrix(1.0003 0 0 1 728.7471 237.9297)" fill="#231F20" font-family="'Calibri-Bold'" font-size="32.0001">Te</text>
		<text transform="matrix(1.0003 0 0 1 729.5342 253.9844)" fill="#231F20" font-family="'Calibri-Bold'" font-size="9">Tellur­ium</text>
	</g>
	<g>
		<g>
			<text transform="matrix(1.0003 0 0 1 737.7314 201.9165)" fill="#231F20" font-family="'Calibri-Bold'" font-size="20">52</text>
		</g>
	</g>
</g>
<g>
	<g>
		<rect x="790.191" y="183.71" fill="#CECAC8" width="76.723" height="76.7"/>
		<text transform="matrix(1.0003 0 0 1 823.1348 236.3672)" fill="#231F20" font-family="'Calibri-Bold'" font-size="32.0001">I</text>
		<text transform="matrix(1.0003 0 0 1 815.6396 252.4199)" fill="#231F20" font-family="'Calibri-Bold'" font-size="9">Iodine</text>
	</g>
	<g>
		<g>
			<text transform="matrix(1.0003 0 0 1 817.2461 201.9165)" fill="#231F20" font-family="'Calibri-Bold'" font-size="20">53</text>
		</g>
	</g>
</g>
<g>
	<g>
		<rect x="869.706" y="183.71" fill="#CECAC8" width="76.72" height="76.7"/>
		<text transform="matrix(1.0003 0 0 1 886.6328 236.3672)" fill="#231F20" font-family="'Calibri-Bold'" font-size="32.0001">Xe</text>
		<text transform="matrix(1.0003 0 0 1 894.9629 252.4199)" fill="#231F20" font-family="'Calibri-Bold'" font-size="9">Xenon</text>
	</g>
	<g>
		<g>
			<text transform="matrix(1.0003 0 0 1 896.7539 201.9165)" fill="#231F20" font-family="'Calibri-Bold'" font-size="20">54</text>
		</g>
	</g>
</g>
<g>
	<rect x="-481.966" y="263.201" fill="#CECAC8" width="76.719" height="76.7"/>
	<text transform="matrix(1.0003 0 0 1 -462.4746 315.8574)" fill="#231F20" font-family="'Calibri-Bold'" font-size="32.0001">Cs</text>
	<text transform="matrix(1.0003 0 0 1 -460.8867 331.9102)" fill="#231F20" font-family="'Calibri-Bold'" font-size="9">Cae­sium</text>
	<g>
		<g>
			<text transform="matrix(1.0003 0 0 1 -454.918 281.4082)" fill="#231F20" font-family="'Calibri-Bold'" font-size="20">55</text>
		</g>
	</g>
</g>
<g>
	<rect x="-402.457" y="263.201" fill="#CECAC8" width="76.72" height="76.7"/>
	<text transform="matrix(1.0003 0 0 1 -385.5225 315.5645)" fill="#231F20" font-family="'Calibri-Bold'" font-size="32.0001">Ba</text>
	<text transform="matrix(1.0003 0 0 1 -378.8613 331.9102)" fill="#231F20" font-family="'Calibri-Bold'" font-size="9">Barium</text>
	<g>
		<g>
			<text transform="matrix(1.0003 0 0 1 -375.4072 281.4082)" fill="#231F20" font-family="'Calibri-Bold'" font-size="20">56</text>
		</g>
	</g>
</g>
<g>
	<g>
		<rect x="-322.948" y="263.201" fill="#CECAC8" width="76.723" height="76.7"/>
		<text transform="matrix(1.0003 0 0 1 -310.1279 288.5938)" fill="#231F20" font-family="'Calibri-Bold'" font-size="21.8837">57-71</text>
	</g>
	<text transform="matrix(1.0003 0 0 1 -307.1777 313.6953)" fill="#231F20" font-family="'Calibri-Bold'" font-size="16.7348">La-Lu</text>
	<text transform="matrix(1.0003 0 0 1 -320.5781 330.0254)" fill="#231F20" font-family="'Calibri-Bold'" font-size="13.6085">Lanthanide</text>
</g>
<g>
	<g>
		<rect x="-322.948" y="454.777" fill="#CECAC8" width="76.723" height="76.701"/>
		<text transform="matrix(1.0003 0 0 1 -303.2158 508.9961)" fill="#231F20" font-family="'Calibri-Bold'" font-size="32.0001">La</text>
		<text transform="matrix(1.0003 0 0 1 -307.7051 525.0508)" fill="#231F20" font-family="'Calibri-Bold'" font-size="9">Lan­thanum</text>
	</g>
	<g>
		<g>
			<text transform="matrix(1.0003 0 0 1 -295.8955 472.9844)" fill="#231F20" font-family="'Calibri-Bold'" font-size="20">57</text>
		</g>
	</g>
</g>
<g>
	<g>
		<rect x="-243.437" y="454.777" fill="#CECAC8" width="76.72" height="76.701"/>
		<text transform="matrix(1.0003 0 0 1 -226.0664 508.9961)" fill="#231F20" font-family="'Calibri-Bold'" font-size="32.0001">Ce</text>
		<text transform="matrix(1.0003 0 0 1 -219.7344 525.0508)" fill="#231F20" font-family="'Calibri-Bold'" font-size="9">Cerium</text>
	</g>
	<g>
		<g>
			<text transform="matrix(1.0003 0 0 1 -216.3867 472.9844)" fill="#231F20" font-family="'Calibri-Bold'" font-size="20">58</text>
		</g>
	</g>
</g>
<g>
	<g>
		<rect x="-163.925" y="454.777" fill="#CECAC8" width="76.718" height="76.701"/>
		<text transform="matrix(1.0003 0 0 1 -143.6123 508.9961)" fill="#231F20" font-family="'Calibri-Bold'" font-size="32.0001">Pr</text>
		<text transform="matrix(1.0003 0 0 1 -156.126 525.0508)" fill="#231F20" font-family="'Calibri-Bold'" font-size="9">Praseo­dymium</text>
	</g>
	<g>
		<g>
			<text transform="matrix(1.0003 0 0 1 -136.874 472.9844)" fill="#231F20" font-family="'Calibri-Bold'" font-size="20">59</text>
		</g>
	</g>
</g>
<g>
	<g>
		<rect x="-84.417" y="454.777" fill="#CECAC8" width="76.721" height="76.701"/>
		<text transform="matrix(1.0003 0 0 1 -70.3555 508.9961)" fill="#231F20" font-family="'Calibri-Bold'" font-size="32.0001">Nd</text>
		<text transform="matrix(1.0003 0 0 1 -71.1406 525.0508)" fill="#231F20" font-family="'Calibri-Bold'" font-size="9">Neo­dymium</text>
	</g>
	<g>
		<g>
			<text transform="matrix(1.0003 0 0 1 -57.3652 472.9844)" fill="#231F20" font-family="'Calibri-Bold'" font-size="20">60</text>
		</g>
	</g>
</g>
<g>
	<g>
		<rect x="-4.905" y="454.777" fill="#CECAC8" width="76.723" height="76.701"/>
		<text transform="matrix(1.0003 0 0 1 6.1025 508.9961)" fill="#231F20" font-family="'Calibri-Bold'" font-size="32.0001">Pm</text>
		<text transform="matrix(1.0003 0 0 1 7.8721 525.0508)" fill="#231F20" font-family="'Calibri-Bold'" font-size="9">Prome­thium</text>
	</g>
	<g>
		<g>
			<text transform="matrix(1.0003 0 0 1 22.1445 472.9844)" fill="#231F20" font-family="'Calibri-Bold'" font-size="20">61</text>
		</g>
	</g>
</g>
<g>
	<g>
		<rect x="74.603" y="454.777" fill="#CECAC8" width="76.721" height="76.701"/>
		<text transform="matrix(1.0003 0 0 1 86.8213 508.9961)" fill="#231F20" font-family="'Calibri-Bold'" font-size="32.0001">Sm</text>
		<text transform="matrix(1.0003 0 0 1 92.2471 525.0508)" fill="#231F20" font-family="'Calibri-Bold'" font-size="9">Sama­rium</text>
	</g>
	<g>
		<g>
			<text transform="matrix(1.0003 0 0 1 101.6533 472.9844)" fill="#231F20" font-family="'Calibri-Bold'" font-size="20">62</text>
		</g>
	</g>
</g>
<g>
	<g>
		<rect x="154.113" y="454.777" fill="#CECAC8" width="76.719" height="76.701"/>
		<text transform="matrix(1.0003 0 0 1 171.6504 508.9961)" fill="#231F20" font-family="'Calibri-Bold'" font-size="32.0001">Eu</text>
		<text transform="matrix(1.0003 0 0 1 172.6113 525.0508)" fill="#231F20" font-family="'Calibri-Bold'" font-size="9">Europ­ium</text>
	</g>
	<g>
		<g>
			<text transform="matrix(1.0003 0 0 1 181.1641 472.9844)" fill="#231F20" font-family="'Calibri-Bold'" font-size="20">63</text>
		</g>
	</g>
</g>
<g>
	<g>
		<rect x="233.624" y="454.777" fill="#CECAC8" width="76.72" height="76.701"/>
		<text transform="matrix(1.0003 0 0 1 248.125 508.9961)" fill="#231F20" font-family="'Calibri-Bold'" font-size="32.0001">Gd</text>
		<text transform="matrix(1.0003 0 0 1 248.3193 525.0508)" fill="#231F20" font-family="'Calibri-Bold'" font-size="9">Gadolin­ium</text>
	</g>
	<g>
		<g>
			<text transform="matrix(1.0003 0 0 1 260.6699 472.9844)" fill="#231F20" font-family="'Calibri-Bold'" font-size="20">64</text>
		</g>
	</g>
</g>
<g>
	<g>
		<rect x="313.136" y="454.777" fill="#CECAC8" width="76.725" height="76.701"/>
		<text transform="matrix(1.0003 0 0 1 330.5205 508.9961)" fill="#231F20" font-family="'Calibri-Bold'" font-size="32.0001">Tb</text>
		<text transform="matrix(1.0003 0 0 1 334.3818 525.0508)" fill="#231F20" font-family="'Calibri-Bold'" font-size="9">Ter­bium</text>
	</g>
	<g>
		<g>
			<text transform="matrix(1.0003 0 0 1 340.1836 472.9844)" fill="#231F20" font-family="'Calibri-Bold'" font-size="20">65</text>
		</g>
	</g>
</g>
<g>
	<g>
		<rect x="392.643" y="454.777" fill="#CECAC8" width="76.72" height="76.701"/>
		<text transform="matrix(1.0003 0 0 1 408.5635 508.9961)" fill="#231F20" font-family="'Calibri-Bold'" font-size="32.0001">Dy</text>
		<text transform="matrix(1.0003 0 0 1 406.8594 525.0508)" fill="#231F20" font-family="'Calibri-Bold'" font-size="9">Dyspro­sium</text>
	</g>
	<g>
		<g>
			<text transform="matrix(1.0003 0 0 1 419.6924 472.9844)" fill="#231F20" font-family="'Calibri-Bold'" font-size="20">66</text>
		</g>
	</g>
</g>
<g>
	<g>
		<rect x="472.15" y="454.777" fill="#CECAC8" width="76.725" height="76.701"/>
		<text transform="matrix(1.0003 0 0 1 486.7617 508.9961)" fill="#231F20" font-family="'Calibri-Bold'" font-size="32.0001">Ho</text>
		<text transform="matrix(1.0003 0 0 1 491.7549 525.0508)" fill="#231F20" font-family="'Calibri-Bold'" font-size="9">Hol­mium</text>
	</g>
	<g>
		<g>
			<text transform="matrix(1.0003 0 0 1 499.2031 472.9844)" fill="#231F20" font-family="'Calibri-Bold'" font-size="20">67</text>
		</g>
	</g>
</g>
<g>
	<g>
		<rect x="551.663" y="454.777" fill="#CECAC8" width="76.72" height="76.701"/>
		<text transform="matrix(1.0003 0 0 1 572.8828 508.9961)" fill="#231F20" font-family="'Calibri-Bold'" font-size="32.0001">Er</text>
		<text transform="matrix(1.0003 0 0 1 575.4043 525.0508)" fill="#231F20" font-family="'Calibri-Bold'" font-size="9">Erbium</text>
	</g>
	<g>
		<g>
			<text transform="matrix(1.0003 0 0 1 578.7129 472.9844)" fill="#231F20" font-family="'Calibri-Bold'" font-size="20">68</text>
		</g>
	</g>
</g>
<g>
	<g>
		<rect x="631.175" y="454.777" fill="#CECAC8" width="76.721" height="76.701"/>
		<text transform="matrix(1.0003 0 0 1 642.9346 508.9961)" fill="#231F20" font-family="'Calibri-Bold'" font-size="32.0001">Tm</text>
		<text transform="matrix(1.0003 0 0 1 652.7969 525.0508)" fill="#231F20" font-family="'Calibri-Bold'" font-size="9">Thulium</text>
	</g>
	<g>
		<g>
			<text transform="matrix(1.0003 0 0 1 658.2227 472.9844)" fill="#231F20" font-family="'Calibri-Bold'" font-size="20">69</text>
		</g>
	</g>
</g>
<g>
	<g>
		<rect x="710.684" y="454.777" fill="#CECAC8" width="76.72" height="76.701"/>
		<text transform="matrix(1.0003 0 0 1 727.5762 508.9961)" fill="#231F20" font-family="'Calibri-Bold'" font-size="32.0001">Yb</text>
		<text transform="matrix(1.0003 0 0 1 728.6094 525.0508)" fill="#231F20" font-family="'Calibri-Bold'" font-size="9">Ytter­bium</text>
	</g>
	<g>
		<g>
			<text transform="matrix(1.0003 0 0 1 737.7314 472.9844)" fill="#231F20" font-family="'Calibri-Bold'" font-size="20">70</text>
		</g>
	</g>
</g>
<g>
	<g>
		<rect x="790.191" y="454.777" fill="#CECAC8" width="76.723" height="76.701"/>
		<text transform="matrix(1.0003 0 0 1 809.0488 508.9961)" fill="#231F20" font-family="'Calibri-Bold'" font-size="32.0001">Lu</text>
		<text transform="matrix(1.0003 0 0 1 810.1758 525.0508)" fill="#231F20" font-family="'Calibri-Bold'" font-size="9">Lute­tium</text>
	</g>
	<g>
		<g>
			<text transform="matrix(1.0003 0 0 1 817.2461 472.9844)" fill="#231F20" font-family="'Calibri-Bold'" font-size="20">71</text>
		</g>
	</g>
</g>
<g>
	<g>
		<rect x="-243.437" y="263.201" fill="#CECAC8" width="76.72" height="76.7"/>
		<text transform="matrix(1.0003 0 0 1 -224.3311 315.8574)" fill="#231F20" font-family="'Calibri-Bold'" font-size="32.0001">Hf</text>
		<text transform="matrix(1.0003 0 0 1 -222.6104 331.9102)" fill="#231F20" font-family="'Calibri-Bold'" font-size="9">Haf­nium</text>
	</g>
	<g>
		<g>
			<text transform="matrix(1.0003 0 0 1 -216.3867 281.4082)" fill="#231F20" font-family="'Calibri-Bold'" font-size="20">72</text>
		</g>
	</g>
</g>
<g>
	<g>
		<rect x="-163.925" y="263.201" fill="#CECAC8" width="76.718" height="76.7"/>
		<text transform="matrix(1.0003 0 0 1 -145.6641 315.8574)" fill="#231F20" font-family="'Calibri-Bold'" font-size="32.0001">Ta</text>
		<text transform="matrix(1.0003 0 0 1 -145 331.9102)" fill="#231F20" font-family="'Calibri-Bold'" font-size="9">Tanta­lum</text>
	</g>
	<g>
		<g>
			<text transform="matrix(1.0003 0 0 1 -136.874 281.4082)" fill="#231F20" font-family="'Calibri-Bold'" font-size="20">73</text>
		</g>
	</g>
</g>
<g>
	<g>
		<rect x="-84.417" y="263.201" fill="#CECAC8" width="76.721" height="76.7"/>
		<text transform="matrix(1.0003 0 0 1 -64.4775 315.8574)" fill="#231F20" font-family="'Calibri-Bold'" font-size="32.0001">W</text>
		<text transform="matrix(1.0003 0 0 1 -64.835 331.9102)" fill="#231F20" font-family="'Calibri-Bold'" font-size="9">Tung­sten</text>
	</g>
	<g>
		<g>
			<text transform="matrix(1.0003 0 0 1 -57.3652 281.4082)" fill="#231F20" font-family="'Calibri-Bold'" font-size="20">74</text>
		</g>
	</g>
</g>
<g>
	<g>
		<rect x="-4.905" y="263.201" fill="#CECAC8" width="76.723" height="76.7"/>
		<text transform="matrix(1.0003 0 0 1 11.7773 315.8574)" fill="#231F20" font-family="'Calibri-Bold'" font-size="32.0001">Re</text>
		<text transform="matrix(1.0003 0 0 1 15.125 331.9102)" fill="#231F20" font-family="'Calibri-Bold'" font-size="9">Rhe­nium</text>
	</g>
	<g>
		<g>
			<text transform="matrix(1.0003 0 0 1 22.1445 281.4082)" fill="#231F20" font-family="'Calibri-Bold'" font-size="20">75</text>
		</g>
	</g>
</g>
<g>
	<g>
		<rect x="74.603" y="263.201" fill="#CECAC8" width="76.721" height="76.7"/>
		<text transform="matrix(1.0003 0 0 1 91.1094 315.8574)" fill="#231F20" font-family="'Calibri-Bold'" font-size="32.0001">Os</text>
		<text transform="matrix(1.0003 0 0 1 95.8633 331.9102)" fill="#231F20" font-family="'Calibri-Bold'" font-size="9">Os­mium</text>
	</g>
	<g>
		<g>
			<text transform="matrix(1.0003 0 0 1 101.6533 281.4082)" fill="#231F20" font-family="'Calibri-Bold'" font-size="20">76</text>
		</g>
	</g>
</g>
<g>
	<g>
		<rect x="154.113" y="263.201" fill="#CECAC8" width="76.719" height="76.7"/>
		<text transform="matrix(1.0003 0 0 1 179.8271 315.8574)" fill="#231F20" font-family="'Calibri-Bold'" font-size="32.0001">Ir</text>
		<text transform="matrix(1.0003 0 0 1 177.7363 331.9102)" fill="#231F20" font-family="'Calibri-Bold'" font-size="9">Iridium</text>
	</g>
	<g>
		<g>
			<text transform="matrix(1.0003 0 0 1 181.165 281.4082)" fill="#231F20" font-family="'Calibri-Bold'" font-size="20">77</text>
		</g>
	</g>
</g>
<g>
	<g>
		<rect x="233.624" y="263.201" fill="#CECAC8" width="76.72" height="76.7"/>
		<text transform="matrix(1.0003 0 0 1 254.1201 315.8574)" fill="#231F20" font-family="'Calibri-Bold'" font-size="32.0001">Pt</text>
		<text transform="matrix(1.0003 0 0 1 253.6162 331.9102)" fill="#231F20" font-family="'Calibri-Bold'" font-size="9">Plat­inum</text>
	</g>
	<g>
		<g>
			<text transform="matrix(1.0003 0 0 1 260.6699 281.4082)" fill="#231F20" font-family="'Calibri-Bold'" font-size="20">78</text>
		</g>
	</g>
</g>
<g>
	<g>
		<rect x="313.136" y="263.201" fill="#CECAC8" width="76.725" height="76.7"/>
		<text transform="matrix(1.0003 0 0 1 328.2695 315.8574)" fill="#231F20" font-family="'Calibri-Bold'" font-size="32.0001">Au</text>
		<text transform="matrix(1.0003 0 0 1 341.8457 331.9102)" fill="#231F20" font-family="'Calibri-Bold'" font-size="9">Gold</text>
	</g>
	<g>
		<g>
			<text transform="matrix(1.0003 0 0 1 340.1836 281.4082)" fill="#231F20" font-family="'Calibri-Bold'" font-size="20">79</text>
		</g>
	</g>
</g>
<g>
	<g>
		<rect x="392.643" y="263.201" fill="#CECAC8" width="76.72" height="76.7"/>
		<text transform="matrix(1.0003 0 0 1 408.542 315.8574)" fill="#231F20" font-family="'Calibri-Bold'" font-size="32.0001">Hg</text>
		<text transform="matrix(1.0003 0 0 1 413.7412 331.9102)" fill="#231F20" font-family="'Calibri-Bold'" font-size="9">Mer­cury</text>
	</g>
	<g>
		<g>
			<text transform="matrix(1.0003 0 0 1 419.6924 281.4082)" fill="#231F20" font-family="'Calibri-Bold'" font-size="20">80</text>
		</g>
	</g>
</g>
<g>
	<g>
		<rect x="472.15" y="263.201" fill="#CECAC8" width="76.725" height="76.7"/>
		<text transform="matrix(1.0003 0 0 1 495.4561 317.4199)" fill="#231F20" font-family="'Calibri-Bold'" font-size="32.0001">Tl</text>
		<text transform="matrix(1.0003 0 0 1 492.7881 333.4746)" fill="#231F20" font-family="'Calibri-Bold'" font-size="9">Thallium</text>
	</g>
	<g>
		<g>
			<text transform="matrix(1.0003 0 0 1 499.2031 281.4082)" fill="#231F20" font-family="'Calibri-Bold'" font-size="20">81</text>
		</g>
	</g>
</g>
<g>
	<g>
		<rect x="551.663" y="263.201" fill="#CECAC8" width="76.72" height="76.7"/>
		<text transform="matrix(1.0003 0 0 1 568.2959 317.4199)" fill="#231F20" font-family="'Calibri-Bold'" font-size="32.0001">Pb</text>
		<text transform="matrix(1.0003 0 0 1 580.3809 333.4746)" fill="#231F20" font-family="'Calibri-Bold'" font-size="9">Lead</text>
	</g>
	<g>
		<g>
			<text transform="matrix(1.0003 0 0 1 578.7129 281.4082)" fill="#231F20" font-family="'Calibri-Bold'" font-size="20">82</text>
		</g>
	</g>
</g>
<g>
	<g>
		<rect x="631.175" y="263.201" fill="#CECAC8" width="76.721" height="76.7"/>
		<text transform="matrix(1.0003 0 0 1 653.1465 317.4199)" fill="#231F20" font-family="'Calibri-Bold'" font-size="32.0001">Bi</text>
		<text transform="matrix(1.0003 0 0 1 652.6553 333.4746)" fill="#231F20" font-family="'Calibri-Bold'" font-size="9">Bis­muth</text>
	</g>
	<g>
		<g>
			<text transform="matrix(1.0003 0 0 1 658.2227 281.4082)" fill="#231F20" font-family="'Calibri-Bold'" font-size="20">83</text>
		</g>
	</g>
</g>
<g>
	<g>
		<rect x="710.684" y="263.201" fill="#CECAC8" width="76.72" height="76.7"/>
		<text transform="matrix(1.0003 0 0 1 727.2969 317.4199)" fill="#231F20" font-family="'Calibri-Bold'" font-size="32.0001">Po</text>
		<text transform="matrix(1.0003 0 0 1 729.4941 333.4746)" fill="#231F20" font-family="'Calibri-Bold'" font-size="9">Polo­nium</text>
	</g>
	<g>
		<g>
			<text transform="matrix(1.0003 0 0 1 737.7314 281.4082)" fill="#231F20" font-family="'Calibri-Bold'" font-size="20">84</text>
		</g>
	</g>
</g>
<g>
	<g>
		<rect x="790.191" y="263.201" fill="#CECAC8" width="76.723" height="76.7"/>
		<text transform="matrix(1.0003 0 0 1 809.1904 315.8574)" fill="#231F20" font-family="'Calibri-Bold'" font-size="32.0001">At</text>
		<text transform="matrix(1.0003 0 0 1 811.5176 331.9102)" fill="#231F20" font-family="'Calibri-Bold'" font-size="9">Asta­tine</text>
	</g>
	<g>
		<g>
			<text transform="matrix(1.0003 0 0 1 817.2461 281.4082)" fill="#231F20" font-family="'Calibri-Bold'" font-size="20">85</text>
		</g>
	</g>
</g>
<g>
	<g>
		<rect x="869.706" y="263.201" fill="#CECAC8" width="76.72" height="76.7"/>
		<text transform="matrix(1.0003 0 0 1 885.71 315.8574)" fill="#231F20" font-family="'Calibri-Bold'" font-size="32.0001">Rn</text>
		<text transform="matrix(1.0003 0 0 1 894.9502 331.9102)" fill="#231F20" font-family="'Calibri-Bold'" font-size="9">Radon</text>
	</g>
	<g>
		<g>
			<text transform="matrix(1.0003 0 0 1 896.7539 281.4082)" fill="#231F20" font-family="'Calibri-Bold'" font-size="20">86</text>
		</g>
	</g>
</g>
<g>
	<rect x="-481.966" y="342.691" fill="#CECAC8" width="76.719" height="76.701"/>
	<text transform="matrix(1.0003 0 0 1 -460.1621 395.3477)" fill="#231F20" font-family="'Calibri-Bold'" font-size="32.0001">Fr</text>
	<text transform="matrix(1.0003 0 0 1 -462.5371 411.4023)" fill="#231F20" font-family="'Calibri-Bold'" font-size="9">Fran­cium</text>
	<g>
		<g>
			<text transform="matrix(1.0003 0 0 1 -454.918 360.8984)" fill="#231F20" font-family="'Calibri-Bold'" font-size="20">87</text>
		</g>
	</g>
</g>
<g>
	<rect x="-402.457" y="342.691" fill="#CECAC8" width="76.72" height="76.701"/>
	<text transform="matrix(1.0003 0 0 1 -385.5752 395.3477)" fill="#231F20" font-family="'Calibri-Bold'" font-size="32.0001">Ra</text>
	<text transform="matrix(1.0003 0 0 1 -379.7588 411.4023)" fill="#231F20" font-family="'Calibri-Bold'" font-size="9">Ra­dium</text>
	<g>
		<g>
			<text transform="matrix(1.0003 0 0 1 -375.4072 360.8984)" fill="#231F20" font-family="'Calibri-Bold'" font-size="20">88</text>
		</g>
	</g>
</g>
<g>
	<g>
		<rect x="-322.948" y="342.691" fill="#CECAC8" width="76.723" height="76.701"/>
		<text transform="matrix(1.0003 0 0 1 -315.6729 368.084)" fill="#231F20" font-family="'Calibri-Bold'" font-size="21.8837">89-103</text>
	</g>
	<text transform="matrix(1.0003 0 0 1 -308.1289 390.9336)" fill="#231F20" font-family="'Calibri-Bold'" font-size="16.7348">Ac-Lr</text>
	<text transform="matrix(1.0003 0 0 1 -313.8369 407.2637)" fill="#231F20" font-family="'Calibri-Bold'" font-size="13.6085">Actinide</text>
</g>
<g>
	<g>
		<rect x="-322.948" y="534.269" fill="#CECAC8" width="76.723" height="76.699"/>
		<text transform="matrix(1.0003 0 0 1 -305.4082 588.4883)" fill="#231F20" font-family="'Calibri-Bold'" font-size="32.0001">Ac</text>
		<text transform="matrix(1.0003 0 0 1 -302.9492 604.541)" fill="#231F20" font-family="'Calibri-Bold'" font-size="9">Actin­ium</text>
	</g>
	<g>
		<g>
			<text transform="matrix(1.0003 0 0 1 -295.8955 552.4746)" fill="#231F20" font-family="'Calibri-Bold'" font-size="20">89</text>
		</g>
	</g>
</g>
<g>
	<g>
		<rect x="-243.437" y="534.269" fill="#CECAC8" width="76.72" height="76.699"/>
		<text transform="matrix(1.0003 0 0 1 -226.0469 588.4883)" fill="#231F20" font-family="'Calibri-Bold'" font-size="32.0001">Th</text>
		<text transform="matrix(1.0003 0 0 1 -222.3525 604.541)" fill="#231F20" font-family="'Calibri-Bold'" font-size="9">Thor­ium</text>
	</g>
	<g>
		<g>
			<text transform="matrix(1.0003 0 0 1 -216.3867 552.4746)" fill="#231F20" font-family="'Calibri-Bold'" font-size="20">90</text>
		</g>
	</g>
</g>
<g>
	<g>
		<rect x="-163.925" y="534.269" fill="#CECAC8" width="76.718" height="76.699"/>
		<text transform="matrix(1.0003 0 0 1 -146.417 588.4883)" fill="#231F20" font-family="'Calibri-Bold'" font-size="32.0001">Pa</text>
		<text transform="matrix(1.0003 0 0 1 -152.0313 604.541)" fill="#231F20" font-family="'Calibri-Bold'" font-size="9">Protac­tinium</text>
	</g>
	<g>
		<g>
			<text transform="matrix(1.0003 0 0 1 -136.874 552.4746)" fill="#231F20" font-family="'Calibri-Bold'" font-size="20">91</text>
		</g>
	</g>
</g>
<g>
	<g>
		<rect x="-84.417" y="534.269" fill="#CECAC8" width="76.721" height="76.699"/>
		<text transform="matrix(1.0003 0 0 1 -59.3281 588.4883)" fill="#231F20" font-family="'Calibri-Bold'" font-size="32.0001">U</text>
		<text transform="matrix(1.0003 0 0 1 -63.8906 604.541)" fill="#231F20" font-family="'Calibri-Bold'" font-size="9">Ura­nium</text>
	</g>
	<g>
		<g>
			<text transform="matrix(1.0003 0 0 1 -57.3652 552.4746)" fill="#231F20" font-family="'Calibri-Bold'" font-size="20">92</text>
		</g>
	</g>
</g>
<g>
	<g>
		<rect x="-4.905" y="534.269" fill="#CECAC8" width="76.723" height="76.699"/>
		<text transform="matrix(1.0003 0 0 1 9.1572 588.4883)" fill="#231F20" font-family="'Calibri-Bold'" font-size="32.0001">Np</text>
		<text transform="matrix(1.0003 0 0 1 10.3447 604.541)" fill="#231F20" font-family="'Calibri-Bold'" font-size="9">Neptu­nium</text>
	</g>
	<g>
		<g>
			<text transform="matrix(1.0003 0 0 1 22.1445 552.4746)" fill="#231F20" font-family="'Calibri-Bold'" font-size="20">93</text>
		</g>
	</g>
</g>
<g>
	<g>
		<rect x="74.603" y="534.269" fill="#CECAC8" width="76.721" height="76.699"/>
		<text transform="matrix(1.0003 0 0 1 91.2363 588.4883)" fill="#231F20" font-family="'Calibri-Bold'" font-size="32.0001">Pu</text>
		<text transform="matrix(1.0003 0 0 1 91.7285 604.541)" fill="#231F20" font-family="'Calibri-Bold'" font-size="9">Pluto­nium</text>
	</g>
	<g>
		<g>
			<text transform="matrix(1.0003 0 0 1 101.6533 552.4746)" fill="#231F20" font-family="'Calibri-Bold'" font-size="20">94</text>
		</g>
	</g>
</g>
<g>
	<g>
		<rect x="154.113" y="534.269" fill="#CECAC8" width="76.719" height="76.699"/>
		<text transform="matrix(1.0003 0 0 1 163.624 588.4883)" fill="#231F20" font-family="'Calibri-Bold'" font-size="32.0001">Am</text>
		<text transform="matrix(1.0003 0 0 1 170.2256 604.541)" fill="#231F20" font-family="'Calibri-Bold'" font-size="9">Ameri­cium</text>
	</g>
	<g>
		<g>
			<text transform="matrix(1.0003 0 0 1 181.1641 552.4746)" fill="#231F20" font-family="'Calibri-Bold'" font-size="20">95</text>
		</g>
	</g>
</g>
<g>
	<g>
		<rect x="233.624" y="534.269" fill="#CECAC8" width="76.72" height="76.699"/>
		<text transform="matrix(1.0003 0 0 1 244.6904 588.4883)" fill="#231F20" font-family="'Calibri-Bold'" font-size="32.0001">Cm</text>
		<text transform="matrix(1.0003 0 0 1 257.1621 604.541)" fill="#231F20" font-family="'Calibri-Bold'" font-size="9">Curium</text>
	</g>
	<g>
		<g>
			<text transform="matrix(1.0003 0 0 1 260.6699 552.4746)" fill="#231F20" font-family="'Calibri-Bold'" font-size="20">96</text>
		</g>
	</g>
</g>
<g>
	<g>
		<rect x="313.136" y="534.269" fill="#CECAC8" width="76.725" height="76.699"/>
		<text transform="matrix(1.0003 0 0 1 330.3428 588.4883)" fill="#231F20" font-family="'Calibri-Bold'" font-size="32.0001">Bk</text>
		<text transform="matrix(1.0003 0 0 1 330.6807 604.541)" fill="#231F20" font-family="'Calibri-Bold'" font-size="9">Berkel­ium</text>
	</g>
	<g>
		<g>
			<text transform="matrix(1.0003 0 0 1 340.1836 552.4746)" fill="#231F20" font-family="'Calibri-Bold'" font-size="20">97</text>
		</g>
	</g>
</g>
<g>
	<g>
		<rect x="392.643" y="534.269" fill="#CECAC8" width="76.72" height="76.699"/>
		<text transform="matrix(1.0003 0 0 1 413.8135 588.4883)" fill="#231F20" font-family="'Calibri-Bold'" font-size="32.0001">Cf</text>
		<text transform="matrix(1.0003 0 0 1 407.207 604.541)" fill="#231F20" font-family="'Calibri-Bold'" font-size="9">Califor­nium</text>
	</g>
	<g>
		<g>
			<text transform="matrix(1.0003 0 0 1 419.6924 552.4746)" fill="#231F20" font-family="'Calibri-Bold'" font-size="20">98</text>
		</g>
	</g>
</g>
<g>
	<g>
		<rect x="472.15" y="534.269" fill="#CECAC8" width="76.725" height="76.699"/>
		<text transform="matrix(1.0003 0 0 1 492.4902 588.4883)" fill="#231F20" font-family="'Calibri-Bold'" font-size="32.0001">Es</text>
		<text transform="matrix(1.0003 0 0 1 486.5137 604.541)" fill="#231F20" font-family="'Calibri-Bold'" font-size="9">Einstei­nium</text>
	</g>
	<g>
		<g>
			<text transform="matrix(1.0003 0 0 1 499.2031 552.4746)" fill="#231F20" font-family="'Calibri-Bold'" font-size="20">99</text>
		</g>
	</g>
</g>
<g>
	<g>
		<rect x="551.663" y="534.269" fill="#CECAC8" width="76.72" height="76.699"/>
		<text transform="matrix(1.0003 0 0 1 564.1611 588.4883)" fill="#231F20" font-family="'Calibri-Bold'" font-size="32.0001">Fm</text>
		<text transform="matrix(1.0003 0 0 1 571.7373 604.541)" fill="#231F20" font-family="'Calibri-Bold'" font-size="9">Fer­mium</text>
	</g>
	<g>
		<g>
			<text transform="matrix(1.0003 0 0 1 573.0547 552.4746)" fill="#231F20" font-family="'Calibri-Bold'" font-size="20">100</text>
		</g>
	</g>
</g>
<g>
	<g>
		<rect x="631.175" y="534.269" fill="#CECAC8" width="76.721" height="76.699"/>
		<text transform="matrix(1.0003 0 0 1 640.8604 588.4883)" fill="#231F20" font-family="'Calibri-Bold'" font-size="32.0001">Md</text>
		<text transform="matrix(1.0003 0 0 1 641.2617 604.541)" fill="#231F20" font-family="'Calibri-Bold'" font-size="9">Mende­levium</text>
	</g>
	<g>
		<g>
			<text transform="matrix(1.0003 0 0 1 652.5645 552.4746)" fill="#231F20" font-family="'Calibri-Bold'" font-size="20">101</text>
		</g>
	</g>
</g>
<g>
	<g>
		<rect x="710.684" y="534.269" fill="#CECAC8" width="76.72" height="76.699"/>
		<text transform="matrix(1.0003 0 0 1 724.7275 588.4883)" fill="#231F20" font-family="'Calibri-Bold'" font-size="32.0001">No</text>
		<text transform="matrix(1.0003 0 0 1 729.0439 604.541)" fill="#231F20" font-family="'Calibri-Bold'" font-size="9">Nobel­ium</text>
	</g>
	<g>
		<g>
			<text transform="matrix(1.0003 0 0 1 732.0752 552.4746)" fill="#231F20" font-family="'Calibri-Bold'" font-size="20">102</text>
		</g>
	</g>
</g>
<g>
	<g>
		<rect x="790.191" y="534.269" fill="#CECAC8" width="76.723" height="76.699"/>
		<text transform="matrix(1.0003 0 0 1 812.7324 588.4883)" fill="#231F20" font-family="'Calibri-Bold'" font-size="32.0001">Lr</text>
		<text transform="matrix(1.0003 0 0 1 803.7041 604.541)" fill="#231F20" font-family="'Calibri-Bold'" font-size="9">Lawren­cium</text>
	</g>
	<g>
		<g>
			<text transform="matrix(1.0003 0 0 1 811.5869 552.4746)" fill="#231F20" font-family="'Calibri-Bold'" font-size="20">103</text>
		</g>
	</g>
</g>
<g>
	<g>
		<rect x="-243.437" y="342.691" fill="#CECAC8" width="76.72" height="76.701"/>
		<text transform="matrix(1.0003 0 0 1 -222.9512 395.3477)" fill="#231F20" font-family="'Calibri-Bold'" font-size="32.0001">Rf</text>
		<text transform="matrix(1.0003 0 0 1 -235.3545 411.4023)" fill="#231F20" font-family="'Calibri-Bold'" font-size="9">Ruther­fordium</text>
	</g>
	<g>
		<g>
			<text transform="matrix(1.0003 0 0 1 -222.04 360.8984)" fill="#231F20" font-family="'Calibri-Bold'" font-size="20">104</text>
		</g>
	</g>
</g>
<g>
	<g>
		<rect x="-163.925" y="342.691" fill="#CECAC8" width="76.718" height="76.701"/>
		<text transform="matrix(1.0003 0 0 1 -149.2891 395.3477)" fill="#231F20" font-family="'Calibri-Bold'" font-size="32.0001">Db</text>
		<text transform="matrix(1.0003 0 0 1 -144.3848 411.4023)" fill="#231F20" font-family="'Calibri-Bold'" font-size="9">Dub­nium</text>
	</g>
	<g>
		<g>
			<text transform="matrix(1.0003 0 0 1 -142.5313 360.8984)" fill="#231F20" font-family="'Calibri-Bold'" font-size="20">105</text>
		</g>
	</g>
</g>
<g>
	<g>
		<rect x="-84.417" y="342.691" fill="#CECAC8" width="76.721" height="76.701"/>
		<text transform="matrix(1.0003 0 0 1 -65.3027 395.3477)" fill="#231F20" font-family="'Calibri-Bold'" font-size="32.0001">Sg</text>
		<text transform="matrix(1.0003 0 0 1 -70.4092 411.4023)" fill="#231F20" font-family="'Calibri-Bold'" font-size="9">Sea­borgium</text>
	</g>
	<g>
		<g>
			<text transform="matrix(1.0003 0 0 1 -63.0234 360.8984)" fill="#231F20" font-family="'Calibri-Bold'" font-size="20">106</text>
		</g>
	</g>
</g>
<g>
	<g>
		<rect x="-4.905" y="342.691" fill="#CECAC8" width="76.723" height="76.701"/>
		<text transform="matrix(1.0003 0 0 1 11.1543 395.3477)" fill="#231F20" font-family="'Calibri-Bold'" font-size="32.0001">Bh</text>
		<text transform="matrix(1.0003 0 0 1 15.8555 411.4023)" fill="#231F20" font-family="'Calibri-Bold'" font-size="9">Bohr­ium</text>
	</g>
	<g>
		<g>
			<text transform="matrix(1.0003 0 0 1 16.4873 360.8984)" fill="#231F20" font-family="'Calibri-Bold'" font-size="20">107</text>
		</g>
	</g>
</g>
<g>
	<g>
		<rect x="74.603" y="342.691" fill="#CECAC8" width="76.721" height="76.701"/>
		<text transform="matrix(1.0003 0 0 1 92.0313 395.3477)" fill="#231F20" font-family="'Calibri-Bold'" font-size="32.0001">Hs</text>
		<text transform="matrix(1.0003 0 0 1 95.6963 411.4023)" fill="#231F20" font-family="'Calibri-Bold'" font-size="9">Has­sium</text>
	</g>
	<g>
		<g>
			<text transform="matrix(1.0003 0 0 1 95.998 360.8984)" fill="#231F20" font-family="'Calibri-Bold'" font-size="20">108</text>
		</g>
	</g>
</g>
<g>
	<g>
		<rect x="154.113" y="342.691" fill="#CECAC8" width="76.719" height="76.701"/>
		<text transform="matrix(1.0003 0 0 1 167.6592 395.3477)" fill="#231F20" font-family="'Calibri-Bold'" font-size="32.0001">Mt</text>
		<text transform="matrix(1.0003 0 0 1 168.1592 411.4023)" fill="#231F20" font-family="'Calibri-Bold'" font-size="9">Meit­nerium</text>
	</g>
	<g>
		<g>
			<text transform="matrix(1.0003 0 0 1 175.5059 360.8984)" fill="#231F20" font-family="'Calibri-Bold'" font-size="20">109</text>
		</g>
	</g>
</g>
<g>
	<g>
		<rect x="233.624" y="342.691" fill="#CECAC8" width="76.72" height="76.701"/>
		<text transform="matrix(1.0003 0 0 1 251.0625 395.3477)" fill="#231F20" font-family="'Calibri-Bold'" font-size="32.0001">Ds</text>
		<text transform="matrix(1.0003 0 0 1 242.5801 411.4023)" fill="#231F20" font-family="'Calibri-Bold'" font-size="9">Darm­stadtium</text>
	</g>
	<g>
		<g>
			<text transform="matrix(1.0003 0 0 1 255.0156 360.8984)" fill="#231F20" font-family="'Calibri-Bold'" font-size="20">110</text>
		</g>
	</g>
</g>
<g>
	<g>
		<rect x="313.136" y="342.691" fill="#CECAC8" width="76.725" height="76.701"/>
		<text transform="matrix(1.0003 0 0 1 330.4102 395.3477)" fill="#231F20" font-family="'Calibri-Bold'" font-size="32.0001">Rg</text>
		<text transform="matrix(1.0003 0 0 1 324.0781 411.4023)" fill="#231F20" font-family="'Calibri-Bold'" font-size="9">Roent­genium</text>
	</g>
	<g>
		<g>
			<text transform="matrix(1.0003 0 0 1 334.5273 360.8984)" fill="#231F20" font-family="'Calibri-Bold'" font-size="20">111</text>
		</g>
	</g>
</g>
<g>
	<g>
		<rect x="392.643" y="342.691" fill="#CECAC8" width="76.72" height="76.701"/>
		<text transform="matrix(1.0003 0 0 1 409.3379 395.3477)" fill="#231F20" font-family="'Calibri-Bold'" font-size="32.0001">Cn</text>
		<text transform="matrix(1.0003 0 0 1 405.2402 411.4023)" fill="#231F20" font-family="'Calibri-Bold'" font-size="9">Coper­nicium</text>
	</g>
	<g>
		<g>
			<text transform="matrix(1.0003 0 0 1 414.0381 360.8984)" fill="#231F20" font-family="'Calibri-Bold'" font-size="20">112</text>
		</g>
	</g>
</g>
<g>
	<g>
		<rect x="472.15" y="342.691" fill="#CECAC8" width="76.725" height="76.701"/>
		<text transform="matrix(1.0003 0 0 1 479.29 396.9102)" fill="#231F20" font-family="'Calibri-Bold'" font-size="32.0001">Uut</text>
		<text transform="matrix(1.0003 0 0 1 488.1543 412.9629)" fill="#231F20" font-family="'Calibri-Bold'" font-size="9">Unun­trium</text>
	</g>
	<g>
		<g>
			<text transform="matrix(1.0003 0 0 1 493.5459 360.8984)" fill="#231F20" font-family="'Calibri-Bold'" font-size="20">113</text>
		</g>
	</g>
</g>
<g>
	<g>
		<rect x="551.663" y="342.691" fill="#CECAC8" width="76.72" height="76.701"/>
		<text transform="matrix(1.0003 0 0 1 575.7002 396.9102)" fill="#231F20" font-family="'Calibri-Bold'" font-size="32.0001">Fl</text>
		<text transform="matrix(1.0003 0 0 1 569.5762 412.9629)" fill="#231F20" font-family="'Calibri-Bold'" font-size="9">Flerov­ium</text>
	</g>
	<g>
		<g>
			<text transform="matrix(1.0003 0 0 1 573.0566 360.8984)" fill="#231F20" font-family="'Calibri-Bold'" font-size="20">114</text>
		</g>
	</g>
</g>
<g>
	<g>
		<rect x="631.175" y="342.691" fill="#CECAC8" width="76.721" height="76.701"/>
		<text transform="matrix(1.0003 0 0 1 634.4482 396.9102)" fill="#231F20" font-family="'Calibri-Bold'" font-size="32.0001">Uup</text>
		<text transform="matrix(1.0003 0 0 1 641.249 412.9629)" fill="#231F20" font-family="'Calibri-Bold'" font-size="9">Unun­pentium</text>
	</g>
	<g>
		<g>
			<text transform="matrix(1.0003 0 0 1 652.5645 360.8984)" fill="#231F20" font-family="'Calibri-Bold'" font-size="20">115</text>
		</g>
	</g>
</g>
<g>
	<g>
		<rect x="710.684" y="342.691" fill="#CECAC8" width="76.72" height="76.701"/>
		<text transform="matrix(1.0003 0 0 1 730.832 396.9102)" fill="#231F20" font-family="'Calibri-Bold'" font-size="32.0001">Lv</text>
		<text transform="matrix(1.0003 0 0 1 723.0654 412.9629)" fill="#231F20" font-family="'Calibri-Bold'" font-size="9">Liver­morium</text>
	</g>
	<g>
		<g>
			<text transform="matrix(1.0003 0 0 1 732.0752 360.8984)" fill="#231F20" font-family="'Calibri-Bold'" font-size="20">116</text>
		</g>
	</g>
</g>
<g>
	<g>
		<rect x="790.191" y="342.691" fill="#CECAC8" width="76.723" height="76.701"/>
		<text transform="matrix(1.0003 0 0 1 796.2646 395.3477)" fill="#231F20" font-family="'Calibri-Bold'" font-size="32.0001">Uus</text>
		<text transform="matrix(1.0003 0 0 1 800.9375 411.4023)" fill="#231F20" font-family="'Calibri-Bold'" font-size="9">Unun­septium</text>
	</g>
	<g>
		<g>
			<text transform="matrix(1.0003 0 0 1 811.5869 360.8984)" fill="#231F20" font-family="'Calibri-Bold'" font-size="20">117</text>
		</g>
	</g>
</g>
<g>
	<g>
		<rect x="869.706" y="342.691" fill="#CECAC8" width="76.72" height="76.701"/>
		<text transform="matrix(1.0003 0 0 1 872.958 395.3477)" fill="#231F20" font-family="'Calibri-Bold'" font-size="32.0001">Uuo</text>
		<text transform="matrix(1.0003 0 0 1 882.8096 411.4023)" fill="#231F20" font-family="'Calibri-Bold'" font-size="9">Unun­octium</text>
	</g>
	<g>
		<g>
			<text transform="matrix(1.0003 0 0 1 891.0977 360.8984)" fill="#231F20" font-family="'Calibri-Bold'" font-size="20">118</text>
		</g>
	</g>
</g>
<g>
	<g>
		<text transform="matrix(1.0003 0 0 1 -453.5322 -139.3159)" fill="#6D6B6B" font-family="'ArialMT'" font-size="21.8837">IA</text>
	</g>
	<g>
		<text transform="matrix(1.0003 0 0 1 -383.0859 -61.6782)" fill="#6D6B6B" font-family="'ArialMT'" font-size="21.8837">IIA</text>
	</g>
	<g>
		<text transform="matrix(1.0003 0 0 1 -302.2197 97.2378)" fill="#6D6B6B" font-family="'ArialMT'" font-size="21.8837">IIIB</text>
	</g>
	<g>
		<text transform="matrix(1.0003 0 0 1 -220.5732 97.2378)" fill="#6D6B6B" font-family="'ArialMT'" font-size="21.8837">IVB</text>
	</g>
	<g>
		<text transform="matrix(1.0003 0 0 1 -144.5664 97.2378)" fill="#6D6B6B" font-family="'ArialMT'" font-size="21.8837">VB</text>
	</g>
	<g>
		<text transform="matrix(1.0003 0 0 1 -63.5127 97.2378)" fill="#6D6B6B" font-family="'ArialMT'" font-size="21.8837">VIB</text>
	</g>
	<g>
		<text transform="matrix(1.0003 0 0 1 12.6543 97.2378)" fill="#6D6B6B" font-family="'ArialMT'" font-size="21.8837">VIIB</text>
	</g>
	<g>
		<text transform="matrix(1.0003 0 0 1 158.958 73.0093)" fill="#6D6B6B" font-family="'ArialMT'" font-size="21.8837">VIIIB</text>
	</g>
	<g>
		<text transform="matrix(1.0003 0 0 1 417.541 97.2378)" fill="#6D6B6B" font-family="'ArialMT'" font-size="21.8837">IIB</text>
	</g>
	<g>
		<text transform="matrix(1.0003 0 0 1 327.0586 97.2378)" fill="#6D6B6B" font-family="'ArialMT'" font-size="21.8837">IB</text>
	</g>
	<g>
		<text transform="matrix(1.0003 0 0 1 493.459 -60.6382)" fill="#6D6B6B" font-family="'ArialMT'" font-size="21.8837">IIIA</text>
	</g>
	<g>
		<text transform="matrix(1.0003 0 0 1 576.6719 -60.6382)" fill="#6D6B6B" font-family="'ArialMT'" font-size="21.8837">IVA</text>
	</g>
	<g>
		<text transform="matrix(1.0003 0 0 1 655.8037 -60.6382)" fill="#6D6B6B" font-family="'ArialMT'" font-size="21.8837">VA</text>
	</g>
	<g>
		<text transform="matrix(1.0003 0 0 1 728.3301 -60.6382)" fill="#6D6B6B" font-family="'ArialMT'" font-size="21.8837">VIA</text>
	</g>
	<g>
		<text transform="matrix(1.0003 0 0 1 800.3398 -60.6382)" fill="#6D6B6B" font-family="'ArialMT'" font-size="21.8837">VIIA</text>
	</g>
	<g>
		<text transform="matrix(1.0003 0 0 1 893.1934 -139.8335)" fill="#6D6B6B" font-family="'ArialMT'" font-size="21.8837">VIIIA</text>
	</g>
	<text transform="matrix(1.0003 0 0 1 -429.1055 471.5918)" fill="#231F20" font-family="'Calibri-Bold'" font-size="16.7348">Lanthanide</text>
	<text transform="matrix(1.0003 0 0 1 -392.7334 491.6738)" fill="#231F20" font-family="'Calibri-Bold'" font-size="16.7348">Series</text>
	<text transform="matrix(1.0003 0 0 1 -408.6777 550.1484)" fill="#231F20" font-family="'Calibri-Bold'" font-size="16.7348">Actinide</text>
	<text transform="matrix(1.0003 0 0 1 -392.7344 570.2305)" fill="#231F20" font-family="'Calibri-Bold'" font-size="16.7348">Series</text>
	<polyline fill="none" stroke="#6D6B6B" stroke-width="3.6138" stroke-miterlimit="10" points="102.573,103.551 102.573,83.603 
		274.354,83.603 274.354,104.374 	"/>
</g>
<g>
	<g>
		<rect x="-26.203" y="35.367" fill="#FFDD00" width="400" height="400"/>
		<text transform="matrix(1 0 0 1 21.7422 313.7266)" fill="#231F20" font-family="'Calibri-Bold'" font-size="211.9448">He</text>
		<g>
			<g>
				<text transform="matrix(1 0 0 1 141.7451 130.3159)" fill="#231F20" font-family="'Calibri-Bold'" font-size="80.0002">2</text>
			</g>
		</g>
	</g>
	<text transform="matrix(1 0 0 1 66.7422 391.7324)" fill="#231F20" font-family="'Calibri-Bold'" font-size="50.909">Helium</text>
</g>
</svg>
