selector,english_word,engmeaning,nepali_word,nepmeaning,image
Scenary,scenery,The surrounding environment that can be seen,दृष्यवली,प्रकृतिक दृष्य,
Northern Hemisphere,Northern Hemisphere,part of the earth that falls in the north of the equator,पृथ्वीको भुमध्य रेखाभन्दा उत्तरी भाग,,
Southern Hemisphere,Southern Hemisphere,part of the earth that falls in the south of the equator,पृथ्वीको भुमध्यरेखा भन्दा दक्षिणी भाग,,
Greenery,greenery,plants that make a place look attractive and beautiful,हरियाली,,
Bloom,bloom,"become attractive, healthy and full of energy","फुल फूल्नु, चमकदार हुनु",,
Frosty,frosty,when the temperature becomes less than 0 (degree sign) and the ground is cold and damp,तुसारो परेको जाडो दिन,,
Pleasant,pleasant,"nice, good",सुखद,,
View,view,something beautiful that can be seen,दृश्य ,,
Rice plantation,rice plantation,a large piece of land where rice is grown,ठुलो खेतमा धानको खेती गरिएको,,
Trekking,trekking,Journey by foot,ट्रेकिङ,पैदल यात्रा,
Monsoon rainfall,monsoon rainfall,a certain period in summer where there is a lot of rainfall,"वर्षा, झरी",,
Foggy,foggy,damp and cold,जाडो र कुहिरो लागेको,,
Bare ,bare,Naked,नाङ्गो,,
Sunflower,sunflower,a tall plant with large yellow flowers,सुर्यमुखी फुल,,
Harvested,harvest,Collecting crops,खेती,,
Marigolds,marigold,a type of yellow or orange flower that usually blooms during autumn,सयपत्री फुल,,
Pleasant,pleasant,nice and enjoyable,रमाइलो,,
