<?xml version="1.0" encoding="utf-8"?>
<!-- Generator: Adobe Illustrator 15.0.0, SVG Export Plug-In . SVG Version: 6.00 Build 0)  -->
<!DOCTYPE svg PUBLIC "-//W3C//DTD SVG 1.1//EN" "http://www.w3.org/Graphics/SVG/1.1/DTD/svg11.dtd">
<svg version="1.1" id="Layer_1" xmlns="http://www.w3.org/2000/svg" xmlns:xlink="http://www.w3.org/1999/xlink" x="0px" y="0px"
	 width="982px" height="581px" viewBox="0 0 982 581" enable-background="new 0 0 982 581" xml:space="preserve">
<text transform="matrix(1 0 0 1 11.7798 109.9678)" fill="#231F20" font-family="'Calibri-Bold'" font-size="24.706">1</text>
<text transform="matrix(1 0 0 1 11.7798 164.9678)" fill="#231F20" font-family="'Calibri-Bold'" font-size="24.706">2</text>
<text transform="matrix(1 0 0 1 11.7798 213.9678)" fill="#231F20" font-family="'Calibri-Bold'" font-size="24.706">3</text>
<text transform="matrix(1 0 0 1 11.7798 264.9678)" fill="#231F20" font-family="'Calibri-Bold'" font-size="24.706">4</text>
<text transform="matrix(1 0 0 1 11.7798 311.9673)" fill="#231F20" font-family="'Calibri-Bold'" font-size="24.706">5</text>
<text transform="matrix(1 0 0 1 11.7798 361.9673)" fill="#231F20" font-family="'Calibri-Bold'" font-size="24.706">6</text>
<text transform="matrix(1 0 0 1 11.7798 415.9673)" fill="#231F20" font-family="'Calibri-Bold'" font-size="24.706">7</text>
<!--<rect x="326.085" y="73.706" fill="#FFF0A5" width="110.998" height="111.885"/>-->
<!--<text transform="matrix(1 0 0 1 331.3115 108.688)"><tspan x="0" y="0" font-family="'Calibri-Bold'" font-size="18.3546">Proton: 1</tspan><tspan x="0" y="26.451" font-family="'Calibri-Bold'" font-size="18.3546">Neutron: 000</tspan><tspan x="0" y="52.902" font-family="'Calibri-Bold'" font-size="18.3546">Electron: 1</tspan></text>-->

<!--
<g>
	<rect x="190.917" y="41.376" fill="#FFF0A5" width="129.519" height="144.215"/>
	<rect x="190.917" y="41.376" fill="#E7DB97" width="129.519" height="31.157"/>
	<text transform="matrix(1 0 0 1 232.9307 128.6265)" fill="#231F20" font-family="'Calibri-Bold'" font-size="72.1074">H</text>
	<text transform="matrix(1 0 0 1 248.79 65.4849)" fill="#231F20" font-family="'Calibri-Bold'" font-size="27.1717">1</text>
	<g>
		<text transform="matrix(1 0 0 1 200.5723 167.9097)" fill="#231F20" font-family="'Calibri-Bold'" font-size="18.3546">Darm­stadtium</text>
	</g>
</g>
-->
<g>
	<g>
		<rect x="34.912" y="77.913" fill="#DADFA1" width="50.193" height="50.179"/>
		<text transform="matrix(1.0003 0 0 1 51.6182 112.8315)" fill="#231F20" font-family="'Calibri-Bold'" font-size="26.5879">H</text>
		<g>
			<g>
				<text transform="matrix(1.0003 0 0 1 56.3066 89.8237)" fill="#231F20" font-family="'Calibri-Bold'" font-size="14.5974">1</text>
			</g>
		</g>
	</g>
	<text transform="matrix(1.0003 0 0 1 47.0762 121.5073)" fill="#231F20" font-family="'Calibri-Bold'" font-size="6.3864">Hydro­gen</text>
</g>
<g>
	<g>
		<rect x="919.332" y="77.913" fill="#DADFA1" width="50.188" height="50.179"/>
		<text transform="matrix(1.0003 0 0 1 929.3418 112.3599)" fill="#231F20" font-family="'Calibri-Bold'" font-size="26.5879">He</text>
		<text transform="matrix(1.0003 0 0 1 934.8604 122.8628)" fill="#231F20" font-family="'Calibri-Bold'" font-size="6.3864">Helium</text>
	</g>
	<g>
		<g>
			<text transform="matrix(1.0003 0 0 1 940.7256 89.8237)" fill="#231F20" font-family="'Calibri-Bold'" font-size="14.5974">2</text>
		</g>
	</g>
</g>
<g>
	<rect x="87.067" y="129.916" fill="#DADFA1" width="50.191" height="50.179"/>
	<text transform="matrix(1.0003 0 0 1 98.0146 164.3638)" fill="#231F20" font-family="'Calibri-Bold'" font-size="26.5879">Be</text>
	<text transform="matrix(1.0003 0 0 1 99.3896 174.8647)" fill="#231F20" font-family="'Calibri-Bold'" font-size="6.3864">Beryl­lium</text>
	<g>
		<g>
			<text transform="matrix(1.0003 0 0 1 108.4639 141.8257)" fill="#231F20" font-family="'Calibri-Bold'" font-size="14.5974">4</text>
		</g>
	</g>
</g>
<g>
	<g>
		<rect x="711.266" y="129.916" fill="#DADFA1" width="50.189" height="50.179"/>
		<text transform="matrix(1.0003 0 0 1 729.3203 164.3638)" fill="#231F20" font-family="'Calibri-Bold'" font-size="26.5879">C</text>
		<text transform="matrix(1.0003 0 0 1 726.752 174.8647)" fill="#231F20" font-family="'Calibri-Bold'" font-size="6.3864">Carbon</text>
	</g>
	<g>
		<g>
			<text transform="matrix(1.0003 0 0 1 732.6602 141.8257)" fill="#231F20" font-family="'Calibri-Bold'" font-size="14.5974">6</text>
		</g>
	</g>
</g>
<g>
	<g>
		<rect x="763.28" y="129.916" fill="#DADFA1" width="50.194" height="50.179"/>
		<text transform="matrix(1.0003 0 0 1 779.6152 164.3638)" fill="#231F20" font-family="'Calibri-Bold'" font-size="26.5879">N</text>
		<text transform="matrix(1.0003 0 0 1 776.6299 174.8647)" fill="#231F20" font-family="'Calibri-Bold'" font-size="6.3864">Nitro­gen</text>
	</g>
	<g>
		<g>
			<text transform="matrix(1.0003 0 0 1 784.6758 141.8257)" fill="#231F20" font-family="'Calibri-Bold'" font-size="14.5974">7</text>
		</g>
	</g>
</g>
<g>
	<g>
		<rect x="815.298" y="129.916" fill="#DADFA1" width="50.19" height="50.179"/>
		<text transform="matrix(1.0003 0 0 1 831.3984 164.3638)" fill="#231F20" font-family="'Calibri-Bold'" font-size="26.5879">O</text>
		<text transform="matrix(1.0003 0 0 1 830.3555 174.8647)" fill="#231F20" font-family="'Calibri-Bold'" font-size="6.3864">Oxy­gen</text>
	</g>
	<g>
		<g>
			<text transform="matrix(1.0003 0 0 1 836.6924 141.8257)" fill="#231F20" font-family="'Calibri-Bold'" font-size="14.5974">8</text>
		</g>
	</g>
</g>
<g>
	<g>
		<rect x="867.313" y="129.916" fill="#DADFA1" width="50.191" height="50.179"/>
		<text transform="matrix(1.0003 0 0 1 886.3047 164.3638)" fill="#231F20" font-family="'Calibri-Bold'" font-size="26.5879">F</text>
		<text transform="matrix(1.0003 0 0 1 881.4258 174.8647)" fill="#231F20" font-family="'Calibri-Bold'" font-size="6.3864">Fluor­ine</text>
	</g>
	<g>
		<g>
			<text transform="matrix(1.0003 0 0 1 888.71 141.8257)" fill="#231F20" font-family="'Calibri-Bold'" font-size="14.5974">9</text>
		</g>
	</g>
</g>
<g>
	<g>
		<rect x="919.332" y="129.916" fill="#DADFA1" width="50.188" height="50.179"/>
		<text transform="matrix(1.0003 0 0 1 928.9717 164.3638)" fill="#231F20" font-family="'Calibri-Bold'" font-size="26.5879">Ne</text>
		<text transform="matrix(1.0003 0 0 1 937.2217 174.8647)" fill="#231F20" font-family="'Calibri-Bold'" font-size="6.3864">Neon</text>
	</g>
	<g>
		<g>
			<text transform="matrix(1.0003 0 0 1 937.0254 141.8257)" fill="#231F20" font-family="'Calibri-Bold'" font-size="14.5974">10</text>
		</g>
	</g>
</g>
<g>
	<rect x="87.067" y="181.917" fill="#DADFA1" width="50.191" height="50.182"/>
	<text transform="matrix(1.0003 0 0 1 94.2354 216.3667)" fill="#231F20" font-family="'Calibri-Bold'" font-size="26.5879">Mg</text>
	<text transform="matrix(1.0003 0 0 1 96.5264 226.8687)" fill="#231F20" font-family="'Calibri-Bold'" font-size="6.3864">Magne­sium</text>
	<g>
		<g>
			<text transform="matrix(1.0003 0 0 1 104.7637 193.8286)" fill="#231F20" font-family="'Calibri-Bold'" font-size="14.5974">12</text>
		</g>
	</g>
</g>
<g>
	<g>
		<rect x="659.246" y="181.917" fill="#DADFA1" width="50.192" height="50.182"/>
		<text transform="matrix(1.0003 0 0 1 673.0195 217.3892)" fill="#231F20" font-family="'Calibri-Bold'" font-size="26.5879">Al</text>
		<text transform="matrix(1.0003 0 0 1 669.6553 227.8921)" fill="#231F20" font-family="'Calibri-Bold'" font-size="6.3864">Alumin­ium</text>
	</g>
	<g>
		<g>
			<text transform="matrix(1.0003 0 0 1 676.9434 193.8286)" fill="#231F20" font-family="'Calibri-Bold'" font-size="14.5974">13</text>
		</g>
	</g>
</g>
<g>
	<g>
		<rect x="763.28" y="181.917" fill="#DADFA1" width="50.194" height="50.182"/>
		<text transform="matrix(1.0003 0 0 1 781.2969 216.3667)" fill="#231F20" font-family="'Calibri-Bold'" font-size="26.5879">P</text>
		<text transform="matrix(1.0003 0 0 1 772.6416 226.8687)" fill="#231F20" font-family="'Calibri-Bold'" font-size="6.3864">Phos­phorus</text>
	</g>
	<g>
		<g>
			<text transform="matrix(1.0003 0 0 1 780.9766 193.8286)" fill="#231F20" font-family="'Calibri-Bold'" font-size="14.5974">15</text>
		</g>
	</g>
</g>
<g>
	<g>
		<rect x="815.298" y="181.917" fill="#DADFA1" width="50.19" height="50.182"/>
		<text transform="matrix(1.0003 0 0 1 834.1064 216.3667)" fill="#231F20" font-family="'Calibri-Bold'" font-size="26.5879">S</text>
		<text transform="matrix(1.0003 0 0 1 832.4648 226.8687)" fill="#231F20" font-family="'Calibri-Bold'" font-size="6.3864">Sulfur</text>
	</g>
	<g>
		<g>
			<text transform="matrix(1.0003 0 0 1 832.9922 193.8286)" fill="#231F20" font-family="'Calibri-Bold'" font-size="14.5974">16</text>
		</g>
	</g>
</g>
<g>
	<g>
		<rect x="867.313" y="181.917" fill="#DADFA1" width="50.191" height="50.182"/>
		<text transform="matrix(1.0003 0 0 1 882.1045 216.3667)" fill="#231F20" font-family="'Calibri-Bold'" font-size="26.5879">Cl</text>
		<text transform="matrix(1.0003 0 0 1 881.2012 226.8687)" fill="#231F20" font-family="'Calibri-Bold'" font-size="6.3864">Chlor­ine</text>
	</g>
	<g>
		<g>
			<text transform="matrix(1.0003 0 0 1 885.0098 193.8286)" fill="#231F20" font-family="'Calibri-Bold'" font-size="14.5974">17</text>
		</g>
	</g>
</g>
<g>
	<g>
		<rect x="919.332" y="181.917" fill="#DADFA1" width="50.188" height="50.182"/>
		<text transform="matrix(1.0003 0 0 1 931.6396 216.3667)" fill="#231F20" font-family="'Calibri-Bold'" font-size="26.5879">Ar</text>
		<text transform="matrix(1.0003 0 0 1 936.3486 226.8687)" fill="#231F20" font-family="'Calibri-Bold'" font-size="6.3864">Argon</text>
	</g>
	<g>
		<g>
			<text transform="matrix(1.0003 0 0 1 937.0254 193.8286)" fill="#231F20" font-family="'Calibri-Bold'" font-size="14.5974">18</text>
		</g>
	</g>
</g>
<g>
	<rect x="87.067" y="233.922" fill="#DADFA1" width="50.191" height="50.181"/>
	<text transform="matrix(1.0003 0 0 1 98.5596 268.3696)" fill="#231F20" font-family="'Calibri-Bold'" font-size="26.5879">Ca</text>
	<text transform="matrix(1.0003 0 0 1 101.6172 278.8726)" fill="#231F20" font-family="'Calibri-Bold'" font-size="6.3864">Cal­cium</text>
	<g>
		<g>
			<text transform="matrix(1.0003 0 0 1 104.7637 245.8325)" fill="#231F20" font-family="'Calibri-Bold'" font-size="14.5974">20</text>
		</g>
	</g>
</g>
<g>
	<g>
		<rect x="139.084" y="233.922" fill="#DADFA1" width="50.192" height="50.181"/>
		<text transform="matrix(1.0003 0 0 1 152.3271 268.3696)" fill="#231F20" font-family="'Calibri-Bold'" font-size="26.5879">Sc</text>
		<text transform="matrix(1.0003 0 0 1 151.1699 278.8726)" fill="#231F20" font-family="'Calibri-Bold'" font-size="6.3864">Scan­dium</text>
	</g>
	<g>
		<g>
			<text transform="matrix(1.0003 0 0 1 156.7803 245.8325)" fill="#231F20" font-family="'Calibri-Bold'" font-size="14.5974">21</text>
		</g>
	</g>
</g>
<g>
	<g>
		<rect x="191.101" y="233.922" fill="#DADFA1" width="50.19" height="50.181"/>
		<text transform="matrix(1.0003 0 0 1 206.3457 268.3696)" fill="#231F20" font-family="'Calibri-Bold'" font-size="26.5879">Ti</text>
		<text transform="matrix(1.0003 0 0 1 204.2754 278.8726)" fill="#231F20" font-family="'Calibri-Bold'" font-size="6.3864">Tita­nium</text>
	</g>
	<g>
		<g>
			<text transform="matrix(1.0003 0 0 1 208.7969 245.8325)" fill="#231F20" font-family="'Calibri-Bold'" font-size="14.5974">22</text>
		</g>
	</g>
</g>
<g>
	<g>
		<rect x="243.117" y="233.922" fill="#DADFA1" width="50.19" height="50.181"/>
		<text transform="matrix(1.0003 0 0 1 260.3467 268.3696)" fill="#231F20" font-family="'Calibri-Bold'" font-size="26.5879">V</text>
		<text transform="matrix(1.0003 0 0 1 254.585 278.8726)" fill="#231F20" font-family="'Calibri-Bold'" font-size="6.3864">Vana­dium</text>
	</g>
	<g>
		<g>
			<text transform="matrix(1.0003 0 0 1 260.8125 245.8325)" fill="#231F20" font-family="'Calibri-Bold'" font-size="14.5974">23</text>
		</g>
	</g>
</g>
<g>
	<g>
		<rect x="295.134" y="233.922" fill="#DADFA1" width="50.19" height="50.181"/>
		<text transform="matrix(1.0003 0 0 1 308.4619 268.3696)" fill="#231F20" font-family="'Calibri-Bold'" font-size="26.5879">Cr</text>
		<text transform="matrix(1.0003 0 0 1 306.2168 278.8726)" fill="#231F20" font-family="'Calibri-Bold'" font-size="6.3864">Chrom­ium</text>
	</g>
	<g>
		<g>
			<text transform="matrix(1.0003 0 0 1 312.8291 245.8325)" fill="#231F20" font-family="'Calibri-Bold'" font-size="14.5974">24</text>
		</g>
	</g>
</g>
<g>
	<g>
		<rect x="347.149" y="233.922" fill="#DADFA1" width="50.194" height="50.181"/>
		<text transform="matrix(1.0003 0 0 1 353.4863 268.3696)" fill="#231F20" font-family="'Calibri-Bold'" font-size="26.5879">Mn</text>
		<text transform="matrix(1.0003 0 0 1 356.8066 278.8726)" fill="#231F20" font-family="'Calibri-Bold'" font-size="6.3864">Manga­nese</text>
	</g>
	<g>
		<g>
			<text transform="matrix(1.0003 0 0 1 364.8447 245.8325)" fill="#231F20" font-family="'Calibri-Bold'" font-size="14.5974">25</text>
		</g>
	</g>
</g>
<g>
	<g>
		<rect x="399.166" y="233.922" fill="#DADFA1" width="50.191" height="50.181"/>
		<text transform="matrix(1.0003 0 0 1 411.4619 268.3696)" fill="#231F20" font-family="'Calibri-Bold'" font-size="26.5879">Fe</text>
		<text transform="matrix(1.0003 0 0 1 418.7822 278.8726)" fill="#231F20" font-family="'Calibri-Bold'" font-size="6.3864">Iron</text>
	</g>
	<g>
		<g>
			<text transform="matrix(1.0003 0 0 1 416.8623 245.8325)" fill="#231F20" font-family="'Calibri-Bold'" font-size="14.5974">26</text>
		</g>
	</g>
</g>
<g>
	<g>
		<rect x="451.183" y="233.922" fill="#DADFA1" width="50.191" height="50.181"/>
		<text transform="matrix(1.0003 0 0 1 462.0889 268.3696)" fill="#231F20" font-family="'Calibri-Bold'" font-size="26.5879">Co</text>
		<text transform="matrix(1.0003 0 0 1 467.627 278.8726)" fill="#231F20" font-family="'Calibri-Bold'" font-size="6.3864">Cobalt</text>
	</g>
	<g>
		<g>
			<text transform="matrix(1.0003 0 0 1 468.877 245.8325)" fill="#231F20" font-family="'Calibri-Bold'" font-size="14.5974">27</text>
		</g>
	</g>
</g>
<g>
	<g>
		<rect x="503.199" y="233.922" fill="#DADFA1" width="50.189" height="50.181"/>
		<text transform="matrix(1.0003 0 0 1 516.2676 268.3696)" fill="#231F20" font-family="'Calibri-Bold'" font-size="26.5879">Ni</text>
		<text transform="matrix(1.0003 0 0 1 520.084 278.8726)" fill="#231F20" font-family="'Calibri-Bold'" font-size="6.3864">Nickel</text>
	</g>
	<g>
		<g>
			<text transform="matrix(1.0003 0 0 1 520.8936 245.8325)" fill="#231F20" font-family="'Calibri-Bold'" font-size="14.5974">28</text>
		</g>
	</g>
</g>
<g>
	<g>
		<rect x="555.216" y="233.922" fill="#DADFA1" width="50.193" height="50.181"/>
		<text transform="matrix(1.0003 0 0 1 566.1348 268.3696)" fill="#231F20" font-family="'Calibri-Bold'" font-size="26.5879">Cu</text>
		<text transform="matrix(1.0003 0 0 1 570.6699 278.8726)" fill="#231F20" font-family="'Calibri-Bold'" font-size="6.3864">Copper</text>
	</g>
	<g>
		<g>
			<text transform="matrix(1.0003 0 0 1 572.9102 245.8325)" fill="#231F20" font-family="'Calibri-Bold'" font-size="14.5974">29</text>
		</g>
	</g>
</g>
<g>
	<g>
		<rect x="607.231" y="233.922" fill="#DADFA1" width="50.191" height="50.181"/>
		<text transform="matrix(1.0003 0 0 1 618.834 268.3696)" fill="#231F20" font-family="'Calibri-Bold'" font-size="26.5879">Zn</text>
		<text transform="matrix(1.0003 0 0 1 626.9053 278.8726)" fill="#231F20" font-family="'Calibri-Bold'" font-size="6.3864">Zinc</text>
	</g>
	<g>
		<g>
			<text transform="matrix(1.0003 0 0 1 624.9268 245.8325)" fill="#231F20" font-family="'Calibri-Bold'" font-size="14.5974">30</text>
		</g>
	</g>
</g>
<g>
	<g>
		<rect x="659.246" y="233.922" fill="#DADFA1" width="50.192" height="50.181"/>
		<text transform="matrix(1.0003 0 0 1 669.3047 269.3921)" fill="#231F20" font-family="'Calibri-Bold'" font-size="26.5879">Ga</text>
		<text transform="matrix(1.0003 0 0 1 674.0059 279.895)" fill="#231F20" font-family="'Calibri-Bold'" font-size="6.3864">Gallium</text>
	</g>
	<g>
		<g>
			<text transform="matrix(1.0003 0 0 1 676.9434 245.8325)" fill="#231F20" font-family="'Calibri-Bold'" font-size="14.5974">31</text>
		</g>
	</g>
</g>
<g>
	<g>
		<rect x="815.298" y="233.922" fill="#DADFA1" width="50.19" height="50.181"/>
		<text transform="matrix(1.0003 0 0 1 827.4121 268.3696)" fill="#231F20" font-family="'Calibri-Bold'" font-size="26.5879">Se</text>
		<text transform="matrix(1.0003 0 0 1 828.0107 278.8726)" fill="#231F20" font-family="'Calibri-Bold'" font-size="6.3864">Sele­nium</text>
	</g>
	<g>
		<g>
			<text transform="matrix(1.0003 0 0 1 832.9922 245.8325)" fill="#231F20" font-family="'Calibri-Bold'" font-size="14.5974">34</text>
		</g>
	</g>
</g>
<g>
	<g>
		<rect x="867.313" y="233.922" fill="#DADFA1" width="50.191" height="50.181"/>
		<text transform="matrix(1.0003 0 0 1 880.2256 268.3696)" fill="#231F20" font-family="'Calibri-Bold'" font-size="26.5879">Br</text>
		<text transform="matrix(1.0003 0 0 1 881.002 278.8726)" fill="#231F20" font-family="'Calibri-Bold'" font-size="6.3864">Bromine</text>
	</g>
	<g>
		<g>
			<text transform="matrix(1.0003 0 0 1 885.0098 245.8325)" fill="#231F20" font-family="'Calibri-Bold'" font-size="14.5974">35</text>
		</g>
	</g>
</g>
<g>
	<g>
		<rect x="919.332" y="233.922" fill="#DADFA1" width="50.188" height="50.181"/>
		<text transform="matrix(1.0003 0 0 1 932.4258 268.3696)" fill="#231F20" font-family="'Calibri-Bold'" font-size="26.5879">Kr</text>
		<text transform="matrix(1.0003 0 0 1 933.7178 278.8726)" fill="#231F20" font-family="'Calibri-Bold'" font-size="6.3864">Kryp­ton</text>
	</g>
	<g>
		<g>
			<text transform="matrix(1.0003 0 0 1 937.0254 245.8325)" fill="#231F20" font-family="'Calibri-Bold'" font-size="14.5974">36</text>
		</g>
	</g>
</g>
<g>
	<rect x="87.067" y="285.925" fill="#DADFA1" width="50.191" height="50.179"/>
	<text transform="matrix(1.0003 0 0 1 101.1494 320.3726)" fill="#231F20" font-family="'Calibri-Bold'" font-size="26.5879">Sr</text>
	<text transform="matrix(1.0003 0 0 1 98.7373 330.8765)" fill="#231F20" font-family="'Calibri-Bold'" font-size="6.3864">Stront­ium</text>
	<g>
		<g>
			<text transform="matrix(1.0003 0 0 1 104.7637 297.8374)" fill="#231F20" font-family="'Calibri-Bold'" font-size="14.5974">38</text>
		</g>
	</g>
</g>
<g>
	<g>
		<rect x="139.084" y="285.925" fill="#DADFA1" width="50.192" height="50.179"/>
		<text transform="matrix(1.0003 0 0 1 157.2695 320.3726)" fill="#231F20" font-family="'Calibri-Bold'" font-size="26.5879">Y</text>
		<text transform="matrix(1.0003 0 0 1 154.1309 330.8765)" fill="#231F20" font-family="'Calibri-Bold'" font-size="6.3864">Yttrium</text>
	</g>
	<g>
		<g>
			<text transform="matrix(1.0003 0 0 1 156.7803 297.8374)" fill="#231F20" font-family="'Calibri-Bold'" font-size="14.5974">39</text>
		</g>
	</g>
</g>
<g>
	<g>
		<rect x="191.101" y="285.925" fill="#DADFA1" width="50.19" height="50.179"/>
		<text transform="matrix(1.0003 0 0 1 205.1123 320.3726)" fill="#231F20" font-family="'Calibri-Bold'" font-size="26.5879">Zr</text>
		<text transform="matrix(1.0003 0 0 1 202.8252 330.8765)" fill="#231F20" font-family="'Calibri-Bold'" font-size="6.3864">Zirco­nium</text>
	</g>
	<g>
		<g>
			<text transform="matrix(1.0003 0 0 1 208.7969 297.8374)" fill="#231F20" font-family="'Calibri-Bold'" font-size="14.5974">40</text>
		</g>
	</g>
</g>
<g>
	<g>
		<rect x="243.117" y="285.925" fill="#DADFA1" width="50.19" height="50.179"/>
		<text transform="matrix(1.0003 0 0 1 252.3145 320.3726)" fill="#231F20" font-family="'Calibri-Bold'" font-size="26.5879">Nb</text>
		<text transform="matrix(1.0003 0 0 1 256.7363 330.8765)" fill="#231F20" font-family="'Calibri-Bold'" font-size="6.3864">Nio­bium</text>
	</g>
	<g>
		<g>
			<text transform="matrix(1.0003 0 0 1 260.8125 297.8374)" fill="#231F20" font-family="'Calibri-Bold'" font-size="14.5974">41</text>
		</g>
	</g>
</g>
<g>
	<g>
		<rect x="295.134" y="285.925" fill="#DADFA1" width="50.19" height="50.179"/>
		<text transform="matrix(1.0003 0 0 1 301.4561 320.3726)" fill="#231F20" font-family="'Calibri-Bold'" font-size="26.5879">Mo</text>
		<text transform="matrix(1.0003 0 0 1 302.3008 330.8765)" fill="#231F20" font-family="'Calibri-Bold'" font-size="6.3864">Molyb­denum</text>
	</g>
	<g>
		<g>
			<text transform="matrix(1.0003 0 0 1 312.8291 297.8374)" fill="#231F20" font-family="'Calibri-Bold'" font-size="14.5974">42</text>
		</g>
	</g>
</g>
<g>
	<g>
		<rect x="347.149" y="285.925" fill="#DADFA1" width="50.194" height="50.179"/>
		<text transform="matrix(1.0003 0 0 1 360.0967 320.3726)" fill="#231F20" font-family="'Calibri-Bold'" font-size="26.5879">Tc</text>
		<text transform="matrix(1.0003 0 0 1 356.4404 330.8765)" fill="#231F20" font-family="'Calibri-Bold'" font-size="6.3864">Tech­netium</text>
	</g>
	<g>
		<g>
			<text transform="matrix(1.0003 0 0 1 364.8447 297.8374)" fill="#231F20" font-family="'Calibri-Bold'" font-size="14.5974">43</text>
		</g>
	</g>
</g>
<g>
	<g>
		<rect x="399.166" y="285.925" fill="#DADFA1" width="50.191" height="50.179"/>
		<text transform="matrix(1.0003 0 0 1 409.6377 320.3726)" fill="#231F20" font-family="'Calibri-Bold'" font-size="26.5879">Ru</text>
		<text transform="matrix(1.0003 0 0 1 409.4502 330.8765)" fill="#231F20" font-family="'Calibri-Bold'" font-size="6.3864">Ruthe­nium</text>
	</g>
	<g>
		<g>
			<text transform="matrix(1.0003 0 0 1 416.8623 297.8374)" fill="#231F20" font-family="'Calibri-Bold'" font-size="14.5974">44</text>
		</g>
	</g>
</g>
<g>
	<g>
		<rect x="451.183" y="285.925" fill="#DADFA1" width="50.191" height="50.179"/>
		<text transform="matrix(1.0003 0 0 1 461.6533 320.3726)" fill="#231F20" font-family="'Calibri-Bold'" font-size="26.5879">Rh</text>
		<text transform="matrix(1.0003 0 0 1 464.1777 330.8765)" fill="#231F20" font-family="'Calibri-Bold'" font-size="6.3864">Rho­dium</text>
	</g>
	<g>
		<g>
			<text transform="matrix(1.0003 0 0 1 468.877 297.8374)" fill="#231F20" font-family="'Calibri-Bold'" font-size="14.5974">45</text>
		</g>
	</g>
</g>
<g>
	<g>
		<rect x="503.199" y="285.925" fill="#DADFA1" width="50.189" height="50.179"/>
		<text transform="matrix(1.0003 0 0 1 514.0791 320.3726)" fill="#231F20" font-family="'Calibri-Bold'" font-size="26.5879">Pd</text>
		<text transform="matrix(1.0003 0 0 1 515.001 330.8765)" fill="#231F20" font-family="'Calibri-Bold'" font-size="6.3864">Pallad­ium</text>
	</g>
	<g>
		<g>
			<text transform="matrix(1.0003 0 0 1 520.8936 297.8374)" fill="#231F20" font-family="'Calibri-Bold'" font-size="14.5974">46</text>
		</g>
	</g>
</g>
<g>
	<g>
		<rect x="555.216" y="285.925" fill="#DADFA1" width="50.193" height="50.179"/>
		<text transform="matrix(1.0003 0 0 1 565.9473 320.3726)" fill="#231F20" font-family="'Calibri-Bold'" font-size="26.5879">Ag</text>
		<text transform="matrix(1.0003 0 0 1 572.918 330.8765)" fill="#231F20" font-family="'Calibri-Bold'" font-size="6.3864">Silver</text>
	</g>
	<g>
		<g>
			<text transform="matrix(1.0003 0 0 1 572.9102 297.8374)" fill="#231F20" font-family="'Calibri-Bold'" font-size="14.5974">47</text>
		</g>
	</g>
</g>
<g>
	<g>
		<rect x="607.231" y="285.925" fill="#DADFA1" width="50.191" height="50.179"/>
		<text transform="matrix(1.0003 0 0 1 618.1523 320.3726)" fill="#231F20" font-family="'Calibri-Bold'" font-size="26.5879">Cd</text>
		<text transform="matrix(1.0003 0 0 1 619.5918 330.8765)" fill="#231F20" font-family="'Calibri-Bold'" font-size="6.3864">Cad­mium</text>
	</g>
	<g>
		<g>
			<text transform="matrix(1.0003 0 0 1 624.9268 297.8374)" fill="#231F20" font-family="'Calibri-Bold'" font-size="14.5974">48</text>
		</g>
	</g>
</g>
<g>
	<g>
		<rect x="659.246" y="285.925" fill="#DADFA1" width="50.192" height="50.179"/>
		<text transform="matrix(1.0003 0 0 1 673.6621 321.395)" fill="#231F20" font-family="'Calibri-Bold'" font-size="26.5879">In</text>
		<text transform="matrix(1.0003 0 0 1 674.9063 331.8989)" fill="#231F20" font-family="'Calibri-Bold'" font-size="6.3864">Indium</text>
	</g>
	<g>
		<g>
			<text transform="matrix(1.0003 0 0 1 676.9434 297.8374)" fill="#231F20" font-family="'Calibri-Bold'" font-size="14.5974">49</text>
		</g>
	</g>
</g>
<g>
	<g>
		<rect x="711.266" y="285.925" fill="#DADFA1" width="50.189" height="50.179"/>
		<text transform="matrix(1.0003 0 0 1 722.9375 321.395)" fill="#231F20" font-family="'Calibri-Bold'" font-size="26.5879">Sn</text>
		<text transform="matrix(1.0003 0 0 1 732.2197 331.8989)" fill="#231F20" font-family="'Calibri-Bold'" font-size="6.3864">Tin</text>
	</g>
	<g>
		<g>
			<text transform="matrix(1.0003 0 0 1 728.9609 297.8374)" fill="#231F20" font-family="'Calibri-Bold'" font-size="14.5974">50</text>
		</g>
	</g>
</g>
<g>
	<g>
		<rect x="867.313" y="285.925" fill="#DADFA1" width="50.191" height="50.179"/>
		<text transform="matrix(1.0003 0 0 1 888.8623 320.3726)" fill="#231F20" font-family="'Calibri-Bold'" font-size="26.5879">I</text>
		<text transform="matrix(1.0003 0 0 1 883.959 330.8765)" fill="#231F20" font-family="'Calibri-Bold'" font-size="6.3864">Iodine</text>
	</g>
	<g>
		<g>
			<text transform="matrix(1.0003 0 0 1 885.0098 297.8374)" fill="#231F20" font-family="'Calibri-Bold'" font-size="14.5974">53</text>
		</g>
	</g>
</g>
<g>
	<g>
		<rect x="919.332" y="285.925" fill="#DADFA1" width="50.188" height="50.179"/>
		<text transform="matrix(1.0003 0 0 1 930.4053 320.3726)" fill="#231F20" font-family="'Calibri-Bold'" font-size="26.5879">Xe</text>
		<text transform="matrix(1.0003 0 0 1 935.8525 330.8765)" fill="#231F20" font-family="'Calibri-Bold'" font-size="6.3864">Xenon</text>
	</g>
	<g>
		<g>
			<text transform="matrix(1.0003 0 0 1 937.0254 297.8374)" fill="#231F20" font-family="'Calibri-Bold'" font-size="14.5974">54</text>
		</g>
	</g>
</g>
<g>
	<rect x="87.067" y="337.929" fill="#DADFA1" width="50.191" height="50.178"/>
	<text transform="matrix(1.0003 0 0 1 98.1445 372.186)" fill="#231F20" font-family="'Calibri-Bold'" font-size="26.5879">Ba</text>
	<text transform="matrix(1.0003 0 0 1 102.5029 382.8794)" fill="#231F20" font-family="'Calibri-Bold'" font-size="6.3864">Barium</text>
	<g>
		<g>
			<text transform="matrix(1.0003 0 0 1 104.7637 349.8403)" fill="#231F20" font-family="'Calibri-Bold'" font-size="14.5974">56</text>
		</g>
	</g>
</g>
<g>
	<g>
		<rect x="139.084" y="463.26" fill="#DADFA1" width="50.192" height="50.18"/>
		<text transform="matrix(1.0003 0 0 1 151.9912 498.73)" fill="#231F20" font-family="'Calibri-Bold'" font-size="26.5879">La</text>
		<text transform="matrix(1.0003 0 0 1 149.0527 509.2339)" fill="#231F20" font-family="'Calibri-Bold'" font-size="6.3864">Lan­thanum</text>
	</g>
	<g>
		<g>
			<text transform="matrix(1.0003 0 0 1 156.7803 475.1724)" fill="#231F20" font-family="'Calibri-Bold'" font-size="14.5974">57</text>
		</g>
	</g>
</g>
<g>
	<g>
		<rect x="139.084" y="337.929" fill="#DADFA1" width="50.192" height="50.178"/>
		<text transform="matrix(1.0003 0 0 1 147.4697 354.5405)" fill="#231F20" font-family="'Calibri-Bold'" font-size="14.3166">57-71</text>
	</g>
	<text transform="matrix(1.0003 0 0 1 149.3984 370.9624)" fill="#231F20" font-family="'Calibri-Bold'" font-size="10.9481">La-Lu</text>
	<text transform="matrix(1.0003 0 0 1 140.6309 381.646)" fill="#231F20" font-family="'Calibri-Bold'" font-size="8.9028">Lanthanide</text>
</g>
<g>
	<g>
		<rect x="191.101" y="463.26" fill="#DADFA1" width="50.19" height="50.18"/>
		<text transform="matrix(1.0003 0 0 1 202.4629 498.73)" fill="#231F20" font-family="'Calibri-Bold'" font-size="26.5879">Ce</text>
		<text transform="matrix(1.0003 0 0 1 206.6045 509.2339)" fill="#231F20" font-family="'Calibri-Bold'" font-size="6.3864">Cerium</text>
	</g>
	<g>
		<g>
			<text transform="matrix(1.0003 0 0 1 208.7969 475.1724)" fill="#231F20" font-family="'Calibri-Bold'" font-size="14.5974">58</text>
		</g>
	</g>
</g>
<g>
	<g>
		<rect x="243.117" y="463.26" fill="#DADFA1" width="50.19" height="50.18"/>
		<text transform="matrix(1.0003 0 0 1 256.4063 498.73)" fill="#231F20" font-family="'Calibri-Bold'" font-size="26.5879">Pr</text>
		<text transform="matrix(1.0003 0 0 1 248.2188 509.2339)" fill="#231F20" font-family="'Calibri-Bold'" font-size="6.3864">Praseo­dymium</text>
	</g>
	<g>
		<g>
			<text transform="matrix(1.0003 0 0 1 260.8125 475.1724)" fill="#231F20" font-family="'Calibri-Bold'" font-size="14.5974">59</text>
		</g>
	</g>
</g>
<g>
	<g>
		<rect x="295.134" y="463.26" fill="#DADFA1" width="50.19" height="50.18"/>
		<text transform="matrix(1.0003 0 0 1 304.332 498.73)" fill="#231F20" font-family="'Calibri-Bold'" font-size="26.5879">Nd</text>
		<text transform="matrix(1.0003 0 0 1 303.8174 509.2339)" fill="#231F20" font-family="'Calibri-Bold'" font-size="6.3864">Neo­dymium</text>
	</g>
	<g>
		<g>
			<text transform="matrix(1.0003 0 0 1 312.8291 475.1724)" fill="#231F20" font-family="'Calibri-Bold'" font-size="14.5974">60</text>
		</g>
	</g>
</g>
<g>
	<g>
		<rect x="347.149" y="463.26" fill="#DADFA1" width="50.194" height="50.18"/>
		<text transform="matrix(1.0003 0 0 1 354.3496 498.73)" fill="#231F20" font-family="'Calibri-Bold'" font-size="26.5879">Pm</text>
		<text transform="matrix(1.0003 0 0 1 355.5088 509.2339)" fill="#231F20" font-family="'Calibri-Bold'" font-size="6.3864">Prome­thium</text>
	</g>
	<g>
		<g>
			<text transform="matrix(1.0003 0 0 1 364.8447 475.1724)" fill="#231F20" font-family="'Calibri-Bold'" font-size="14.5974">61</text>
		</g>
	</g>
</g>
<g>
	<g>
		<rect x="399.166" y="463.26" fill="#DADFA1" width="50.191" height="50.18"/>
		<text transform="matrix(1.0003 0 0 1 407.1572 498.73)" fill="#231F20" font-family="'Calibri-Bold'" font-size="26.5879">Sm</text>
		<text transform="matrix(1.0003 0 0 1 410.708 509.2339)" fill="#231F20" font-family="'Calibri-Bold'" font-size="6.3864">Sama­rium</text>
	</g>
	<g>
		<g>
			<text transform="matrix(1.0003 0 0 1 416.8623 475.1724)" fill="#231F20" font-family="'Calibri-Bold'" font-size="14.5974">62</text>
		</g>
	</g>
</g>
<g>
	<g>
		<rect x="451.183" y="463.26" fill="#DADFA1" width="50.191" height="50.18"/>
		<text transform="matrix(1.0003 0 0 1 462.6533 498.73)" fill="#231F20" font-family="'Calibri-Bold'" font-size="26.5879">Eu</text>
		<text transform="matrix(1.0003 0 0 1 463.2822 509.2339)" fill="#231F20" font-family="'Calibri-Bold'" font-size="6.3864">Europ­ium</text>
	</g>
	<g>
		<g>
			<text transform="matrix(1.0003 0 0 1 468.8779 475.1724)" fill="#231F20" font-family="'Calibri-Bold'" font-size="14.5974">63</text>
		</g>
	</g>
</g>
<g>
	<g>
		<rect x="503.199" y="463.26" fill="#DADFA1" width="50.189" height="50.18"/>
		<text transform="matrix(1.0003 0 0 1 512.6826 498.73)" fill="#231F20" font-family="'Calibri-Bold'" font-size="26.5879">Gd</text>
		<text transform="matrix(1.0003 0 0 1 512.8115 509.2339)" fill="#231F20" font-family="'Calibri-Bold'" font-size="6.3864">Gadolin­ium</text>
	</g>
	<g>
		<g>
			<text transform="matrix(1.0003 0 0 1 520.8936 475.1724)" fill="#231F20" font-family="'Calibri-Bold'" font-size="14.5974">64</text>
		</g>
	</g>
</g>
<g>
	<g>
		<rect x="555.216" y="463.26" fill="#DADFA1" width="50.193" height="50.18"/>
		<text transform="matrix(1.0003 0 0 1 566.5898 498.73)" fill="#231F20" font-family="'Calibri-Bold'" font-size="26.5879">Tb</text>
		<text transform="matrix(1.0003 0 0 1 569.1143 509.2339)" fill="#231F20" font-family="'Calibri-Bold'" font-size="6.3864">Ter­bium</text>
	</g>
	<g>
		<g>
			<text transform="matrix(1.0003 0 0 1 572.9111 475.1724)" fill="#231F20" font-family="'Calibri-Bold'" font-size="14.5974">65</text>
		</g>
	</g>
</g>
<g>
	<g>
		<rect x="607.231" y="463.26" fill="#DADFA1" width="50.191" height="50.18"/>
		<text transform="matrix(1.0003 0 0 1 617.6465 498.73)" fill="#231F20" font-family="'Calibri-Bold'" font-size="26.5879">Dy</text>
		<text transform="matrix(1.0003 0 0 1 616.5293 509.2339)" fill="#231F20" font-family="'Calibri-Bold'" font-size="6.3864">Dyspro­sium</text>
	</g>
	<g>
		<g>
			<text transform="matrix(1.0003 0 0 1 624.9258 475.1724)" fill="#231F20" font-family="'Calibri-Bold'" font-size="14.5974">66</text>
		</g>
	</g>
</g>
<g>
	<g>
		<rect x="659.246" y="463.26" fill="#DADFA1" width="50.192" height="50.18"/>
		<text transform="matrix(1.0003 0 0 1 668.8047 498.73)" fill="#231F20" font-family="'Calibri-Bold'" font-size="26.5879">Ho</text>
		<text transform="matrix(1.0003 0 0 1 672.0713 509.2339)" fill="#231F20" font-family="'Calibri-Bold'" font-size="6.3864">Hol­mium</text>
	</g>
	<g>
		<g>
			<text transform="matrix(1.0003 0 0 1 676.9434 475.1724)" fill="#231F20" font-family="'Calibri-Bold'" font-size="14.5974">67</text>
		</g>
	</g>
</g>
<g>
	<g>
		<rect x="711.266" y="463.26" fill="#DADFA1" width="50.189" height="50.18"/>
		<text transform="matrix(1.0003 0 0 1 725.1465 498.73)" fill="#231F20" font-family="'Calibri-Bold'" font-size="26.5879">Er</text>
		<text transform="matrix(1.0003 0 0 1 726.7959 509.2339)" fill="#231F20" font-family="'Calibri-Bold'" font-size="6.3864">Erbium</text>
	</g>
	<g>
		<g>
			<text transform="matrix(1.0003 0 0 1 728.959 475.1724)" fill="#231F20" font-family="'Calibri-Bold'" font-size="14.5974">68</text>
		</g>
	</g>
</g>
<g>
	<g>
		<rect x="763.28" y="463.26" fill="#DADFA1" width="50.194" height="50.18"/>
		<text transform="matrix(1.0003 0 0 1 770.9736 498.73)" fill="#231F20" font-family="'Calibri-Bold'" font-size="26.5879">Tm</text>
		<text transform="matrix(1.0003 0 0 1 777.4248 509.2339)" fill="#231F20" font-family="'Calibri-Bold'" font-size="6.3864">Thulium</text>
	</g>
	<g>
		<g>
			<text transform="matrix(1.0003 0 0 1 780.9766 475.1724)" fill="#231F20" font-family="'Calibri-Bold'" font-size="14.5974">69</text>
		</g>
	</g>
</g>
<g>
	<g>
		<rect x="815.298" y="463.26" fill="#DADFA1" width="50.19" height="50.18"/>
		<text transform="matrix(1.0003 0 0 1 826.3477 498.73)" fill="#231F20" font-family="'Calibri-Bold'" font-size="26.5879">Yb</text>
		<text transform="matrix(1.0003 0 0 1 827.0225 509.2339)" fill="#231F20" font-family="'Calibri-Bold'" font-size="6.3864">Ytter­bium</text>
	</g>
	<g>
		<g>
			<text transform="matrix(1.0003 0 0 1 832.9922 475.1724)" fill="#231F20" font-family="'Calibri-Bold'" font-size="14.5974">70</text>
		</g>
	</g>
</g>
<g>
	<g>
		<rect x="867.313" y="463.26" fill="#DADFA1" width="50.191" height="50.18"/>
		<text transform="matrix(1.0003 0 0 1 879.6494 498.73)" fill="#231F20" font-family="'Calibri-Bold'" font-size="26.5879">Lu</text>
		<text transform="matrix(1.0003 0 0 1 880.3867 509.2339)" fill="#231F20" font-family="'Calibri-Bold'" font-size="6.3864">Lute­tium</text>
	</g>
	<g>
		<g>
			<text transform="matrix(1.0003 0 0 1 885.0098 475.1724)" fill="#231F20" font-family="'Calibri-Bold'" font-size="14.5974">71</text>
		</g>
	</g>
</g>
<g>
	<g>
		<rect x="191.101" y="337.929" fill="#DADFA1" width="50.19" height="50.178"/>
		<text transform="matrix(1.0003 0 0 1 203.5996 372.3774)" fill="#231F20" font-family="'Calibri-Bold'" font-size="26.5879">Hf</text>
		<text transform="matrix(1.0003 0 0 1 204.7227 382.8794)" fill="#231F20" font-family="'Calibri-Bold'" font-size="6.3864">Haf­nium</text>
	</g>
	<g>
		<g>
			<text transform="matrix(1.0003 0 0 1 208.7969 349.8403)" fill="#231F20" font-family="'Calibri-Bold'" font-size="14.5974">72</text>
		</g>
	</g>
</g>
<g>
	<g>
		<rect x="243.117" y="337.929" fill="#DADFA1" width="50.19" height="50.178"/>
		<text transform="matrix(1.0003 0 0 1 255.0625 372.3774)" fill="#231F20" font-family="'Calibri-Bold'" font-size="26.5879">Ta</text>
		<text transform="matrix(1.0003 0 0 1 255.498 382.8794)" fill="#231F20" font-family="'Calibri-Bold'" font-size="6.3864">Tanta­lum</text>
	</g>
	<g>
		<g>
			<text transform="matrix(1.0003 0 0 1 260.8125 349.8403)" fill="#231F20" font-family="'Calibri-Bold'" font-size="14.5974">73</text>
		</g>
	</g>
</g>
<g>
	<g>
		<rect x="295.134" y="337.929" fill="#DADFA1" width="50.19" height="50.178"/>
		<text transform="matrix(1.0003 0 0 1 308.1768 372.3774)" fill="#231F20" font-family="'Calibri-Bold'" font-size="26.5879">W</text>
		<text transform="matrix(1.0003 0 0 1 307.9414 382.8794)" fill="#231F20" font-family="'Calibri-Bold'" font-size="6.3864">Tung­sten</text>
	</g>
	<g>
		<g>
			<text transform="matrix(1.0003 0 0 1 312.8291 349.8403)" fill="#231F20" font-family="'Calibri-Bold'" font-size="14.5974">74</text>
		</g>
	</g>
</g>
<g>
	<g>
		<rect x="347.149" y="337.929" fill="#DADFA1" width="50.194" height="50.178"/>
		<text transform="matrix(1.0003 0 0 1 358.0645 372.3774)" fill="#231F20" font-family="'Calibri-Bold'" font-size="26.5879">Re</text>
		<text transform="matrix(1.0003 0 0 1 360.2549 382.8794)" fill="#231F20" font-family="'Calibri-Bold'" font-size="6.3864">Rhe­nium</text>
	</g>
	<g>
		<g>
			<text transform="matrix(1.0003 0 0 1 364.8447 349.8403)" fill="#231F20" font-family="'Calibri-Bold'" font-size="14.5974">75</text>
		</g>
	</g>
</g>
<g>
	<g>
		<rect x="399.166" y="337.929" fill="#DADFA1" width="50.191" height="50.178"/>
		<text transform="matrix(1.0003 0 0 1 409.9629 372.3774)" fill="#231F20" font-family="'Calibri-Bold'" font-size="26.5879">Os</text>
		<text transform="matrix(1.0003 0 0 1 413.0723 382.8794)" fill="#231F20" font-family="'Calibri-Bold'" font-size="6.3864">Os­mium</text>
	</g>
	<g>
		<g>
			<text transform="matrix(1.0003 0 0 1 416.8623 349.8403)" fill="#231F20" font-family="'Calibri-Bold'" font-size="14.5974">76</text>
		</g>
	</g>
</g>
<g>
	<g>
		<rect x="451.183" y="337.929" fill="#DADFA1" width="50.191" height="50.178"/>
		<text transform="matrix(1.0003 0 0 1 468.0039 372.3774)" fill="#231F20" font-family="'Calibri-Bold'" font-size="26.5879">Ir</text>
		<text transform="matrix(1.0003 0 0 1 466.6357 382.8794)" fill="#231F20" font-family="'Calibri-Bold'" font-size="6.3864">Iridium</text>
	</g>
	<g>
		<g>
			<text transform="matrix(1.0003 0 0 1 468.877 349.8403)" fill="#231F20" font-family="'Calibri-Bold'" font-size="14.5974">77</text>
		</g>
	</g>
</g>
<g>
	<g>
		<rect x="503.199" y="337.929" fill="#DADFA1" width="50.189" height="50.178"/>
		<text transform="matrix(1.0003 0 0 1 516.6064 372.3774)" fill="#231F20" font-family="'Calibri-Bold'" font-size="26.5879">Pt</text>
		<text transform="matrix(1.0003 0 0 1 516.2773 382.8794)" fill="#231F20" font-family="'Calibri-Bold'" font-size="6.3864">Plat­inum</text>
	</g>
	<g>
		<g>
			<text transform="matrix(1.0003 0 0 1 520.8936 349.8403)" fill="#231F20" font-family="'Calibri-Bold'" font-size="14.5974">78</text>
		</g>
	</g>
</g>
<g>
	<g>
		<rect x="555.216" y="337.929" fill="#DADFA1" width="50.193" height="50.178"/>
		<text transform="matrix(1.0003 0 0 1 565.1152 372.3774)" fill="#231F20" font-family="'Calibri-Bold'" font-size="26.5879">Au</text>
		<text transform="matrix(1.0003 0 0 1 574 382.8794)" fill="#231F20" font-family="'Calibri-Bold'" font-size="6.3864">Gold</text>
	</g>
	<g>
		<g>
			<text transform="matrix(1.0003 0 0 1 572.9102 349.8403)" fill="#231F20" font-family="'Calibri-Bold'" font-size="14.5974">79</text>
		</g>
	</g>
</g>
<g>
	<g>
		<rect x="607.231" y="337.929" fill="#DADFA1" width="50.191" height="50.178"/>
		<text transform="matrix(1.0003 0 0 1 617.6309 372.3774)" fill="#231F20" font-family="'Calibri-Bold'" font-size="26.5879">Hg</text>
		<text transform="matrix(1.0003 0 0 1 621.0342 382.8794)" fill="#231F20" font-family="'Calibri-Bold'" font-size="6.3864">Mer­cury</text>
	</g>
	<g>
		<g>
			<text transform="matrix(1.0003 0 0 1 624.9268 349.8403)" fill="#231F20" font-family="'Calibri-Bold'" font-size="14.5974">80</text>
		</g>
	</g>
</g>
<g>
	<g>
		<rect x="659.246" y="337.929" fill="#DADFA1" width="50.192" height="50.178"/>
		<text transform="matrix(1.0003 0 0 1 674.4922 373.3999)" fill="#231F20" font-family="'Calibri-Bold'" font-size="26.5879">Tl</text>
		<text transform="matrix(1.0003 0 0 1 672.7451 383.9019)" fill="#231F20" font-family="'Calibri-Bold'" font-size="6.3864">Thallium</text>
	</g>
	<g>
		<g>
			<text transform="matrix(1.0003 0 0 1 676.9434 349.8403)" fill="#231F20" font-family="'Calibri-Bold'" font-size="14.5974">81</text>
		</g>
	</g>
</g>
<g>
	<g>
		<rect x="711.266" y="337.929" fill="#DADFA1" width="50.189" height="50.178"/>
		<text transform="matrix(1.0003 0 0 1 722.1455 373.3999)" fill="#231F20" font-family="'Calibri-Bold'" font-size="26.5879">Pb</text>
		<text transform="matrix(1.0003 0 0 1 730.0508 383.9019)" fill="#231F20" font-family="'Calibri-Bold'" font-size="6.3864">Lead</text>
	</g>
	<g>
		<g>
			<text transform="matrix(1.0003 0 0 1 728.9609 349.8403)" fill="#231F20" font-family="'Calibri-Bold'" font-size="14.5974">82</text>
		</g>
	</g>
</g>
<g>
	<g>
		<rect x="763.28" y="337.929" fill="#DADFA1" width="50.194" height="50.178"/>
		<text transform="matrix(1.0003 0 0 1 777.6543 373.3999)" fill="#231F20" font-family="'Calibri-Bold'" font-size="26.5879">Bi</text>
		<text transform="matrix(1.0003 0 0 1 777.333 383.9019)" fill="#231F20" font-family="'Calibri-Bold'" font-size="6.3864">Bis­muth</text>
	</g>
	<g>
		<g>
			<text transform="matrix(1.0003 0 0 1 780.9766 349.8403)" fill="#231F20" font-family="'Calibri-Bold'" font-size="14.5974">83</text>
		</g>
	</g>
</g>
<g>
	<g>
		<g>
			<rect x="659.246" y="129.916" fill="#FFA87D" width="50.192" height="50.179"/>
			<text transform="matrix(1.0003 0 0 1 676.8887 165.3862)" font-family="'Calibri-Bold'" font-size="26.5879">B</text>
			<text transform="matrix(1.0003 0 0 1 676.209 175.8882)" font-family="'Calibri-Bold'" font-size="6.3864">Boron</text>
		</g>
		<g>
			<g>
				<text transform="matrix(1.0003 0 0 1 680.6436 141.8257)" font-family="'Calibri-Bold'" font-size="14.5974">5</text>
			</g>
		</g>
	</g>
	<g>
		<g>
			<rect x="711.266" y="181.917" fill="#FFA87D" width="50.189" height="50.182"/>
			<text transform="matrix(1.0003 0 0 1 726.8076 217.3892)" fill="#231F20" font-family="'Calibri-Bold'" font-size="26.5879">Si</text>
			<text transform="matrix(1.0003 0 0 1 727.6689 227.8921)" fill="#231F20" font-family="'Calibri-Bold'" font-size="6.3864">Sili­con</text>
		</g>
		<g>
			<g>
				<text transform="matrix(1.0003 0 0 1 728.9609 193.8286)" fill="#231F20" font-family="'Calibri-Bold'" font-size="14.5974">14</text>
			</g>
		</g>
	</g>
	<g>
		<g>
			<rect x="711.266" y="233.922" fill="#FFA87D" width="50.189" height="50.181"/>
			<text transform="matrix(1.0003 0 0 1 721.1924 269.3921)" fill="#231F20" font-family="'Calibri-Bold'" font-size="26.5879">Ge</text>
			<text transform="matrix(1.0003 0 0 1 720.5361 279.895)" fill="#231F20" font-family="'Calibri-Bold'" font-size="6.3864">Germa­nium</text>
		</g>
		<g>
			<g>
				<text transform="matrix(1.0003 0 0 1 728.9609 245.8325)" fill="#231F20" font-family="'Calibri-Bold'" font-size="14.5974">32</text>
			</g>
		</g>
	</g>
	<g>
		<g>
			<rect x="763.28" y="233.922" fill="#FFA87D" width="50.194" height="50.181"/>
			<text transform="matrix(1.0003 0 0 1 775.0127 269.3921)" fill="#231F20" font-family="'Calibri-Bold'" font-size="26.5879">As</text>
			<text transform="matrix(1.0003 0 0 1 778.5273 279.895)" fill="#231F20" font-family="'Calibri-Bold'" font-size="6.3864">Arsenic</text>
		</g>
		<g>
			<g>
				<text transform="matrix(1.0003 0 0 1 780.9766 245.8325)" fill="#231F20" font-family="'Calibri-Bold'" font-size="14.5974">33</text>
			</g>
		</g>
	</g>
	<g>
		<g>
			<rect x="763.28" y="285.925" fill="#FFA87D" width="50.194" height="50.179"/>
			<text transform="matrix(1.0003 0 0 1 774.9541 321.395)" fill="#231F20" font-family="'Calibri-Bold'" font-size="26.5879">Sb</text>
			<text transform="matrix(1.0003 0 0 1 775.2549 331.8989)" fill="#231F20" font-family="'Calibri-Bold'" font-size="6.3864">Anti­mony</text>
		</g>
		<g>
			<g>
				<text transform="matrix(1.0003 0 0 1 780.9766 297.8374)" fill="#231F20" font-family="'Calibri-Bold'" font-size="14.5974">51</text>
			</g>
		</g>
	</g>
	<g>
		<g>
			<rect x="815.298" y="285.925" fill="#FFA87D" width="50.19" height="50.179"/>
			<text transform="matrix(1.0003 0 0 1 827.1143 321.395)" fill="#231F20" font-family="'Calibri-Bold'" font-size="26.5879">Te</text>
			<text transform="matrix(1.0003 0 0 1 827.6279 331.8989)" fill="#231F20" font-family="'Calibri-Bold'" font-size="6.3864">Tellur­ium</text>
		</g>
		<g>
			<g>
				<text transform="matrix(1.0003 0 0 1 832.9922 297.8374)" fill="#231F20" font-family="'Calibri-Bold'" font-size="14.5974">52</text>
			</g>
		</g>
	</g>
	<g>
		<g>
			<rect x="815.298" y="337.929" fill="#FFA87D" width="50.19" height="50.178"/>
			<text transform="matrix(1.0003 0 0 1 826.165 373.3999)" fill="#231F20" font-family="'Calibri-Bold'" font-size="26.5879">Po</text>
			<text transform="matrix(1.0003 0 0 1 827.6035 383.9019)" fill="#231F20" font-family="'Calibri-Bold'" font-size="6.3864">Polo­nium</text>
		</g>
		<g>
			<g>
				<text transform="matrix(1.0003 0 0 1 832.9922 349.8403)" fill="#231F20" font-family="'Calibri-Bold'" font-size="14.5974">84</text>
			</g>
		</g>
	</g>
</g>
<g>
	<g>
		<rect x="867.313" y="337.929" fill="#DADFA1" width="50.191" height="50.178"/>
		<text transform="matrix(1.0003 0 0 1 879.7402 372.3774)" fill="#231F20" font-family="'Calibri-Bold'" font-size="26.5879">At</text>
		<text transform="matrix(1.0003 0 0 1 881.2637 382.8794)" fill="#231F20" font-family="'Calibri-Bold'" font-size="6.3864">Asta­tine</text>
	</g>
	<g>
		<g>
			<text transform="matrix(1.0003 0 0 1 885.0098 349.8403)" fill="#231F20" font-family="'Calibri-Bold'" font-size="14.5974">85</text>
		</g>
	</g>
</g>
<g>
	<g>
		<rect x="919.332" y="337.929" fill="#DADFA1" width="50.188" height="50.178"/>
		<text transform="matrix(1.0003 0 0 1 929.8018 372.3774)" fill="#231F20" font-family="'Calibri-Bold'" font-size="26.5879">Rn</text>
		<text transform="matrix(1.0003 0 0 1 935.8447 382.8794)" fill="#231F20" font-family="'Calibri-Bold'" font-size="6.3864">Radon</text>
	</g>
	<g>
		<g>
			<text transform="matrix(1.0003 0 0 1 937.0254 349.8403)" fill="#231F20" font-family="'Calibri-Bold'" font-size="14.5974">86</text>
		</g>
	</g>
</g>
<g>
	<g>
		<g>
			<rect x="35.052" y="129.916" fill="#DADFA1" width="50.191" height="50.179"/>
			<text transform="matrix(1.0003 0 0 1 51.2559 164.3638)" fill="#231F20" font-family="'Calibri-Bold'" font-size="26.5879">Li</text>
			<g>
				<g>
					<text transform="matrix(1.0003 0 0 1 56.4463 141.8257)" fill="#231F20" font-family="'Calibri-Bold'" font-size="14.5974">3</text>
				</g>
			</g>
		</g>
		<text transform="matrix(1.0003 0 0 1 50.0332 174.8647)" fill="#231F20" font-family="'Calibri-Bold'" font-size="6.3864">Lith­ium</text>
	</g>
	<g>
		<rect x="35.052" y="181.917" fill="#DADFA1" width="50.191" height="50.182"/>
		<text transform="matrix(1.0003 0 0 1 44.8223 216.3667)" fill="#231F20" font-family="'Calibri-Bold'" font-size="26.5879">Na</text>
		<text transform="matrix(1.0003 0 0 1 50.0488 226.8687)" fill="#231F20" font-family="'Calibri-Bold'" font-size="6.3864">So­dium</text>
		<g>
			<g>
				<text transform="matrix(1.0003 0 0 1 52.7451 193.8286)" fill="#231F20" font-family="'Calibri-Bold'" font-size="14.5974">11</text>
			</g>
		</g>
	</g>
	<g>
		<rect x="35.052" y="233.922" fill="#DADFA1" width="50.191" height="50.181"/>
		<text transform="matrix(1.0003 0 0 1 52.873 268.3696)" fill="#231F20" font-family="'Calibri-Bold'" font-size="26.5879">K</text>
		<text transform="matrix(1.0003 0 0 1 46.3408 278.8726)" fill="#231F20" font-family="'Calibri-Bold'" font-size="6.3864">Potas­sium</text>
		<g>
			<g>
				<text transform="matrix(1.0003 0 0 1 52.7451 245.8325)" fill="#231F20" font-family="'Calibri-Bold'" font-size="14.5974">19</text>
			</g>
		</g>
	</g>
	<g>
		<rect x="35.052" y="285.925" fill="#DADFA1" width="50.191" height="50.179"/>
		<text transform="matrix(1.0003 0 0 1 45.5234 320.3726)" fill="#231F20" font-family="'Calibri-Bold'" font-size="26.5879">Rb</text>
		<text transform="matrix(1.0003 0 0 1 47.2637 330.8765)" fill="#231F20" font-family="'Calibri-Bold'" font-size="6.3864">Rubid­ium</text>
		<g>
			<g>
				<text transform="matrix(1.0003 0 0 1 52.7451 297.8374)" fill="#231F20" font-family="'Calibri-Bold'" font-size="14.5974">37</text>
			</g>
		</g>
	</g>
	<g>
		<rect x="35.052" y="337.929" fill="#DADFA1" width="50.191" height="50.178"/>
		<text transform="matrix(1.0003 0 0 1 47.8018 372.3774)" fill="#231F20" font-family="'Calibri-Bold'" font-size="26.5879">Cs</text>
		<text transform="matrix(1.0003 0 0 1 48.8398 382.8794)" fill="#231F20" font-family="'Calibri-Bold'" font-size="6.3864">Cae­sium</text>
		<g>
			<g>
				<text transform="matrix(1.0003 0 0 1 52.7451 349.8403)" fill="#231F20" font-family="'Calibri-Bold'" font-size="14.5974">55</text>
			</g>
		</g>
	</g>
	<g>
		<rect x="35.052" y="389.933" fill="#DADFA1" width="50.191" height="50.179"/>
		<text transform="matrix(1.0003 0 0 1 49.3145 424.3804)" fill="#231F20" font-family="'Calibri-Bold'" font-size="26.5879">Fr</text>
		<text transform="matrix(1.0003 0 0 1 47.7607 434.8823)" fill="#231F20" font-family="'Calibri-Bold'" font-size="6.3864">Fran­cium</text>
		<g>
			<g>
				<text transform="matrix(1.0003 0 0 1 52.7451 401.8413)" fill="#231F20" font-family="'Calibri-Bold'" font-size="14.5974">87</text>
			</g>
		</g>
	</g>
</g>
<g>
	<rect x="87.067" y="389.933" fill="#DADFA1" width="50.191" height="50.179"/>
	<text transform="matrix(1.0003 0 0 1 98.1113 424.3804)" fill="#231F20" font-family="'Calibri-Bold'" font-size="26.5879">Ra</text>
	<text transform="matrix(1.0003 0 0 1 101.917 434.8823)" fill="#231F20" font-family="'Calibri-Bold'" font-size="6.3864">Ra­dium</text>
	<g>
		<g>
			<text transform="matrix(1.0003 0 0 1 104.7637 401.8413)" fill="#231F20" font-family="'Calibri-Bold'" font-size="14.5974">88</text>
		</g>
	</g>
</g>
<g>
	<g>
		<rect x="139.084" y="389.933" fill="#DADFA1" width="50.192" height="50.179"/>
		<text transform="matrix(1.0003 0 0 1 143.8389 406.5444)" fill="#231F20" font-family="'Calibri-Bold'" font-size="14.3166">89-103</text>
	</g>
	<text transform="matrix(1.0003 0 0 1 148.7773 421.4927)" fill="#231F20" font-family="'Calibri-Bold'" font-size="10.9481">Ac-Lr</text>
	<text transform="matrix(1.0003 0 0 1 145.042 432.1763)" fill="#231F20" font-family="'Calibri-Bold'" font-size="8.9028">Actinide</text>
</g>
<g>
	<g>
		<rect x="139.084" y="515.264" fill="#DADFA1" width="50.192" height="50.178"/>
		<text transform="matrix(1.0003 0 0 1 150.5557 550.7358)" fill="#231F20" font-family="'Calibri-Bold'" font-size="26.5879">Ac</text>
		<text transform="matrix(1.0003 0 0 1 152.167 561.2368)" fill="#231F20" font-family="'Calibri-Bold'" font-size="6.3864">Actin­ium</text>
	</g>
	<g>
		<g>
			<text transform="matrix(1.0003 0 0 1 156.7803 527.1743)" fill="#231F20" font-family="'Calibri-Bold'" font-size="14.5974">89</text>
		</g>
	</g>
</g>
<g>
	<g>
		<rect x="191.101" y="515.264" fill="#DADFA1" width="50.19" height="50.178"/>
		<text transform="matrix(1.0003 0 0 1 202.4756 550.7358)" fill="#231F20" font-family="'Calibri-Bold'" font-size="26.5879">Th</text>
		<text transform="matrix(1.0003 0 0 1 204.8916 561.2368)" fill="#231F20" font-family="'Calibri-Bold'" font-size="6.3864">Thor­ium</text>
	</g>
	<g>
		<g>
			<text transform="matrix(1.0003 0 0 1 208.7969 527.1743)" fill="#231F20" font-family="'Calibri-Bold'" font-size="14.5974">90</text>
		</g>
	</g>
</g>
<g>
	<g>
		<rect x="243.117" y="515.264" fill="#DADFA1" width="50.19" height="50.178"/>
		<text transform="matrix(1.0003 0 0 1 254.5684 550.7358)" fill="#231F20" font-family="'Calibri-Bold'" font-size="26.5879">Pa</text>
		<text transform="matrix(1.0003 0 0 1 250.8975 561.2368)" fill="#231F20" font-family="'Calibri-Bold'" font-size="6.3864">Protac­tinium</text>
	</g>
	<g>
		<g>
			<text transform="matrix(1.0003 0 0 1 260.8125 527.1743)" fill="#231F20" font-family="'Calibri-Bold'" font-size="14.5974">91</text>
		</g>
	</g>
</g>
<g>
	<g>
		<rect x="295.134" y="515.264" fill="#DADFA1" width="50.19" height="50.178"/>
		<text transform="matrix(1.0003 0 0 1 311.5459 550.7358)" fill="#231F20" font-family="'Calibri-Bold'" font-size="26.5879">U</text>
		<text transform="matrix(1.0003 0 0 1 308.5596 561.2368)" fill="#231F20" font-family="'Calibri-Bold'" font-size="6.3864">Ura­nium</text>
	</g>
	<g>
		<g>
			<text transform="matrix(1.0003 0 0 1 312.8291 527.1743)" fill="#231F20" font-family="'Calibri-Bold'" font-size="14.5974">92</text>
		</g>
	</g>
</g>
<g>
	<g>
		<rect x="347.149" y="515.264" fill="#DADFA1" width="50.194" height="50.178"/>
		<text transform="matrix(1.0003 0 0 1 356.3496 550.7358)" fill="#231F20" font-family="'Calibri-Bold'" font-size="26.5879">Np</text>
		<text transform="matrix(1.0003 0 0 1 357.127 561.2368)" fill="#231F20" font-family="'Calibri-Bold'" font-size="6.3864">Neptu­nium</text>
	</g>
	<g>
		<g>
			<text transform="matrix(1.0003 0 0 1 364.8447 527.1743)" fill="#231F20" font-family="'Calibri-Bold'" font-size="14.5974">93</text>
		</g>
	</g>
</g>
<g>
	<g>
		<rect x="399.166" y="515.264" fill="#DADFA1" width="50.191" height="50.178"/>
		<text transform="matrix(1.0003 0 0 1 410.0469 550.7358)" fill="#231F20" font-family="'Calibri-Bold'" font-size="26.5879">Pu</text>
		<text transform="matrix(1.0003 0 0 1 410.3672 561.2368)" fill="#231F20" font-family="'Calibri-Bold'" font-size="6.3864">Pluto­nium</text>
	</g>
	<g>
		<g>
			<text transform="matrix(1.0003 0 0 1 416.8623 527.1743)" fill="#231F20" font-family="'Calibri-Bold'" font-size="14.5974">94</text>
		</g>
	</g>
</g>
<g>
	<g>
		<rect x="451.183" y="515.264" fill="#DADFA1" width="50.191" height="50.178"/>
		<text transform="matrix(1.0003 0 0 1 457.4004 550.7358)" fill="#231F20" font-family="'Calibri-Bold'" font-size="26.5879">Am</text>
		<text transform="matrix(1.0003 0 0 1 461.7217 561.2368)" fill="#231F20" font-family="'Calibri-Bold'" font-size="6.3864">Ameri­cium</text>
	</g>
	<g>
		<g>
			<text transform="matrix(1.0003 0 0 1 468.8779 527.1743)" fill="#231F20" font-family="'Calibri-Bold'" font-size="14.5974">95</text>
		</g>
	</g>
</g>
<g>
	<g>
		<rect x="503.199" y="515.264" fill="#DADFA1" width="50.189" height="50.178"/>
		<text transform="matrix(1.0003 0 0 1 510.4385 550.7358)" fill="#231F20" font-family="'Calibri-Bold'" font-size="26.5879">Cm</text>
		<text transform="matrix(1.0003 0 0 1 518.5967 561.2368)" fill="#231F20" font-family="'Calibri-Bold'" font-size="6.3864">Curium</text>
	</g>
	<g>
		<g>
			<text transform="matrix(1.0003 0 0 1 520.8936 527.1743)" fill="#231F20" font-family="'Calibri-Bold'" font-size="14.5974">96</text>
		</g>
	</g>
</g>
<g>
	<g>
		<rect x="555.216" y="515.264" fill="#DADFA1" width="50.193" height="50.178"/>
		<text transform="matrix(1.0003 0 0 1 566.4727 550.7358)" fill="#231F20" font-family="'Calibri-Bold'" font-size="26.5879">Bk</text>
		<text transform="matrix(1.0003 0 0 1 566.6943 561.2368)" fill="#231F20" font-family="'Calibri-Bold'" font-size="6.3864">Berkel­ium</text>
	</g>
	<g>
		<g>
			<text transform="matrix(1.0003 0 0 1 572.9111 527.1743)" fill="#231F20" font-family="'Calibri-Bold'" font-size="14.5974">97</text>
		</g>
	</g>
</g>
<g>
	<g>
		<rect x="607.231" y="515.264" fill="#DADFA1" width="50.191" height="50.178"/>
		<text transform="matrix(1.0003 0 0 1 621.0811 550.7358)" fill="#231F20" font-family="'Calibri-Bold'" font-size="26.5879">Cf</text>
		<text transform="matrix(1.0003 0 0 1 616.7568 561.2368)" fill="#231F20" font-family="'Calibri-Bold'" font-size="6.3864">Califor­nium</text>
	</g>
	<g>
		<g>
			<text transform="matrix(1.0003 0 0 1 624.9258 527.1743)" fill="#231F20" font-family="'Calibri-Bold'" font-size="14.5974">98</text>
		</g>
	</g>
</g>
<g>
	<g>
		<rect x="711.266" y="515.264" fill="#DADFA1" width="50.189" height="50.178"/>
		<text transform="matrix(1.0003 0 0 1 719.4385 550.7358)" fill="#231F20" font-family="'Calibri-Bold'" font-size="26.5879">Fm</text>
		<text transform="matrix(1.0003 0 0 1 724.3965 561.2368)" fill="#231F20" font-family="'Calibri-Bold'" font-size="6.3864">Fer­mium</text>
	</g>
	<g>
		<g>
			<text transform="matrix(1.0003 0 0 1 725.2588 527.1743)" fill="#231F20" font-family="'Calibri-Bold'" font-size="14.5974">100</text>
		</g>
	</g>
</g>
<g>
	<g>
		<rect x="659.246" y="515.264" fill="#DADFA1" width="50.192" height="50.178"/>
		<text transform="matrix(1.0003 0 0 1 672.5518 550.7358)" fill="#231F20" font-family="'Calibri-Bold'" font-size="26.5879">Es</text>
		<text transform="matrix(1.0003 0 0 1 668.6426 561.2368)" fill="#231F20" font-family="'Calibri-Bold'" font-size="6.3864">Einstei­nium</text>
	</g>
	<g>
		<g>
			<text transform="matrix(1.0003 0 0 1 676.9434 527.1743)" fill="#231F20" font-family="'Calibri-Bold'" font-size="14.5974">99</text>
		</g>
	</g>
</g>
<g>
	<g>
		<rect x="763.28" y="515.264" fill="#DADFA1" width="50.194" height="50.178"/>
		<text transform="matrix(1.0003 0 0 1 769.6162 550.7358)" fill="#231F20" font-family="'Calibri-Bold'" font-size="26.5879">Md</text>
		<text transform="matrix(1.0003 0 0 1 769.8799 561.2368)" fill="#231F20" font-family="'Calibri-Bold'" font-size="6.3864">Mende­levium</text>
	</g>
	<g>
		<g>
			<text transform="matrix(1.0003 0 0 1 777.2754 527.1743)" fill="#231F20" font-family="'Calibri-Bold'" font-size="14.5974">101</text>
		</g>
	</g>
</g>
<g>
	<g>
		<rect x="815.298" y="515.264" fill="#DADFA1" width="50.19" height="50.178"/>
		<text transform="matrix(1.0003 0 0 1 824.4834 550.7358)" fill="#231F20" font-family="'Calibri-Bold'" font-size="26.5879">No</text>
		<text transform="matrix(1.0003 0 0 1 827.3076 561.2368)" fill="#231F20" font-family="'Calibri-Bold'" font-size="6.3864">Nobel­ium</text>
	</g>
	<g>
		<g>
			<text transform="matrix(1.0003 0 0 1 829.293 527.1743)" fill="#231F20" font-family="'Calibri-Bold'" font-size="14.5974">102</text>
		</g>
	</g>
</g>
<g>
	<g>
		<rect x="867.313" y="515.264" fill="#DADFA1" width="50.191" height="50.178"/>
		<text transform="matrix(1.0003 0 0 1 882.0586 550.7358)" fill="#231F20" font-family="'Calibri-Bold'" font-size="26.5879">Lr</text>
		<text transform="matrix(1.0003 0 0 1 876.1514 561.2368)" fill="#231F20" font-family="'Calibri-Bold'" font-size="6.3864">Lawren­cium</text>
	</g>
	<g>
		<g>
			<text transform="matrix(1.0003 0 0 1 881.3086 527.1743)" fill="#231F20" font-family="'Calibri-Bold'" font-size="14.5974">103</text>
		</g>
	</g>
</g>
<g>
	<g>
		<rect x="191.101" y="389.933" fill="#DADFA1" width="50.19" height="50.179"/>
		<text transform="matrix(1.0003 0 0 1 204.501 424.3804)" fill="#231F20" font-family="'Calibri-Bold'" font-size="26.5879">Rf</text>
		<text transform="matrix(1.0003 0 0 1 196.3857 434.8823)" fill="#231F20" font-family="'Calibri-Bold'" font-size="6.3864">Ruther­fordium</text>
	</g>
	<g>
		<g>
			<text transform="matrix(1.0003 0 0 1 205.0957 401.8413)" fill="#231F20" font-family="'Calibri-Bold'" font-size="14.5974">104</text>
		</g>
	</g>
</g>
<g>
	<g>
		<rect x="243.117" y="389.933" fill="#DADFA1" width="50.19" height="50.179"/>
		<text transform="matrix(1.0003 0 0 1 252.6924 424.3804)" fill="#231F20" font-family="'Calibri-Bold'" font-size="26.5879">Db</text>
		<text transform="matrix(1.0003 0 0 1 255.9004 434.8823)" fill="#231F20" font-family="'Calibri-Bold'" font-size="6.3864">Dub­nium</text>
	</g>
	<g>
		<g>
			<text transform="matrix(1.0003 0 0 1 257.1123 401.8413)" fill="#231F20" font-family="'Calibri-Bold'" font-size="14.5974">105</text>
		</g>
	</g>
</g>
<g>
	<g>
		<rect x="295.134" y="389.933" fill="#DADFA1" width="50.19" height="50.179"/>
		<text transform="matrix(1.0003 0 0 1 307.6357 424.3804)" fill="#231F20" font-family="'Calibri-Bold'" font-size="26.5879">Sg</text>
		<text transform="matrix(1.0003 0 0 1 304.2969 434.8823)" fill="#231F20" font-family="'Calibri-Bold'" font-size="6.3864">Sea­borgium</text>
	</g>
	<g>
		<g>
			<text transform="matrix(1.0003 0 0 1 309.1289 401.8413)" fill="#231F20" font-family="'Calibri-Bold'" font-size="14.5974">106</text>
		</g>
	</g>
</g>
<g>
	<g>
		<rect x="347.149" y="389.933" fill="#DADFA1" width="50.194" height="50.179"/>
		<text transform="matrix(1.0003 0 0 1 357.6543 424.3804)" fill="#231F20" font-family="'Calibri-Bold'" font-size="26.5879">Bh</text>
		<text transform="matrix(1.0003 0 0 1 360.7314 434.8823)" fill="#231F20" font-family="'Calibri-Bold'" font-size="6.3864">Bohr­ium</text>
	</g>
	<g>
		<g>
			<text transform="matrix(1.0003 0 0 1 361.1445 401.8413)" fill="#231F20" font-family="'Calibri-Bold'" font-size="14.5974">107</text>
		</g>
	</g>
</g>
<g>
	<g>
		<rect x="399.166" y="389.933" fill="#DADFA1" width="50.191" height="50.179"/>
		<text transform="matrix(1.0003 0 0 1 410.5674 424.3804)" fill="#231F20" font-family="'Calibri-Bold'" font-size="26.5879">Hs</text>
		<text transform="matrix(1.0003 0 0 1 412.9648 434.8823)" fill="#231F20" font-family="'Calibri-Bold'" font-size="6.3864">Has­sium</text>
	</g>
	<g>
		<g>
			<text transform="matrix(1.0003 0 0 1 413.1621 401.8413)" fill="#231F20" font-family="'Calibri-Bold'" font-size="14.5974">108</text>
		</g>
	</g>
</g>
<g>
	<g>
		<rect x="451.183" y="389.933" fill="#DADFA1" width="50.191" height="50.179"/>
		<text transform="matrix(1.0003 0 0 1 460.0439 424.3804)" fill="#231F20" font-family="'Calibri-Bold'" font-size="26.5879">Mt</text>
		<text transform="matrix(1.0003 0 0 1 460.3711 434.8823)" fill="#231F20" font-family="'Calibri-Bold'" font-size="6.3864">Meit­nerium</text>
	</g>
	<g>
		<g>
			<text transform="matrix(1.0003 0 0 1 465.1768 401.8413)" fill="#231F20" font-family="'Calibri-Bold'" font-size="14.5974">109</text>
		</g>
	</g>
</g>
<g>
	<g>
		<rect x="503.199" y="389.933" fill="#DADFA1" width="50.189" height="50.179"/>
		<text transform="matrix(1.0003 0 0 1 514.6055 424.3804)" fill="#231F20" font-family="'Calibri-Bold'" font-size="26.5879">Ds</text>
		<text transform="matrix(1.0003 0 0 1 509.0557 434.8823)" fill="#231F20" font-family="'Calibri-Bold'" font-size="6.3864">Darm­stadtium</text>
	</g>
	<g>
		<g>
			<text transform="matrix(1.0003 0 0 1 517.1924 401.8413)" fill="#231F20" font-family="'Calibri-Bold'" font-size="14.5974">110</text>
		</g>
	</g>
</g>
<g>
	<g>
		<rect x="555.216" y="389.933" fill="#DADFA1" width="50.193" height="50.179"/>
		<text transform="matrix(1.0003 0 0 1 566.5186 424.3804)" fill="#231F20" font-family="'Calibri-Bold'" font-size="26.5879">Rg</text>
		<text transform="matrix(1.0003 0 0 1 562.3721 434.8823)" fill="#231F20" font-family="'Calibri-Bold'" font-size="6.3864">Roent­genium</text>
	</g>
	<g>
		<g>
			<text transform="matrix(1.0003 0 0 1 569.21 401.8413)" fill="#231F20" font-family="'Calibri-Bold'" font-size="14.5974">111</text>
		</g>
	</g>
</g>
<g>
	<g>
		<rect x="607.231" y="389.933" fill="#DADFA1" width="50.191" height="50.179"/>
		<text transform="matrix(1.0003 0 0 1 618.1523 424.3804)" fill="#231F20" font-family="'Calibri-Bold'" font-size="26.5879">Cn</text>
		<text transform="matrix(1.0003 0 0 1 615.4697 434.8823)" fill="#231F20" font-family="'Calibri-Bold'" font-size="6.3864">Coper­nicium</text>
	</g>
	<g>
		<g>
			<text transform="matrix(1.0003 0 0 1 621.2275 401.8413)" fill="#231F20" font-family="'Calibri-Bold'" font-size="14.5974">112</text>
		</g>
	</g>
</g>
<g>
	<g>
		<rect x="659.246" y="389.933" fill="#DADFA1" width="50.192" height="50.179"/>
		<text transform="matrix(1.0003 0 0 1 663.916 425.4028)" fill="#231F20" font-family="'Calibri-Bold'" font-size="26.5879">Uut</text>
		<text transform="matrix(1.0003 0 0 1 669.7168 435.9048)" fill="#231F20" font-family="'Calibri-Bold'" font-size="6.3864">Unun­trium</text>
	</g>
	<g>
		<g>
			<text transform="matrix(1.0003 0 0 1 673.2432 401.8413)" fill="#231F20" font-family="'Calibri-Bold'" font-size="14.5974">113</text>
		</g>
	</g>
</g>
<g>
	<g>
		<rect x="711.266" y="389.933" fill="#DADFA1" width="50.189" height="50.179"/>
		<text transform="matrix(1.0003 0 0 1 726.9883 425.4028)" fill="#231F20" font-family="'Calibri-Bold'" font-size="26.5879">Fl</text>
		<text transform="matrix(1.0003 0 0 1 722.9805 435.9048)" fill="#231F20" font-family="'Calibri-Bold'" font-size="6.3864">Flerov­ium</text>
	</g>
	<g>
		<g>
			<text transform="matrix(1.0003 0 0 1 725.2598 401.8413)" fill="#231F20" font-family="'Calibri-Bold'" font-size="14.5974">114</text>
		</g>
	</g>
</g>
<g>
	<g>
		<rect x="763.28" y="389.933" fill="#DADFA1" width="50.194" height="50.179"/>
		<text transform="matrix(1.0003 0 0 1 765.4219 425.4028)" fill="#231F20" font-family="'Calibri-Bold'" font-size="26.5879">Uup</text>
		<text transform="matrix(1.0003 0 0 1 769.8711 435.9048)" fill="#231F20" font-family="'Calibri-Bold'" font-size="6.3864">Unun­pentium</text>
	</g>
	<g>
		<g>
			<text transform="matrix(1.0003 0 0 1 777.2754 401.8413)" fill="#231F20" font-family="'Calibri-Bold'" font-size="14.5974">115</text>
		</g>
	</g>
</g>
<g>
	<g>
		<rect x="815.298" y="389.933" fill="#DADFA1" width="50.19" height="50.179"/>
		<text transform="matrix(1.0003 0 0 1 828.4766 425.4028)" fill="#231F20" font-family="'Calibri-Bold'" font-size="26.5879">Lv</text>
		<text transform="matrix(1.0003 0 0 1 823.3955 435.9048)" fill="#231F20" font-family="'Calibri-Bold'" font-size="6.3864">Liver­morium</text>
	</g>
	<g>
		<g>
			<text transform="matrix(1.0003 0 0 1 829.293 401.8413)" fill="#231F20" font-family="'Calibri-Bold'" font-size="14.5974">116</text>
		</g>
	</g>
</g>
<g>
	<g>
		<rect x="867.313" y="389.933" fill="#DADFA1" width="50.191" height="50.179"/>
		<text transform="matrix(1.0003 0 0 1 871.2861 424.3804)" fill="#231F20" font-family="'Calibri-Bold'" font-size="26.5879">Uus</text>
		<text transform="matrix(1.0003 0 0 1 874.3438 434.8823)" fill="#231F20" font-family="'Calibri-Bold'" font-size="6.3864">Unun­septium</text>
	</g>
	<g>
		<g>
			<text transform="matrix(1.0003 0 0 1 881.3086 401.8413)" fill="#231F20" font-family="'Calibri-Bold'" font-size="14.5974">117</text>
		</g>
	</g>
</g>
<g>
	<g>
		<rect x="919.332" y="389.933" fill="#DADFA1" width="50.188" height="50.179"/>
		<text transform="matrix(1.0003 0 0 1 921.459 424.3804)" fill="#231F20" font-family="'Calibri-Bold'" font-size="26.5879">Uuo</text>
		<text transform="matrix(1.0003 0 0 1 927.9023 434.8823)" fill="#231F20" font-family="'Calibri-Bold'" font-size="6.3864">Unun­octium</text>
	</g>
	<g>
		<g>
			<text transform="matrix(1.0003 0 0 1 933.3252 401.8413)" fill="#231F20" font-family="'Calibri-Bold'" font-size="14.5974">118</text>
		</g>
	</g>
</g>
<g>
	<text transform="matrix(1.0003 0 0 1 53.6523 74.5981)" fill="#6D6B6B" font-family="'ArialMT'" font-size="14.3166">IA</text>
</g>
<g>
	<text transform="matrix(1.0003 0 0 1 99.7383 125.3892)" fill="#6D6B6B" font-family="'ArialMT'" font-size="14.3166">IIA</text>
</g>
<g>
	<text transform="matrix(1.0003 0 0 1 152.6426 229.354)" fill="#6D6B6B" font-family="'ArialMT'" font-size="14.3166">IIIB</text>
</g>
<g>
	<text transform="matrix(1.0003 0 0 1 206.0566 229.354)" fill="#6D6B6B" font-family="'ArialMT'" font-size="14.3166">IVB</text>
</g>
<g>
	<text transform="matrix(1.0003 0 0 1 255.7813 229.354)" fill="#6D6B6B" font-family="'ArialMT'" font-size="14.3166">VB</text>
</g>
<g>
	<text transform="matrix(1.0003 0 0 1 308.8076 229.354)" fill="#6D6B6B" font-family="'ArialMT'" font-size="14.3166">VIB</text>
</g>
<g>
	<text transform="matrix(1.0003 0 0 1 358.6367 229.354)" fill="#6D6B6B" font-family="'ArialMT'" font-size="14.3166">VIIB</text>
</g>
<g>
	<text transform="matrix(1.0003 0 0 1 455.3555 213.5034)" fill="#6D6B6B" font-family="'ArialMT'" font-size="14.3166">VIIIB</text>
</g>
<g>
	<text transform="matrix(1.0003 0 0 1 623.5195 229.354)" fill="#6D6B6B" font-family="'ArialMT'" font-size="14.3166">IIB</text>
</g>
<g>
	<text transform="matrix(1.0003 0 0 1 569.5625 229.354)" fill="#6D6B6B" font-family="'ArialMT'" font-size="14.3166">IB</text>
</g>
<g>
	<text transform="matrix(1.0003 0 0 1 673.1855 126.0708)" fill="#6D6B6B" font-family="'ArialMT'" font-size="14.3166">IIIA</text>
</g>
<g>
	<text transform="matrix(1.0003 0 0 1 727.624 126.0708)" fill="#6D6B6B" font-family="'ArialMT'" font-size="14.3166">IVA</text>
</g>
<g>
	<text transform="matrix(1.0003 0 0 1 779.3916 126.0708)" fill="#6D6B6B" font-family="'ArialMT'" font-size="14.3166">VA</text>
</g>
<g>
	<text transform="matrix(1.0003 0 0 1 826.8408 126.0708)" fill="#6D6B6B" font-family="'ArialMT'" font-size="14.3166">VIA</text>
</g>
<g>
	<text transform="matrix(1.0003 0 0 1 873.9492 126.0708)" fill="#6D6B6B" font-family="'ArialMT'" font-size="14.3166">VIIA</text>
</g>
<g>
	<text transform="matrix(1.0003 0 0 1 934.6973 74.2593)" fill="#6D6B6B" font-family="'ArialMT'" font-size="14.3166">VIIIA</text>
</g>
<polyline fill="none" stroke="#6D6B6B" stroke-width="1.0227" stroke-miterlimit="10" points="418.469,233.485 418.469,220.435 
	530.851,220.435 530.851,234.023 "/>
</svg>
