selector,english_word,engmeaning,nepali_word,nepmeaning,image
simal tree,simal tree,,,सिमलको रूख,
prevent,prevent,,,"रोक्नु, बचाउनु",
landslides,landslides,,,पहिरो,../landslide.jpg
shade,shade,,छहारी,छाया पार्नु,../shade.jpg
shelter,shelter,,,वासस्थान,
environment,environment,,,वातावरण,
beehive,beehive,,घार,मौरीको गुँड,../beehive.jpg
hang,hang,,,झुन्ड्याउनु,
disease,disease,,,रोग,
injuries,injury,,,चोट,
alone,alone,,,"एक्लो, एक्लै",
discover,discover,,,"पत्ता लगाउनु , आविस्कार गर्नु",
Beam,Beam,,,"थाम,",
thrashed roof,thrashed roof,,खरको छानो,सुकेको घाँस वा गहुँको छ्वालीले छाएको छानो,
hay,hay,,,"पराल, सुकेको घाँस",../hay.jpg
cotton,cotton,,,कपास,../cotton.jpg
Asparagus,Asparagus,,कुरिलो,एक प्रकारको तरकारी,../asparagus.jpg
Bambooshoots,Bambooshoots,,,तामा,../bamboo.jpg
Buckwheat,Buckwheat,,फापर,एक प्रकारको अन्न,../buckwheat.jpg
Hemp plant,Hemp plant,,,भाङको बोट,../hemp.jpg
Nettle,Nettle,,,सिस्नु,
