<?xml version="1.0" encoding="utf-8"?>
<!-- Generator: Adobe Illustrator 15.0.0, SVG Export Plug-In . SVG Version: 6.00 Build 0)  -->
<!DOCTYPE svg PUBLIC "-//W3C//DTD SVG 1.1//EN" "http://www.w3.org/Graphics/SVG/1.1/DTD/svg11.dtd">
<svg version="1.1" id="Layer_1" xmlns="http://www.w3.org/2000/svg" xmlns:xlink="http://www.w3.org/1999/xlink" x="0px" y="0px"
	 width="481px" height="266px" viewBox="-101.5 12 481 266" enable-background="new -101.5 12 481 266" xml:space="preserve">
<g>
	<g>
		<g>
			<circle fill="#FFFDE9" stroke="#F58220" stroke-width="2.52" stroke-miterlimit="10" cx="30.441" cy="144.999" r="73.4"/>
		</g>
		<circle fill="none" stroke="#0095DA" stroke-width="3" stroke-miterlimit="10" cx="30.442" cy="145" r="126.976"/>
	</g>
	<g>
		<g>
			<circle fill="#FFFDE9" stroke="#F58220" stroke-width="2.52" stroke-miterlimit="10" cx="247.557" cy="144.999" r="73.4"/>
		</g>
		<circle fill="none" stroke="#0095DA" stroke-width="3" stroke-miterlimit="10" cx="247.559" cy="145" r="126.976"/>
	</g>
	<g>
		<circle fill="#F8878B" stroke="#AF2E38" stroke-width="0.96" stroke-miterlimit="10" cx="140.563" cy="212.98" r="14.101"/>
	</g>
	<g>
		<circle fill="#F8878B" stroke="#AF2E38" stroke-width="0.96" stroke-miterlimit="10" cx="140.563" cy="82.487" r="14.101"/>
	</g>
</g>
</svg>
