<?xml version="1.0" encoding="utf-8"?>
<!DOCTYPE svg PUBLIC "-//W3C//DTD SVG 1.1//EN" "http://www.w3.org/Graphics/SVG/1.1/DTD/svg11.dtd">
<svg version="1.1" id="Layer_1" xmlns="http://www.w3.org/2000/svg" xmlns:xlink="http://www.w3.org/1999/xlink" x="0px" y="0px"
	 width="282px" height="293px" viewBox="153 0 282 293" enable-background="new 153 0 282 293" xml:space="preserve">
<g>
	<g>
		<circle fill="#FFFDE9" stroke="#F58220" stroke-width="2.52" stroke-miterlimit="10" cx="296.291" cy="151.131" r="73.4"/>
	</g>
	<circle fill="none" stroke="#0095DA" stroke-width="3" stroke-miterlimit="10" cx="296.292" cy="151.132" r="126.976"/>
</g>
<g>
	<circle fill="#F8878B" stroke="#AF2E38" stroke-width="0.96" stroke-miterlimit="10" cx="296.292" cy="26.419" r="14.101"/>
</g>
</svg>
