<?xml version="1.0" encoding="utf-8"?>
<!DOCTYPE svg PUBLIC "-//W3C//DTD SVG 1.1//EN" "http://www.w3.org/Graphics/SVG/1.1/DTD/svg11.dtd">
<svg version="1.1" id="Layer_1" xmlns="http://www.w3.org/2000/svg" xmlns:xlink="http://www.w3.org/1999/xlink" x="0px" y="0px"
	 width="960px" height="580px" viewBox="0 0 960 580" enable-background="new 0 0 960 580" xml:space="preserve">
<g>
	<circle fill="none" stroke="#0095DA" stroke-width="1.8282" stroke-miterlimit="10" cx="178.316" cy="302.01" r="77.378"/>
	<circle fill="none" stroke="#0095DA" stroke-width="1.8282" stroke-miterlimit="10" cx="178.316" cy="302.011" r="98.844"/>
	<g>
		<circle fill="#F8878B" stroke="#AF2E38" stroke-width="0.585" stroke-miterlimit="10" cx="178.316" cy="225.406" r="8.318"/>
		
	</g>
	<g>
		<circle fill="#F8878B" stroke="#AF2E38" stroke-width="0.585" stroke-miterlimit="10" cx="178.316" cy="203.174" r="8.318"/>
		
	</g>
	<g>
		<circle fill="#F8878B" stroke="#AF2E38" stroke-width="0.585" stroke-miterlimit="10" cx="248.089" cy="232.892" r="8.318"/>
		
	</g>
	<g>
		<circle fill="#F8878B" stroke="#AF2E38" stroke-width="0.585" stroke-miterlimit="10" cx="178.316" cy="400.824" r="8.318"/>
		
	</g>
	<g>
		<circle fill="#F8878B" stroke="#AF2E38" stroke-width="0.585" stroke-miterlimit="10" cx="178.316" cy="378.867" r="8.318"/>
		
	</g>
	<g>
		<circle fill="#F8878B" stroke="#AF2E38" stroke-width="0.585" stroke-miterlimit="10" cx="79.907" cy="301.788" r="8.318"/>
		
	</g>
	<g>
		<circle fill="#F8878B" stroke="#AF2E38" stroke-width="0.585" stroke-miterlimit="10" cx="108.124" cy="232.343" r="8.319"/>
		
	</g>
	<g>
		<circle fill="#F8878B" stroke="#AF2E38" stroke-width="0.585" stroke-miterlimit="10" cx="108.765" cy="370.699" r="8.318"/>
		
	</g>
	<g>
		<circle fill="#F8878B" stroke="#AF2E38" stroke-width="0.585" stroke-miterlimit="10" cx="248.31" cy="371.992" r="8.318"/>
		
	</g>
	<g>
		<circle fill="#F8878B" stroke="#AF2E38" stroke-width="0.585" stroke-miterlimit="10" cx="277.167" cy="302.22" r="8.318"/>
		
	</g>
	<g>
		<circle fill="#FFFDE9" stroke="#F58220" stroke-width="1.5357" stroke-miterlimit="10" cx="178.496" cy="302.011" r="44.729"/>
	</g>
	<g>
		<g>
			<circle fill="#F8878B" stroke="#AF2E38" stroke-width="0.585" stroke-miterlimit="10" cx="294.602" cy="328.903" r="8.318"/>
			
		</g>
		<circle fill="none" stroke="#0095DA" stroke-width="1.8282" stroke-miterlimit="10" cx="178.497" cy="302.012" r="120.31"/>
		<set attributeType="CSS" attributeName="opacity" from="1" to="0" dur="0s" begin="translateatom1.end"/>
		<set attributeType="CSS" attributeName="opacity" from="0" to="1" dur="0s" begin="translateatom2.end+2s"/>
	</g>
</g>
<g>
<g>
	<circle fill="none" stroke="#0095DA" stroke-width="1.8282" stroke-miterlimit="10" cx="780.91" cy="448.035" r="98.844"/>
	<circle fill="none" stroke="#0095DA" stroke-width="1.8282" stroke-miterlimit="10" cx="780.729" cy="448.037" r="120.31"/>
	<circle fill="none" stroke="#0095DA" stroke-width="1.8282" stroke-miterlimit="10" cx="780.731" cy="448.038" r="77.378"/>
	<g>
		<circle fill="#F8878B" stroke="#AF2E38" stroke-width="0.585" stroke-miterlimit="10" cx="780.91" cy="372.042" r="8.318"/>
		
	</g>
	<g>
		<circle fill="#F8878B" stroke="#AF2E38" stroke-width="0.585" stroke-miterlimit="10" cx="780.91" cy="546.241" r="8.318"/>
		
	</g>
	<g>
		<circle fill="#F8878B" stroke="#AF2E38" stroke-width="0.585" stroke-miterlimit="10" cx="780.91" cy="523.674" r="8.318"/>
		
	</g>
	<g>
		<circle fill="#F8878B" stroke="#AF2E38" stroke-width="0.585" stroke-miterlimit="10" cx="780.91" cy="349.199" r="8.318"/>
		
	</g>
	<g>
		<circle fill="#F8878B" stroke="#AF2E38" stroke-width="0.585" stroke-miterlimit="10" cx="850.506" cy="377.949" r="8.318"/>
		
	</g>
	<g>
		<circle fill="#F8878B" stroke="#AF2E38" stroke-width="0.585" stroke-miterlimit="10" cx="888.108" cy="396.405" r="8.318"/>
		
	</g>
	<g>
		<circle fill="#F8878B" stroke="#AF2E38" stroke-width="0.585" stroke-miterlimit="10" cx="879.603" cy="447.96" r="8.318"/>
		
	</g>
	<g>
		<circle fill="#F8878B" stroke="#AF2E38" stroke-width="0.585" stroke-miterlimit="10" cx="887.84" cy="505.618" r="8.318"/>
		
	</g>
	<g>
		<circle fill="#F8878B" stroke="#AF2E38" stroke-width="0.585" stroke-miterlimit="10" cx="792.8" cy="566.776" r="8.318"/>
		
	</g>
	<g>
		<circle fill="#F8878B" stroke="#AF2E38" stroke-width="0.585" stroke-miterlimit="10" cx="703.833" cy="539.39" r="8.318"/>
		
	</g>
	<g>
		<circle fill="#F8878B" stroke="#AF2E38" stroke-width="0.585" stroke-miterlimit="10" cx="711.067" cy="517.656" r="8.318"/>
		
	</g>
	<g>
		<circle fill="#F8878B" stroke="#AF2E38" stroke-width="0.585" stroke-miterlimit="10" cx="682.238" cy="447.011" r="8.318"/>
		
	</g>
	<g>
		<circle fill="#F8878B" stroke="#AF2E38" stroke-width="0.585" stroke-miterlimit="10" cx="661.33" cy="438.263" r="8.318"/>
		
	</g>
	<g>
		<circle fill="#F8878B" stroke="#AF2E38" stroke-width="0.585" stroke-miterlimit="10" cx="709.561" cy="351.555" r="8.318"/>
		
	</g>
	<g>
		<circle fill="#F8878B" stroke="#AF2E38" stroke-width="0.585" stroke-miterlimit="10" cx="711.067" cy="378.265" r="8.318"/>
		
	</g>
	<g>
		<circle fill="#F8878B" stroke="#AF2E38" stroke-width="0.585" stroke-miterlimit="10" cx="850.434" cy="516.998" r="8.318"/>
		
	</g>
	<g>
		<circle fill="#FFFDE9" stroke="#F58220" stroke-width="1.5357" stroke-miterlimit="10" cx="780.73" cy="448.037" r="44.729"/>
	</g>
	<g opacity="0">
		<circle fill="#F8878B" stroke="#AF2E38" stroke-width="0.585" stroke-miterlimit="10" cx="809.907" cy="329.616" r="8.319"/>
		<set attributeType="CSS" attributeName="opacity" from="0" to="1" dur="0s" begin="translateatom1.end"/>
		<set attributeType="CSS" attributeName="opacity" from="1" to="0" dur="0s" begin="translateatom2.end+2s"/>
	</g>
	<animateTransform id="rotateatom1" attributeType="xml" attributeName="transform" type="rotate" from="0 780 450" to="-90 780 450" dur="1s" begin="0s;rotateatom2.end+2s" fill="freeze"/>
	<animateTransform id="rotateatom2" attributeType="xml" attributeName="transform" type="rotate" from="-90 780 450" to="0 780 450" dur="1s" begin="rotateatom1.end" fill="freeze"/>
</g>
	<animateTransform id="translateatom1" attributeType="xml" attributeName="transform" type="translate" from="0 0" to="-350 -100" dur="1s" begin="0s;translateatom2.end+2s" fill="freeze"/>
	<animateTransform id="translateatom2" attributeType="xml" attributeName="transform" type="translate" from="-350 -100" to="0 0" dur="1s" begin="translateatom1.end" fill="freeze"/>
</g>	
</svg>
