<?xml version="1.0" encoding="utf-8"?>
<!DOCTYPE svg PUBLIC "-//W3C//DTD SVG 1.1//EN" "http://www.w3.org/Graphics/SVG/1.1/DTD/svg11.dtd">
<svg version="1.1" id="Layer_1" xmlns="http://www.w3.org/2000/svg" xmlns:xlink="http://www.w3.org/1999/xlink" x="0px" y="0px" width="100%" height="100%" viewBox="0 0 687.189 100" xml:space="preserve">
<g transform="translate(0,0)">
	<circle fill="rgb(131, 247, 238)" stroke="rgb(141, 158, 157)" stroke-width="1" cx="10" cy="12" r="8"/>
	<circle fill="rgb(131, 247, 238)" stroke="rgb(141, 158, 157)" stroke-width="1" cx="10" cy="32" r="8"/>
	<circle fill="rgb(131, 247, 238)" stroke="rgb(141, 158, 157)" stroke-width="1" cx="10" cy="51" r="8"/>
	<circle fill="rgb(131, 247, 238)" stroke="rgb(141, 158, 157)" stroke-width="1" cx="10" cy="70" r="8"/>
	<circle fill="rgb(131, 247, 238)" stroke="rgb(141, 158, 157)" stroke-width="1" cx="10" cy="89" r="8"/>
	<animateTransform id="animcol1" attributeName="transform" type="translate" values="0,0;20,0;0,0" dur="0.5s" begin="0s;animcol10.end-0.3"/>
</g>
<g transform="translate(0,0)">
	<circle fill="rgb(131, 247, 238)" stroke="rgb(141, 158, 157)" stroke-width="1" cx="28" cy="12" r="8"/>
	<circle fill="rgb(131, 247, 238)" stroke="rgb(141, 158, 157)" stroke-width="1" cx="28" cy="32" r="8"/>
	<circle fill="rgb(131, 247, 238)" stroke="rgb(141, 158, 157)" stroke-width="1" cx="28" cy="51" r="8"/>
	<circle fill="rgb(131, 247, 238)" stroke="rgb(141, 158, 157)" stroke-width="1" cx="28" cy="70" r="8"/>
	<circle fill="rgb(131, 247, 238)" stroke="rgb(141, 158, 157)" stroke-width="1" cx="28" cy="89" r="8"/>
	<animateTransform id="animcol2" attributeName="transform" type="translate" values="0,0;20,0;0,0" dur="0.5s" begin="animcol1.end-0.4s"/>
</g>
<g transform="translate(0,0)">
	<circle fill="rgb(131, 247, 238)" stroke="rgb(141, 158, 157)" stroke-width="1" cx="47" cy="12" r="8"/>
	<circle fill="rgb(131, 247, 238)" stroke="rgb(141, 158, 157)" stroke-width="1" cx="47" cy="32" r="8"/>
	<circle fill="rgb(131, 247, 238)" stroke="rgb(141, 158, 157)" stroke-width="1" cx="47" cy="51" r="8"/>
	<circle fill="rgb(131, 247, 238)" stroke="rgb(141, 158, 157)" stroke-width="1" cx="47" cy="70" r="8"/>
	<circle fill="rgb(131, 247, 238)" stroke="rgb(141, 158, 157)" stroke-width="1" cx="47" cy="89" r="8"/>
	<animateTransform id="animcol3" attributeName="transform" type="translate" values="0,0;20,0;0,0" dur="0.5s" begin="animcol2.end-0.4s"/>
</g>
<g transform="translate(0,0)">
	<circle fill="rgb(131, 247, 238)" stroke="rgb(141, 158, 157)" stroke-width="1" cx="65" cy="12" r="8"/>
	<circle fill="rgb(131, 247, 238)" stroke="rgb(141, 158, 157)" stroke-width="1" cx="65" cy="32" r="8"/>
	<circle fill="rgb(131, 247, 238)" stroke="rgb(141, 158, 157)" stroke-width="1" cx="65" cy="51" r="8"/>
	<circle fill="rgb(131, 247, 238)" stroke="rgb(141, 158, 157)" stroke-width="1" cx="65" cy="70" r="8"/>
	<circle fill="rgb(131, 247, 238)" stroke="rgb(141, 158, 157)" stroke-width="1" cx="65" cy="89" r="8"/>
	<animateTransform id="animcol4" attributeName="transform" type="translate" values="0,0;20,0;0,0" dur="0.5s" begin="animcol3.end-0.4s"/>
</g>
<g transform="translate(0,0)">
	<circle fill="rgb(131, 247, 238)" stroke="rgb(141, 158, 157)" stroke-width="1" cx="84" cy="12" r="8"/>
	<circle fill="rgb(131, 247, 238)" stroke="rgb(141, 158, 157)" stroke-width="1" cx="84" cy="32" r="8"/>
	<circle fill="rgb(131, 247, 238)" stroke="rgb(141, 158, 157)" stroke-width="1" cx="84" cy="51" r="8"/>
	<circle fill="rgb(131, 247, 238)" stroke="rgb(141, 158, 157)" stroke-width="1" cx="84" cy="70" r="8"/>
	<circle fill="rgb(131, 247, 238)" stroke="rgb(141, 158, 157)" stroke-width="1" cx="84" cy="89" r="8"/>
	<animateTransform id="animcol5" attributeName="transform" type="translate" values="0,0;20,0;0,0" dur="0.5s" begin="animcol4.end-0.4s"/>
</g>
<g transform="translate(0,0)">
	<circle fill="rgb(131, 247, 238)" stroke="rgb(141, 158, 157)" stroke-width="1" cx="102" cy="12" r="8"/>
	<circle fill="rgb(131, 247, 238)" stroke="rgb(141, 158, 157)" stroke-width="1" cx="102" cy="32" r="8"/>
	<circle fill="rgb(131, 247, 238)" stroke="rgb(141, 158, 157)" stroke-width="1" cx="102" cy="51" r="8"/>
	<circle fill="rgb(131, 247, 238)" stroke="rgb(141, 158, 157)" stroke-width="1" cx="102" cy="70" r="8"/>
	<circle fill="rgb(131, 247, 238)" stroke="rgb(141, 158, 157)" stroke-width="1" cx="102" cy="89" r="8"/>
	<animateTransform id="animcol6" attributeName="transform" type="translate" values="0,0;20,0;0,0" dur="0.5s" begin="animcol5.end-0.4s"/>
</g>
<g transform="translate(0,0)">
	<circle fill="rgb(131, 247, 238)" stroke="rgb(141, 158, 157)" stroke-width="1" cx="120" cy="12" r="8"/>
	<circle fill="rgb(131, 247, 238)" stroke="rgb(141, 158, 157)" stroke-width="1" cx="120" cy="32" r="8"/>
	<circle fill="rgb(131, 247, 238)" stroke="rgb(141, 158, 157)" stroke-width="1" cx="120" cy="51" r="8"/>
	<circle fill="rgb(131, 247, 238)" stroke="rgb(141, 158, 157)" stroke-width="1" cx="120" cy="70" r="8"/>
	<circle fill="rgb(131, 247, 238)" stroke="rgb(141, 158, 157)" stroke-width="1" cx="120" cy="89" r="8"/>
	<animateTransform id="animcol7" attributeName="transform" type="translate" values="0,0;20,0;0,0" dur="0.5s" begin="animcol6.end-0.4s"/>
</g>
<g transform="translate(0,0)">
	<circle fill="rgb(131, 247, 238)" stroke="rgb(141, 158, 157)" stroke-width="1" cx="139" cy="12" r="8"/>
	<circle fill="rgb(131, 247, 238)" stroke="rgb(141, 158, 157)" stroke-width="1" cx="139" cy="32" r="8"/>
	<circle fill="rgb(131, 247, 238)" stroke="rgb(141, 158, 157)" stroke-width="1" cx="139" cy="51" r="8"/>
	<circle fill="rgb(131, 247, 238)" stroke="rgb(141, 158, 157)" stroke-width="1" cx="139" cy="70" r="8"/>
	<circle fill="rgb(131, 247, 238)" stroke="rgb(141, 158, 157)" stroke-width="1" cx="139" cy="89" r="8"/>
	<animateTransform id="animcol8" attributeName="transform" type="translate" values="0,0;20,0;0,0" dur="0.5s" begin="animcol7.end-0.4s"/>
</g>
<g transform="translate(0,0)">
	<circle fill="rgb(131, 247, 238)" stroke="rgb(141, 158, 157)" stroke-width="1" cx="157" cy="12" r="8"/>
	<circle fill="rgb(131, 247, 238)" stroke="rgb(141, 158, 157)" stroke-width="1" cx="157" cy="32" r="8"/>
	<circle fill="rgb(131, 247, 238)" stroke="rgb(141, 158, 157)" stroke-width="1" cx="157" cy="51" r="8"/>
	<circle fill="rgb(131, 247, 238)" stroke="rgb(141, 158, 157)" stroke-width="1" cx="157" cy="70" r="8"/>
	<circle fill="rgb(131, 247, 238)" stroke="rgb(141, 158, 157)" stroke-width="1" cx="157" cy="89" r="8"/>
	<animateTransform id="animcol9" attributeName="transform" type="translate" values="0,0;20,0;0,0" dur="0.5s" begin="animcol8.end-0.4s"/>
</g>
<g transform="translate(0,0)">
	<circle fill="rgb(131, 247, 238)" stroke="rgb(141, 158, 157)" stroke-width="1" cx="176" cy="12" r="8"/>
	<circle fill="rgb(131, 247, 238)" stroke="rgb(141, 158, 157)" stroke-width="1" cx="176" cy="32" r="8"/>
	<circle fill="rgb(131, 247, 238)" stroke="rgb(141, 158, 157)" stroke-width="1" cx="176" cy="51" r="8"/>
	<circle fill="rgb(131, 247, 238)" stroke="rgb(141, 158, 157)" stroke-width="1" cx="176" cy="70" r="8"/>
	<circle fill="rgb(131, 247, 238)" stroke="rgb(141, 158, 157)" stroke-width="1" cx="176" cy="89" r="8"/>
	<animateTransform id="animcol10" attributeName="transform" type="translate" values="0,0;20,0;0,0" dur="0.5s" begin="animcol9.end-0.4s"/>
</g>
<g transform="translate(0,0)">
	<circle fill="rgb(131, 247, 238)" stroke="rgb(141, 158, 157)" stroke-width="1" cx="194" cy="12" r="8"/>
	<circle fill="rgb(131, 247, 238)" stroke="rgb(141, 158, 157)" stroke-width="1" cx="194" cy="32" r="8"/>
	<circle fill="rgb(131, 247, 238)" stroke="rgb(141, 158, 157)" stroke-width="1" cx="194" cy="51" r="8"/>
	<circle fill="rgb(131, 247, 238)" stroke="rgb(141, 158, 157)" stroke-width="1" cx="194" cy="70" r="8"/>
	<circle fill="rgb(131, 247, 238)" stroke="rgb(141, 158, 157)" stroke-width="1" cx="194" cy="89" r="8"/>
	<animateTransform id="animcol11" attributeName="transform" type="translate" values="0,0;20,0;0,0" dur="0.5s" begin="animcol10.end-0.4s"/>
</g>
<g transform="translate(0,0)">
	<circle fill="rgb(131, 247, 238)" stroke="rgb(141, 158, 157)" stroke-width="1" cx="213" cy="12" r="8"/>
	<circle fill="rgb(131, 247, 238)" stroke="rgb(141, 158, 157)" stroke-width="1" cx="213" cy="32" r="8"/>
	<circle fill="rgb(131, 247, 238)" stroke="rgb(141, 158, 157)" stroke-width="1" cx="213" cy="51" r="8"/>
	<circle fill="rgb(131, 247, 238)" stroke="rgb(141, 158, 157)" stroke-width="1" cx="213" cy="70" r="8"/>
	<circle fill="rgb(131, 247, 238)" stroke="rgb(141, 158, 157)" stroke-width="1" cx="213" cy="89" r="8"/>
	<animateTransform id="animcol12" attributeName="transform" type="translate" values="0,0;20,0;0,0" dur="0.5s" begin="animcol11.end-0.4s"/>
</g>
<g transform="translate(0,0)">
	<circle fill="rgb(131, 247, 238)" stroke="rgb(141, 158, 157)" stroke-width="1" cx="231" cy="12" r="8"/>
	<circle fill="rgb(131, 247, 238)" stroke="rgb(141, 158, 157)" stroke-width="1" cx="231" cy="32" r="8"/>
	<circle fill="rgb(131, 247, 238)" stroke="rgb(141, 158, 157)" stroke-width="1" cx="231" cy="51" r="8"/>
	<circle fill="rgb(131, 247, 238)" stroke="rgb(141, 158, 157)" stroke-width="1" cx="231" cy="70" r="8"/>
	<circle fill="rgb(131, 247, 238)" stroke="rgb(141, 158, 157)" stroke-width="1" cx="231" cy="89" r="8"/>
	<animateTransform id="animcol13" attributeName="transform" type="translate" values="0,0;20,0;0,0" dur="0.5s" begin="animcol12.end-0.4s"/>
</g>
<g transform="translate(0,0)">
	<circle fill="rgb(131, 247, 238)" stroke="rgb(141, 158, 157)" stroke-width="1" cx="250" cy="12" r="8"/>
	<circle fill="rgb(131, 247, 238)" stroke="rgb(141, 158, 157)" stroke-width="1" cx="250" cy="32" r="8"/>
	<circle fill="rgb(131, 247, 238)" stroke="rgb(141, 158, 157)" stroke-width="1" cx="250" cy="51" r="8"/>
	<circle fill="rgb(131, 247, 238)" stroke="rgb(141, 158, 157)" stroke-width="1" cx="250" cy="70" r="8"/>
	<circle fill="rgb(131, 247, 238)" stroke="rgb(141, 158, 157)" stroke-width="1" cx="250" cy="89" r="8"/>
	<animateTransform id="animcol14" attributeName="transform" type="translate" values="0,0;20,0;0,0" dur="0.5s" begin="animcol13.end-0.4s"/>
</g>
<g transform="translate(0,0)">
	<circle fill="rgb(131, 247, 238)" stroke="rgb(141, 158, 157)" stroke-width="1" cx="268" cy="12" r="8"/>
	<circle fill="rgb(131, 247, 238)" stroke="rgb(141, 158, 157)" stroke-width="1" cx="268" cy="32" r="8"/>
	<circle fill="rgb(131, 247, 238)" stroke="rgb(141, 158, 157)" stroke-width="1" cx="268" cy="51" r="8"/>
	<circle fill="rgb(131, 247, 238)" stroke="rgb(141, 158, 157)" stroke-width="1" cx="268" cy="70" r="8"/>
	<circle fill="rgb(131, 247, 238)" stroke="rgb(141, 158, 157)" stroke-width="1" cx="268" cy="89" r="8"/>
	<animateTransform id="animcol15" attributeName="transform" type="translate" values="0,0;20,0;0,0" dur="0.5s" begin="animcol14.end-0.4s"/>
</g>
<g transform="translate(0,0)">
	<circle fill="rgb(131, 247, 238)" stroke="rgb(141, 158, 157)" stroke-width="1" cx="286" cy="12" r="8"/>
	<circle fill="rgb(131, 247, 238)" stroke="rgb(141, 158, 157)" stroke-width="1" cx="286" cy="32" r="8"/>
	<circle fill="rgb(131, 247, 238)" stroke="rgb(141, 158, 157)" stroke-width="1" cx="286" cy="51" r="8"/>
	<circle fill="rgb(131, 247, 238)" stroke="rgb(141, 158, 157)" stroke-width="1" cx="286" cy="70" r="8"/>
	<circle fill="rgb(131, 247, 238)" stroke="rgb(141, 158, 157)" stroke-width="1" cx="286" cy="89" r="8"/>
	<animateTransform id="animcol16" attributeName="transform" type="translate" values="0,0;20,0;0,0" dur="0.5s" begin="animcol15.end-0.4s"/>
</g>
<g transform="translate(0,0)">
	<circle fill="rgb(131, 247, 238)" stroke="rgb(141, 158, 157)" stroke-width="1" cx="305" cy="12" r="8"/>
	<circle fill="rgb(131, 247, 238)" stroke="rgb(141, 158, 157)" stroke-width="1" cx="305" cy="32" r="8"/>
	<circle fill="rgb(131, 247, 238)" stroke="rgb(141, 158, 157)" stroke-width="1" cx="305" cy="51" r="8"/>
	<circle fill="rgb(131, 247, 238)" stroke="rgb(141, 158, 157)" stroke-width="1" cx="305" cy="70" r="8"/>
	<circle fill="rgb(131, 247, 238)" stroke="rgb(141, 158, 157)" stroke-width="1" cx="305" cy="89" r="8"/>
	<animateTransform id="animcol17" attributeName="transform" type="translate" values="0,0;20,0;0,0" dur="0.5s" begin="animcol16.end-0.4s"/>
</g>
<g transform="translate(0,0)">
	<circle fill="rgb(131, 247, 238)" stroke="rgb(141, 158, 157)" stroke-width="1" cx="323" cy="12" r="8"/>
	<circle fill="rgb(131, 247, 238)" stroke="rgb(141, 158, 157)" stroke-width="1" cx="323" cy="32" r="8"/>
	<circle fill="rgb(131, 247, 238)" stroke="rgb(141, 158, 157)" stroke-width="1" cx="323" cy="51" r="8"/>
	<circle fill="rgb(131, 247, 238)" stroke="rgb(141, 158, 157)" stroke-width="1" cx="323" cy="70" r="8"/>
	<circle fill="rgb(131, 247, 238)" stroke="rgb(141, 158, 157)" stroke-width="1" cx="323" cy="89" r="8"/>
	<animateTransform id="animcol18" attributeName="transform" type="translate" values="0,0;20,0;0,0" dur="0.5s" begin="animcol17.end-0.4s"/>
</g>
<g transform="translate(0,0)">
	<circle fill="rgb(131, 247, 238)" stroke="rgb(141, 158, 157)" stroke-width="1" cx="342" cy="12" r="8"/>
	<circle fill="rgb(131, 247, 238)" stroke="rgb(141, 158, 157)" stroke-width="1" cx="342" cy="32" r="8"/>
	<circle fill="rgb(131, 247, 238)" stroke="rgb(141, 158, 157)" stroke-width="1" cx="342" cy="51" r="8"/>
	<circle fill="rgb(131, 247, 238)" stroke="rgb(141, 158, 157)" stroke-width="1" cx="342" cy="70" r="8"/>
	<circle fill="rgb(131, 247, 238)" stroke="rgb(141, 158, 157)" stroke-width="1" cx="342" cy="89" r="8"/>
	<animateTransform id="animcol19" attributeName="transform" type="translate" values="0,0;20,0;0,0" dur="0.5s" begin="animcol18.end-0.4s"/>
</g>
<g transform="translate(0,0)">
	<circle fill="rgb(131, 247, 238)" stroke="rgb(141, 158, 157)" stroke-width="1" cx="360" cy="12" r="8"/>
	<circle fill="rgb(131, 247, 238)" stroke="rgb(141, 158, 157)" stroke-width="1" cx="360" cy="32" r="8"/>
	<circle fill="rgb(131, 247, 238)" stroke="rgb(141, 158, 157)" stroke-width="1" cx="360" cy="51" r="8"/>
	<circle fill="rgb(131, 247, 238)" stroke="rgb(141, 158, 157)" stroke-width="1" cx="360" cy="70" r="8"/>
	<circle fill="rgb(131, 247, 238)" stroke="rgb(141, 158, 157)" stroke-width="1" cx="360" cy="89" r="8"/>
	<animateTransform id="animcol20" attributeName="transform" type="translate" values="0,0;20,0;0,0" dur="0.5s" begin="animcol19.end-0.4s"/>
</g>
<g transform="translate(0,0)">
	<circle fill="rgb(131, 247, 238)" stroke="rgb(141, 158, 157)" stroke-width="1" cx="379" cy="12" r="8"/>
	<circle fill="rgb(131, 247, 238)" stroke="rgb(141, 158, 157)" stroke-width="1" cx="379" cy="32" r="8"/>
	<circle fill="rgb(131, 247, 238)" stroke="rgb(141, 158, 157)" stroke-width="1" cx="379" cy="51" r="8"/>
	<circle fill="rgb(131, 247, 238)" stroke="rgb(141, 158, 157)" stroke-width="1" cx="379" cy="70" r="8"/>
	<circle fill="rgb(131, 247, 238)" stroke="rgb(141, 158, 157)" stroke-width="1" cx="379" cy="89" r="8"/>
	<animateTransform id="animcol21" attributeName="transform" type="translate" values="0,0;20,0;0,0" dur="0.5s" begin="animcol20.end-0.4s"/>
</g>
<g transform="translate(0,0)">
	<circle fill="rgb(131, 247, 238)" stroke="rgb(141, 158, 157)" stroke-width="1" cx="397" cy="12" r="8"/>
	<circle fill="rgb(131, 247, 238)" stroke="rgb(141, 158, 157)" stroke-width="1" cx="397" cy="32" r="8"/>
	<circle fill="rgb(131, 247, 238)" stroke="rgb(141, 158, 157)" stroke-width="1" cx="397" cy="51" r="8"/>
	<circle fill="rgb(131, 247, 238)" stroke="rgb(141, 158, 157)" stroke-width="1" cx="397" cy="70" r="8"/>
	<circle fill="rgb(131, 247, 238)" stroke="rgb(141, 158, 157)" stroke-width="1" cx="397" cy="89" r="8"/>
	<animateTransform id="animcol22" attributeName="transform" type="translate" values="0,0;20,0;0,0" dur="0.5s" begin="animcol21.end-0.4s"/>
</g>
<g transform="translate(0,0)">
	<circle fill="rgb(131, 247, 238)" stroke="rgb(141, 158, 157)" stroke-width="1" cx="416" cy="12" r="8"/>
	<circle fill="rgb(131, 247, 238)" stroke="rgb(141, 158, 157)" stroke-width="1" cx="416" cy="32" r="8"/>
	<circle fill="rgb(131, 247, 238)" stroke="rgb(141, 158, 157)" stroke-width="1" cx="416" cy="51" r="8"/>
	<circle fill="rgb(131, 247, 238)" stroke="rgb(141, 158, 157)" stroke-width="1" cx="416" cy="70" r="8"/>
	<circle fill="rgb(131, 247, 238)" stroke="rgb(141, 158, 157)" stroke-width="1" cx="416" cy="89" r="8"/>
	<animateTransform id="animcol23" attributeName="transform" type="translate" values="0,0;20,0;0,0" dur="0.5s" begin="animcol22.end-0.4s"/>
</g>
<g transform="translate(0,0)">
	<circle fill="rgb(131, 247, 238)" stroke="rgb(141, 158, 157)" stroke-width="1" cx="434" cy="12" r="8"/>
	<circle fill="rgb(131, 247, 238)" stroke="rgb(141, 158, 157)" stroke-width="1" cx="434" cy="32" r="8"/>
	<circle fill="rgb(131, 247, 238)" stroke="rgb(141, 158, 157)" stroke-width="1" cx="434" cy="51" r="8"/>
	<circle fill="rgb(131, 247, 238)" stroke="rgb(141, 158, 157)" stroke-width="1" cx="434" cy="70" r="8"/>
	<circle fill="rgb(131, 247, 238)" stroke="rgb(141, 158, 157)" stroke-width="1" cx="434" cy="89" r="8"/>
	<animateTransform id="animcol24" attributeName="transform" type="translate" values="0,0;20,0;0,0" dur="0.5s" begin="animcol23.end-0.4s"/>
</g>
<g transform="translate(0,0)">
	<circle fill="rgb(131, 247, 238)" stroke="rgb(141, 158, 157)" stroke-width="1" cx="452" cy="12" r="8"/>
	<circle fill="rgb(131, 247, 238)" stroke="rgb(141, 158, 157)" stroke-width="1" cx="452" cy="32" r="8"/>
	<circle fill="rgb(131, 247, 238)" stroke="rgb(141, 158, 157)" stroke-width="1" cx="452" cy="51" r="8"/>
	<circle fill="rgb(131, 247, 238)" stroke="rgb(141, 158, 157)" stroke-width="1" cx="452" cy="70" r="8"/>
	<circle fill="rgb(131, 247, 238)" stroke="rgb(141, 158, 157)" stroke-width="1" cx="452" cy="89" r="8"/>
	<animateTransform id="animcol25" attributeName="transform" type="translate" values="0,0;20,0;0,0" dur="0.5s" begin="animcol24.end-0.4s"/>
</g>
<g transform="translate(0,0)">
	<circle fill="rgb(131, 247, 238)" stroke="rgb(141, 158, 157)" stroke-width="1" cx="471" cy="12" r="8"/>
	<circle fill="rgb(131, 247, 238)" stroke="rgb(141, 158, 157)" stroke-width="1" cx="471" cy="32" r="8"/>
	<circle fill="rgb(131, 247, 238)" stroke="rgb(141, 158, 157)" stroke-width="1" cx="471" cy="51" r="8"/>
	<circle fill="rgb(131, 247, 238)" stroke="rgb(141, 158, 157)" stroke-width="1" cx="471" cy="70" r="8"/>
	<circle fill="rgb(131, 247, 238)" stroke="rgb(141, 158, 157)" stroke-width="1" cx="471" cy="89" r="8"/>
	<animateTransform id="animcol26" attributeName="transform" type="translate" values="0,0;20,0;0,0" dur="0.5s" begin="animcol25.end-0.4s"/>
</g>
<g transform="translate(0,0)">
	<circle fill="rgb(131, 247, 238)" stroke="rgb(141, 158, 157)" stroke-width="1" cx="489" cy="12" r="8"/>
	<circle fill="rgb(131, 247, 238)" stroke="rgb(141, 158, 157)" stroke-width="1" cx="489" cy="32" r="8"/>
	<circle fill="rgb(131, 247, 238)" stroke="rgb(141, 158, 157)" stroke-width="1" cx="489" cy="51" r="8"/>
	<circle fill="rgb(131, 247, 238)" stroke="rgb(141, 158, 157)" stroke-width="1" cx="489" cy="70" r="8"/>
	<circle fill="rgb(131, 247, 238)" stroke="rgb(141, 158, 157)" stroke-width="1" cx="489" cy="89" r="8"/>
	<animateTransform id="animcol27" attributeName="transform" type="translate" values="0,0;20,0;0,0" dur="0.5s" begin="animcol26.end-0.4s"/>
</g>
<g transform="translate(0,0)">
	<circle fill="rgb(131, 247, 238)" stroke="rgb(141, 158, 157)" stroke-width="1" cx="508" cy="12" r="8"/>
	<circle fill="rgb(131, 247, 238)" stroke="rgb(141, 158, 157)" stroke-width="1" cx="508" cy="32" r="8"/>
	<circle fill="rgb(131, 247, 238)" stroke="rgb(141, 158, 157)" stroke-width="1" cx="508" cy="51" r="8"/>
	<circle fill="rgb(131, 247, 238)" stroke="rgb(141, 158, 157)" stroke-width="1" cx="508" cy="70" r="8"/>
	<circle fill="rgb(131, 247, 238)" stroke="rgb(141, 158, 157)" stroke-width="1" cx="508" cy="89" r="8"/>
	<animateTransform id="animcol28" attributeName="transform" type="translate" values="0,0;20,0;0,0" dur="0.5s" begin="animcol27.end-0.4s"/>
</g>
<g transform="translate(0,0)">
	<circle fill="rgb(131, 247, 238)" stroke="rgb(141, 158, 157)" stroke-width="1" cx="526" cy="12" r="8"/>
	<circle fill="rgb(131, 247, 238)" stroke="rgb(141, 158, 157)" stroke-width="1" cx="526" cy="32" r="8"/>
	<circle fill="rgb(131, 247, 238)" stroke="rgb(141, 158, 157)" stroke-width="1" cx="526" cy="51" r="8"/>
	<circle fill="rgb(131, 247, 238)" stroke="rgb(141, 158, 157)" stroke-width="1" cx="526" cy="70" r="8"/>
	<circle fill="rgb(131, 247, 238)" stroke="rgb(141, 158, 157)" stroke-width="1" cx="526" cy="89" r="8"/>
	<animateTransform id="animcol29" attributeName="transform" type="translate" values="0,0;20,0;0,0" dur="0.5s" begin="animcol28.end-0.4s"/>
</g>
<g transform="translate(0,0)">
	<circle fill="rgb(131, 247, 238)" stroke="rgb(141, 158, 157)" stroke-width="1" cx="545" cy="12" r="8"/>
	<circle fill="rgb(131, 247, 238)" stroke="rgb(141, 158, 157)" stroke-width="1" cx="545" cy="32" r="8"/>
	<circle fill="rgb(131, 247, 238)" stroke="rgb(141, 158, 157)" stroke-width="1" cx="545" cy="51" r="8"/>
	<circle fill="rgb(131, 247, 238)" stroke="rgb(141, 158, 157)" stroke-width="1" cx="545" cy="70" r="8"/>
	<circle fill="rgb(131, 247, 238)" stroke="rgb(141, 158, 157)" stroke-width="1" cx="545" cy="89" r="8"/>
	<animateTransform id="animcol30" attributeName="transform" type="translate" values="0,0;20,0;0,0" dur="0.5s" begin="animcol29.end-0.4s"/>
</g>
<g transform="translate(0,0)">
	<circle fill="rgb(131, 247, 238)" stroke="rgb(141, 158, 157)" stroke-width="1" cx="563" cy="12" r="8"/>
	<circle fill="rgb(131, 247, 238)" stroke="rgb(141, 158, 157)" stroke-width="1" cx="563" cy="32" r="8"/>
	<circle fill="rgb(131, 247, 238)" stroke="rgb(141, 158, 157)" stroke-width="1" cx="563" cy="51" r="8"/>
	<circle fill="rgb(131, 247, 238)" stroke="rgb(141, 158, 157)" stroke-width="1" cx="563" cy="70" r="8"/>
	<circle fill="rgb(131, 247, 238)" stroke="rgb(141, 158, 157)" stroke-width="1" cx="563" cy="89" r="8"/>
	<animateTransform id="animcol31" attributeName="transform" type="translate" values="0,0;20,0;0,0" dur="0.5s" begin="animcol30.end-0.4s"/>
</g>
<g transform="translate(0,0)">
	<circle fill="rgb(131, 247, 238)" stroke="rgb(141, 158, 157)" stroke-width="1" cx="582" cy="12" r="8"/>
	<circle fill="rgb(131, 247, 238)" stroke="rgb(141, 158, 157)" stroke-width="1" cx="582" cy="32" r="8"/>
	<circle fill="rgb(131, 247, 238)" stroke="rgb(141, 158, 157)" stroke-width="1" cx="582" cy="51" r="8"/>
	<circle fill="rgb(131, 247, 238)" stroke="rgb(141, 158, 157)" stroke-width="1" cx="582" cy="70" r="8"/>
	<circle fill="rgb(131, 247, 238)" stroke="rgb(141, 158, 157)" stroke-width="1" cx="582" cy="89" r="8"/>
	<animateTransform id="animcol32" attributeName="transform" type="translate" values="0,0;20,0;0,0" dur="0.5s" begin="animcol31.end-0.4s"/>
</g>
<g transform="translate(0,0)">
	<circle fill="rgb(131, 247, 238)" stroke="rgb(141, 158, 157)" stroke-width="1" cx="600" cy="12" r="8"/>
	<circle fill="rgb(131, 247, 238)" stroke="rgb(141, 158, 157)" stroke-width="1" cx="600" cy="32" r="8"/>
	<circle fill="rgb(131, 247, 238)" stroke="rgb(141, 158, 157)" stroke-width="1" cx="600" cy="51" r="8"/>
	<circle fill="rgb(131, 247, 238)" stroke="rgb(141, 158, 157)" stroke-width="1" cx="600" cy="70" r="8"/>
	<circle fill="rgb(131, 247, 238)" stroke="rgb(141, 158, 157)" stroke-width="1" cx="600" cy="89" r="8"/>
	<animateTransform id="animcol33" attributeName="transform" type="translate" values="0,0;20,0;0,0" dur="0.5s" begin="animcol32.end-0.4s"/>
</g>
<g transform="translate(0,0)">
	<circle fill="rgb(131, 247, 238)" stroke="rgb(141, 158, 157)" stroke-width="1" cx="618" cy="12" r="8"/>
	<circle fill="rgb(131, 247, 238)" stroke="rgb(141, 158, 157)" stroke-width="1" cx="618" cy="32" r="8"/>
	<circle fill="rgb(131, 247, 238)" stroke="rgb(141, 158, 157)" stroke-width="1" cx="618" cy="51" r="8"/>
	<circle fill="rgb(131, 247, 238)" stroke="rgb(141, 158, 157)" stroke-width="1" cx="618" cy="70" r="8"/>
	<circle fill="rgb(131, 247, 238)" stroke="rgb(141, 158, 157)" stroke-width="1" cx="618" cy="89" r="8"/>
	<animateTransform id="animcol34" attributeName="transform" type="translate" values="0,0;20,0;0,0" dur="0.5s" begin="animcol33.end-0.4s"/>
</g>
<g transform="translate(0,0)">
	<circle fill="rgb(131, 247, 238)" stroke="rgb(141, 158, 157)" stroke-width="1" cx="637" cy="12" r="8"/>
	<circle fill="rgb(131, 247, 238)" stroke="rgb(141, 158, 157)" stroke-width="1" cx="637" cy="32" r="8"/>
	<circle fill="rgb(131, 247, 238)" stroke="rgb(141, 158, 157)" stroke-width="1" cx="637" cy="51" r="8"/>
	<circle fill="rgb(131, 247, 238)" stroke="rgb(141, 158, 157)" stroke-width="1" cx="637" cy="70" r="8"/>
	<circle fill="rgb(131, 247, 238)" stroke="rgb(141, 158, 157)" stroke-width="1" cx="637" cy="89" r="8"/>
	<animateTransform id="animcol35" attributeName="transform" type="translate" values="0,0;20,0;0,0" dur="0.5s" begin="animcol34.end-0.4s"/>
</g>
<g transform="translate(0,0)">
	<circle fill="rgb(131, 247, 238)" stroke="rgb(141, 158, 157)" stroke-width="1" cx="655" cy="12" r="8"/>
	<circle fill="rgb(131, 247, 238)" stroke="rgb(141, 158, 157)" stroke-width="1" cx="655" cy="32" r="8"/>
	<circle fill="rgb(131, 247, 238)" stroke="rgb(141, 158, 157)" stroke-width="1" cx="655" cy="51" r="8"/>
	<circle fill="rgb(131, 247, 238)" stroke="rgb(141, 158, 157)" stroke-width="1" cx="655" cy="70" r="8"/>
	<circle fill="rgb(131, 247, 238)" stroke="rgb(141, 158, 157)" stroke-width="1" cx="655" cy="89" r="8"/>
	<animateTransform id="animcol36" attributeName="transform" type="translate" values="0,0;20,0;0,0" dur="0.5s" begin="animcol35.end-0.4s"/>
</g>
<g transform="translate(0,0)">
	<circle fill="rgb(131, 247, 238)" stroke="rgb(141, 158, 157)" stroke-width="1" cx="674" cy="12" r="8"/>
	<circle fill="rgb(131, 247, 238)" stroke="rgb(141, 158, 157)" stroke-width="1" cx="674" cy="32" r="8"/>
	<circle fill="rgb(131, 247, 238)" stroke="rgb(141, 158, 157)" stroke-width="1" cx="674" cy="51" r="8"/>
	<circle fill="rgb(131, 247, 238)" stroke="rgb(141, 158, 157)" stroke-width="1" cx="674" cy="70" r="8"/>
	<circle fill="rgb(131, 247, 238)" stroke="rgb(141, 158, 157)" stroke-width="1" cx="674" cy="89" r="8"/>

	<animateTransform id="animcol37" attributeName="transform" type="translate" values="0,0;20,0;0,0" dur="0.5s" begin="animcol36.end-0.4s"/>
</g>
</svg>
