selector,english_word,engmeaning,nepali_word,nepmeaning,image
estimated,estimate,,अनुमान गर्नु,,
cosideration,cosideration,,बिचार गर्नु,,
prevailing system,prevailing system,,पहिलेदेखिको चलन,,
universal,universal,,विश्वव्यापी,,
debates,debate,,"विवाद गर्नु, बहस गर्नु",,
accepted,accept,,स्वीकार गर्नु,,
Standard measurement,Standard measurement,,प्रामाणिक नाप,,
technique,technique,,प्रविधि,,
authentic,authentic,,आधिकारिक,,
globally,globally,,विश्वव्यापी,,
