<?xml version="1.0" encoding="utf-8"?>
<!-- Generator: Adobe Illustrator 15.0.0, SVG Export Plug-In . SVG Version: 6.00 Build 0)  -->
<!DOCTYPE svg PUBLIC "-//W3C//DTD SVG 1.1//EN" "http://www.w3.org/Graphics/SVG/1.1/DTD/svg11.dtd">
<svg version="1.1" id="Layer_1" xmlns="http://www.w3.org/2000/svg" xmlns:xlink="http://www.w3.org/1999/xlink" x="0px" y="0px"
	 width="831.77px" height="1137.775px" viewBox="-110 -40 831.77 1137.775" enable-background="new -110 -40 831.77 1137.775"
	 xml:space="preserve">
<path fill="#F4CCAB" d="M200.309,593.021h193.354c-49.977-5.889-81.253-27.35-71.11-110.409
	c7.016-57.439-100.134-11.441-100.134-11.441C224.89,577.839,216.753,578.366,200.309,593.021z"/>
<path fill="#F4CCAB" d="M478.781,286.668c1.7,111.132-63.994,222.171-196.501,222.171c-117.779,0-198.206-104.963-199.91-216.096
	C49.518,131.654,119.329,44.721,281.228,44.712C437.306,44.712,493.767,117.629,478.781,286.668z"/>
<g id="mouth">
	<g>
		<path fill="#212121" d="M224.91,421.243c5.46,16.438,29.652,21.22,44.319,23.129c23.124,3.01,48.963-0.772,67.601-15.593
			c2.811-2.233-1.156-6.146-3.936-3.937c-16.636,13.229-39.487,16.142-60.063,14.353c-9.382-0.815-18.929-2.909-27.579-6.689
			c-5.721-2.501-12.869-6.406-14.973-12.743C229.152,416.373,223.775,417.826,224.91,421.243L224.91,421.243z"/>
	</g>
</g>
<path fill="#F4CCAB" d="M529.667,307.721c0,20.943-16.074,37.932-35.898,37.932c-19.822,0-35.896-16.987-35.896-37.932
	c0-20.958,16.999-31.93,35.896-37.928C510.802,264.391,529.667,286.763,529.667,307.721z"/>
<path fill="#F4CCAB" d="M107.403,311.574c0,20.947-16.07,37.931-35.892,37.931c-19.828,0-35.903-16.983-35.903-37.931
	c0-20.954,16.704-44.292,36.532-44.292C91.965,267.282,107.403,290.62,107.403,311.574z"/>
<g>
	<g>
		<path fill="#212121" d="M358.301,229.151c24.193-8.085,52.675-3.72,74.229,9.604c10.415,6.438,19.913-9.941,9.556-16.345
			c-25.559-15.799-60.111-21.104-88.816-11.512C341.752,214.746,346.689,233.031,358.301,229.151L358.301,229.151z"/>
	</g>
</g>
<g>
	<g>
		<path fill="#212121" d="M133.487,238.763c21.315-14.003,49.989-17.049,74.219-9.677c11.709,3.563,16.677-14.71,5.032-18.253
			c-28.735-8.743-63.522-5.025-88.805,11.585C113.779,229.089,123.252,245.487,133.487,238.763L133.487,238.763z"/>
	</g>
</g>
<g id="nose-round" display="none">
	<path display="inline" fill="#F4CCAB" d="M254.183,365.543c-4.89,7.443-12.974,11.946-9.205,22.997
		c5.188,15.211,19.91-4.922,25.096,4.229c3.619,6.367,20.051,7.275,23.473,1.517c6.417-10.824,19.468,4.269,23.519-1.353
		c7.99-11.1-2.136-21.978-10.081-27.392"/>
	<path display="inline" fill="#212121" d="M254.183,365.543c-1.45,2.573-3.344,4.891-5.075,7.239
		c-1.725,2.343-3.303,4.812-3.83,7.511c-0.585,2.678-0.106,5.458,0.922,8.04c0.515,1.263,1.146,2.466,1.988,3.306
		c0.838,0.848,1.824,1.264,2.979,1.291c1.156,0.028,2.442-0.291,3.735-0.734c1.297-0.451,2.608-1.036,3.965-1.627
		c1.36-0.588,2.759-1.202,4.345-1.649c0.795-0.222,1.646-0.386,2.583-0.411c0.929-0.025,1.975,0.119,2.942,0.576
		c0.971,0.449,1.779,1.182,2.348,1.952c0.146,0.192,0.275,0.39,0.4,0.587l0.29,0.479c0.118,0.174,0.284,0.391,0.471,0.596
		c0.75,0.82,1.834,1.5,3.019,2.019c2.393,1.021,5.15,1.554,7.866,1.595c2.686,0.035,5.528-0.381,7.528-1.604
		c0.486-0.306,0.895-0.653,1.191-1.026c0.088-0.109,0.114-0.15,0.229-0.324l0.298-0.465c0.258-0.379,0.525-0.736,0.799-1.063
		c1.105-1.335,2.715-2.475,4.508-2.916c1.789-0.452,3.556-0.301,5.129,0.044c1.587,0.349,3.041,0.888,4.44,1.442
		c1.395,0.563,2.73,1.174,4.04,1.668c1.284,0.49,2.643,0.883,3.568,0.742c0.452-0.072,0.749-0.229,1.048-0.574
		c0.063-0.063,0.168-0.217,0.281-0.371c0.114-0.152,0.209-0.29,0.298-0.424c0.185-0.264,0.37-0.561,0.541-0.85
		c0.688-1.168,1.231-2.408,1.544-3.716c0.655-2.612,0.309-5.431-0.708-8.043c-1.006-2.631-2.648-5.044-4.52-7.257
		c-1.894-2.202-4.04-4.219-6.364-6.028c2.531,1.511,4.927,3.284,7.073,5.36c2.149,2.066,4.049,4.465,5.397,7.236
		c1.344,2.76,1.967,6.025,1.396,9.197c-0.275,1.577-0.813,3.109-1.563,4.506c-0.188,0.354-0.377,0.689-0.597,1.04
		c-0.107,0.179-0.215,0.349-0.313,0.493c-0.1,0.145-0.189,0.303-0.365,0.523c-0.601,0.824-1.651,1.463-2.653,1.632
		c-1.006,0.192-1.902,0.083-2.728-0.063c-0.822-0.158-1.583-0.386-2.316-0.629c-1.463-0.49-2.831-1.043-4.183-1.537
		c-2.65-0.992-5.417-1.8-7.585-1.179c-1.067,0.302-1.967,0.953-2.721,1.89c-0.191,0.244-0.356,0.479-0.511,0.711l-0.287,0.472
		c-0.083,0.138-0.251,0.407-0.391,0.588c-0.592,0.801-1.321,1.421-2.077,1.901c-1.52,0.961-3.122,1.471-4.706,1.801
		c-1.589,0.324-3.179,0.452-4.759,0.442c-3.153-0.045-6.313-0.531-9.319-1.872c-1.491-0.68-2.974-1.568-4.211-2.934
		c-0.303-0.342-0.589-0.708-0.87-1.15l-0.277-0.47c-0.07-0.112-0.143-0.226-0.217-0.325c-0.3-0.414-0.623-0.689-0.986-0.869
		c-0.704-0.369-1.857-0.315-3.116-0.004c-1.263,0.305-2.592,0.818-3.947,1.353c-1.36,0.534-2.758,1.104-4.258,1.567
		c-1.495,0.457-3.128,0.836-4.922,0.68c-0.89-0.077-1.811-0.316-2.643-0.74c-0.834-0.422-1.558-1.018-2.137-1.677
		c-1.157-1.337-1.825-2.847-2.294-4.343c-0.94-2.932-1.299-6.241-0.394-9.299c0.906-3.06,2.827-5.531,4.803-7.717
		C250.292,369.927,252.401,367.896,254.183,365.543z"/>
</g>
<g id="eye-happy" display="none">
	<g display="inline">
		<g>
			<path fill="#212121" d="M334.72,294.168c16.519-17.41,35.392-32.895,60.272-34.92c11.651-0.948,22.781,0.895,32.086,8.276
				c9.919,7.867,14.828,19.757,14.908,32.239c0.027,4.196,6.536,4.199,6.51,0c-0.087-13.522-5.104-26.052-15.049-35.323
				c-9.023-8.415-20.107-11.583-32.19-11.877c-29.105-0.708-52.099,16.933-71.142,37.003
				C327.23,292.608,331.826,297.219,334.72,294.168L334.72,294.168z"/>
		</g>
	</g>
	<g display="inline">
		<g>
			<path fill="#212121" d="M241.557,289.566c-18.951-19.974-40.873-36.499-69.547-37.008c-12.414-0.221-23.351,3.106-32.909,11.108
				c-10.638,8.905-15.837,22.459-15.924,36.097c-0.026,4.199,6.482,4.196,6.51,0c0.078-12.316,4.759-23.315,14.017-31.494
				c8.892-7.854,19.95-9.561,31.438-9.113c25.383,0.988,45.156,17.458,61.813,35.013
				C239.848,297.219,244.444,292.608,241.557,289.566L241.557,289.566z"/>
		</g>
	</g>
</g>
<g id="eye-main" display="none">
	<g display="inline">
		<path fill="#FFFFFF" d="M445.507,293.399c-21.684,22.092-48.973,28.982-74.436,25.9c-31.931-3.861-35.404,4.23-35.445,0.652
			c-0.161-13.879,39.316-55.081,53.752-58.029C422.121,255.23,442.297,271.51,445.507,293.399z"/>
	</g>
	<g display="inline">
		<g>
			<path fill="#212121" d="M338.781,316.943c10.721-20.727,24.143-40.467,46.726-49.329c10.839-4.253,21.684-5.623,32.715-1.555
				c11.897,4.387,20.167,14.801,23.688,26.711c1.171,3.958,7.363,2.271,6.188-1.706c-3.822-12.922-12.149-23.565-24.319-29.546
				c-11.156-5.484-22.685-5.237-34.418-1.952c-27.171,7.607-43.773,30.273-56.119,54.141
				C331.343,317.375,336.88,320.62,338.781,316.943L338.781,316.943z"/>
		</g>
	</g>
	<g display="inline">
		<path fill="#FFFFFF" d="M127.444,295.126c22.542,21.208,50.087,27.008,75.409,22.91c31.757-5.132,35.545,2.815,35.445-0.761
			c-0.396-13.875-41.479-53.469-56.019-55.84C149.292,256.053,129.782,273.125,127.444,295.126z"/>
	</g>
	<g display="inline">
		<path class="eyeball" fill="#190D05" d="M404.499,293.962c0.493,14.362-8.852,26.347-20.872,26.755c-11.995,0.409-22.134-10.904-22.615-25.264
			c-0.496-14.355,8.84-26.343,20.83-26.756C393.866,268.288,404.004,279.611,404.499,293.962z"/>
		<path class="eyeball" fill="#190D05" d="M172.516,294.531c-0.377,14.367,9.059,26.271,21.083,26.587c11.99,0.313,22.042-11.079,22.419-25.441
			c0.383-14.355-9.043-26.27-21.047-26.591C182.946,268.771,172.895,280.181,172.516,294.531z"/>
	</g>
	<path display="inline" fill="#FFFFFF" d="M175.452,296.333c-1.151,4.406,0.914,8.74,4.582,9.698
		c3.686,0.959,7.604-1.825,8.75-6.229c1.146-4.391-0.926-8.74-4.603-9.698C180.504,289.153,176.588,291.938,175.452,296.333z"/>
	<g display="inline">
		<g>
			<path fill="#212121" d="M240.499,311.047c-13.211-23.208-29.971-44.055-56.731-51.562c-11.986-3.362-23.465-3.044-34.767,2.338
				c-12.472,5.94-20.873,17.771-24.205,30.947c-1.015,4.014,5.174,5.715,6.188,1.706c3.022-11.954,10.225-21.502,21.256-27.113
				c10.521-5.351,21.686-4.183,32.636-0.871c23.633,7.148,38.426,27.315,50.083,47.793
				C237.005,317.88,242.549,314.648,240.499,311.047L240.499,311.047z"/>
		</g>
	</g>
	<path display="inline" fill="#FFFFFF" d="M381.532,301.863c1.322,4.357-0.563,8.771-4.192,9.876c-3.64,1.1-7.666-1.523-8.992-5.882
		c-1.313-4.338,0.578-8.766,4.214-9.873C376.199,294.888,380.223,297.519,381.532,301.863z"/>
</g>
<g id="nose-flat" display="none">
	<path display="inline" fill="#F4CCAB" d="M328.041,380.133c4.622,9.458,4.108,16.952-5.634,14.583
		c-9.754-2.36-19.239-4.336-25.396-1.181c-6.157,3.158-18.936,7.884-28.165,1.181c-9.236-6.7-24.585-0.642-29.15-0.192
		c-8.06,0.783-8.223-9.859-3.104-14.588"/>
	<path display="inline" fill="#212121" d="M328.041,380.133c1.342,2.294,2.521,4.721,3.158,7.393
		c0.315,1.332,0.483,2.744,0.235,4.217c-0.131,0.73-0.387,1.48-0.838,2.154c-0.445,0.676-1.092,1.242-1.81,1.613
		c-2.967,1.418-6.047,0.482-8.511,0.038c-2.593-0.496-5.169-1.013-7.745-1.364c-2.571-0.354-5.143-0.582-7.637-0.533
		c-2.487,0.059-4.92,0.473-6.903,1.51c-4.827,2.517-10.161,4.398-15.823,4.882c-2.83,0.198-5.759-0.015-8.575-0.859
		c-1.403-0.42-2.772-0.999-4.056-1.731c-0.626-0.354-1.293-0.795-1.82-1.182l-0.405-0.287l-0.331-0.217
		c-0.239-0.152-0.488-0.304-0.74-0.443c-2.025-1.125-4.405-1.719-6.87-1.928c-2.47-0.199-5.021-0.076-7.577,0.225
		c-2.563,0.3-5.115,0.828-7.717,1.343c-1.313,0.248-2.593,0.535-4.057,0.683c-1.477,0.121-3.092-0.063-4.477-0.89
		c-1.385-0.821-2.307-2.22-2.706-3.626c-0.416-1.418-0.435-2.869-0.199-4.242c0.467-2.734,1.853-5.293,3.955-6.949
		c-1.785,1.975-2.73,4.551-2.854,7.068c-0.044,1.257,0.104,2.52,0.562,3.612c0.445,1.097,1.218,1.972,2.185,2.413
		c0.96,0.457,2.115,0.523,3.257,0.332c1.165-0.213,2.458-0.601,3.726-0.951c2.554-0.729,5.176-1.389,7.858-1.879
		c2.684-0.489,5.451-0.783,8.278-0.637c2.813,0.142,5.729,0.717,8.405,2.078c0.335,0.17,0.659,0.352,0.986,0.543l0.505,0.32
		l0.41,0.282c0.548,0.39,0.995,0.672,1.524,0.967c1.026,0.571,2.121,1.021,3.26,1.347c2.279,0.656,4.729,0.813,7.18,0.623
		c4.938-0.348,9.831-2.011,14.438-4.279c2.796-1.32,5.764-1.646,8.557-1.62c2.813,0.02,5.529,0.432,8.184,0.962
		c2.651,0.538,5.257,1.17,7.825,1.891l1.917,0.541c0.599,0.17,1.199,0.309,1.798,0.402c1.188,0.186,2.391,0.181,3.357-0.206
		c0.973-0.364,1.662-1.209,1.979-2.345c0.322-1.129,0.313-2.416,0.183-3.688C329.813,385.154,329.006,382.604,328.041,380.133z"/>
</g>
<g id="nose-sharp" display="none">
	<path display="inline" fill="#F4CCAB" d="M240.985,356.092c0,0-4.715,9.822-3.144,17.68c1.572,7.856,12.703,9.035,17.681,8.773
		c4.978-0.261,10.477,6.286,13.883,10.607c2.855,3.625,6.264,4.946,12.545,4.969h0.091c6.28-0.021,9.688-1.344,12.546-4.969
		c3.404-4.321,8.904-10.868,13.882-10.607c4.977,0.262,16.106-0.917,17.679-8.773s-3.142-17.68-3.142-17.68"/>
	<path display="inline" fill="#212121" d="M241.166,356.178c-0.464,1.414-0.831,2.865-1.134,4.313
		c-0.321,1.442-0.579,2.891-0.739,4.336c-0.32,2.874-0.368,5.78,0.337,8.334c0.58,2.377,2.306,3.942,4.637,4.93
		c2.314,0.972,5.033,1.46,7.749,1.542c0.679,0.021,1.357,0.021,2.027-0.008c0.335-0.016,0.667-0.035,0.992-0.063l0.242-0.022
		l0.061-0.006l0.192-0.009l0.14-0.008l0.28-0.016l0.491,0.012c2.383,0.144,4.113,1.014,5.676,1.92
		c3.061,1.887,5.317,4.202,7.453,6.524c0.53,0.582,1.044,1.171,1.532,1.772c0.498,0.597,0.981,1.224,1.377,1.678
		c0.735,0.842,1.539,1.502,2.431,1.949c1.762,0.922,4.347,1.184,7.085,1.166c2.738,0.024,5.323-0.241,7.087-1.162
		c0.898-0.457,1.683-1.094,2.446-1.967c0.329-0.375,0.887-1.094,1.361-1.66c0.486-0.603,1.012-1.184,1.537-1.77
		c2.134-2.322,4.393-4.639,7.448-6.523c1.538-0.904,3.345-1.787,5.618-1.914c1.361-0.029,1.727,0.104,2.452,0.107
		c0.67,0.028,1.352,0.029,2.029,0.008c2.717-0.082,5.434-0.574,7.753-1.543c2.334-0.992,4.055-2.547,4.642-4.949
		c0.699-2.531,0.653-5.455,0.332-8.324c-0.161-1.445-0.42-2.895-0.741-4.336c-0.304-1.447-0.672-2.898-1.137-4.312l0.361-0.174
		c1.252,2.741,2.205,5.599,2.849,8.537c0.621,2.935,0.932,5.989,0.41,8.997c-0.245,1.506-0.898,2.971-1.886,4.15
		c-0.985,1.188-2.249,2.104-3.598,2.804c-2.721,1.387-5.733,2.016-8.729,2.28c-0.752,0.063-1.506,0.102-2.262,0.108
		c-0.749,0.024-1.535-0.062-2.219-0.012c-1.422,0.11-2.776,0.745-4.006,1.522c-2.466,1.598-4.533,3.777-6.469,6.021
		c-0.978,1.131-1.869,2.292-2.83,3.477c-0.985,1.166-2.18,2.195-3.552,2.914c-2.771,1.45-5.91,1.685-8.9,1.715
		c-2.99-0.028-6.131-0.265-8.9-1.715c-1.373-0.72-2.564-1.746-3.554-2.916c-0.957-1.181-1.854-2.346-2.829-3.476
		c-1.936-2.242-4.003-4.425-6.469-6.021c-1.226-0.777-2.59-1.412-4-1.521c-0.701-0.051-1.469,0.036-2.224,0.011
		c-0.756-0.008-1.511-0.045-2.263-0.106c-2.995-0.267-6.01-0.896-8.729-2.282c-1.35-0.698-2.612-1.616-3.598-2.804
		c-0.986-1.182-1.642-2.644-1.888-4.152c-0.52-3.004-0.211-6.063,0.411-8.995c0.645-2.938,1.599-5.797,2.851-8.536L241.166,356.178z
		"/>
</g>
<path id="hair" display="none" fill="#1C1916" d="M88.671,271.225c21.25,57.425,7.115-70.413,22.916-92.14
	c39.648-23.889,66.638-84.206,78.963-74.153c44.826,36.56,129.785,57.528,234.556,67.353c14.107,1.327,42.627,36.201,36.401,78.803
	c-9.263,63.335,18.956,24.186,18.956,24.186s7.845-3.269,16.343-5.883c0,0,32.251-143.348-75.696-206.679
	C311.732-1.457,210.544,5.745,151.906,66.06c-39.03,40.146-94.848,13.977-87.879,202.022
	C64.027,268.083,76.489,266.775,88.671,271.225z"/>
<g id="cap" display="none">
	<path display="inline" fill="#3F4A56" d="M62.39,228.804c-5.804-35.974,9.334-133.482,73.8-182.31
		c54.552-41.319,150.128-36.019,219.83-34.146c49.049,1.318,121.781,57.313,138.555,126.845
		c12.871,53.346,6.534,91.478,6.534,91.478s-151.232-41.379-254.186-32.967c-102.952,8.414-182.455,34.651-182.455,34.651"/>
	<path display="inline" fill="#586977" d="M75.626,269.06c37.566-32.444,49.157-65.045,161.703-65.045
		c112.547,0,225.577,21.324,239.374,62.461c13.799,41.142,21.75-18.934,24.934-37.342c3.186-18.412-22.424-51.135-98.692-66.91
		C298.985,140.723,89.188,143.29,65.44,196.727C49.606,232.355,75.626,269.06,75.626,269.06z"/>
</g>
<g id="eye-close" display="none">
	<g display="inline">
		<g>
			<g>
				<path fill="#E2BDA1" d="M136.754,295.759c21.178,21.091,104.458,7.493,104.146,3.948c-2.941-33.796-30.514-41.807-44.169-44.168
					C165.737,250.186,138.953,273.88,136.754,295.759z"/>
			</g>
			<g>
				<g>
					<path fill="#212121" d="M135.939,298.716c13.48,5.292,27.242,8.958,41.71,10.142c21.435,1.754,43.164-1.741,64.065-6.193
						c3.867-0.824,2.228-6.735-1.631-5.914c-20.112,4.284-40.654,7.384-61.268,6.063c-14.287-0.918-27.979-4.8-41.247-10.01
						C133.884,291.355,132.301,297.288,135.939,298.716L135.939,298.716z"/>
				</g>
			</g>
		</g>
		<g>
			<path fill="#E2BDA1" d="M434.402,295.759c-21.176,21.091-104.457,7.493-104.145,3.948c2.939-33.796,30.514-41.807,44.168-44.168
				C405.422,250.186,432.205,273.88,434.402,295.759z"/>
		</g>
	</g>
	<g display="inline">
		<g>
			<path fill="#212121" d="M433.587,292.802c-12.942,5.081-26.179,8.787-40.079,9.923c-20.921,1.713-42.03-1.629-62.436-5.976
				c-3.856-0.821-5.498,5.09-1.631,5.914c20.616,4.392,41.767,7.636,62.898,6.28c14.848-0.953,29.076-4.812,42.877-10.229
				C438.855,297.288,437.273,291.355,433.587,292.802L433.587,292.802z"/>
		</g>
	</g>
</g>
<g id="hand" display="none">
	<path display="inline" fill="#F4CCAB" stroke="#D3B097" stroke-width="4.1046" stroke-miterlimit="10" d="M270.185,328.509
		c-17.771,6.798-36.109,27.209-53.036,39.886c2.396-5.617,5.808-19.658,2.605-24.263c-16.771-24.075-39.939,60.463-65.509,77.188
		c-8.142,5.335-23.706,17.688-23.55,18.089c0,0-97.027,81.054-119.935,102.409v50.938h45.121
		c34.403-44.215,91.228-104.092,91.634-102.621c33.871-25.192,66.646-47.003,92.177-56.996
		c17.106-6.705,54.534-47.669,56.888-69.239C300.231,330.473,292.992,319.363,270.185,328.509z"/>
	<path display="inline" fill="#F4CCAB" stroke="#D3B097" stroke-width="4.2903" stroke-miterlimit="10" d="M557.547,582.757h13.216
		v-88.314c-0.711-0.395-1.426-0.788-2.132-1.18c-24.192-15.094-146.515-80.528-146.515-80.528c0.11-0.42-18.526-9.804-28.108-13.593
		c-30.084-11.89-67.698-91.177-82.197-64.36c-2.767,5.128,3.004,18.377,6.432,23.486c-20.155-9.453-42.988-26.281-63.177-29.779
		c-25.971-4.899-32.124,7.381-23.199,39.732c5.758,20.881,52.252,54.549,71.713,58.077c29.036,5.242,67.658,20.836,107.96,39.582
		C411.836,463.827,538.838,552.89,557.547,582.757z"/>
</g>
<g id='green-shirt' display="none">
	<path display="inline" fill="#65A845" d="M104.879,1097.775c12.306-103.448,34.498-378.67,34.498-378.67
		s-28.331,282.034-20.955,378.67h296.369c6.036-102.013-13.223-380.259-11.751-365.822c7.373,72.252,14.248,286.653,21.204,365.822
		h71.429c1.542-179.495-14.237-316.485-42.469-458.808c-12.454-62.781-121.127-79.527-121.127-79.527s-9.62,29.572-46.797,33.034
		c-36.093,3.362-55.976-9.177-65.152-40.377c0,0-25.08,8.568-47.104,14.685c-8.886,2.466-72.188,5.505-88.705,73.411
		C61.543,733.83,34.772,931.17,37.383,1097.775H104.879z"/>
	<g display="inline">
		<path fill="#3F632B" d="M117.661,1000.437c-0.184-5.881-0.116-11.77,0.025-17.651c0.131-5.883,0.32-11.764,0.534-17.644
			c0.49-11.756,1.104-23.506,1.83-35.246c0.682-11.744,1.542-23.475,2.366-35.208l2.747-35.176l3.065-35.147
			c1.108-11.708,2.162-23.421,3.366-35.12c1.157-11.703,2.397-23.398,3.669-35.091l2.009-17.529l1.015-8.763l1.089-8.756
			l-0.537,8.807l-0.598,8.801l-1.186,17.603l-2.608,35.181l-2.756,35.165l-2.872,35.153l-5.923,70.287l-2.89,35.146
			C119.032,976.965,118.154,988.685,117.661,1000.437z"/>
	</g>
	<g display="inline">
		<path fill="#3F632B" d="M415.724,1012.623l-0.367-17.149c-0.133-5.715-0.296-11.428-0.492-17.14
			c-0.332-11.424-0.765-22.843-1.226-34.259c-0.507-11.414-0.983-22.829-1.601-34.238c-0.579-11.41-1.182-22.82-1.873-34.227
			l-4.002-68.465c-1.275-22.83-2.392-45.697-2.487-68.58c0.807,11.411,1.604,22.812,2.595,34.202l2.75,34.185
			c0.939,11.396,1.748,22.801,2.595,34.206c0.798,11.408,1.525,22.823,2.212,34.242c0.621,11.422,1.213,22.848,1.673,34.279
			c0.419,11.434,0.821,22.869,0.99,34.312c0.216,11.439,0.26,22.883,0.162,34.324
			C416.469,989.757,416.285,1001.195,415.724,1012.623z"/>
	</g>
</g>
<g id='yellow-shirt' display="none">
	<path display="inline" fill="#FFC905" d="M104.879,1097.775c12.306-103.448,34.498-378.67,34.498-378.67
		s-28.331,282.034-20.955,378.67h296.369c6.036-102.013-13.223-380.259-11.751-365.822c7.373,72.252,14.248,286.653,21.204,365.822
		h71.429c1.542-179.495-14.237-316.485-42.469-458.808c-12.454-62.781-121.127-79.527-121.127-79.527s-9.62,29.572-46.797,33.034
		c-36.093,3.362-55.976-9.177-65.152-40.377c0,0-25.08,8.568-47.104,14.685c-8.886,2.466-72.188,5.505-88.705,73.411
		C61.543,733.83,34.772,931.17,37.383,1097.775H104.879z"/>
	<g display="inline">
		<path fill="#DDA905" d="M117.661,1000.437c-0.45-11.77-0.064-23.55,0.281-35.312c0.429-11.762,0.979-23.517,1.669-35.262
			c0.63-11.749,1.478-23.481,2.272-35.218c0.846-11.731,1.791-23.455,2.716-35.181l3.095-35.146
			c1.14-11.706,2.203-23.418,3.459-35.113c2.42-23.397,5.052-46.775,8.222-70.1c-1.18,23.509-2.771,46.975-4.49,70.43
			c-0.811,11.73-1.79,23.447-2.662,35.172l-2.843,35.154l-2.979,35.141l-3.069,35.131l-3.051,35.132
			C119.285,976.979,118.269,988.687,117.661,1000.437z"/>
	</g>
	<g display="inline">
		<path fill="#DDA905" d="M415.724,1012.623c-0.699-22.876-1.496-45.71-2.524-68.535c-0.56-11.41-1.047-22.821-1.694-34.227
			c-0.598-11.407-1.202-22.814-1.904-34.218l-1.987-34.224c-0.611-11.414-1.345-22.822-1.891-34.245
			c-1.163-22.836-2.236-45.715-2.047-68.609c1.808,22.813,3.92,45.564,5.785,68.357c0.992,11.392,1.811,22.797,2.688,34.2
			c0.814,11.409,1.547,22.825,2.242,34.245c0.61,11.425,1.2,22.853,1.642,34.288c0.389,11.437,0.779,22.876,0.896,34.321
			C417.255,966.864,417.012,989.77,415.724,1012.623z"/>
	</g>
</g>
<g id='pink-shirt' display="none">
	<path display="inline" fill="#FF54CB" d="M104.879,1097.775c12.306-103.448,34.498-378.67,34.498-378.67
		s-28.331,282.034-20.955,378.67h296.369c6.036-102.013-13.223-380.259-11.751-365.822c7.373,72.252,14.248,286.653,21.204,365.822
		h71.429c1.542-179.495-14.237-316.485-42.469-458.808c-12.454-62.781-121.127-79.527-121.127-79.527s-9.62,29.572-46.797,33.034
		c-36.093,3.362-55.976-9.177-65.152-40.377c0,0-25.08,8.568-47.104,14.685c-8.886,2.466-72.188,5.505-88.705,73.411
		C61.543,733.83,34.772,931.17,37.383,1097.775H104.879z"/>
	<g display="inline">
		<path fill="#A33687" d="M117.661,1000.437c-0.45-11.77-0.064-23.55,0.281-35.312c0.429-11.762,0.979-23.517,1.669-35.262
			c0.63-11.749,1.478-23.481,2.272-35.218c0.846-11.731,1.791-23.455,2.716-35.181l3.095-35.146
			c1.14-11.706,2.203-23.418,3.459-35.113c2.42-23.397,5.052-46.775,8.222-70.1c-1.18,23.509-2.771,46.975-4.49,70.43
			c-0.811,11.73-1.79,23.447-2.662,35.172l-2.843,35.154l-2.979,35.141l-3.069,35.131l-3.051,35.132
			C119.285,976.979,118.269,988.687,117.661,1000.437z"/>
	</g>
	<g display="inline">
		<path fill="#A33687" d="M415.724,1012.623c-0.699-22.876-1.496-45.71-2.524-68.535c-0.56-11.41-1.047-22.821-1.694-34.227
			c-0.598-11.407-1.202-22.814-1.904-34.218l-1.987-34.224c-0.611-11.414-1.345-22.822-1.891-34.245
			c-1.163-22.836-2.236-45.715-2.047-68.609c1.808,22.813,3.92,45.564,5.785,68.357c0.992,11.392,1.811,22.797,2.688,34.2
			c0.814,11.409,1.547,22.825,2.242,34.245c0.61,11.425,1.2,22.853,1.642,34.288c0.389,11.437,0.779,22.876,0.896,34.321
			C417.255,966.864,417.012,989.77,415.724,1012.623z"/>
	</g>
</g>

<g id="shirt-2" display="none">
	<path display="inline" fill="#F4CCAB" d="M663.026,177.98c11.499-41.437,15.825-73.13,17.263-82.062
		C681.73,86.989,751.385,27.587,686-9.533c-65.396-37.12-78.867,24.204-76.92,36.061c1.959,11.852-31.6,2.904-18.144,29.751
		c13.454,26.851,32.635,42.129,32.635,42.129l-9.457,67.588L663.026,177.98z"/>
	<path display="inline" fill="none" stroke="#AD917B" stroke-width="3.5825" stroke-miterlimit="10" d="M706.074,25.835
		c-3.219,14.597-11.891,30.088-27.01,27.996c-15.12-2.093,6.011-36.134,6.011-36.134s-18.002,34.25-29.409,30.346
		c-11.407-3.905,2.81-42,2.81-42L642.1,36.365c0,0-20.685,0.413-6.265-34.079"/>
	<path display="inline" fill="#F4CCAB" stroke="#AD917B" stroke-width="3.5825" stroke-miterlimit="10" d="M607.782,30.698
		c12.646-5.73,36.296-14.845,33.82,12.815c-1.231,13.834-23.825,7.383-23.825,7.383s15.205,1.118,21.592,26.271"/>
	<path display="inline" fill="#F4CCAB" d="M-61.096,173.187c-8.711-42.115-10.909-74.022-11.748-83.031
		c-0.84-9.009-66.375-72.926,1.343-105.597C-3.775-48.114,5.575,13.971,2.836,25.671C0.093,37.37,34.173,30.677,18.958,56.569
		C3.735,82.463-16.419,96.425-16.419,96.425l4.925,68.068L-61.096,173.187z"/>
	<path display="inline" fill="#BA9C88" d="M189.033,738.784c9.58,0.895,37.452,0,20.032,4.478
		C191.646,747.738,189.033,738.784,189.033,738.784z"/>
	<path display="inline" fill="#BA9C88" d="M351.535,738.784c-8.01,0.895-31.299,0-16.743,4.478
		C349.35,747.738,351.535,738.784,351.535,738.784z"/>
	<g display="inline">
		<path fill="#B59783" d="M276.077,989.224c1.296,1.15,2.194,2.6,2.795,4.195c0.592,1.595,0.847,3.369,0.654,5.145
			c-0.186,1.772-0.857,3.535-1.958,4.944c-1.101,1.391-2.604,2.502-4.346,2.768c0.862-1.483,1.445-2.825,1.891-4.148
			c0.44-1.321,0.701-2.616,0.853-3.956c0.148-1.34,0.183-2.729,0.153-4.201C276.107,992.491,276.008,990.954,276.077,989.224z"/>
	</g>
	<path display="inline" fill="#EFEFEF" d="M201.851,557.101c1.606,44.694,4.238,102.014,73.677,103.806
		c69.438,1.789,79.042-98.499,79.042-98.499l26.823,7.028c0,0-12.346,102.27,2.138,138.967
		c1.455,94.707,5.528,359.974,5.528,359.974l-243.614,3.59c0,0,12.664-338.297,10.26-349.15
		c-2.403-10.858,16.013-29.576,14.865-81.563c-1.147-51.997,1.54-73.491,1.54-73.491L201.851,557.101z"/>
	<path id="out-shirt" display="inline" fill="#FF54CB" d="M-66.497,139.729c10.222,313.859,201.533,544.229,201.533,544.229
		s-20.586,298.836-13.385,393.156h311.862c5.891-99.568-22.995-350.765-17.514-387.782
		c134.263-64.486,228.244-390.849,254.383-540.957c4.136-23.755-51.842-14.004-51.842-14.004
		c-78.816,228.243-67.826,295.171-165.24,400.912c-42.328,45.946-127.778,11.455-127.778,11.455s-4.726,39.614-41.013,42.992
		c-35.228,3.281-54.634-8.955-63.591-39.406c0,0-22.235,0.804-43.731,6.776c-8.672,2.411-55.852-34.248-88.923-103.512
		c-40.163-84.102-72.29-133.696-96.175-328.503L-66.497,139.729z"/>
	<path display="inline" fill="none" stroke="#AD917B" stroke-width="3.5825" stroke-miterlimit="10" d="M-93.891,18.505
		c2.237,14.778,9.852,30.815,25.077,29.737c15.226-1.077-3.582-36.454-3.582-36.454s15.673,35.377,27.316,32.242
		c11.643-3.135,0-42.095,0-42.095l14.316,31.348c0,0,20.612,1.792,8.523-33.586"/>
	<path display="inline" fill="#F4CCAB" stroke="#AD917B" stroke-width="3.5825" stroke-miterlimit="10" d="M3.851,29.917
		C-8.38,23.358-31.373,12.684-30.75,40.448c0.312,13.886,23.286,8.957,23.286,8.957s-15.247,0.102-23.299,24.77"/>
</g>
<g id="mouth-2" display="none">
	<g display="inline">
		<path fill="#212121" d="M228.056,412.164c6.016,26.91,73.202,56.561,101.603,4.53c0,0-37.074,10.866-54.469,6.618
			C257.795,419.063,228.056,412.164,228.056,412.164z"/>
	</g>
	<path display="inline" fill="#FFFFFF" d="M222.48,400.592l5.576,11.572c0,0,54.572,20.821,101.603,3.326l5.433-12.182
		c0,0-29.46,8.855-43.525,8.855C260.759,412.164,222.48,400.592,222.48,400.592z"/>
</g>
</svg>
