<?xml version="1.0" encoding="utf-8"?>
<!-- Generator: Adobe Illustrator 15.0.0, SVG Export Plug-In . SVG Version: 6.00 Build 0)  -->
<!DOCTYPE svg PUBLIC "-//W3C//DTD SVG 1.1//EN" "http://www.w3.org/Graphics/SVG/1.1/DTD/svg11.dtd">
<svg version="1.1" id="Layer_1" xmlns="http://www.w3.org/2000/svg" xmlns:xlink="http://www.w3.org/1999/xlink" x="0px" y="0px"
	 width="577.769px" height="600.152px" viewBox="0 0 577.769 600.152" enable-background="new 0 0 577.769 600.152"
	 xml:space="preserve">
<rect x="0.076" y="0.076" fill="none" width="577.617" height="600"/>
<path fill="#F4CCAB" d="M209.998,565.205h127.285c-11.516-15.057-20.348-42.207-14.338-91.422
	c6.877-56.305-98.152-11.215-98.152-11.215C226.296,527.494,223.798,552.291,209.998,565.205z"/>
<path fill="#F4CCAB" d="M478.781,286.668c1.7,111.132-63.994,222.171-196.501,222.171c-117.779,0-198.206-104.963-199.91-216.095
	C54.802,159.459,119.329,44.721,281.228,44.712C437.306,44.712,493.767,117.629,478.781,286.668z"/>
<g>
	<g>
		<path fill="#212121" d="M224.91,421.242c5.46,16.438,29.651,21.221,44.319,23.13c23.123,3.01,48.963-0.771,67.601-15.592
			c2.81-2.233-1.157-6.146-3.936-3.936c-16.637,13.228-39.487,16.141-60.063,14.352c-9.382-0.816-18.929-2.91-27.579-6.69
			c-5.722-2.501-12.869-6.407-14.973-12.744C229.152,416.372,223.775,417.825,224.91,421.242L224.91,421.242z"/>
	</g>
</g>
<path fill="#F4CCAB" d="M529.666,307.721c0,20.942-16.074,37.93-35.898,37.93c-19.822,0-35.896-16.987-35.896-37.93
	c0-20.958,16.999-31.931,35.896-37.929C510.802,264.391,529.666,286.763,529.666,307.721z"/>
<path fill="#F4CCAB" d="M107.403,311.575c0,20.946-16.07,37.93-35.892,37.93c-19.828,0-35.903-16.983-35.903-37.93
	c0-20.955,16.704-44.292,36.532-44.292C91.965,267.282,107.403,290.62,107.403,311.575z"/>
<g>
	<g>
		<path fill="#212121" d="M358.3,229.151c24.194-8.085,52.675-3.72,74.229,9.604c10.415,6.438,19.913-9.941,9.555-16.345
			c-25.559-15.799-60.111-21.104-88.816-11.512C341.751,214.746,346.689,233.031,358.3,229.151L358.3,229.151z"/>
	</g>
</g>
<g>
	<g>
		<path fill="#212121" d="M133.487,238.763c21.315-14.003,49.989-17.049,74.219-9.677c11.709,3.563,16.677-14.71,5.032-18.253
			c-28.735-8.743-63.522-5.025-88.805,11.585C113.779,229.089,123.252,245.487,133.487,238.763L133.487,238.763z"/>
	</g>
</g>
<g>
	<path fill="#F4CCAB" d="M252.599,358.414c-4.889,7.443-12.973,11.945-9.205,22.996c5.188,15.213,19.91-4.92,25.096,4.232
		c3.619,6.367,20.051,7.273,23.473,1.516c6.417-10.824,19.467,4.268,23.518-1.352c7.99-11.1-2.136-21.979-10.081-27.393"/>
	<path fill="#212121" d="M252.599,358.414c-1.449,2.574-3.343,4.891-5.075,7.24c-1.724,2.342-3.302,4.811-3.829,7.51
		c-0.586,2.678-0.107,5.459,0.92,8.041c0.516,1.262,1.146,2.465,1.988,3.303c0.84,0.848,1.826,1.266,2.981,1.293
		s2.442-0.293,3.735-0.734c1.297-0.451,2.608-1.037,3.965-1.627c1.361-0.588,2.758-1.203,4.344-1.65
		c0.795-0.223,1.647-0.387,2.584-0.41c0.928-0.025,1.974,0.119,2.941,0.576c0.971,0.447,1.78,1.18,2.348,1.951
		c0.146,0.193,0.277,0.391,0.402,0.588l0.289,0.477c0.119,0.174,0.283,0.391,0.471,0.598c0.75,0.82,1.834,1.498,3.018,2.018
		c2.393,1.021,5.15,1.553,7.867,1.594c2.686,0.035,5.529-0.381,7.529-1.605c0.484-0.305,0.893-0.652,1.191-1.025
		c0.086-0.111,0.115-0.152,0.229-0.326l0.297-0.463c0.257-0.379,0.525-0.738,0.799-1.064c1.105-1.334,2.714-2.475,4.508-2.916
		c1.787-0.451,3.555-0.301,5.128,0.045c1.587,0.348,3.042,0.887,4.44,1.443c1.395,0.563,2.731,1.172,4.041,1.666
		c1.284,0.49,2.642,0.883,3.568,0.744c0.453-0.072,0.75-0.23,1.049-0.576c0.061-0.061,0.167-0.215,0.281-0.369
		c0.113-0.154,0.209-0.291,0.297-0.424c0.184-0.264,0.371-0.563,0.541-0.85c0.687-1.168,1.231-2.41,1.544-3.717
		c0.655-2.611,0.308-5.43-0.708-8.043c-1.006-2.631-2.649-5.043-4.52-7.256c-1.893-2.203-4.041-4.219-6.364-6.029
		c2.53,1.51,4.927,3.285,7.073,5.361c2.15,2.066,4.049,4.465,5.398,7.236c1.343,2.76,1.966,6.025,1.395,9.197
		c-0.275,1.578-0.813,3.109-1.563,4.506c-0.188,0.354-0.376,0.689-0.597,1.041c-0.107,0.178-0.215,0.346-0.314,0.492
		s-0.189,0.303-0.365,0.525c-0.6,0.822-1.651,1.461-2.652,1.631c-1.006,0.191-1.903,0.082-2.729-0.064
		c-0.822-0.158-1.582-0.385-2.316-0.627c-1.463-0.492-2.832-1.043-4.182-1.539c-2.65-0.992-5.418-1.799-7.586-1.178
		c-1.067,0.303-1.967,0.953-2.72,1.889c-0.192,0.246-0.356,0.48-0.511,0.713l-0.287,0.471c-0.082,0.137-0.252,0.408-0.391,0.588
		c-0.592,0.801-1.322,1.42-2.076,1.9c-1.52,0.961-3.123,1.471-4.707,1.801c-1.59,0.324-3.178,0.451-4.759,0.443
		c-3.153-0.045-6.313-0.531-9.319-1.871c-1.491-0.68-2.974-1.57-4.211-2.934c-0.303-0.342-0.59-0.709-0.871-1.152l-0.277-0.469
		c-0.07-0.113-0.141-0.225-0.217-0.326c-0.299-0.412-0.622-0.689-0.986-0.867c-0.705-0.371-1.857-0.316-3.117-0.004
		c-1.26,0.305-2.59,0.818-3.945,1.352c-1.361,0.533-2.76,1.104-4.26,1.568c-1.494,0.455-3.127,0.836-4.921,0.678
		c-0.89-0.078-1.81-0.316-2.642-0.74c-0.834-0.422-1.557-1.018-2.137-1.676c-1.158-1.338-1.824-2.848-2.295-4.344
		c-0.939-2.93-1.299-6.242-0.392-9.299c0.906-3.059,2.827-5.531,4.802-7.716C248.708,362.798,250.818,360.769,252.599,358.414z"/>
</g>
<g>
	<path fill="#FFFFFF" d="M432.138,290.997c-21.683,22.091-48.972,28.981-74.435,25.899c-31.931-3.861-35.405,4.23-35.446,0.653
		c-0.161-13.88,39.317-55.081,53.752-58.03C408.752,252.827,428.928,269.106,432.138,290.997z"/>
</g>
<g>
	<g>
		<path fill="#212121" d="M325.413,314.542c10.72-20.727,24.142-40.468,46.725-49.33c10.839-4.253,21.684-5.623,32.715-1.556
			c11.898,4.387,20.167,14.801,23.688,26.711c1.171,3.958,7.363,2.271,6.188-1.706c-3.822-12.922-12.149-23.565-24.319-29.546
			c-11.156-5.484-22.685-5.237-34.418-1.952c-27.171,7.607-43.774,30.274-56.119,54.141
			C317.974,314.972,323.511,318.217,325.413,314.542L325.413,314.542z"/>
	</g>
</g>
<g>
	<path fill="#FFFFFF" d="M114.076,292.723c22.542,21.208,50.087,27.007,75.409,22.91c31.757-5.131,35.545,2.817,35.446-0.76
		c-0.396-13.875-41.48-53.469-56.019-55.84C135.923,253.65,116.414,270.722,114.076,292.723z"/>
</g>
<g  id="eyes">
	<path fill="#190D05" d="M391.13,291.558c0.493,14.363-8.852,26.347-20.873,26.756c-11.995,0.408-22.133-10.906-22.615-25.264
		c-0.496-14.355,8.84-26.343,20.83-26.756C380.498,265.885,390.635,277.208,391.13,291.558z"/>
	<path fill="#190D05" d="M159.148,292.128c-0.377,14.368,9.059,26.271,21.083,26.586c11.991,0.313,22.042-11.078,22.419-25.441
		c0.383-14.356-9.043-26.269-21.047-26.59C169.578,266.367,159.527,277.777,159.148,292.128z"/>
</g>
<path fill="#FFFFFF" d="M162.083,293.929c-1.151,4.407,0.914,8.741,4.582,9.699c3.685,0.959,7.604-1.826,8.75-6.23
	c1.145-4.391-0.926-8.74-4.603-9.698C167.136,286.75,163.22,289.534,162.083,293.929z"/>
<g>
	<g>
		<path fill="#212121" d="M227.131,308.644c-13.211-23.208-29.971-44.055-56.732-51.562c-11.986-3.362-23.465-3.044-34.766,2.337
			c-12.472,5.94-20.873,17.771-24.205,30.947c-1.015,4.014,5.173,5.715,6.187,1.706c3.023-11.954,10.225-21.502,21.256-27.113
			c10.521-5.351,21.686-4.183,32.636-0.871c23.634,7.148,38.426,27.315,50.083,47.793
			C223.637,315.477,229.181,312.246,227.131,308.644L227.131,308.644z"/>
	</g>
</g>
<path fill="#1C1916" id= "hair" d="M86.723,274.324c22.239,59.75,7.444-60.142,23.979-82.745c41.491-24.858,69.731-87.615,82.63-77.154
	c46.909,38.038,135.814,59.855,245.451,70.078c14.762,1.381,34.758,36.208,28.241,80.538c-9.688,65.895,23.358,12.552,23.358,12.552
	s12.047-9.299,21.615-4.184c0,0,35.564-137.019-77.398-202.915C320.145,3.729,214.255,11.223,152.892,73.979
	c-40.841,41.769-99.251-0.583-91.958,195.076C60.934,269.056,75.577,262.688,86.723,274.324z"/>
<path fill="#FFFFFF" d="M368.164,299.46c1.322,4.359-0.563,8.771-4.193,9.876c-3.639,1.099-7.666-1.524-8.992-5.882
	c-1.313-4.337,0.578-8.766,4.214-9.873C362.831,292.484,366.855,295.115,368.164,299.46z"/>
</svg>
