<?xml version="1.0" encoding="utf-8"?>
<!DOCTYPE svg PUBLIC "-//W3C//DTD SVG 1.1//EN" "http://www.w3.org/Graphics/SVG/1.1/DTD/svg11.dtd">
<svg version="1.1" id="Layer_1" xmlns="http://www.w3.org/2000/svg" xmlns:xlink="http://www.w3.org/1999/xlink" x="0px" y="0px"
	 width="100%" height="100%" viewBox="0 0 500.25 182.18" enable-background="new 0 0 500.25 182.18" xml:space="preserve">
<path fill="none" stroke="#231F20" stroke-width="3" stroke-dasharray="2000" stroke-dashoffset="2000" d="M0.16,169.999c0,0,9.535,1.23,16.922-47.693
	C24.469,73.381,33.7,12.15,44.161,12.15s25.847,157.849,40.924,157.849S109.081,12.15,125.084,12.15
	c16.002,0,27.383,157.849,42.153,157.849S191.546,12.15,209.083,12.15c17.54,0,25.851,157.849,41.542,157.849
	c15.689,0,23.998-157.849,42.152-157.849c18.153,0,23.383,157.849,41.231,157.849c17.847,0,25.228-157.849,41.229-157.849
	s24.922,157.849,41.538,157.849c16.615,0,25.23-157.849,41.847-157.849c16.615,0,25.845,157.849,41.537,157.849">
	<animate id="wavedraw" attributeName="stroke-dashoffset" from="2000" to="0"  dur="3s" begin="0s;circle5show.end+1s" fill="freeze"/>
</path>
<g>
	<circle fill="#FE5330" cx="85" cy="169" r="0">
		<animate  id="circle1show" attributeName="r" from="0" to="5"  dur="0.5s" begin="wavedraw.end" fill="freeze"/>
		<set attributeName="r" from="5" to="0"  dur="0s" begin="circle5show.end+1s" fill="freeze"/>
	</circle>
	<circle fill="#FE5330" cx="167" cy="169" r="0">
		<animate  id="circle2show" attributeName="r" from="0" to="5"  dur="0.5s" begin="circle1show.end" fill="freeze"/>
		<set attributeName="r" from="5" to="0"  dur="0s" begin="circle5show.end+1s" fill="freeze"/>
	</circle>
	<circle fill="#FE5330" cx="251" cy="169" r="0">
		<animate  id="circle3show" attributeName="r" from="0" to="5"  dur="0.5s" begin="circle2show.end" fill="freeze"/>
		<set attributeName="r" from="5" to="0"  dur="0s" begin="circle5show.end+1s" fill="freeze"/>
	</circle>
	<circle fill="#FE5330" cx="334" cy="169" r="0">
		<animate  id="circle4show" attributeName="r" from="0" to="5"  dur="0.5s" begin="circle3show.end" fill="freeze"/>
		<set attributeName="r" from="5" to="0"  dur="0s" begin="circle5show.end+1s" fill="freeze"/>
	</circle>
	<circle fill="#FE5330" cx="417" cy="169" r="0">
		<animate  id="circle5show" attributeName="r" from="0" to="5"  dur="0.5s" begin="circle4show.end" fill="freeze"/>
		<set attributeName="r" from="5" to="0"  dur="0s" begin="circle5show.end+1s" fill="freeze"/>
	</circle>
</g>
</svg>
