<?xml version="1.0" encoding="utf-8"?>
<!-- Generator: Adobe Illustrator 15.0.0, SVG Export Plug-In . SVG Version: 6.00 Build 0)  -->
<!DOCTYPE svg PUBLIC "-//W3C//DTD SVG 1.1//EN" "http://www.w3.org/Graphics/SVG/1.1/DTD/svg11.dtd">
<svg version="1.1" id="Layer_1" xmlns="http://www.w3.org/2000/svg" xmlns:xlink="http://www.w3.org/1999/xlink" x="0px" y="0px"
	 width="501px" height="701px" viewBox="0 0 501 701" enable-background="new 0 0 501 701" xml:space="preserve">
<g id="one">
	<g>
		<path id="path0" fill="#000000" d="M433.762,604.453c0,8.598-0.461,15.887-1.382,21.872c-0.921,5.986-2.23,10.749-3.914,14.274
			c-1.691,3.533-3.612,6.065-5.756,7.598c-2.151,1.541-4.605,2.303-7.368,2.303H86.563c-2.461,0-4.764-0.762-6.907-2.303
			c-2.151-1.532-4.072-4.064-5.756-7.598c-1.691-3.525-2.993-8.288-3.915-14.274c-0.92-5.985-1.381-13.274-1.381-21.872
			c0-8.9,0.381-16.348,1.151-22.334c0.763-5.985,1.993-10.82,3.684-14.505c1.684-3.684,3.604-6.367,5.756-8.058
			c2.145-1.684,4.604-2.533,7.368-2.533h110.975V169.302l-95.779,52.955c-7.065,3.382-12.821,5.454-17.268,6.217
			c-4.454,0.77-7.986-0.151-10.591-2.763c-2.612-2.604-4.375-7.137-5.296-13.584c-0.921-6.446-1.381-15.498-1.381-27.168
			c0-7.368,0.15-13.426,0.46-18.188c0.302-4.756,1.072-8.821,2.302-12.203c1.224-3.374,2.915-6.137,5.065-8.289
			c2.145-2.144,5.065-4.446,8.749-6.907l128.013-82.886c1.533-1.223,3.453-2.224,5.756-2.993c2.303-0.763,5.296-1.382,8.979-1.842
			c3.684-0.46,8.519-0.762,14.505-0.92c5.986-0.151,13.735-0.23,23.254-0.23c11.663,0,21.103,0.23,28.319,0.69
			c7.209,0.46,12.663,1.23,16.347,2.302c3.685,1.079,6.138,2.533,7.368,4.375c1.223,1.842,1.842,4.144,1.842,6.907v492.249h97.16
			c2.763,0,5.296,0.85,7.598,2.533c2.303,1.69,4.296,4.374,5.986,8.058c1.684,3.685,2.914,8.52,3.685,14.505
			C433.372,588.105,433.762,595.552,433.762,604.453z"/>
	</g>
</g>
<g id="gr" display="none">
<line id="path1" fill="none" stroke="#000000" stroke-width="30" stroke-miterlimit="10" x1="89.282" y1="185.808" x2="240.363" y2="84.456"/>
<line id="path2" fill="none" stroke="#000000" stroke-width="30" stroke-miterlimit="10" x1="245.694" y1="79.82" x2="245.694" y2="588.982"/>
<line id="path3" fill="none" stroke="#000000" stroke-width="30" stroke-miterlimit="10" x1="89.864" y1="603.195" x2="407.972" y2="603.195"/>
</g>
</svg>
