<?xml version="1.0" encoding="utf-8"?>
<!-- Generator: Adobe Illustrator 15.0.0, SVG Export Plug-In . SVG Version: 6.00 Build 0)  -->
<!DOCTYPE svg PUBLIC "-//W3C//DTD SVG 1.1//EN" "http://www.w3.org/Graphics/SVG/1.1/DTD/svg11.dtd">
<svg version="1.1" id="Layer_1" xmlns="http://www.w3.org/2000/svg" xmlns:xlink="http://www.w3.org/1999/xlink" x="0px" y="0px"
	 width="501px" height="701px" viewBox="0 0 501 701" enable-background="new 0 0 501 701" xml:space="preserve">
<g id="two">
	<path id="path0" fill="#000000" d="M448.291,601.697c0,8.813-0.384,16.329-1.139,22.551c-0.762,6.229-1.9,11.318-3.416,15.262
		c-1.524,3.952-3.496,6.764-5.923,8.429c-2.435,1.673-5.168,2.506-8.2,2.506H90.661c-6.685,0-12.458-0.605-17.313-1.822
		c-4.862-1.21-8.813-3.566-11.845-7.062c-3.04-3.487-5.239-8.577-6.606-15.262c-1.366-6.677-2.05-15.334-2.05-25.968
		c0-10.023,0.456-18.601,1.367-25.74c0.911-7.133,2.577-13.511,5.011-19.135c2.427-5.617,5.538-11.084,9.34-16.401
		c3.794-5.311,8.727-11.161,14.806-17.54l102.05-109.339c20.344-21.256,36.746-40.618,49.203-58.087
		c12.45-17.461,22.167-33.407,29.157-47.836c6.983-14.422,11.768-27.712,14.352-39.863c2.576-12.145,3.871-23.689,3.871-34.624
		c0-10.022-1.594-19.512-4.783-28.474c-3.188-8.955-7.9-16.778-14.123-23.462c-6.229-6.678-14.051-11.917-23.462-15.718
		c-9.418-3.794-20.501-5.695-33.258-5.695c-17.924,0-33.791,2.277-47.607,6.834c-13.824,4.556-25.969,9.646-36.447,15.262
		c-10.479,5.624-19.212,10.784-26.196,15.49c-6.991,4.712-12.457,7.062-16.401,7.062c-2.733,0-5.089-0.911-7.061-2.734
		c-1.979-1.821-3.574-4.854-4.784-9.111c-1.217-4.249-2.207-9.944-2.961-17.084c-0.762-7.133-1.139-15.867-1.139-26.196
		c0-6.983,0.228-12.827,0.683-17.54c0.456-4.706,1.139-8.806,2.05-12.301c0.912-3.488,2.122-6.528,3.646-9.112
		c1.516-2.577,4.171-5.695,7.972-9.339c3.794-3.645,10.777-8.271,20.957-13.895c10.172-5.617,22.701-11.083,37.586-16.401
		c14.877-5.31,31.278-9.795,49.202-13.439c17.917-3.645,36.596-5.467,56.037-5.467c30.673,0,57.474,3.872,80.41,11.618
		c22.928,7.745,41.984,18.529,57.175,32.346c15.184,13.824,26.495,30.225,33.94,49.203c7.438,18.986,11.162,39.408,11.162,61.275
		c0,19.136-1.822,37.971-5.467,56.493c-3.645,18.528-11.24,38.496-22.779,59.908c-11.546,21.413-27.791,45.103-48.747,71.07
		c-20.957,25.968-48.747,56.115-83.371,90.434l-68.793,70.614h232.347c3.032,0,5.844,0.911,8.428,2.734
		c2.577,1.821,4.783,4.634,6.606,8.428c1.822,3.802,3.188,8.813,4.1,15.034C447.836,585.83,448.291,593.198,448.291,601.697z"/>
</g>
<g id="gr" display="none">
<line id="path2" fill="none" stroke="#000000" stroke-width="30" stroke-linejoin="round" stroke-miterlimit="10" x1="99.288" y1="598.277" x2="424.526" y2="598.277"/>
<path id="path1" fill="none" stroke="#000000" stroke-width="30" stroke-linejoin="round" stroke-miterlimit="10" d="
	M78.489,154.789c0,0,221.129-114.25,271.499,3.686s-250.7,439.803-250.7,439.803"/>
</g>
</svg>
